{
  "test_complete": true,
  "3.py": {
    "successful": false,
    "error_type": "AssertionError"
  },
  "5.py": {
    "successful": false,
    "error_type": "AssertionError"
  },
  "6.py": {
    "successful": true
  },
  "7.py": {
    "successful": false,
    "error_type": "IndentationError",
    "error_message": "expected an indented block after function definition on line 1"
  },
  "8.py": {
    "successful": false,
    "error_type": "NameError",
    "error_message": "name 'get_primes' is not defined"
  },
  "9.py": {
    "successful": false,
    "error_type": "NameError",
    "error_message": "name 'prime_numbers' is not defined"
  },
  "10.py": {
    "successful": true
  },
  "13.py": {
    "successful": false,
    "error_type": "NameError",
    "error_message": "name 'get_prime_numbers' is not defined"
  },
  "15.py": {
    "successful": true
  },
  "16.py": {
    "successful": true
  },
  "20.py": {
    "successful": true
  },
  "22.py": {
    "successful": false,
    "error_type": "AssertionError"
  },
  "23.py": {
    "successful": false,
    "error_type": "AssertionError"
  },
  "24.py": {
    "successful": true
  },
  "28.py": {
    "successful": false,
    "error_type": "AssertionError"
  },
  "29.py": {
    "successful": true
  },
  "30.py": {
    "successful": false,
    "error_type": "NameError",
    "error_message": "name 'check_prime' is not defined"
  },
  "31.py": {
    "successful": false,
    "error_type": "NameError",
    "error_message": "name 'get_primes' is not defined"
  },
  "32.py": {
    "successful": false,
    "error_type": "NameError",
    "error_message": "name 'is_prime' is not defined"
  },
  "33.py": {
    "successful": true
  },
  "34.py": {
    "successful": true
  },
  "36.py": {
    "successful": true
  },
  "37.py": {
    "successful": false,
    "error_type": "AssertionError"
  },
  "39.py": {
    "successful": false,
    "error_type": "AssertionError"
  },
  "41.py": {
    "successful": true
  },
  "42.py": {
    "successful": false,
    "error_type": "AssertionError"
  },
  "43.py": {
    "successful": true
  },
  "45.py": {
    "successful": false,
    "error_type": "AssertionError"
  },
  "46.py": {
    "successful": true
  },
  "47.py": {
    "successful": false,
    "error_type": "NameError",
    "error_message": "name 'prime_numbers' is not defined"
  },
  "48.py": {
    "successful": false,
    "error_type": "TypeError",
    "error_message": "'str' object cannot be interpreted as an integer"
  },
  "49.py": {
    "successful": true
  },
  "50.py": {
    "successful": false,
    "error_type": "NameError",
    "error_message": "name 'prime_list' is not defined. Did you mean"
  },
  "54.py": {
    "successful": true
  },
  "58.py": {
    "successful": false,
    "error_type": "AssertionError"
  },
  "59.py": {
    "successful": false,
    "error_type": "IndentationError",
    "error_message": "expected an indented block after function definition on line 1"
  },
  "61.py": {
    "successful": true
  },
  "62.py": {
    "successful": false,
    "error_type": "AssertionError"
  },
  "63.py": {
    "successful": true
  },
  "64.py": {
    "successful": true
  },
  "65.py": {
    "successful": false,
    "error_type": "AssertionError"
  },
  "66.py": {
    "successful": true
  },
  "72.py": {
    "successful": false,
    "error_type": "AssertionError"
  },
  "74.py": {
    "successful": true
  },
  "76.py": {
    "successful": false,
    "error_type": "AssertionError"
  },
  "77.py": {
    "successful": true
  },
  "78.py": {
    "successful": true
  },
  "79.py": {
    "successful": true
  },
  "80.py": {
    "successful": false,
    "error_type": "NameError",
    "error_message": "name 'get_primes' is not defined"
  },
  "81.py": {
    "successful": true
  },
  "83.py": {
    "successful": false,
    "error_type": "NameError",
    "error_message": "name 'prime' is not defined. Did you mean"
  },
  "85.py": {
    "successful": true
  },
  "87.py": {
    "successful": true
  },
  "89.py": {
    "successful": false,
    "error_type": "AssertionError"
  },
  "91.py": {
    "successful": true
  },
  "93.py": {
    "successful": true
  },
  "94.py": {
    "successful": true
  },
  "95.py": {
    "successful": true
  },
  "98.py": {
    "successful": true
  },
  "99.py": {
    "successful": false,
    "error_type": "NameError",
    "error_message": "name 'prime' is not defined. Did you mean"
  },
  "100.py": {
    "successful": true
  },
  "102.py": {
    "successful": false,
    "error_type": "NameError",
    "error_message": "name 'get_primes' is not defined"
  },
  "105.py": {
    "successful": false,
    "error_type": "AssertionError"
  },
  "106.py": {
    "successful": false,
    "error_type": "NameError",
    "error_message": "name 'prime_numbers' is not defined"
  },
  "107.py": {
    "successful": true
  },
  "108.py": {
    "successful": false,
    "error_type": "AssertionError"
  },
  "109.py": {
    "successful": true
  },
  "110.py": {
    "successful": true
  },
  "113.py": {
    "successful": false,
    "error_type": "AssertionError"
  },
  "115.py": {
    "successful": false,
    "error_type": "AssertionError"
  },
  "116.py": {
    "successful": true
  },
  "117.py": {
    "successful": true
  },
  "118.py": {
    "successful": false,
    "error_type": "NameError",
    "error_message": "name 'is_prime' is not defined"
  },
  "119.py": {
    "successful": false,
    "error_type": "AssertionError"
  },
  "121.py": {
    "successful": true
  },
  "122.py": {
    "successful": false,
    "error_type": "NameError",
    "error_message": "name '____' is not defined"
  },
  "123.py": {
    "successful": false,
    "error_type": "AssertionError"
  },
  "125.py": {
    "successful": true
  },
  "128.py": {
    "successful": false,
    "error_type": "AssertionError"
  },
  "129.py": {
    "successful": true
  },
  "131.py": {
    "successful": false,
    "error_type": "SyntaxError",
    "error_message": "Generator expression must be parenthesized"
  },
  "132.py": {
    "successful": true
  },
  "134.py": {
    "successful": false,
    "error_type": "NameError",
    "error_message": "name 'prime' is not defined. Did you mean"
  },
  "135.py": {
    "successful": false,
    "error_type": "NameError",
    "error_message": "name 'prime' is not defined. Did you mean"
  },
  "136.py": {
    "successful": false,
    "error_type": "AssertionError"
  },
  "141.py": {
    "successful": true
  },
  "143.py": {
    "successful": true
  },
  "146.py": {
    "successful": false,
    "error_type": "AssertionError"
  },
  "147.py": {
    "successful": true
  },
  "148.py": {
    "successful": false,
    "error_type": "NameError",
    "error_message": "name 'prime_list' is not defined. Did you mean"
  },
  "152.py": {
    "successful": true
  },
  "153.py": {
    "successful": false,
    "error_type": "NameError",
    "error_message": "name 'is_prime' is not defined"
  },
  "154.py": {
    "successful": true
  },
  "155.py": {
    "successful": true
  },
  "156.py": {
    "successful": false,
    "error_type": "NameError",
    "error_message": "name 'prime_numbers' is not defined"
  },
  "158.py": {
    "successful": false,
    "error_type": "NameError",
    "error_message": "name 'is_prime' is not defined"
  },
  "160.py": {
    "successful": false,
    "error_type": "NameError",
    "error_message": "name 'is_prime' is not defined"
  },
  "164.py": {
    "successful": false,
    "error_type": "NameError",
    "error_message": "name '__is_prime' is not defined"
  },
  "165.py": {
    "successful": false,
    "error_type": "AssertionError"
  },
  "167.py": {
    "successful": false,
    "error_type": "AssertionError"
  },
  "169.py": {
    "successful": true
  },
  "171.py": {
    "successful": true
  },
  "172.py": {
    "successful": false,
    "error_type": "NameError",
    "error_message": "name 'get_primes' is not defined"
  },
  "173.py": {
    "successful": false,
    "error_type": "NameError",
    "error_message": "name 'get_prime_numbers' is not defined"
  },
  "174.py": {
    "successful": false,
    "error_type": "NameError",
    "error_message": "name 'check_prime' is not defined"
  },
  "175.py": {
    "successful": true
  },
  "177.py": {
    "successful": false,
    "error_type": "AssertionError"
  },
  "179.py": {
    "successful": true
  },
  "183.py": {
    "successful": true
  },
  "185.py": {
    "successful": true
  },
  "188.py": {
    "successful": true
  },
  "189.py": {
    "successful": false,
    "error_type": "AssertionError"
  },
  "190.py": {
    "successful": true
  },
  "194.py": {
    "successful": true
  },
  "196.py": {
    "successful": false,
    "error_type": "AssertionError"
  },
  "198.py": {
    "successful": false,
    "error_type": "AssertionError"
  },
  "199.py": {
    "successful": false,
    "error_type": "NameError",
    "error_message": "name 'prime' is not defined. Did you mean"
  }
}