{
  "test_complete": true,
  "6.py": {
    "successful": true
  },
  "7.py": {
    "successful": true
  },
  "8.py": {
    "successful": true
  },
  "10.py": {
    "successful": true
  },
  "11.py": {
    "successful": true
  },
  "19.py": {
    "successful": false,
    "error_type": "NameError",
    "error_message": "name 'math' is not defined"
  },
  "21.py": {
    "successful": true
  },
  "29.py": {
    "successful": true
  },
  "30.py": {
    "successful": true
  },
  "32.py": {
    "successful": false,
    "error_type": "NameError",
    "error_message": "name 'math' is not defined"
  },
  "33.py": {
    "successful": true
  },
  "39.py": {
    "successful": true
  },
  "44.py": {
    "successful": true
  },
  "45.py": {
    "successful": true
  },
  "47.py": {
    "successful": true
  },
  "55.py": {
    "successful": false,
    "error_type": "NameError",
    "error_message": "name 'greatest_common_divisor_iterative' is not defined"
  },
  "59.py": {
    "successful": true
  },
  "60.py": {
    "successful": true
  },
  "63.py": {
    "successful": true
  },
  "64.py": {
    "successful": true
  },
  "72.py": {
    "successful": true
  },
  "75.py": {
    "successful": true
  },
  "80.py": {
    "successful": true
  },
  "82.py": {
    "successful": true
  },
  "83.py": {
    "successful": true
  },
  "86.py": {
    "successful": true
  },
  "94.py": {
    "successful": true
  },
  "96.py": {
    "successful": true
  },
  "97.py": {
    "successful": true
  },
  "100.py": {
    "successful": true
  },
  "102.py": {
    "successful": true
  },
  "104.py": {
    "successful": true
  },
  "106.py": {
    "successful": false,
    "error_type": "ValueError",
    "error_message": "a and b should be greater than zero"
  },
  "107.py": {
    "successful": true
  },
  "111.py": {
    "successful": true
  },
  "115.py": {
    "successful": true
  },
  "117.py": {
    "successful": true
  },
  "119.py": {
    "successful": true
  },
  "120.py": {
    "successful": true
  },
  "121.py": {
    "successful": true
  },
  "133.py": {
    "successful": true
  },
  "135.py": {
    "successful": true
  },
  "152.py": {
    "successful": true
  },
  "153.py": {
    "successful": true
  },
  "154.py": {
    "successful": true
  },
  "157.py": {
    "successful": true
  },
  "159.py": {
    "successful": true
  },
  "162.py": {
    "successful": true
  },
  "163.py": {
    "successful": true
  },
  "172.py": {
    "successful": true
  },
  "176.py": {
    "successful": true
  },
  "178.py": {
    "successful": true
  },
  "181.py": {
    "successful": false,
    "error_type": "RecursionError",
    "error_message": "maximum recursion depth exceeded while calling a Python object"
  },
  "183.py": {
    "successful": false,
    "error_type": "AssertionError"
  },
  "193.py": {
    "successful": false,
    "error_type": "AssertionError"
  },
  "199.py": {
    "successful": true
  }
}