{
  "test_complete": true,
  "1.py": {
    "successful": false,
    "error_type": "IndexError",
    "error_message": "list index out of range"
  },
  "2.py": {
    "successful": false,
    "error_type": "SyntaxError",
    "error_message": "'[' was never closed"
  },
  "3.py": {
    "successful": false,
    "error_type": "SyntaxError",
    "error_message": "'[' was never closed"
  },
  "4.py": {
    "successful": false,
    "error_type": "SyntaxError",
    "error_message": "'(' was never closed"
  },
  "5.py": {
    "successful": false,
    "error_type": "AssertionError"
  },
  "8.py": {
    "successful": false,
    "error_type": "SyntaxError",
    "error_message": "'[' was never closed"
  },
  "10.py": {
    "successful": false,
    "error_type": "SyntaxError",
    "error_message": "'[' was never closed"
  },
  "11.py": {
    "successful": false,
    "error_type": "AssertionError"
  },
  "14.py": {
    "successful": false,
    "error_type": "AssertionError"
  },
  "16.py": {
    "successful": false,
    "error_type": "IndexError",
    "error_message": "list index out of range"
  },
  "17.py": {
    "successful": false,
    "error_type": "AssertionError"
  },
  "18.py": {
    "successful": false,
    "error_type": "AssertionError"
  },
  "19.py": {
    "successful": false,
    "error_type": "AssertionError"
  },
  "22.py": {
    "successful": false,
    "error_type": "AssertionError"
  },
  "24.py": {
    "successful": false,
    "error_type": "SyntaxError",
    "error_message": "'[' was never closed"
  },
  "27.py": {
    "successful": false,
    "error_type": "SyntaxError",
    "error_message": "'[' was never closed"
  },
  "32.py": {
    "successful": false,
    "error_type": "SyntaxError",
    "error_message": "'(' was never closed"
  },
  "34.py": {
    "successful": false,
    "error_type": "SyntaxError",
    "error_message": "'[' was never closed"
  },
  "35.py": {
    "successful": false,
    "error_type": "AssertionError"
  },
  "37.py": {
    "successful": false,
    "error_type": "AssertionError"
  },
  "41.py": {
    "successful": false,
    "error_type": "AssertionError"
  },
  "43.py": {
    "successful": false,
    "error_type": "AssertionError"
  },
  "44.py": {
    "successful": false,
    "error_type": "SyntaxError",
    "error_message": "'[' was never closed"
  },
  "45.py": {
    "successful": false,
    "error_type": "AssertionError"
  },
  "46.py": {
    "successful": false,
    "error_type": "AssertionError"
  },
  "49.py": {
    "successful": false,
    "error_type": "AssertionError"
  },
  "52.py": {
    "successful": false,
    "error_type": "AssertionError"
  },
  "53.py": {
    "successful": false,
    "error_type": "IndexError",
    "error_message": "list index out of range"
  },
  "55.py": {
    "successful": false,
    "error_type": "AssertionError"
  },
  "57.py": {
    "successful": false,
    "error_type": "AssertionError"
  },
  "58.py": {
    "successful": false,
    "error_type": "SyntaxError",
    "error_message": "'[' was never closed"
  },
  "62.py": {
    "successful": false,
    "error_type": "SyntaxError",
    "error_message": "'[' was never closed"
  },
  "70.py": {
    "successful": false,
    "error_type": "AssertionError"
  },
  "72.py": {
    "successful": false,
    "error_type": "AssertionError"
  },
  "78.py": {
    "successful": false,
    "error_type": "SyntaxError",
    "error_message": "'[' was never closed"
  },
  "79.py": {
    "successful": false,
    "error_type": "SyntaxError",
    "error_message": "'[' was never closed"
  },
  "82.py": {
    "successful": false,
    "error_type": "SyntaxError",
    "error_message": "'[' was never closed"
  },
  "83.py": {
    "successful": false,
    "error_type": "NameError",
    "error_message": "name 'i' is not defined. Did you mean"
  },
  "91.py": {
    "successful": false,
    "error_type": "SyntaxError",
    "error_message": "'[' was never closed"
  },
  "92.py": {
    "successful": false,
    "error_type": "SyntaxError",
    "error_message": "'(' was never closed"
  },
  "94.py": {
    "successful": false,
    "error_type": "SyntaxError",
    "error_message": "'(' was never closed"
  },
  "95.py": {
    "successful": false,
    "error_type": "AssertionError"
  },
  "98.py": {
    "successful": false,
    "error_type": "AssertionError"
  },
  "106.py": {
    "successful": false,
    "error_type": "AssertionError"
  },
  "107.py": {
    "successful": false,
    "error_type": "AssertionError"
  },
  "108.py": {
    "successful": false,
    "error_type": "AssertionError"
  },
  "109.py": {
    "successful": false,
    "error_type": "SyntaxError",
    "error_message": "'[' was never closed"
  },
  "111.py": {
    "successful": false,
    "error_type": "AssertionError"
  },
  "112.py": {
    "successful": false,
    "error_type": "SyntaxError",
    "error_message": "'[' was never closed"
  },
  "113.py": {
    "successful": false,
    "error_type": "SyntaxError",
    "error_message": "'(' was never closed"
  },
  "114.py": {
    "successful": false,
    "error_type": "AssertionError"
  },
  "115.py": {
    "successful": false,
    "error_type": "AssertionError"
  },
  "120.py": {
    "successful": false,
    "error_type": "AssertionError"
  },
  "124.py": {
    "successful": false,
    "error_type": "AssertionError"
  },
  "129.py": {
    "successful": false,
    "error_type": "SyntaxError",
    "error_message": "'[' was never closed"
  },
  "132.py": {
    "successful": false,
    "error_type": "SyntaxError",
    "error_message": "'(' was never closed"
  },
  "133.py": {
    "successful": false,
    "error_type": "SyntaxError",
    "error_message": "'[' was never closed"
  },
  "134.py": {
    "successful": false,
    "error_type": "AssertionError"
  },
  "135.py": {
    "successful": false,
    "error_type": "AssertionError"
  },
  "137.py": {
    "successful": false,
    "error_type": "SyntaxError",
    "error_message": "'[' was never closed"
  },
  "139.py": {
    "successful": false,
    "error_type": "IndexError",
    "error_message": "list index out of range"
  },
  "141.py": {
    "successful": false,
    "error_type": "SyntaxError",
    "error_message": "'[' was never closed"
  },
  "142.py": {
    "successful": false,
    "error_type": "SyntaxError",
    "error_message": "'[' was never closed"
  },
  "146.py": {
    "successful": false,
    "error_type": "SyntaxError",
    "error_message": "'[' was never closed"
  },
  "148.py": {
    "successful": false,
    "error_type": "AssertionError"
  },
  "149.py": {
    "successful": false,
    "error_type": "AssertionError"
  },
  "150.py": {
    "successful": false,
    "error_type": "AssertionError"
  },
  "151.py": {
    "successful": false,
    "error_type": "AssertionError"
  },
  "154.py": {
    "successful": false,
    "error_type": "AssertionError"
  },
  "156.py": {
    "successful": false,
    "error_type": "SyntaxError",
    "error_message": "'(' was never closed"
  },
  "164.py": {
    "successful": false,
    "error_type": "AssertionError"
  },
  "169.py": {
    "successful": false,
    "error_type": "SyntaxError",
    "error_message": "'(' was never closed"
  },
  "172.py": {
    "successful": false,
    "error_type": "IndexError",
    "error_message": "list index out of range"
  },
  "173.py": {
    "successful": false,
    "error_type": "AssertionError"
  },
  "174.py": {
    "successful": false,
    "error_type": "SyntaxError",
    "error_message": "'(' was never closed"
  },
  "181.py": {
    "successful": false,
    "error_type": "AssertionError"
  },
  "183.py": {
    "successful": false,
    "error_type": "AssertionError"
  },
  "188.py": {
    "successful": false,
    "error_type": "SyntaxError",
    "error_message": "'[' was never closed"
  },
  "189.py": {
    "successful": false,
    "error_type": "SyntaxError",
    "error_message": "'(' was never closed"
  },
  "190.py": {
    "successful": false,
    "error_type": "SyntaxError",
    "error_message": "'[' was never closed"
  },
  "195.py": {
    "successful": false,
    "error_type": "SyntaxError",
    "error_message": "'[' was never closed"
  },
  "196.py": {
    "successful": false,
    "error_type": "AssertionError"
  },
  "197.py": {
    "successful": false,
    "error_type": "SyntaxError",
    "error_message": "'[' was never closed"
  },
  "198.py": {
    "successful": false,
    "error_type": "AssertionError"
  },
  "199.py": {
    "successful": false,
    "error_type": "SyntaxError",
    "error_message": "'[' was never closed"
  }
}