{
  "test_complete": true,
  "0.py": {
    "successful": false,
    "error_type": "AssertionError"
  },
  "3.py": {
    "successful": false,
    "error_type": "AssertionError"
  },
  "18.py": {
    "successful": false,
    "error_type": "AssertionError"
  },
  "20.py": {
    "successful": false,
    "error_type": "AssertionError"
  },
  "23.py": {
    "successful": false,
    "error_type": "AssertionError"
  },
  "25.py": {
    "successful": false,
    "error_type": "AssertionError"
  },
  "26.py": {
    "successful": false,
    "error_type": "SyntaxError",
    "error_message": "'[' was never closed"
  },
  "28.py": {
    "successful": false,
    "error_type": "AssertionError"
  },
  "31.py": {
    "successful": false,
    "error_type": "SyntaxError",
    "error_message": "'[' was never closed"
  },
  "38.py": {
    "successful": false,
    "error_type": "AssertionError"
  },
  "39.py": {
    "successful": false,
    "error_type": "AssertionError"
  },
  "50.py": {
    "successful": false,
    "error_type": "AssertionError"
  },
  "55.py": {
    "successful": false,
    "error_type": "AssertionError"
  },
  "93.py": {
    "successful": false,
    "error_type": "AssertionError"
  },
  "103.py": {
    "successful": false,
    "error_type": "AssertionError"
  },
  "104.py": {
    "successful": false,
    "error_type": "AssertionError"
  },
  "105.py": {
    "successful": false,
    "error_type": "AssertionError"
  },
  "107.py": {
    "successful": false,
    "error_type": "AssertionError"
  },
  "117.py": {
    "successful": false,
    "error_type": "AssertionError"
  },
  "129.py": {
    "successful": false,
    "error_type": "AssertionError"
  },
  "140.py": {
    "successful": false,
    "error_type": "AssertionError"
  },
  "182.py": {
    "successful": false,
    "error_type": "AssertionError"
  }
}