{
  "test_complete": true,
  "0.py": {
    "successful": false,
    "error_type": "AttributeError",
    "error_message": "'list' object has no attribute 'strip'"
  },
  "1.py": {
    "successful": false,
    "error_type": "SyntaxError",
    "error_message": "'[' was never closed"
  },
  "2.py": {
    "successful": false,
    "error_type": "SyntaxError",
    "error_message": "invalid syntax"
  },
  "3.py": {
    "successful": false,
    "error_type": "AssertionError"
  },
  "4.py": {
    "successful": false,
    "error_type": "SyntaxError",
    "error_message": "expected '"
  },
  "5.py": {
    "successful": false,
    "error_type": "ValueError",
    "error_message": "Operator and operand lists have different length"
  },
  "6.py": {
    "successful": false,
    "error_type": "SyntaxError",
    "error_message": "invalid syntax"
  },
  "7.py": {
    "successful": false,
    "error_type": "ValueError",
    "error_message": "The length of operator and operand lists are not equal."
  },
  "8.py": {
    "successful": false,
    "error_type": "ValueError",
    "error_message": "Operator and operand lists have different length."
  },
  "9.py": {
    "successful": false,
    "error_type": "ValueError",
    "error_message": "Operator and operand lists are not of the same length."
  },
  "11.py": {
    "successful": false,
    "error_type": "ValueError",
    "error_message": "Operator and operand lists should be of equal length."
  },
  "12.py": {
    "successful": false,
    "error_type": "ValueError",
    "error_message": "Operator and operand lists have different lengths."
  },
  "13.py": {
    "successful": false,
    "error_type": "TypeError",
    "error_message": "can only concatenate str (not \"int\") to str"
  },
  "14.py": {
    "successful": false,
    "error_type": "ValueError",
    "error_message": "Operator and operand lists should have the same length."
  },
  "15.py": {
    "successful": false,
    "error_type": "AttributeError",
    "error_message": "'list' object has no attribute 'strip'"
  },
  "16.py": {
    "successful": false,
    "error_type": "ValueError",
    "error_message": "operator and operand lists have different length"
  },
  "17.py": {
    "successful": false,
    "error_type": "SyntaxError",
    "error_message": "'(' was never closed"
  },
  "18.py": {
    "successful": false,
    "error_type": "IndentationError",
    "error_message": "expected an indented block after 'if' statement on line 40"
  },
  "19.py": {
    "successful": false,
    "error_type": "TypeError",
    "error_message": "can only concatenate str (not \"list\") to str"
  },
  "20.py": {
    "successful": false,
    "error_type": "ValueError",
    "error_message": "Operator and operand lists have different length."
  },
  "21.py": {
    "successful": false,
    "error_type": "ValueError",
    "error_message": "operator and operand lists are not of equal length"
  },
  "22.py": {
    "successful": false,
    "error_type": "IndentationError",
    "error_message": "expected an indented block after 'elif' statement on line 31"
  },
  "23.py": {
    "successful": false,
    "error_type": "SyntaxError",
    "error_message": "invalid syntax"
  },
  "24.py": {
    "successful": false,
    "error_type": "ValueError",
    "error_message": "Operator list has more than one operator."
  },
  "25.py": {
    "successful": false,
    "error_type": "ValueError",
    "error_message": "The length of operator and operand lists must be the same."
  },
  "26.py": {
    "successful": false,
    "error_type": "ValueError",
    "error_message": "The length of operator list is not equal to the length of operand list minus one."
  },
  "27.py": {
    "successful": false,
    "error_type": "ValueError",
    "error_message": "operator must be a list of operators"
  },
  "28.py": {
    "successful": false,
    "error_type": "ValueError",
    "error_message": "Operator and operand lists are not of the same length."
  },
  "29.py": {
    "successful": false,
    "error_type": "IndentationError",
    "error_message": "expected an indented block after 'elif' statement on line 28"
  },
  "30.py": {
    "successful": false,
    "error_type": "TypeError",
    "error_message": "can only concatenate str (not \"int\") to str"
  },
  "31.py": {
    "successful": false,
    "error_type": "ValueError",
    "error_message": "Operator and operand lists must have the same length."
  },
  "32.py": {
    "successful": false,
    "error_type": "ValueError",
    "error_message": "Operator and operand lists must be of equal length."
  },
  "34.py": {
    "successful": false,
    "error_type": "IndentationError",
    "error_message": "expected an indented block after 'if' statement on line 52"
  },
  "35.py": {
    "successful": false,
    "error_type": "SyntaxError",
    "error_message": "expected '"
  },
  "36.py": {
    "successful": false,
    "error_type": "ValueError",
    "error_message": "Operator list length is not equal to operand list length."
  },
  "37.py": {
    "successful": false,
    "error_type": "IndentationError",
    "error_message": "expected an indented block after 'elif' statement on line 38"
  },
  "38.py": {
    "successful": false,
    "error_type": "AssertionError"
  },
  "39.py": {
    "successful": false,
    "error_type": "TypeError",
    "error_message": "can only concatenate str (not \"list\") to str"
  },
  "40.py": {
    "successful": false,
    "error_type": "ValueError",
    "error_message": "Operator and operand lists should have the same length."
  },
  "41.py": {
    "successful": false,
    "error_type": "ValueError",
    "error_message": "Operator and operand lists have different length."
  },
  "42.py": {
    "successful": false,
    "error_type": "ValueError",
    "error_message": "Operator and operand lists have different length."
  },
  "43.py": {
    "successful": false,
    "error_type": "ValueError",
    "error_message": "Operator and operand lists must be of equal length."
  },
  "44.py": {
    "successful": false,
    "error_type": "AssertionError"
  },
  "45.py": {
    "successful": false,
    "error_type": "SyntaxError",
    "error_message": "invalid syntax"
  },
  "47.py": {
    "successful": false,
    "error_type": "IndentationError",
    "error_message": "expected an indented block after 'elif' statement on line 34"
  },
  "48.py": {
    "successful": false,
    "error_type": "ValueError",
    "error_message": "The length of operator list is not equal to the length of operand list minus one."
  },
  "49.py": {
    "successful": false,
    "error_type": "ValueError",
    "error_message": "Operator list has more than two operands."
  },
  "51.py": {
    "successful": false,
    "error_type": "ValueError",
    "error_message": "The length of operator and operand lists are not equal."
  },
  "52.py": {
    "successful": false,
    "error_type": "TypeError",
    "error_message": "unsupported operand type(s) for -"
  },
  "53.py": {
    "successful": false,
    "error_type": "ValueError",
    "error_message": "operator and operand lists have different length"
  },
  "54.py": {
    "successful": false,
    "error_type": "ValueError",
    "error_message": "Operator and operand lists have different lengths"
  },
  "56.py": {
    "successful": false,
    "error_type": "TypeError",
    "error_message": "can't multiply sequence by non-int of type 'str'"
  },
  "58.py": {
    "successful": false,
    "error_type": "ValueError",
    "error_message": "Operator and operand lists must have the same length."
  },
  "59.py": {
    "successful": false,
    "error_type": "ValueError",
    "error_message": "Operator and operand lists have different length."
  },
  "60.py": {
    "successful": false,
    "error_type": "SyntaxError",
    "error_message": "invalid syntax"
  },
  "61.py": {
    "successful": false,
    "error_type": "ValueError",
    "error_message": "The length of operator and operand lists must be equal."
  },
  "62.py": {
    "successful": false,
    "error_type": "SyntaxError",
    "error_message": "'[' was never closed"
  },
  "63.py": {
    "successful": false,
    "error_type": "IndentationError",
    "error_message": "expected an indented block after 'if' statement on line 34"
  },
  "65.py": {
    "successful": false,
    "error_type": "TypeError",
    "error_message": "can only concatenate str (not \"int\") to str"
  },
  "66.py": {
    "successful": false,
    "error_type": "ValueError",
    "error_message": "Operator and operand lists have different length."
  },
  "67.py": {
    "successful": false,
    "error_type": "AssertionError"
  },
  "69.py": {
    "successful": false,
    "error_type": "AssertionError"
  },
  "70.py": {
    "successful": false,
    "error_type": "SyntaxError",
    "error_message": "invalid syntax"
  },
  "71.py": {
    "successful": false,
    "error_type": "ValueError",
    "error_message": "Operator and operand lists have different length."
  },
  "72.py": {
    "successful": false,
    "error_type": "ValueError",
    "error_message": "Operator and operand lists have different length."
  },
  "73.py": {
    "successful": false,
    "error_type": "ValueError",
    "error_message": "Operator and operand lists must be of equal length."
  },
  "74.py": {
    "successful": false,
    "error_type": "SyntaxError",
    "error_message": "invalid syntax"
  },
  "75.py": {
    "successful": false,
    "error_type": "TypeError",
    "error_message": "can only concatenate str (not \"list\") to str"
  },
  "76.py": {
    "successful": false,
    "error_type": "ValueError",
    "error_message": "Operator and operand lists should have the same length."
  },
  "77.py": {
    "successful": false,
    "error_type": "IndentationError",
    "error_message": "expected an indented block after 'if' statement on line 46"
  },
  "78.py": {
    "successful": false,
    "error_type": "IndentationError",
    "error_message": "expected an indented block after 'elif' statement on line 30"
  },
  "80.py": {
    "successful": false,
    "error_type": "SyntaxError",
    "error_message": "'[' was never closed"
  },
  "81.py": {
    "successful": false,
    "error_type": "AttributeError",
    "error_message": "'list' object has no attribute 'split'"
  },
  "82.py": {
    "successful": false,
    "error_type": "SyntaxError",
    "error_message": "'[' was never closed"
  },
  "84.py": {
    "successful": false,
    "error_type": "ValueError",
    "error_message": "Operator list must contain + operator."
  },
  "85.py": {
    "successful": false,
    "error_type": "ValueError",
    "error_message": "The length of operator list is not equal to the length of operand list minus one."
  },
  "86.py": {
    "successful": false,
    "error_type": "ValueError",
    "error_message": "The length of operator list is not equal to the length of operand list minus one."
  },
  "87.py": {
    "successful": false,
    "error_type": "ValueError",
    "error_message": "Operator and operand lists should have the same length."
  },
  "88.py": {
    "successful": false,
    "error_type": "ValueError",
    "error_message": "Operator and operand lists should be of same length."
  },
  "90.py": {
    "successful": false,
    "error_type": "TypeError",
    "error_message": "can only concatenate str (not \"int\") to str"
  },
  "91.py": {
    "successful": false,
    "error_type": "ValueError",
    "error_message": "Operator and operand length should be 1 or 2."
  },
  "92.py": {
    "successful": false,
    "error_type": "ValueError",
    "error_message": "Operator and operand lists have different length."
  },
  "93.py": {
    "successful": false,
    "error_type": "AssertionError"
  },
  "94.py": {
    "successful": false,
    "error_type": "ValueError",
    "error_message": "Operator and operand lists should be of equal length."
  },
  "98.py": {
    "successful": false,
    "error_type": "ValueError",
    "error_message": "Operator and operand lists have not the same length."
  },
  "99.py": {
    "successful": false,
    "error_type": "TypeError",
    "error_message": "can only concatenate str (not \"list\") to str"
  },
  "100.py": {
    "successful": false,
    "error_type": "ValueError",
    "error_message": "Operator list is not a list of two integers."
  },
  "102.py": {
    "successful": false,
    "error_type": "ValueError",
    "error_message": "Operator and operand lists must be of equal length."
  },
  "103.py": {
    "successful": false,
    "error_type": "SyntaxError",
    "error_message": "'[' was never closed"
  },
  "104.py": {
    "successful": false,
    "error_type": "ValueError",
    "error_message": "The length of operator list is not equal to the length of operand list minus one."
  },
  "105.py": {
    "successful": false,
    "error_type": "ValueError",
    "error_message": "Operator and operand lists are not of the same length"
  },
  "107.py": {
    "successful": false,
    "error_type": "SyntaxError",
    "error_message": "'[' was never closed"
  },
  "108.py": {
    "successful": false,
    "error_type": "AttributeError",
    "error_message": "'list' object has no attribute 'split'"
  },
  "110.py": {
    "successful": false,
    "error_type": "ValueError",
    "error_message": "Operator and operand lists are not of the same length."
  },
  "112.py": {
    "successful": false,
    "error_type": "ValueError",
    "error_message": "The length of operator and operand lists must be equal."
  },
  "113.py": {
    "successful": false,
    "error_type": "ValueError",
    "error_message": "Operator and operand lists have not the same length."
  },
  "114.py": {
    "successful": false,
    "error_type": "ValueError",
    "error_message": "The length of operator and operand lists are not equal."
  },
  "115.py": {
    "successful": false,
    "error_type": "ValueError",
    "error_message": "The length of operator and operand lists must be equal."
  },
  "116.py": {
    "successful": false,
    "error_type": "ValueError",
    "error_message": "operator and operand lists have different lengths"
  },
  "119.py": {
    "successful": false,
    "error_type": "ValueError",
    "error_message": "Operator and operand lists must be of the same length."
  },
  "122.py": {
    "successful": false,
    "error_type": "IndentationError",
    "error_message": "expected an indented block after 'elif' statement on line 34"
  },
  "123.py": {
    "successful": false,
    "error_type": "SyntaxError",
    "error_message": "invalid syntax"
  },
  "124.py": {
    "successful": false,
    "error_type": "ValueError",
    "error_message": "operator and operand lists have different lengths"
  },
  "125.py": {
    "successful": false,
    "error_type": "ValueError",
    "error_message": "Operator and operand lists have different length."
  },
  "126.py": {
    "successful": false,
    "error_type": "SyntaxError",
    "error_message": "'[' was never closed"
  },
  "127.py": {
    "successful": false,
    "error_type": "ValueError",
    "error_message": "Operator and operand lists must have the same length."
  },
  "128.py": {
    "successful": false,
    "error_type": "TypeError",
    "error_message": "can only concatenate str (not \"int\") to str"
  },
  "129.py": {
    "successful": false,
    "error_type": "ValueError",
    "error_message": "Operator and operand lists must be of same length."
  },
  "130.py": {
    "successful": false,
    "error_type": "TypeError",
    "error_message": "can only concatenate str (not \"int\") to str"
  },
  "131.py": {
    "successful": false,
    "error_type": "IndentationError",
    "error_message": "expected an indented block after 'if' statement on line 22"
  },
  "132.py": {
    "successful": false,
    "error_type": "ValueError",
    "error_message": "The length of operator list is not equal to the length of operand list minus one."
  },
  "133.py": {
    "successful": false,
    "error_type": "AttributeError",
    "error_message": "'list' object has no attribute 'strip'"
  },
  "134.py": {
    "successful": false,
    "error_type": "ValueError",
    "error_message": "Operator list is not of length 2 or more."
  },
  "135.py": {
    "successful": false,
    "error_type": "AssertionError"
  },
  "136.py": {
    "successful": false,
    "error_type": "ValueError",
    "error_message": "Operator and operand lists must have the same length."
  },
  "138.py": {
    "successful": false,
    "error_type": "ValueError",
    "error_message": "operator and operand lists have different length"
  },
  "139.py": {
    "successful": false,
    "error_type": "TypeError",
    "error_message": "can only concatenate str (not \"int\") to str"
  },
  "140.py": {
    "successful": false,
    "error_type": "SyntaxError",
    "error_message": "invalid syntax"
  },
  "141.py": {
    "successful": false,
    "error_type": "TypeError",
    "error_message": "unsupported operand type(s) for +"
  },
  "142.py": {
    "successful": false,
    "error_type": "SyntaxError",
    "error_message": "'[' was never closed"
  },
  "143.py": {
    "successful": false,
    "error_type": "SyntaxError",
    "error_message": "'[' was never closed"
  },
  "144.py": {
    "successful": false,
    "error_type": "ValueError",
    "error_message": "The length of operator list is not equal to the length of operand list minus one."
  },
  "146.py": {
    "successful": false,
    "error_type": "SyntaxError",
    "error_message": "invalid syntax"
  },
  "147.py": {
    "successful": false,
    "error_type": "IndentationError",
    "error_message": "expected an indented block after 'elif' statement on line 30"
  },
  "148.py": {
    "successful": false,
    "error_type": "SyntaxError",
    "error_message": "expected '"
  },
  "149.py": {
    "successful": false,
    "error_type": "SyntaxError",
    "error_message": "expected '"
  },
  "150.py": {
    "successful": false,
    "error_type": "ValueError",
    "error_message": "Operator and operand lists have different lengths."
  },
  "151.py": {
    "successful": false,
    "error_type": "ValueError",
    "error_message": "Operator and operand lists must have the same length."
  },
  "153.py": {
    "successful": false,
    "error_type": "ValueError",
    "error_message": "Operator and operand lists must be of same length."
  },
  "154.py": {
    "successful": false,
    "error_type": "ValueError",
    "error_message": "The length of operator and operand lists should be equal."
  },
  "155.py": {
    "successful": false,
    "error_type": "ValueError",
    "error_message": "Operator and operand lists must be of equal length."
  },
  "157.py": {
    "successful": false,
    "error_type": "ValueError",
    "error_message": "Operator and operand lists must have the same length."
  },
  "158.py": {
    "successful": false,
    "error_type": "ValueError",
    "error_message": "Operator and operand lists should have the same length."
  },
  "160.py": {
    "successful": false,
    "error_type": "AssertionError"
  },
  "161.py": {
    "successful": false,
    "error_type": "IndentationError",
    "error_message": "expected an indented block after 'elif' statement on line 35"
  },
  "162.py": {
    "successful": false,
    "error_type": "ValueError",
    "error_message": "Operator and operand lists must have the same length."
  },
  "163.py": {
    "successful": false,
    "error_type": "AttributeError",
    "error_message": "'list' object has no attribute 'split'"
  },
  "164.py": {
    "successful": false,
    "error_type": "IndentationError",
    "error_message": "expected an indented block after 'elif' statement on line 32"
  },
  "165.py": {
    "successful": false,
    "error_type": "ValueError",
    "error_message": "Operator and operand lists should have the same length."
  },
  "168.py": {
    "successful": false,
    "error_type": "ValueError",
    "error_message": "Operator list has more than two operands."
  },
  "170.py": {
    "successful": false,
    "error_type": "AttributeError",
    "error_message": "'list' object has no attribute 'split'"
  },
  "171.py": {
    "successful": false,
    "error_type": "ValueError",
    "error_message": "Operator and operand lists should be of equal length."
  },
  "172.py": {
    "successful": false,
    "error_type": "IndentationError",
    "error_message": "expected an indented block after 'if' statement on line 44"
  },
  "173.py": {
    "successful": false,
    "error_type": "ValueError",
    "error_message": "Operator and operand lists must be of the same length."
  },
  "175.py": {
    "successful": false,
    "error_type": "ValueError",
    "error_message": "The length of operator list is not equal to the length of operand list minus one."
  },
  "176.py": {
    "successful": false,
    "error_type": "ValueError",
    "error_message": "The length of operator and operand lists are not equal."
  },
  "177.py": {
    "successful": false,
    "error_type": "ValueError",
    "error_message": "The length of operator and operand lists should be equal."
  },
  "178.py": {
    "successful": false,
    "error_type": "ValueError",
    "error_message": "Operator and operand lists must be of the same length."
  },
  "179.py": {
    "successful": false,
    "error_type": "SyntaxError",
    "error_message": "'[' was never closed"
  },
  "180.py": {
    "successful": false,
    "error_type": "ValueError",
    "error_message": "operator and operand lists should have the same length"
  },
  "182.py": {
    "successful": false,
    "error_type": "SyntaxError",
    "error_message": "'[' was never closed"
  },
  "183.py": {
    "successful": false,
    "error_type": "ValueError",
    "error_message": "Operator and operand lists have different length."
  },
  "184.py": {
    "successful": false,
    "error_type": "ValueError",
    "error_message": "Operator and operand lists have different length."
  },
  "185.py": {
    "successful": false,
    "error_type": "ValueError",
    "error_message": "Operator list is not of length 5."
  },
  "186.py": {
    "successful": false,
    "error_type": "ValueError",
    "error_message": "The length of operator and operand lists must be the same."
  },
  "187.py": {
    "successful": false,
    "error_type": "TypeError",
    "error_message": "can't multiply sequence by non-int of type 'str'"
  },
  "188.py": {
    "successful": false,
    "error_type": "ValueError",
    "error_message": "The length of operator and operand lists are not equal."
  },
  "189.py": {
    "successful": false,
    "error_type": "ValueError",
    "error_message": "Operator and operand lists must be of the same length."
  },
  "190.py": {
    "successful": false,
    "error_type": "AssertionError"
  },
  "191.py": {
    "successful": false,
    "error_type": "SyntaxError",
    "error_message": "expected '"
  },
  "192.py": {
    "successful": false,
    "error_type": "ValueError",
    "error_message": "operator and operand lists must be of the same length"
  },
  "193.py": {
    "successful": false,
    "error_type": "AssertionError"
  },
  "194.py": {
    "successful": false,
    "error_type": "SyntaxError",
    "error_message": "'(' was never closed"
  },
  "196.py": {
    "successful": false,
    "error_type": "ValueError",
    "error_message": "Operator and operand lists have different length."
  },
  "197.py": {
    "successful": false,
    "error_type": "ValueError",
    "error_message": "Operator and operand lists have different length."
  },
  "198.py": {
    "successful": false,
    "error_type": "ValueError",
    "error_message": "operator list has more than one operator"
  },
  "199.py": {
    "successful": false,
    "error_type": "ValueError",
    "error_message": "Operator and operand lists must have the same length."
  }
}