{
  "test_complete": true,
  "3.py": {
    "successful": false,
    "error_type": "NameError",
    "error_message": "name 'np' is not defined"
  },
  "6.py": {
    "successful": false,
    "error_type": "NameError",
    "error_message": "name 'np' is not defined"
  },
  "13.py": {
    "successful": false,
    "error_type": "NameError",
    "error_message": "name 'np' is not defined"
  },
  "23.py": {
    "successful": false,
    "error_type": "NameError",
    "error_message": "name 'np' is not defined"
  },
  "24.py": {
    "successful": false,
    "error_type": "NameError",
    "error_message": "name 'np' is not defined"
  },
  "28.py": {
    "successful": false,
    "error_type": "AssertionError"
  },
  "47.py": {
    "successful": false,
    "error_type": "NameError",
    "error_message": "name 'np' is not defined"
  },
  "49.py": {
    "successful": false,
    "error_type": "AssertionError"
  },
  "70.py": {
    "successful": false,
    "error_type": "NameError",
    "error_message": "name 'np' is not defined"
  },
  "71.py": {
    "successful": false,
    "error_type": "AssertionError"
  },
  "98.py": {
    "successful": false,
    "error_type": "NameError",
    "error_message": "name 'np' is not defined"
  },
  "125.py": {
    "successful": false,
    "error_type": "NameError",
    "error_message": "name 'np' is not defined"
  },
  "175.py": {
    "successful": false,
    "error_type": "NameError",
    "error_message": "name 'np' is not defined"
  }
}