{
  "test_complete": true,
  "2.py": {
    "successful": false,
    "error_type": "AssertionError"
  },
  "3.py": {
    "successful": false,
    "error_type": "NameError",
    "error_message": "name 'math' is not defined"
  },
  "6.py": {
    "successful": false,
    "error_type": "AssertionError"
  },
  "7.py": {
    "successful": false,
    "error_type": "AssertionError"
  },
  "8.py": {
    "successful": false,
    "error_type": "AssertionError"
  },
  "10.py": {
    "successful": false,
    "error_type": "TimeOut"
  },
  "12.py": {
    "successful": false,
    "error_type": "AssertionError"
  },
  "14.py": {
    "successful": false,
    "error_type": "AssertionError"
  },
  "15.py": {
    "successful": false,
    "error_type": "NameError",
    "error_message": "name 'log' is not defined"
  },
  "16.py": {
    "successful": false,
    "error_type": "AssertionError"
  },
  "17.py": {
    "successful": false,
    "error_type": "AssertionError"
  },
  "19.py": {
    "successful": false,
    "error_type": "AssertionError"
  },
  "21.py": {
    "successful": false,
    "error_type": "AssertionError"
  },
  "22.py": {
    "successful": false,
    "error_type": "NameError",
    "error_message": "name 'math' is not defined"
  },
  "23.py": {
    "successful": false,
    "error_type": "AssertionError"
  },
  "24.py": {
    "successful": false,
    "error_type": "AssertionError"
  },
  "25.py": {
    "successful": false,
    "error_type": "AssertionError"
  },
  "26.py": {
    "successful": false,
    "error_type": "NameError",
    "error_message": "name 'math' is not defined"
  },
  "29.py": {
    "successful": false,
    "error_type": "NameError",
    "error_message": "name 'math' is not defined"
  },
  "30.py": {
    "successful": false,
    "error_type": "NameError",
    "error_message": "name 'math' is not defined"
  },
  "31.py": {
    "successful": false,
    "error_type": "AssertionError"
  },
  "35.py": {
    "successful": false,
    "error_type": "AssertionError"
  },
  "36.py": {
    "successful": false,
    "error_type": "AssertionError"
  },
  "38.py": {
    "successful": false,
    "error_type": "AssertionError"
  },
  "39.py": {
    "successful": false,
    "error_type": "AssertionError"
  },
  "43.py": {
    "successful": false,
    "error_type": "NameError",
    "error_message": "name 'math' is not defined"
  },
  "45.py": {
    "successful": false,
    "error_type": "AssertionError"
  },
  "46.py": {
    "successful": false,
    "error_type": "AssertionError"
  },
  "48.py": {
    "successful": false,
    "error_type": "NameError",
    "error_message": "name 'math' is not defined"
  },
  "49.py": {
    "successful": false,
    "error_type": "NameError",
    "error_message": "name 'log' is not defined"
  },
  "50.py": {
    "successful": false,
    "error_type": "AssertionError"
  },
  "52.py": {
    "successful": false,
    "error_type": "TimeOut"
  },
  "53.py": {
    "successful": false,
    "error_type": "NameError",
    "error_message": "name 'log' is not defined"
  },
  "55.py": {
    "successful": false,
    "error_type": "AssertionError"
  },
  "56.py": {
    "successful": true
  },
  "60.py": {
    "successful": false,
    "error_type": "AssertionError"
  },
  "62.py": {
    "successful": false,
    "error_type": "NameError",
    "error_message": "name 'math' is not defined"
  },
  "63.py": {
    "successful": false,
    "error_type": "NameError",
    "error_message": "name 'math' is not defined"
  },
  "65.py": {
    "successful": false,
    "error_type": "AssertionError"
  },
  "68.py": {
    "successful": false,
    "error_type": "AssertionError"
  },
  "69.py": {
    "successful": false,
    "error_type": "AssertionError"
  },
  "72.py": {
    "successful": false,
    "error_type": "ZeroDivisionError",
    "error_message": "float division by zero"
  },
  "75.py": {
    "successful": false,
    "error_type": "AssertionError"
  },
  "76.py": {
    "successful": false,
    "error_type": "AssertionError"
  },
  "79.py": {
    "successful": false,
    "error_type": "AssertionError"
  },
  "81.py": {
    "successful": false,
    "error_type": "AssertionError"
  },
  "82.py": {
    "successful": false,
    "error_type": "AssertionError"
  },
  "84.py": {
    "successful": false,
    "error_type": "NameError",
    "error_message": "name 'log' is not defined"
  },
  "85.py": {
    "successful": false,
    "error_type": "AssertionError"
  },
  "87.py": {
    "successful": true
  },
  "88.py": {
    "successful": false,
    "error_type": "AssertionError"
  },
  "90.py": {
    "successful": false,
    "error_type": "AssertionError"
  },
  "91.py": {
    "successful": false,
    "error_type": "NameError",
    "error_message": "name 'math' is not defined"
  },
  "92.py": {
    "successful": false,
    "error_type": "NameError",
    "error_message": "name 'math' is not defined"
  },
  "95.py": {
    "successful": false,
    "error_type": "AssertionError"
  },
  "98.py": {
    "successful": false,
    "error_type": "AssertionError"
  },
  "99.py": {
    "successful": false,
    "error_type": "AssertionError"
  },
  "100.py": {
    "successful": false,
    "error_type": "AssertionError"
  },
  "101.py": {
    "successful": false,
    "error_type": "NameError",
    "error_message": "name 'log' is not defined"
  },
  "103.py": {
    "successful": false,
    "error_type": "AssertionError"
  },
  "104.py": {
    "successful": false,
    "error_type": "AssertionError"
  },
  "106.py": {
    "successful": false,
    "error_type": "AssertionError"
  },
  "109.py": {
    "successful": false,
    "error_type": "AssertionError"
  },
  "110.py": {
    "successful": false,
    "error_type": "AssertionError"
  },
  "112.py": {
    "successful": false,
    "error_type": "AssertionError"
  },
  "113.py": {
    "successful": false,
    "error_type": "NameError",
    "error_message": "name 'log' is not defined"
  },
  "115.py": {
    "successful": false,
    "error_type": "NameError",
    "error_message": "name 'log' is not defined"
  },
  "116.py": {
    "successful": false,
    "error_type": "NameError",
    "error_message": "name 'math' is not defined"
  },
  "117.py": {
    "successful": false,
    "error_type": "TimeOut"
  },
  "118.py": {
    "successful": false,
    "error_type": "AssertionError"
  },
  "119.py": {
    "successful": false,
    "error_type": "AssertionError"
  },
  "122.py": {
    "successful": false,
    "error_type": "AssertionError"
  },
  "123.py": {
    "successful": false,
    "error_type": "TimeOut"
  },
  "124.py": {
    "successful": false,
    "error_type": "NameError",
    "error_message": "name 'log' is not defined"
  },
  "125.py": {
    "successful": false,
    "error_type": "AssertionError"
  },
  "127.py": {
    "successful": false,
    "error_type": "AssertionError"
  },
  "129.py": {
    "successful": false,
    "error_type": "AssertionError"
  },
  "131.py": {
    "successful": true
  },
  "132.py": {
    "successful": false,
    "error_type": "NameError",
    "error_message": "name 'math' is not defined"
  },
  "134.py": {
    "successful": false,
    "error_type": "AssertionError"
  },
  "135.py": {
    "successful": false,
    "error_type": "AssertionError"
  },
  "136.py": {
    "successful": false,
    "error_type": "AssertionError"
  },
  "138.py": {
    "successful": true
  },
  "139.py": {
    "successful": false,
    "error_type": "AssertionError"
  },
  "141.py": {
    "successful": false,
    "error_type": "AssertionError"
  },
  "142.py": {
    "successful": false,
    "error_type": "AssertionError"
  },
  "143.py": {
    "successful": false,
    "error_type": "NameError",
    "error_message": "name 'math' is not defined"
  },
  "146.py": {
    "successful": false,
    "error_type": "AssertionError"
  },
  "148.py": {
    "successful": false,
    "error_type": "NameError",
    "error_message": "name 'log' is not defined"
  },
  "149.py": {
    "successful": false,
    "error_type": "AssertionError"
  },
  "151.py": {
    "successful": false,
    "error_type": "AssertionError"
  },
  "152.py": {
    "successful": false,
    "error_type": "AssertionError"
  },
  "153.py": {
    "successful": false,
    "error_type": "NameError",
    "error_message": "name 'math' is not defined"
  },
  "154.py": {
    "successful": false,
    "error_type": "NameError",
    "error_message": "name 'math' is not defined"
  },
  "155.py": {
    "successful": false,
    "error_type": "AssertionError"
  },
  "156.py": {
    "successful": false,
    "error_type": "NameError",
    "error_message": "name 'math' is not defined"
  },
  "158.py": {
    "successful": false,
    "error_type": "AssertionError"
  },
  "159.py": {
    "successful": false,
    "error_type": "AssertionError"
  },
  "161.py": {
    "successful": false,
    "error_type": "AssertionError"
  },
  "162.py": {
    "successful": false,
    "error_type": "AssertionError"
  },
  "164.py": {
    "successful": false,
    "error_type": "AssertionError"
  },
  "165.py": {
    "successful": false,
    "error_type": "AssertionError"
  },
  "166.py": {
    "successful": false,
    "error_type": "AssertionError"
  },
  "168.py": {
    "successful": false,
    "error_type": "AssertionError"
  },
  "169.py": {
    "successful": false,
    "error_type": "AssertionError"
  },
  "170.py": {
    "successful": false,
    "error_type": "TimeOut"
  },
  "171.py": {
    "successful": false,
    "error_type": "AssertionError"
  },
  "173.py": {
    "successful": false,
    "error_type": "AssertionError"
  },
  "174.py": {
    "successful": true
  },
  "176.py": {
    "successful": false,
    "error_type": "ZeroDivisionError",
    "error_message": "float division by zero"
  },
  "177.py": {
    "successful": false,
    "error_type": "AssertionError"
  },
  "179.py": {
    "successful": false,
    "error_type": "NameError",
    "error_message": "name 'log' is not defined"
  },
  "180.py": {
    "successful": false,
    "error_type": "AssertionError"
  },
  "182.py": {
    "successful": false,
    "error_type": "AssertionError"
  },
  "183.py": {
    "successful": false,
    "error_type": "NameError",
    "error_message": "name 'log' is not defined"
  },
  "184.py": {
    "successful": true
  },
  "185.py": {
    "successful": false,
    "error_type": "NameError",
    "error_message": "name 'math' is not defined"
  },
  "186.py": {
    "successful": false,
    "error_type": "AssertionError"
  },
  "187.py": {
    "successful": false,
    "error_type": "AssertionError"
  },
  "188.py": {
    "successful": false,
    "error_type": "AssertionError"
  },
  "189.py": {
    "successful": false,
    "error_type": "NameError",
    "error_message": "name 'math' is not defined"
  },
  "190.py": {
    "successful": false,
    "error_type": "IndentationError",
    "error_message": "expected an indented block after function definition on line 1"
  },
  "191.py": {
    "successful": false,
    "error_type": "AssertionError"
  },
  "192.py": {
    "successful": false,
    "error_type": "AssertionError"
  },
  "193.py": {
    "successful": false,
    "error_type": "AssertionError"
  },
  "194.py": {
    "successful": false,
    "error_type": "NameError",
    "error_message": "name 'math' is not defined"
  },
  "195.py": {
    "successful": false,
    "error_type": "NameError",
    "error_message": "name 'log' is not defined"
  },
  "198.py": {
    "successful": false,
    "error_type": "RecursionError",
    "error_message": "maximum recursion depth exceeded in comparison"
  }
}