{
  "test_complete": true,
  "0.py": {
    "successful": true
  },
  "5.py": {
    "successful": false,
    "error_type": "AssertionError"
  },
  "11.py": {
    "successful": true
  },
  "12.py": {
    "successful": true
  },
  "17.py": {
    "successful": false,
    "error_type": "AssertionError"
  },
  "21.py": {
    "successful": false,
    "error_type": "AssertionError"
  },
  "23.py": {
    "successful": false,
    "error_type": "AssertionError"
  },
  "26.py": {
    "successful": false,
    "error_type": "AssertionError"
  },
  "27.py": {
    "successful": true
  },
  "30.py": {
    "successful": true
  },
  "35.py": {
    "successful": false,
    "error_type": "AssertionError"
  },
  "37.py": {
    "successful": true
  },
  "43.py": {
    "successful": false,
    "error_type": "AssertionError"
  },
  "45.py": {
    "successful": false,
    "error_type": "AssertionError"
  },
  "46.py": {
    "successful": false,
    "error_type": "AssertionError"
  },
  "49.py": {
    "successful": false,
    "error_type": "AssertionError"
  },
  "50.py": {
    "successful": false,
    "error_type": "AssertionError"
  },
  "54.py": {
    "successful": true
  },
  "56.py": {
    "successful": false,
    "error_type": "AssertionError"
  },
  "68.py": {
    "successful": true
  },
  "71.py": {
    "successful": false,
    "error_type": "AssertionError"
  },
  "77.py": {
    "successful": false,
    "error_type": "AssertionError"
  },
  "83.py": {
    "successful": false,
    "error_type": "IndentationError",
    "error_message": "expected an indented block after function definition on line 2"
  },
  "84.py": {
    "successful": false,
    "error_type": "AssertionError"
  },
  "91.py": {
    "successful": true
  },
  "94.py": {
    "successful": true
  },
  "105.py": {
    "successful": true
  },
  "110.py": {
    "successful": false,
    "error_type": "AssertionError"
  },
  "113.py": {
    "successful": true
  },
  "116.py": {
    "successful": false,
    "error_type": "AssertionError"
  },
  "118.py": {
    "successful": true
  },
  "121.py": {
    "successful": false,
    "error_type": "AssertionError"
  },
  "124.py": {
    "successful": true
  },
  "125.py": {
    "successful": false,
    "error_type": "AssertionError"
  },
  "129.py": {
    "successful": true
  },
  "131.py": {
    "successful": false,
    "error_type": "AssertionError"
  },
  "139.py": {
    "successful": false,
    "error_type": "AssertionError"
  },
  "141.py": {
    "successful": false,
    "error_type": "AssertionError"
  },
  "147.py": {
    "successful": false,
    "error_type": "AssertionError"
  },
  "154.py": {
    "successful": true
  },
  "158.py": {
    "successful": false,
    "error_type": "AssertionError"
  },
  "170.py": {
    "successful": true
  },
  "179.py": {
    "successful": false,
    "error_type": "AssertionError"
  },
  "184.py": {
    "successful": false,
    "error_type": "AssertionError"
  },
  "185.py": {
    "successful": false,
    "error_type": "AssertionError"
  },
  "191.py": {
    "successful": false,
    "error_type": "AssertionError"
  },
  "199.py": {
    "successful": false,
    "error_type": "AssertionError"
  }
}