{
  "test_complete": true,
  "1.py": {
    "successful": true
  },
  "7.py": {
    "successful": true
  },
  "9.py": {
    "successful": true
  },
  "14.py": {
    "successful": false,
    "error_type": "AssertionError"
  },
  "15.py": {
    "successful": true
  },
  "17.py": {
    "successful": true
  },
  "20.py": {
    "successful": false,
    "error_type": "IndentationError",
    "error_message": "expected an indented block after function definition on line 1"
  },
  "30.py": {
    "successful": true
  },
  "48.py": {
    "successful": true
  },
  "49.py": {
    "successful": true
  },
  "70.py": {
    "successful": true
  },
  "81.py": {
    "successful": true
  },
  "99.py": {
    "successful": false,
    "error_type": "AssertionError"
  },
  "103.py": {
    "successful": true
  },
  "106.py": {
    "successful": true
  },
  "107.py": {
    "successful": true
  },
  "112.py": {
    "successful": true
  },
  "114.py": {
    "successful": true
  },
  "115.py": {
    "successful": true
  },
  "116.py": {
    "successful": true
  },
  "130.py": {
    "successful": false,
    "error_type": "IndentationError",
    "error_message": "expected an indented block after function definition on line 1"
  },
  "131.py": {
    "successful": false,
    "error_type": "IndentationError",
    "error_message": "expected an indented block after function definition on line 1"
  },
  "138.py": {
    "successful": true
  },
  "140.py": {
    "successful": false,
    "error_type": "IndentationError",
    "error_message": "expected an indented block after function definition on line 1"
  },
  "142.py": {
    "successful": false,
    "error_type": "IndentationError",
    "error_message": "expected an indented block after function definition on line 1"
  },
  "149.py": {
    "successful": true
  },
  "151.py": {
    "successful": true
  },
  "153.py": {
    "successful": true
  },
  "158.py": {
    "successful": true
  },
  "161.py": {
    "successful": true
  },
  "163.py": {
    "successful": true
  },
  "183.py": {
    "successful": true
  },
  "184.py": {
    "successful": true
  },
  "188.py": {
    "successful": true
  },
  "193.py": {
    "successful": false,
    "error_type": "AssertionError"
  },
  "194.py": {
    "successful": true
  },
  "195.py": {
    "successful": true
  },
  "199.py": {
    "successful": true
  }
}