{
  "test_complete": true,
  "0.py": {
    "successful": false,
    "error_type": "AssertionError"
  },
  "1.py": {
    "successful": false,
    "error_type": "NameError",
    "error_message": "name 'speed' is not defined"
  },
  "2.py": {
    "successful": false,
    "error_type": "AssertionError"
  },
  "3.py": {
    "successful": false,
    "error_type": "AssertionError"
  },
  "4.py": {
    "successful": false,
    "error_type": "AssertionError"
  },
  "8.py": {
    "successful": false,
    "error_type": "TimeOut"
  },
  "9.py": {
    "successful": false,
    "error_type": "NameError",
    "error_message": "name 'car_race_collision_all' is not defined. Did you mean"
  },
  "10.py": {
    "successful": false,
    "error_type": "NameError",
    "error_message": "name 'Car' is not defined. Did you mean"
  },
  "12.py": {
    "successful": false,
    "error_type": "NameError",
    "error_message": "name 'determine_position' is not defined"
  },
  "13.py": {
    "successful": false,
    "error_type": "NameError",
    "error_message": "name 'cars' is not defined. Did you mean"
  },
  "14.py": {
    "successful": false,
    "error_type": "UnboundLocalError",
    "error_message": "cannot access local variable 'collide' where it is not associated with a value"
  },
  "15.py": {
    "successful": false,
    "error_type": "ValueError",
    "error_message": "cars must be odd"
  },
  "16.py": {
    "successful": false,
    "error_type": "NameError",
    "error_message": "name 'car_distance' is not defined"
  },
  "17.py": {
    "successful": false,
    "error_type": "IndexError",
    "error_message": "tuple index out of range"
  },
  "18.py": {
    "successful": false,
    "error_type": "NameError",
    "error_message": "name 'check_overlap' is not defined"
  },
  "19.py": {
    "successful": false,
    "error_type": "NameError",
    "error_message": "name 'car_at_position' is not defined"
  },
  "21.py": {
    "successful": false,
    "error_type": "NameError",
    "error_message": "name 'Car' is not defined. Did you mean"
  },
  "22.py": {
    "successful": false,
    "error_type": "AssertionError"
  },
  "23.py": {
    "successful": false,
    "error_type": "NameError",
    "error_message": "name 'car_location' is not defined"
  },
  "24.py": {
    "successful": false,
    "error_type": "NameError",
    "error_message": "name 'possible_collision' is not defined"
  },
  "25.py": {
    "successful": false,
    "error_type": "AssertionError"
  },
  "26.py": {
    "successful": false,
    "error_type": "AssertionError"
  },
  "28.py": {
    "successful": false,
    "error_type": "AssertionError"
  },
  "29.py": {
    "successful": false,
    "error_type": "NameError",
    "error_message": "name 'trail' is not defined"
  },
  "30.py": {
    "successful": false,
    "error_type": "NameError",
    "error_message": "name 'random' is not defined"
  },
  "31.py": {
    "successful": false,
    "error_type": "AssertionError"
  },
  "32.py": {
    "successful": false,
    "error_type": "NameError",
    "error_message": "name 'car_race' is not defined"
  },
  "33.py": {
    "successful": false,
    "error_type": "SyntaxError",
    "error_message": "'(' was never closed"
  },
  "34.py": {
    "successful": false,
    "error_type": "AssertionError"
  },
  "35.py": {
    "successful": false,
    "error_type": "NameError",
    "error_message": "name 'Car' is not defined. Did you mean"
  },
  "36.py": {
    "successful": false,
    "error_type": "AssertionError"
  },
  "37.py": {
    "successful": false,
    "error_type": "AssertionError"
  },
  "39.py": {
    "successful": false,
    "error_type": "AssertionError"
  },
  "40.py": {
    "successful": false,
    "error_type": "AssertionError"
  },
  "41.py": {
    "successful": false,
    "error_type": "NameError",
    "error_message": "name 'Car' is not defined. Did you mean"
  },
  "42.py": {
    "successful": false,
    "error_type": "AssertionError"
  },
  "43.py": {
    "successful": false,
    "error_type": "AssertionError"
  },
  "44.py": {
    "successful": false,
    "error_type": "NameError",
    "error_message": "name 'Car' is not defined. Did you mean"
  },
  "45.py": {
    "successful": false,
    "error_type": "TypeError",
    "error_message": "object of type 'int' has no len()"
  },
  "46.py": {
    "successful": false,
    "error_type": "AssertionError"
  },
  "47.py": {
    "successful": false,
    "error_type": "NameError",
    "error_message": "name 'x_delta' is not defined"
  },
  "48.py": {
    "successful": false,
    "error_type": "AssertionError"
  },
  "49.py": {
    "successful": false,
    "error_type": "SyntaxError",
    "error_message": "'(' was never closed"
  },
  "50.py": {
    "successful": false,
    "error_type": "NameError",
    "error_message": "name 'np' is not defined. Did you mean"
  },
  "51.py": {
    "successful": false,
    "error_type": "SyntaxError",
    "error_message": "'[' was never closed"
  },
  "52.py": {
    "successful": false,
    "error_type": "NameError",
    "error_message": "name 'Car' is not defined. Did you mean"
  },
  "53.py": {
    "successful": false,
    "error_type": "AssertionError"
  },
  "54.py": {
    "successful": false,
    "error_type": "NameError",
    "error_message": "name 'is_car_collision' is not defined. Did you mean"
  },
  "56.py": {
    "successful": false,
    "error_type": "AssertionError"
  },
  "57.py": {
    "successful": false,
    "error_type": "NameError",
    "error_message": "name 'car_right_point' is not defined"
  },
  "58.py": {
    "successful": false,
    "error_type": "NameError",
    "error_message": "name 'x' is not defined"
  },
  "60.py": {
    "successful": false,
    "error_type": "NameError",
    "error_message": "name 'math' is not defined"
  },
  "61.py": {
    "successful": false,
    "error_type": "IndentationError",
    "error_message": "expected an indented block after function definition on line 1"
  },
  "62.py": {
    "successful": false,
    "error_type": "NameError",
    "error_message": "name 'car_race_collision_helper' is not defined. Did you mean"
  },
  "63.py": {
    "successful": false,
    "error_type": "AssertionError"
  },
  "64.py": {
    "successful": false,
    "error_type": "NameError",
    "error_message": "name 'Car' is not defined. Did you mean"
  },
  "65.py": {
    "successful": false,
    "error_type": "AssertionError"
  },
  "66.py": {
    "successful": false,
    "error_type": "NameError",
    "error_message": "name 'Location' is not defined"
  },
  "67.py": {
    "successful": false,
    "error_type": "AssertionError"
  },
  "68.py": {
    "successful": false,
    "error_type": "AssertionError"
  },
  "69.py": {
    "successful": false,
    "error_type": "NameError",
    "error_message": "name 'collision' is not defined"
  },
  "70.py": {
    "successful": false,
    "error_type": "NameError",
    "error_message": "name 'combinations' is not defined"
  },
  "71.py": {
    "successful": false,
    "error_type": "NameError",
    "error_message": "name 'sort_cars' is not defined"
  },
  "73.py": {
    "successful": false,
    "error_type": "NameError",
    "error_message": "name 'car_race_collisions' is not defined. Did you mean"
  },
  "74.py": {
    "successful": false,
    "error_type": "NameError",
    "error_message": "name 'car_line_collision' is not defined. Did you mean"
  },
  "75.py": {
    "successful": false,
    "error_type": "AttributeError",
    "error_message": "'function' object has no attribute '__init'. Did you mean"
  },
  "77.py": {
    "successful": false,
    "error_type": "AssertionError"
  },
  "78.py": {
    "successful": false,
    "error_type": "NameError",
    "error_message": "name 'factorial' is not defined"
  },
  "79.py": {
    "successful": false,
    "error_type": "AssertionError"
  },
  "80.py": {
    "successful": false,
    "error_type": "NameError",
    "error_message": "name 'car_race_collision_helper' is not defined. Did you mean"
  },
  "82.py": {
    "successful": false,
    "error_type": "AssertionError"
  },
  "83.py": {
    "successful": false,
    "error_type": "NameError",
    "error_message": "name 'a_car_movement' is not defined"
  },
  "84.py": {
    "successful": false,
    "error_type": "AssertionError"
  },
  "85.py": {
    "successful": false,
    "error_type": "TimeOut"
  },
  "86.py": {
    "successful": false,
    "error_type": "IndentationError",
    "error_message": "expected an indented block after function definition on line 1"
  },
  "87.py": {
    "successful": false,
    "error_type": "NameError",
    "error_message": "name 'c1' is not defined"
  },
  "88.py": {
    "successful": false,
    "error_type": "NameError",
    "error_message": "name 'Car' is not defined. Did you mean"
  },
  "89.py": {
    "successful": false,
    "error_type": "AssertionError"
  },
  "91.py": {
    "successful": false,
    "error_type": "NameError",
    "error_message": "name 'np' is not defined. Did you mean"
  },
  "92.py": {
    "successful": false,
    "error_type": "NameError",
    "error_message": "name 'math' is not defined"
  },
  "93.py": {
    "successful": false,
    "error_type": "NameError",
    "error_message": "name 'car_turning_time' is not defined"
  },
  "94.py": {
    "successful": false,
    "error_type": "NameError",
    "error_message": "name 'are_colliding' is not defined"
  },
  "95.py": {
    "successful": false,
    "error_type": "AssertionError"
  },
  "96.py": {
    "successful": false,
    "error_type": "NameError",
    "error_message": "name 'distance' is not defined. Did you mean"
  },
  "97.py": {
    "successful": false,
    "error_type": "NameError",
    "error_message": "name 'car_collision' is not defined. Did you mean"
  },
  "98.py": {
    "successful": false,
    "error_type": "NameError",
    "error_message": "name 'car_1_coordinates_start' is not defined"
  },
  "99.py": {
    "successful": false,
    "error_type": "NameError",
    "error_message": "name 'get_count_collisions' is not defined"
  },
  "100.py": {
    "successful": false,
    "error_type": "AssertionError"
  },
  "101.py": {
    "successful": false,
    "error_type": "NameError",
    "error_message": "name 'car_x_coord' is not defined"
  },
  "104.py": {
    "successful": false,
    "error_type": "NameError",
    "error_message": "name 'car_positions' is not defined"
  },
  "105.py": {
    "successful": false,
    "error_type": "NameError",
    "error_message": "name 'car_collision' is not defined. Did you mean"
  },
  "107.py": {
    "successful": false,
    "error_type": "IndentationError",
    "error_message": "expected an indented block after 'if' statement on line 19"
  },
  "108.py": {
    "successful": false,
    "error_type": "AssertionError"
  },
  "111.py": {
    "successful": false,
    "error_type": "AssertionError"
  },
  "112.py": {
    "successful": false,
    "error_type": "AssertionError"
  },
  "113.py": {
    "successful": false,
    "error_type": "NameError",
    "error_message": "name 'get_random_numbers_in_range' is not defined"
  },
  "114.py": {
    "successful": false,
    "error_type": "NameError",
    "error_message": "name 'car_1_x' is not defined"
  },
  "115.py": {
    "successful": false,
    "error_type": "AssertionError"
  },
  "116.py": {
    "successful": false,
    "error_type": "AssertionError"
  },
  "117.py": {
    "successful": false,
    "error_type": "NameError",
    "error_message": "name 'car_collision' is not defined. Did you mean"
  },
  "121.py": {
    "successful": false,
    "error_type": "AssertionError"
  },
  "122.py": {
    "successful": false,
    "error_type": "NameError",
    "error_message": "name 'car_collision' is not defined. Did you mean"
  },
  "124.py": {
    "successful": false,
    "error_type": "NameError",
    "error_message": "name 'cars' is not defined. Did you mean"
  },
  "125.py": {
    "successful": false,
    "error_type": "NameError",
    "error_message": "name 'car_times_in_race' is not defined"
  },
  "126.py": {
    "successful": false,
    "error_type": "AssertionError"
  },
  "128.py": {
    "successful": false,
    "error_type": "NameError",
    "error_message": "name 'speeds_at_index' is not defined"
  },
  "131.py": {
    "successful": false,
    "error_type": "NameError",
    "error_message": "name 'car_distance' is not defined"
  },
  "132.py": {
    "successful": false,
    "error_type": "NameError",
    "error_message": "name 'math' is not defined"
  },
  "133.py": {
    "successful": false,
    "error_type": "IndentationError",
    "error_message": "expected an indented block after function definition on line 1"
  },
  "134.py": {
    "successful": false,
    "error_type": "NameError",
    "error_message": "name 'car_race' is not defined"
  },
  "135.py": {
    "successful": false,
    "error_type": "TimeOut"
  },
  "136.py": {
    "successful": false,
    "error_type": "AssertionError"
  },
  "138.py": {
    "successful": false,
    "error_type": "NameError",
    "error_message": "name 'car_positions' is not defined"
  },
  "139.py": {
    "successful": false,
    "error_type": "NameError",
    "error_message": "name 'car_race' is not defined"
  },
  "140.py": {
    "successful": false,
    "error_type": "ModuleNotFoundError",
    "error_message": "No module named 'driver'"
  },
  "142.py": {
    "successful": false,
    "error_type": "AssertionError"
  },
  "143.py": {
    "successful": false,
    "error_type": "TypeError",
    "error_message": "unsupported operand type(s) for +"
  },
  "144.py": {
    "successful": false,
    "error_type": "AssertionError"
  },
  "145.py": {
    "successful": false,
    "error_type": "AssertionError"
  },
  "146.py": {
    "successful": false,
    "error_type": "AssertionError"
  },
  "147.py": {
    "successful": false,
    "error_type": "AssertionError"
  },
  "148.py": {
    "successful": false,
    "error_type": "NameError",
    "error_message": "name 'cars' is not defined. Did you mean"
  },
  "150.py": {
    "successful": false,
    "error_type": "UnboundLocalError",
    "error_message": "cannot access local variable 'car' where it is not associated with a value"
  },
  "151.py": {
    "successful": false,
    "error_type": "AssertionError"
  },
  "152.py": {
    "successful": false,
    "error_type": "NameError",
    "error_message": "name 'car_left_to_right' is not defined"
  },
  "153.py": {
    "successful": false,
    "error_type": "AssertionError"
  },
  "154.py": {
    "successful": false,
    "error_type": "AssertionError"
  },
  "155.py": {
    "successful": false,
    "error_type": "AssertionError"
  },
  "156.py": {
    "successful": false,
    "error_type": "AssertionError"
  },
  "157.py": {
    "successful": false,
    "error_type": "NameError",
    "error_message": "name 'random' is not defined"
  },
  "158.py": {
    "successful": false,
    "error_type": "AssertionError"
  },
  "159.py": {
    "successful": false,
    "error_type": "AssertionError"
  },
  "160.py": {
    "successful": false,
    "error_type": "NameError",
    "error_message": "name 'dist' is not defined. Did you mean"
  },
  "161.py": {
    "successful": false,
    "error_type": "NameError",
    "error_message": "name 'itertools' is not defined"
  },
  "163.py": {
    "successful": false,
    "error_type": "AssertionError"
  },
  "164.py": {
    "successful": false,
    "error_type": "TypeError",
    "error_message": "'tuple' object does not support item assignment"
  },
  "165.py": {
    "successful": false,
    "error_type": "NameError",
    "error_message": "name 'car_racing' is not defined"
  },
  "166.py": {
    "successful": false,
    "error_type": "AssertionError"
  },
  "167.py": {
    "successful": false,
    "error_type": "NameError",
    "error_message": "name 'is_colliding' is not defined"
  },
  "168.py": {
    "successful": false,
    "error_type": "AssertionError"
  },
  "169.py": {
    "successful": false,
    "error_type": "TimeOut"
  },
  "170.py": {
    "successful": false,
    "error_type": "IndentationError",
    "error_message": "expected an indented block after function definition on line 1"
  },
  "171.py": {
    "successful": false,
    "error_type": "NameError",
    "error_message": "name 'car_positions' is not defined"
  },
  "172.py": {
    "successful": false,
    "error_type": "NameError",
    "error_message": "name 'Car' is not defined. Did you mean"
  },
  "173.py": {
    "successful": false,
    "error_type": "AssertionError"
  },
  "174.py": {
    "successful": false,
    "error_type": "AssertionError"
  },
  "175.py": {
    "successful": false,
    "error_type": "AssertionError"
  },
  "177.py": {
    "successful": false,
    "error_type": "NameError",
    "error_message": "name 'collision' is not defined"
  },
  "178.py": {
    "successful": false,
    "error_type": "NotImplementedError"
  },
  "179.py": {
    "successful": false,
    "error_type": "NameError",
    "error_message": "name 'get_speed_data' is not defined. Did you mean"
  },
  "180.py": {
    "successful": false,
    "error_type": "NameError",
    "error_message": "name 'random' is not defined"
  },
  "182.py": {
    "successful": false,
    "error_type": "TimeOut"
  },
  "183.py": {
    "successful": false,
    "error_type": "AssertionError"
  },
  "185.py": {
    "successful": false,
    "error_type": "AssertionError"
  },
  "186.py": {
    "successful": false,
    "error_type": "NameError",
    "error_message": "name 'car_x' is not defined"
  },
  "187.py": {
    "successful": false,
    "error_type": "NameError",
    "error_message": "name 'car_race_collision_helper' is not defined. Did you mean"
  },
  "188.py": {
    "successful": false,
    "error_type": "NameError",
    "error_message": "name 'is_colliding' is not defined"
  },
  "189.py": {
    "successful": false,
    "error_type": "ModuleNotFoundError",
    "error_message": "No module named 'driver'"
  },
  "190.py": {
    "successful": false,
    "error_type": "AssertionError"
  },
  "191.py": {
    "successful": false,
    "error_type": "AssertionError"
  },
  "192.py": {
    "successful": false,
    "error_type": "NameError",
    "error_message": "name 'collisions' is not defined"
  },
  "194.py": {
    "successful": false,
    "error_type": "NameError",
    "error_message": "name 'car_speed' is not defined"
  },
  "195.py": {
    "successful": false,
    "error_type": "AssertionError"
  },
  "196.py": {
    "successful": false,
    "error_type": "NameError",
    "error_message": "name 'Car' is not defined. Did you mean"
  },
  "197.py": {
    "successful": false,
    "error_type": "AssertionError"
  },
  "198.py": {
    "successful": false,
    "error_type": "NameError",
    "error_message": "name 'car_1' is not defined"
  }
}