{
  "test_complete": true,
  "2.py": {
    "successful": true
  },
  "4.py": {
    "successful": true
  },
  "6.py": {
    "successful": true
  },
  "10.py": {
    "successful": true
  },
  "11.py": {
    "successful": true
  },
  "14.py": {
    "successful": true
  },
  "24.py": {
    "successful": true
  },
  "25.py": {
    "successful": true
  },
  "29.py": {
    "successful": true
  },
  "33.py": {
    "successful": false,
    "error_type": "AssertionError"
  },
  "35.py": {
    "successful": true
  },
  "36.py": {
    "successful": true
  },
  "41.py": {
    "successful": true
  },
  "44.py": {
    "successful": true
  },
  "54.py": {
    "successful": true
  },
  "61.py": {
    "successful": true
  },
  "65.py": {
    "successful": true
  },
  "66.py": {
    "successful": true
  },
  "71.py": {
    "successful": true
  },
  "72.py": {
    "successful": true
  },
  "73.py": {
    "successful": true
  },
  "77.py": {
    "successful": true
  },
  "83.py": {
    "successful": true
  },
  "93.py": {
    "successful": true
  },
  "104.py": {
    "successful": true
  },
  "108.py": {
    "successful": false,
    "error_type": "ValueError",
    "error_message": "Substring not found in list"
  },
  "128.py": {
    "successful": true
  },
  "130.py": {
    "successful": true
  },
  "131.py": {
    "successful": true
  },
  "133.py": {
    "successful": true
  },
  "138.py": {
    "successful": true
  },
  "141.py": {
    "successful": true
  },
  "148.py": {
    "successful": true
  },
  "149.py": {
    "successful": true
  },
  "156.py": {
    "successful": true
  },
  "162.py": {
    "successful": true
  },
  "169.py": {
    "successful": true
  },
  "173.py": {
    "successful": true
  },
  "174.py": {
    "successful": true
  },
  "183.py": {
    "successful": false,
    "error_type": "NameError",
    "error_message": "name 're' is not defined"
  }
}