{
  "test_complete": true,
  "14.py": {
    "successful": false,
    "error_type": "NameError",
    "error_message": "name 'itemgetter' is not defined"
  },
  "29.py": {
    "successful": false,
    "error_type": "NameError",
    "error_message": "name 'itemgetter' is not defined"
  },
  "36.py": {
    "successful": false,
    "error_type": "AssertionError"
  },
  "45.py": {
    "successful": false,
    "error_type": "AssertionError"
  },
  "132.py": {
    "successful": false,
    "error_type": "AssertionError"
  }
}