{
  "test_complete": true,
  "0.py": {
    "successful": false,
    "error_type": "AssertionError"
  },
  "4.py": {
    "successful": false,
    "error_type": "AssertionError"
  },
  "7.py": {
    "successful": false,
    "error_type": "AssertionError"
  },
  "10.py": {
    "successful": false,
    "error_type": "AssertionError"
  },
  "11.py": {
    "successful": false,
    "error_type": "AssertionError"
  },
  "12.py": {
    "successful": false,
    "error_type": "TypeError",
    "error_message": "not all arguments converted during string formatting"
  },
  "13.py": {
    "successful": false,
    "error_type": "IndentationError",
    "error_message": "expected an indented block after 'if' statement on line 44"
  },
  "14.py": {
    "successful": false,
    "error_type": "TypeError",
    "error_message": "not all arguments converted during string formatting"
  },
  "15.py": {
    "successful": false,
    "error_type": "TypeError",
    "error_message": "not all arguments converted during string formatting"
  },
  "19.py": {
    "successful": false,
    "error_type": "AssertionError"
  },
  "22.py": {
    "successful": false,
    "error_type": "AssertionError"
  },
  "28.py": {
    "successful": false,
    "error_type": "AssertionError"
  },
  "31.py": {
    "successful": false,
    "error_type": "TypeError",
    "error_message": "not all arguments converted during string formatting"
  },
  "33.py": {
    "successful": false,
    "error_type": "AttributeError",
    "error_message": "'str' object has no attribute 'is_prime'"
  },
  "36.py": {
    "successful": false,
    "error_type": "AssertionError"
  },
  "37.py": {
    "successful": false,
    "error_type": "AssertionError"
  },
  "38.py": {
    "successful": false,
    "error_type": "AssertionError"
  },
  "40.py": {
    "successful": false,
    "error_type": "AssertionError"
  },
  "43.py": {
    "successful": false,
    "error_type": "AssertionError"
  },
  "44.py": {
    "successful": false,
    "error_type": "AssertionError"
  },
  "47.py": {
    "successful": false,
    "error_type": "AssertionError"
  },
  "48.py": {
    "successful": false,
    "error_type": "TypeError",
    "error_message": "not all arguments converted during string formatting"
  },
  "51.py": {
    "successful": false,
    "error_type": "ValueError",
    "error_message": "invalid literal for int() with base 10"
  },
  "52.py": {
    "successful": false,
    "error_type": "AssertionError"
  },
  "55.py": {
    "successful": false,
    "error_type": "AssertionError"
  },
  "56.py": {
    "successful": false,
    "error_type": "AssertionError"
  },
  "60.py": {
    "successful": false,
    "error_type": "AssertionError"
  },
  "61.py": {
    "successful": false,
    "error_type": "IndentationError",
    "error_message": "expected an indented block after 'if' statement on line 28"
  },
  "62.py": {
    "successful": false,
    "error_type": "AssertionError"
  },
  "63.py": {
    "successful": false,
    "error_type": "NameError",
    "error_message": "name 'is_prime' is not defined"
  },
  "65.py": {
    "successful": false,
    "error_type": "IndentationError",
    "error_message": "expected an indented block after 'if' statement on line 44"
  },
  "67.py": {
    "successful": false,
    "error_type": "TypeError",
    "error_message": "not all arguments converted during string formatting"
  },
  "69.py": {
    "successful": false,
    "error_type": "IndentationError",
    "error_message": "expected an indented block after 'if' statement on line 44"
  },
  "72.py": {
    "successful": false,
    "error_type": "NameError",
    "error_message": "name 's' is not defined"
  },
  "73.py": {
    "successful": false,
    "error_type": "AssertionError"
  },
  "74.py": {
    "successful": false,
    "error_type": "IndentationError",
    "error_message": "expected an indented block after 'if' statement on line 44"
  },
  "76.py": {
    "successful": false,
    "error_type": "AssertionError"
  },
  "81.py": {
    "successful": false,
    "error_type": "AssertionError"
  },
  "82.py": {
    "successful": false,
    "error_type": "IndentationError",
    "error_message": "expected an indented block after 'if' statement on line 44"
  },
  "85.py": {
    "successful": false,
    "error_type": "AssertionError"
  },
  "87.py": {
    "successful": false,
    "error_type": "TypeError",
    "error_message": "not all arguments converted during string formatting"
  },
  "88.py": {
    "successful": false,
    "error_type": "TypeError",
    "error_message": "not all arguments converted during string formatting"
  },
  "89.py": {
    "successful": false,
    "error_type": "AssertionError"
  },
  "95.py": {
    "successful": false,
    "error_type": "AssertionError"
  },
  "96.py": {
    "successful": false,
    "error_type": "NameError",
    "error_message": "name 'prime_number' is not defined"
  },
  "97.py": {
    "successful": false,
    "error_type": "AssertionError"
  },
  "99.py": {
    "successful": false,
    "error_type": "AssertionError"
  },
  "100.py": {
    "successful": false,
    "error_type": "AssertionError"
  },
  "101.py": {
    "successful": false,
    "error_type": "AssertionError"
  },
  "104.py": {
    "successful": false,
    "error_type": "AssertionError"
  },
  "105.py": {
    "successful": false,
    "error_type": "IndentationError",
    "error_message": "expected an indented block after 'if' statement on line 22"
  },
  "106.py": {
    "successful": false,
    "error_type": "AssertionError"
  },
  "107.py": {
    "successful": false,
    "error_type": "TypeError",
    "error_message": "not all arguments converted during string formatting"
  },
  "108.py": {
    "successful": false,
    "error_type": "NameError",
    "error_message": "name 's' is not defined"
  },
  "110.py": {
    "successful": false,
    "error_type": "IndentationError",
    "error_message": "expected an indented block after 'if' statement on line 44"
  },
  "111.py": {
    "successful": false,
    "error_type": "AssertionError"
  },
  "112.py": {
    "successful": false,
    "error_type": "TypeError",
    "error_message": "not all arguments converted during string formatting"
  },
  "113.py": {
    "successful": false,
    "error_type": "AssertionError"
  },
  "114.py": {
    "successful": false,
    "error_type": "TypeError",
    "error_message": "not all arguments converted during string formatting"
  },
  "115.py": {
    "successful": false,
    "error_type": "AssertionError"
  },
  "116.py": {
    "successful": false,
    "error_type": "AssertionError"
  },
  "118.py": {
    "successful": false,
    "error_type": "AssertionError"
  },
  "120.py": {
    "successful": false,
    "error_type": "AssertionError"
  },
  "121.py": {
    "successful": false,
    "error_type": "AssertionError"
  },
  "122.py": {
    "successful": false,
    "error_type": "AssertionError"
  },
  "124.py": {
    "successful": false,
    "error_type": "SyntaxError",
    "error_message": "unterminated string literal (detected at line 44)"
  },
  "125.py": {
    "successful": false,
    "error_type": "AssertionError"
  },
  "126.py": {
    "successful": false,
    "error_type": "TypeError",
    "error_message": "not all arguments converted during string formatting"
  },
  "128.py": {
    "successful": false,
    "error_type": "NameError",
    "error_message": "name 'is_prime' is not defined"
  },
  "130.py": {
    "successful": false,
    "error_type": "TypeError",
    "error_message": "not all arguments converted during string formatting"
  },
  "133.py": {
    "successful": false,
    "error_type": "AssertionError"
  },
  "134.py": {
    "successful": false,
    "error_type": "AssertionError"
  },
  "137.py": {
    "successful": false,
    "error_type": "AssertionError"
  },
  "140.py": {
    "successful": false,
    "error_type": "NameError",
    "error_message": "name 'prime' is not defined. Did you mean"
  },
  "142.py": {
    "successful": false,
    "error_type": "AssertionError"
  },
  "143.py": {
    "successful": false,
    "error_type": "TypeError",
    "error_message": "not all arguments converted during string formatting"
  },
  "146.py": {
    "successful": false,
    "error_type": "AssertionError"
  },
  "149.py": {
    "successful": false,
    "error_type": "NameError",
    "error_message": "name 'prime_number' is not defined"
  },
  "154.py": {
    "successful": false,
    "error_type": "AssertionError"
  },
  "156.py": {
    "successful": false,
    "error_type": "AssertionError"
  },
  "158.py": {
    "successful": false,
    "error_type": "AssertionError"
  },
  "159.py": {
    "successful": false,
    "error_type": "TypeError",
    "error_message": "not all arguments converted during string formatting"
  },
  "160.py": {
    "successful": false,
    "error_type": "SyntaxError",
    "error_message": "expected '"
  },
  "161.py": {
    "successful": false,
    "error_type": "TypeError",
    "error_message": "not all arguments converted during string formatting"
  },
  "162.py": {
    "successful": false,
    "error_type": "AssertionError"
  },
  "163.py": {
    "successful": false,
    "error_type": "AssertionError"
  },
  "164.py": {
    "successful": false,
    "error_type": "TypeError",
    "error_message": "not all arguments converted during string formatting"
  },
  "165.py": {
    "successful": false,
    "error_type": "TypeError",
    "error_message": "not all arguments converted during string formatting"
  },
  "166.py": {
    "successful": false,
    "error_type": "IndentationError",
    "error_message": "expected an indented block after 'if' statement on line 44"
  },
  "168.py": {
    "successful": false,
    "error_type": "NameError",
    "error_message": "name 'is_prime' is not defined"
  },
  "169.py": {
    "successful": false,
    "error_type": "AssertionError"
  },
  "171.py": {
    "successful": false,
    "error_type": "IndentationError",
    "error_message": "expected an indented block after 'elif' statement on line 42"
  },
  "173.py": {
    "successful": false,
    "error_type": "IndexError",
    "error_message": "string index out of range"
  },
  "174.py": {
    "successful": false,
    "error_type": "TypeError",
    "error_message": "not all arguments converted during string formatting"
  },
  "175.py": {
    "successful": false,
    "error_type": "AssertionError"
  },
  "178.py": {
    "successful": false,
    "error_type": "IndentationError",
    "error_message": "expected an indented block after 'if' statement on line 44"
  },
  "180.py": {
    "successful": false,
    "error_type": "TypeError",
    "error_message": "not all arguments converted during string formatting"
  },
  "181.py": {
    "successful": false,
    "error_type": "ValueError",
    "error_message": "invalid literal for int() with base 10"
  },
  "182.py": {
    "successful": false,
    "error_type": "AssertionError"
  },
  "183.py": {
    "successful": false,
    "error_type": "TypeError",
    "error_message": "not all arguments converted during string formatting"
  },
  "188.py": {
    "successful": false,
    "error_type": "TypeError",
    "error_message": "not all arguments converted during string formatting"
  },
  "189.py": {
    "successful": false,
    "error_type": "NameError",
    "error_message": "name 'prime' is not defined. Did you mean"
  },
  "191.py": {
    "successful": false,
    "error_type": "AssertionError"
  },
  "192.py": {
    "successful": false,
    "error_type": "TypeError",
    "error_message": "not all arguments converted during string formatting"
  },
  "193.py": {
    "successful": false,
    "error_type": "SyntaxError",
    "error_message": "'[' was never closed"
  },
  "194.py": {
    "successful": false,
    "error_type": "AssertionError"
  },
  "195.py": {
    "successful": false,
    "error_type": "NameError",
    "error_message": "name 'is_prime' is not defined"
  },
  "197.py": {
    "successful": false,
    "error_type": "TypeError",
    "error_message": "not all arguments converted during string formatting"
  },
  "199.py": {
    "successful": false,
    "error_type": "IndentationError",
    "error_message": "expected an indented block after 'if' statement on line 44"
  }
}