{
  "test_complete": true,
  "12.py": {
    "successful": true
  },
  "21.py": {
    "successful": true
  },
  "91.py": {
    "successful": true
  },
  "96.py": {
    "successful": true
  },
  "134.py": {
    "successful": true
  }
}