{
  "test_complete": true,
  "1.py": {
    "successful": true
  },
  "6.py": {
    "successful": false,
    "error_type": "SyntaxError",
    "error_message": "illegal target for annotation"
  },
  "8.py": {
    "successful": true
  },
  "11.py": {
    "successful": true
  },
  "12.py": {
    "successful": true
  },
  "13.py": {
    "successful": true
  },
  "15.py": {
    "successful": true
  },
  "23.py": {
    "successful": true
  },
  "25.py": {
    "successful": true
  },
  "28.py": {
    "successful": true
  },
  "29.py": {
    "successful": true
  },
  "32.py": {
    "successful": false,
    "error_type": "AssertionError"
  },
  "37.py": {
    "successful": true
  },
  "39.py": {
    "successful": true
  },
  "42.py": {
    "successful": true
  },
  "44.py": {
    "successful": false,
    "error_type": "AssertionError"
  },
  "53.py": {
    "successful": true
  },
  "57.py": {
    "successful": true
  },
  "66.py": {
    "successful": true
  },
  "72.py": {
    "successful": true
  },
  "73.py": {
    "successful": true
  },
  "74.py": {
    "successful": false,
    "error_type": "AssertionError"
  },
  "75.py": {
    "successful": true
  },
  "92.py": {
    "successful": true
  },
  "117.py": {
    "successful": true
  },
  "118.py": {
    "successful": false,
    "error_type": "SyntaxError",
    "error_message": "invalid syntax"
  },
  "121.py": {
    "successful": true
  },
  "123.py": {
    "successful": true
  },
  "126.py": {
    "successful": true
  },
  "152.py": {
    "successful": true
  },
  "156.py": {
    "successful": false,
    "error_type": "AssertionError"
  },
  "182.py": {
    "successful": true
  },
  "190.py": {
    "successful": true
  },
  "193.py": {
    "successful": true
  },
  "199.py": {
    "successful": true
  }
}