{
  "test_complete": true,
  "0.py": {
    "successful": false,
    "error_type": "UnboundLocalError",
    "error_message": "cannot access local variable 'max_val' where it is not associated with a value"
  }
}