{
  "test_complete": true,
  "2.py": {
    "successful": true
  },
  "24.py": {
    "successful": true
  },
  "64.py": {
    "successful": true
  },
  "74.py": {
    "successful": false,
    "error_type": "TypeError",
    "error_message": "unsupported operand type(s) for -"
  },
  "88.py": {
    "successful": true
  },
  "96.py": {
    "successful": true
  }
}