{
  "test_complete": true,
  "8.py": {
    "successful": false,
    "error_type": "NameError",
    "error_message": "name 'hashlib' is not defined"
  },
  "26.py": {
    "successful": false,
    "error_type": "AssertionError"
  },
  "35.py": {
    "successful": false,
    "error_type": "NameError",
    "error_message": "name 'hashlib' is not defined"
  },
  "42.py": {
    "successful": false,
    "error_type": "NameError",
    "error_message": "name 'hashlib' is not defined"
  },
  "73.py": {
    "successful": false,
    "error_type": "NameError",
    "error_message": "name 'hashlib' is not defined"
  },
  "83.py": {
    "successful": false,
    "error_type": "NameError",
    "error_message": "name 'hashlib' is not defined"
  },
  "89.py": {
    "successful": false,
    "error_type": "NameError",
    "error_message": "name 'hashlib' is not defined"
  },
  "95.py": {
    "successful": false,
    "error_type": "NameError",
    "error_message": "name 'hashlib' is not defined"
  },
  "96.py": {
    "successful": false,
    "error_type": "AssertionError"
  },
  "133.py": {
    "successful": false,
    "error_type": "AssertionError"
  },
  "163.py": {
    "successful": false,
    "error_type": "NameError",
    "error_message": "name 'hashlib' is not defined"
  },
  "197.py": {
    "successful": false,
    "error_type": "NameError",
    "error_message": "name 'hashlib' is not defined"
  }
}