{
  "test_complete": true,
  "1.py": {
    "successful": false,
    "error_type": "AssertionError"
  },
  "2.py": {
    "successful": true
  },
  "6.py": {
    "successful": true
  },
  "10.py": {
    "successful": true
  },
  "13.py": {
    "successful": false,
    "error_type": "AssertionError"
  },
  "25.py": {
    "successful": true
  },
  "30.py": {
    "successful": true
  },
  "32.py": {
    "successful": true
  },
  "35.py": {
    "successful": true
  },
  "47.py": {
    "successful": true
  },
  "54.py": {
    "successful": true
  },
  "65.py": {
    "successful": true
  },
  "70.py": {
    "successful": false,
    "error_type": "AssertionError"
  },
  "71.py": {
    "successful": true
  },
  "75.py": {
    "successful": true
  },
  "79.py": {
    "successful": false,
    "error_type": "AssertionError"
  },
  "81.py": {
    "successful": false,
    "error_type": "AssertionError"
  },
  "82.py": {
    "successful": true
  },
  "91.py": {
    "successful": true
  },
  "95.py": {
    "successful": true
  },
  "96.py": {
    "successful": true
  },
  "102.py": {
    "successful": true
  },
  "111.py": {
    "successful": true
  },
  "117.py": {
    "successful": true
  },
  "118.py": {
    "successful": true
  },
  "121.py": {
    "successful": true
  },
  "126.py": {
    "successful": true
  },
  "131.py": {
    "successful": true
  },
  "135.py": {
    "successful": false,
    "error_type": "ValueError",
    "error_message": "n must be >= 1"
  },
  "136.py": {
    "successful": true
  },
  "138.py": {
    "successful": true
  },
  "167.py": {
    "successful": true
  },
  "182.py": {
    "successful": true
  },
  "195.py": {
    "successful": true
  },
  "198.py": {
    "successful": true
  }
}