{
  "test_complete": true,
  "5.py": {
    "successful": true
  },
  "11.py": {
    "successful": true
  },
  "27.py": {
    "successful": true
  },
  "50.py": {
    "successful": true
  },
  "68.py": {
    "successful": true
  },
  "73.py": {
    "successful": true
  },
  "74.py": {
    "successful": true
  },
  "80.py": {
    "successful": true
  },
  "98.py": {
    "successful": true
  },
  "104.py": {
    "successful": false,
    "error_type": "AssertionError"
  },
  "115.py": {
    "successful": false,
    "error_type": "AssertionError"
  },
  "124.py": {
    "successful": true
  },
  "141.py": {
    "successful": false,
    "error_type": "AssertionError"
  },
  "143.py": {
    "successful": true
  },
  "169.py": {
    "successful": true
  },
  "171.py": {
    "successful": true
  },
  "191.py": {
    "successful": true
  }
}