{
  "test_complete": true,
  "0.py": {
    "successful": true
  },
  "2.py": {
    "successful": true
  },
  "4.py": {
    "successful": true
  },
  "5.py": {
    "successful": false,
    "error_type": "AssertionError"
  },
  "6.py": {
    "successful": true
  },
  "8.py": {
    "successful": true
  },
  "9.py": {
    "successful": true
  },
  "10.py": {
    "successful": true
  },
  "16.py": {
    "successful": true
  },
  "17.py": {
    "successful": true
  },
  "21.py": {
    "successful": true
  },
  "28.py": {
    "successful": false,
    "error_type": "AssertionError"
  },
  "32.py": {
    "successful": false,
    "error_type": "AssertionError"
  },
  "33.py": {
    "successful": true
  },
  "34.py": {
    "successful": false,
    "error_type": "AssertionError"
  },
  "35.py": {
    "successful": true
  },
  "38.py": {
    "successful": false,
    "error_type": "NameError",
    "error_message": "name 'is_prime' is not defined"
  },
  "40.py": {
    "successful": true
  },
  "41.py": {
    "successful": true
  },
  "42.py": {
    "successful": true
  },
  "43.py": {
    "successful": true
  },
  "45.py": {
    "successful": true
  },
  "49.py": {
    "successful": true
  },
  "52.py": {
    "successful": true
  },
  "56.py": {
    "successful": true
  },
  "57.py": {
    "successful": true
  },
  "58.py": {
    "successful": false,
    "error_type": "NameError",
    "error_message": "name 'is_prime' is not defined"
  },
  "60.py": {
    "successful": true
  },
  "62.py": {
    "successful": true
  },
  "63.py": {
    "successful": true
  },
  "64.py": {
    "successful": false,
    "error_type": "NameError",
    "error_message": "name 'math' is not defined"
  },
  "67.py": {
    "successful": true
  },
  "70.py": {
    "successful": true
  },
  "74.py": {
    "successful": true
  },
  "76.py": {
    "successful": true
  },
  "78.py": {
    "successful": true
  },
  "80.py": {
    "successful": true
  },
  "84.py": {
    "successful": true
  },
  "88.py": {
    "successful": false,
    "error_type": "NameError",
    "error_message": "name 'is_prime' is not defined"
  },
  "92.py": {
    "successful": true
  },
  "94.py": {
    "successful": true
  },
  "95.py": {
    "successful": true
  },
  "96.py": {
    "successful": true
  },
  "99.py": {
    "successful": true
  },
  "100.py": {
    "successful": false,
    "error_type": "AssertionError"
  },
  "101.py": {
    "successful": true
  },
  "103.py": {
    "successful": true
  },
  "106.py": {
    "successful": true
  },
  "107.py": {
    "successful": false,
    "error_type": "AssertionError"
  },
  "108.py": {
    "successful": true
  },
  "110.py": {
    "successful": true
  },
  "113.py": {
    "successful": true
  },
  "114.py": {
    "successful": false,
    "error_type": "NameError",
    "error_message": "name 'math' is not defined"
  },
  "115.py": {
    "successful": true
  },
  "121.py": {
    "successful": false,
    "error_type": "AssertionError"
  },
  "124.py": {
    "successful": true
  },
  "126.py": {
    "successful": false,
    "error_type": "IndexError",
    "error_message": "list assignment index out of range"
  },
  "127.py": {
    "successful": true
  },
  "130.py": {
    "successful": true
  },
  "131.py": {
    "successful": true
  },
  "134.py": {
    "successful": true
  },
  "137.py": {
    "successful": true
  },
  "139.py": {
    "successful": true
  },
  "140.py": {
    "successful": true
  },
  "142.py": {
    "successful": true
  },
  "145.py": {
    "successful": true
  },
  "146.py": {
    "successful": true
  },
  "149.py": {
    "successful": true
  },
  "152.py": {
    "successful": true
  },
  "156.py": {
    "successful": true
  },
  "162.py": {
    "successful": false,
    "error_type": "AssertionError"
  },
  "168.py": {
    "successful": true
  },
  "169.py": {
    "successful": true
  },
  "176.py": {
    "successful": true
  },
  "181.py": {
    "successful": true
  },
  "182.py": {
    "successful": true
  },
  "183.py": {
    "successful": true
  },
  "185.py": {
    "successful": true
  },
  "189.py": {
    "successful": true
  },
  "190.py": {
    "successful": true
  },
  "194.py": {
    "successful": true
  },
  "197.py": {
    "successful": true
  },
  "198.py": {
    "successful": true
  },
  "199.py": {
    "successful": true
  }
}