{
  "test_complete": true,
  "2.py": {
    "successful": true
  },
  "3.py": {
    "successful": true
  },
  "4.py": {
    "successful": true
  },
  "12.py": {
    "successful": true
  },
  "16.py": {
    "successful": false,
    "error_type": "AssertionError"
  },
  "20.py": {
    "successful": true
  },
  "23.py": {
    "successful": true
  },
  "27.py": {
    "successful": true
  },
  "29.py": {
    "successful": true
  },
  "40.py": {
    "successful": true
  },
  "41.py": {
    "successful": true
  },
  "42.py": {
    "successful": false,
    "error_type": "AssertionError"
  },
  "49.py": {
    "successful": true
  },
  "52.py": {
    "successful": true
  },
  "70.py": {
    "successful": true
  },
  "76.py": {
    "successful": true
  },
  "79.py": {
    "successful": false,
    "error_type": "AssertionError"
  },
  "81.py": {
    "successful": false,
    "error_type": "AssertionError"
  },
  "90.py": {
    "successful": false,
    "error_type": "AssertionError"
  },
  "96.py": {
    "successful": true
  },
  "100.py": {
    "successful": true
  },
  "103.py": {
    "successful": true
  },
  "106.py": {
    "successful": true
  },
  "127.py": {
    "successful": true
  },
  "130.py": {
    "successful": false,
    "error_type": "AssertionError"
  },
  "166.py": {
    "successful": true
  },
  "173.py": {
    "successful": true
  },
  "194.py": {
    "successful": true
  }
}