{
  "test_complete": true,
  "0.py": {
    "successful": true
  },
  "1.py": {
    "successful": true
  },
  "2.py": {
    "successful": true
  },
  "3.py": {
    "successful": false,
    "error_type": "AssertionError"
  },
  "4.py": {
    "successful": true
  },
  "5.py": {
    "successful": true
  },
  "6.py": {
    "successful": false,
    "error_type": "AssertionError"
  },
  "7.py": {
    "successful": true
  },
  "10.py": {
    "successful": true
  },
  "11.py": {
    "successful": true
  },
  "14.py": {
    "successful": true
  },
  "15.py": {
    "successful": true
  },
  "16.py": {
    "successful": true
  },
  "18.py": {
    "successful": true
  },
  "19.py": {
    "successful": true
  },
  "20.py": {
    "successful": true
  },
  "21.py": {
    "successful": true
  },
  "22.py": {
    "successful": true
  },
  "25.py": {
    "successful": true
  },
  "26.py": {
    "successful": true
  },
  "28.py": {
    "successful": true
  },
  "31.py": {
    "successful": true
  },
  "34.py": {
    "successful": true
  },
  "35.py": {
    "successful": true
  },
  "36.py": {
    "successful": true
  },
  "37.py": {
    "successful": true
  },
  "39.py": {
    "successful": true
  },
  "40.py": {
    "successful": true
  },
  "41.py": {
    "successful": true
  },
  "42.py": {
    "successful": true
  },
  "45.py": {
    "successful": false,
    "error_type": "AssertionError"
  },
  "47.py": {
    "successful": true
  },
  "48.py": {
    "successful": false,
    "error_type": "AssertionError"
  },
  "50.py": {
    "successful": false,
    "error_type": "AssertionError"
  },
  "51.py": {
    "successful": true
  },
  "52.py": {
    "successful": true
  },
  "54.py": {
    "successful": true
  },
  "55.py": {
    "successful": false,
    "error_type": "AssertionError"
  },
  "56.py": {
    "successful": true
  },
  "57.py": {
    "successful": true
  },
  "59.py": {
    "successful": true
  },
  "61.py": {
    "successful": true
  },
  "63.py": {
    "successful": true
  },
  "66.py": {
    "successful": true
  },
  "67.py": {
    "successful": false,
    "error_type": "AssertionError"
  },
  "69.py": {
    "successful": true
  },
  "71.py": {
    "successful": true
  },
  "72.py": {
    "successful": true
  },
  "74.py": {
    "successful": true
  },
  "76.py": {
    "successful": true
  },
  "78.py": {
    "successful": false,
    "error_type": "AssertionError"
  },
  "79.py": {
    "successful": true
  },
  "81.py": {
    "successful": true
  },
  "82.py": {
    "successful": false,
    "error_type": "AssertionError"
  },
  "84.py": {
    "successful": true
  },
  "85.py": {
    "successful": true
  },
  "86.py": {
    "successful": true
  },
  "88.py": {
    "successful": true
  },
  "89.py": {
    "successful": false,
    "error_type": "AssertionError"
  },
  "90.py": {
    "successful": true
  },
  "92.py": {
    "successful": false,
    "error_type": "NameError",
    "error_message": "name 'count_odd' is not defined"
  },
  "93.py": {
    "successful": false,
    "error_type": "AssertionError"
  },
  "94.py": {
    "successful": true
  },
  "97.py": {
    "successful": true
  },
  "98.py": {
    "successful": true
  },
  "99.py": {
    "successful": true
  },
  "100.py": {
    "successful": false,
    "error_type": "AssertionError"
  },
  "102.py": {
    "successful": true
  },
  "103.py": {
    "successful": true
  },
  "105.py": {
    "successful": true
  },
  "109.py": {
    "successful": true
  },
  "110.py": {
    "successful": false,
    "error_type": "NameError",
    "error_message": "name 'count_odd' is not defined"
  },
  "111.py": {
    "successful": true
  },
  "113.py": {
    "successful": true
  },
  "114.py": {
    "successful": true
  },
  "118.py": {
    "successful": false,
    "error_type": "AssertionError"
  },
  "119.py": {
    "successful": true
  },
  "121.py": {
    "successful": true
  },
  "123.py": {
    "successful": true
  },
  "124.py": {
    "successful": true
  },
  "126.py": {
    "successful": true
  },
  "129.py": {
    "successful": true
  },
  "130.py": {
    "successful": false,
    "error_type": "AssertionError"
  },
  "131.py": {
    "successful": true
  },
  "133.py": {
    "successful": true
  },
  "134.py": {
    "successful": true
  },
  "138.py": {
    "successful": false,
    "error_type": "AssertionError"
  },
  "139.py": {
    "successful": true
  },
  "142.py": {
    "successful": true
  },
  "143.py": {
    "successful": true
  },
  "145.py": {
    "successful": true
  },
  "146.py": {
    "successful": true
  },
  "150.py": {
    "successful": true
  },
  "151.py": {
    "successful": false,
    "error_type": "AssertionError"
  },
  "152.py": {
    "successful": true
  },
  "153.py": {
    "successful": true
  },
  "154.py": {
    "successful": true
  },
  "156.py": {
    "successful": true
  },
  "157.py": {
    "successful": true
  },
  "161.py": {
    "successful": false,
    "error_type": "AssertionError"
  },
  "162.py": {
    "successful": true
  },
  "163.py": {
    "successful": true
  },
  "164.py": {
    "successful": true
  },
  "165.py": {
    "successful": true
  },
  "171.py": {
    "successful": true
  },
  "172.py": {
    "successful": false,
    "error_type": "AssertionError"
  },
  "173.py": {
    "successful": true
  },
  "174.py": {
    "successful": true
  },
  "176.py": {
    "successful": true
  },
  "177.py": {
    "successful": true
  },
  "180.py": {
    "successful": true
  },
  "181.py": {
    "successful": false,
    "error_type": "AssertionError"
  },
  "182.py": {
    "successful": true
  },
  "183.py": {
    "successful": true
  },
  "187.py": {
    "successful": true
  },
  "188.py": {
    "successful": true
  },
  "190.py": {
    "successful": true
  },
  "192.py": {
    "successful": true
  },
  "194.py": {
    "successful": true
  },
  "195.py": {
    "successful": true
  },
  "196.py": {
    "successful": true
  },
  "198.py": {
    "successful": true
  }
}