{
  "test_complete": true,
  "1.py": {
    "successful": true
  },
  "6.py": {
    "successful": true
  },
  "11.py": {
    "successful": true
  },
  "15.py": {
    "successful": true
  },
  "17.py": {
    "successful": true
  },
  "19.py": {
    "successful": true
  },
  "25.py": {
    "successful": true
  },
  "27.py": {
    "successful": true
  },
  "28.py": {
    "successful": true
  },
  "40.py": {
    "successful": true
  },
  "41.py": {
    "successful": true
  },
  "43.py": {
    "successful": true
  },
  "44.py": {
    "successful": true
  },
  "52.py": {
    "successful": true
  },
  "54.py": {
    "successful": true
  },
  "67.py": {
    "successful": true
  },
  "70.py": {
    "successful": true
  },
  "71.py": {
    "successful": true
  },
  "76.py": {
    "successful": true
  },
  "78.py": {
    "successful": true
  },
  "79.py": {
    "successful": true
  },
  "88.py": {
    "successful": true
  },
  "97.py": {
    "successful": true
  },
  "99.py": {
    "successful": true
  },
  "102.py": {
    "successful": true
  },
  "108.py": {
    "successful": true
  },
  "122.py": {
    "successful": true
  },
  "133.py": {
    "successful": true
  },
  "134.py": {
    "successful": true
  },
  "139.py": {
    "successful": true
  },
  "156.py": {
    "successful": true
  },
  "159.py": {
    "successful": true
  },
  "160.py": {
    "successful": true
  },
  "172.py": {
    "successful": true
  },
  "175.py": {
    "successful": true
  },
  "184.py": {
    "successful": true
  }
}