{
  "test_complete": true,
  "0.py": {
    "successful": true
  },
  "2.py": {
    "successful": true
  },
  "39.py": {
    "successful": true
  },
  "42.py": {
    "successful": true
  },
  "51.py": {
    "successful": true
  },
  "120.py": {
    "successful": true
  },
  "127.py": {
    "successful": true
  },
  "134.py": {
    "successful": true
  }
}