{
  "test_complete": true,
  "0.py": {
    "successful": false,
    "error_type": "KeyError",
    "error_message": "1"
  },
  "1.py": {
    "successful": false,
    "error_type": "KeyError",
    "error_message": "19"
  },
  "2.py": {
    "successful": true
  },
  "3.py": {
    "successful": false,
    "error_type": "KeyError",
    "error_message": "19"
  },
  "4.py": {
    "successful": false,
    "error_type": "TypeError",
    "error_message": "'>=' not supported between instances of 'int' and 'str'"
  },
  "6.py": {
    "successful": false,
    "error_type": "AssertionError"
  },
  "8.py": {
    "successful": false,
    "error_type": "KeyError",
    "error_message": "19"
  },
  "10.py": {
    "successful": false,
    "error_type": "ValueError",
    "error_message": "empty separator"
  },
  "11.py": {
    "successful": false,
    "error_type": "AssertionError"
  },
  "12.py": {
    "successful": false,
    "error_type": "NameError",
    "error_message": "name 'roman_to_mini_roman' is not defined. Did you mean"
  },
  "13.py": {
    "successful": false,
    "error_type": "AssertionError"
  },
  "14.py": {
    "successful": false,
    "error_type": "KeyError",
    "error_message": "2"
  },
  "15.py": {
    "successful": false,
    "error_type": "TypeError",
    "error_message": "unsupported operand type(s) for -"
  },
  "17.py": {
    "successful": false,
    "error_type": "AssertionError"
  },
  "18.py": {
    "successful": false,
    "error_type": "AssertionError"
  },
  "19.py": {
    "successful": false,
    "error_type": "SyntaxError",
    "error_message": "unterminated string literal (detected at line 27)"
  },
  "20.py": {
    "successful": false,
    "error_type": "AssertionError"
  },
  "21.py": {
    "successful": false,
    "error_type": "KeyError",
    "error_message": "2"
  },
  "22.py": {
    "successful": false,
    "error_type": "KeyError",
    "error_message": "'1'"
  },
  "23.py": {
    "successful": false,
    "error_type": "AssertionError"
  },
  "25.py": {
    "successful": false,
    "error_type": "TypeError",
    "error_message": "can only concatenate str (not \"tuple\") to str"
  },
  "26.py": {
    "successful": false,
    "error_type": "TypeError",
    "error_message": "'>=' not supported between instances of 'int' and 'tuple'"
  },
  "28.py": {
    "successful": false,
    "error_type": "KeyError",
    "error_message": "'1'"
  },
  "30.py": {
    "successful": false,
    "error_type": "TypeError",
    "error_message": "object of type 'int' has no len()"
  },
  "33.py": {
    "successful": false,
    "error_type": "KeyError",
    "error_message": "'1'"
  },
  "34.py": {
    "successful": false,
    "error_type": "IndexError",
    "error_message": "list index out of range"
  },
  "35.py": {
    "successful": false,
    "error_type": "AssertionError"
  },
  "36.py": {
    "successful": false,
    "error_type": "KeyError",
    "error_message": "19"
  },
  "37.py": {
    "successful": false,
    "error_type": "ValueError",
    "error_message": "empty separator"
  },
  "38.py": {
    "successful": false,
    "error_type": "AssertionError"
  },
  "39.py": {
    "successful": false,
    "error_type": "KeyError",
    "error_message": "19"
  },
  "40.py": {
    "successful": false,
    "error_type": "AssertionError"
  },
  "41.py": {
    "successful": false,
    "error_type": "TypeError",
    "error_message": "unsupported operand type(s) for +="
  },
  "42.py": {
    "successful": false,
    "error_type": "TypeError",
    "error_message": "'>=' not supported between instances of 'int' and 'str'"
  },
  "44.py": {
    "successful": false,
    "error_type": "ValueError",
    "error_message": "empty separator"
  },
  "45.py": {
    "successful": false,
    "error_type": "TypeError",
    "error_message": "'>=' not supported between instances of 'int' and 'str'"
  },
  "47.py": {
    "successful": false,
    "error_type": "AssertionError"
  },
  "48.py": {
    "successful": false,
    "error_type": "NameError",
    "error_message": "cannot access free variable 'roman_numeral' where it is not associated with a value in enclosing scope. Did you mean"
  },
  "51.py": {
    "successful": false,
    "error_type": "AssertionError"
  },
  "52.py": {
    "successful": false,
    "error_type": "AssertionError"
  },
  "54.py": {
    "successful": false,
    "error_type": "TypeError",
    "error_message": "can only concatenate str (not \"int\") to str"
  },
  "56.py": {
    "successful": false,
    "error_type": "KeyError",
    "error_message": "'1'"
  },
  "57.py": {
    "successful": false,
    "error_type": "TypeError",
    "error_message": "'>=' not supported between instances of 'int' and 'str'"
  },
  "59.py": {
    "successful": false,
    "error_type": "AssertionError"
  },
  "61.py": {
    "successful": false,
    "error_type": "KeyError",
    "error_message": "'1'"
  },
  "63.py": {
    "successful": false,
    "error_type": "ValueError",
    "error_message": "empty separator"
  },
  "65.py": {
    "successful": false,
    "error_type": "NameError",
    "error_message": "name 'roman_to_mini_roman' is not defined. Did you mean"
  },
  "68.py": {
    "successful": false,
    "error_type": "TypeError",
    "error_message": "str.zfill() takes exactly one argument (2 given)"
  },
  "69.py": {
    "successful": false,
    "error_type": "AssertionError"
  },
  "70.py": {
    "successful": false,
    "error_type": "TypeError",
    "error_message": "'>=' not supported between instances of 'int' and 'str'"
  },
  "71.py": {
    "successful": false,
    "error_type": "NameError",
    "error_message": "name 'roman_to_int' is not defined"
  },
  "73.py": {
    "successful": false,
    "error_type": "AttributeError",
    "error_message": "'int' object has no attribute 'upper'"
  },
  "74.py": {
    "successful": true
  },
  "75.py": {
    "successful": false,
    "error_type": "AssertionError"
  },
  "76.py": {
    "successful": false,
    "error_type": "AssertionError"
  },
  "77.py": {
    "successful": false,
    "error_type": "ValueError",
    "error_message": "empty separator"
  },
  "78.py": {
    "successful": false,
    "error_type": "KeyError",
    "error_message": "19"
  },
  "79.py": {
    "successful": false,
    "error_type": "TypeError",
    "error_message": "'>=' not supported between instances of 'int' and 'str'"
  },
  "80.py": {
    "successful": false,
    "error_type": "AssertionError"
  },
  "83.py": {
    "successful": false,
    "error_type": "AttributeError",
    "error_message": "'int' object has no attribute 'upper'"
  },
  "84.py": {
    "successful": true
  },
  "85.py": {
    "successful": false,
    "error_type": "NameError",
    "error_message": "cannot access free variable 'roman_numeral' where it is not associated with a value in enclosing scope"
  },
  "86.py": {
    "successful": false,
    "error_type": "KeyError",
    "error_message": "19"
  },
  "87.py": {
    "successful": false,
    "error_type": "KeyError",
    "error_message": "'1'"
  },
  "88.py": {
    "successful": false,
    "error_type": "SyntaxError",
    "error_message": "unterminated string literal (detected at line 55)"
  },
  "89.py": {
    "successful": false,
    "error_type": "NameError",
    "error_message": "name 'roman_to_mini_roman' is not defined. Did you mean"
  },
  "90.py": {
    "successful": false,
    "error_type": "IndentationError",
    "error_message": "expected an indented block after 'if' statement on line 39"
  },
  "91.py": {
    "successful": false,
    "error_type": "TimeOut"
  },
  "92.py": {
    "successful": false,
    "error_type": "KeyError",
    "error_message": "19"
  },
  "93.py": {
    "successful": false,
    "error_type": "KeyError",
    "error_message": "'1'"
  },
  "95.py": {
    "successful": false,
    "error_type": "KeyError",
    "error_message": "'1'"
  },
  "97.py": {
    "successful": false,
    "error_type": "NameError",
    "error_message": "name 'roman_to_numeral' is not defined. Did you mean"
  },
  "98.py": {
    "successful": false,
    "error_type": "KeyError",
    "error_message": "'1'"
  },
  "99.py": {
    "successful": false,
    "error_type": "KeyError",
    "error_message": "1"
  },
  "100.py": {
    "successful": false,
    "error_type": "UnboundLocalError",
    "error_message": "cannot access local variable 'roman_numeras' where it is not associated with a value"
  },
  "101.py": {
    "successful": false,
    "error_type": "AssertionError"
  },
  "102.py": {
    "successful": false,
    "error_type": "TypeError",
    "error_message": "unsupported operand type(s) for +="
  },
  "104.py": {
    "successful": false,
    "error_type": "KeyError",
    "error_message": "19"
  },
  "105.py": {
    "successful": false,
    "error_type": "TypeError",
    "error_message": "'>=' not supported between instances of 'int' and 'str'"
  },
  "106.py": {
    "successful": false,
    "error_type": "NameError",
    "error_message": "name 'roman_to_mini_roman' is not defined. Did you mean"
  },
  "110.py": {
    "successful": false,
    "error_type": "KeyError",
    "error_message": "19"
  },
  "112.py": {
    "successful": false,
    "error_type": "TypeError",
    "error_message": "'>=' not supported between instances of 'int' and 'str'"
  },
  "113.py": {
    "successful": true
  },
  "114.py": {
    "successful": false,
    "error_type": "AttributeError",
    "error_message": "'int' object has no attribute 'lower'"
  },
  "115.py": {
    "successful": false,
    "error_type": "NameError",
    "error_message": "name 'result' is not defined"
  },
  "116.py": {
    "successful": false,
    "error_type": "AssertionError"
  },
  "117.py": {
    "successful": false,
    "error_type": "TypeError",
    "error_message": "'>=' not supported between instances of 'str' and 'int'"
  },
  "118.py": {
    "successful": false,
    "error_type": "AssertionError"
  },
  "119.py": {
    "successful": false,
    "error_type": "NameError",
    "error_message": "name 'roman_to_mini_roman' is not defined. Did you mean"
  },
  "120.py": {
    "successful": false,
    "error_type": "NameError",
    "error_message": "name 'get_roman_numeral' is not defined"
  },
  "121.py": {
    "successful": false,
    "error_type": "KeyError",
    "error_message": "'19'"
  },
  "122.py": {
    "successful": false,
    "error_type": "AssertionError"
  },
  "123.py": {
    "successful": false,
    "error_type": "TypeError",
    "error_message": "unsupported operand type(s) for +="
  },
  "124.py": {
    "successful": false,
    "error_type": "AssertionError"
  },
  "125.py": {
    "successful": false,
    "error_type": "TypeError",
    "error_message": "'>=' not supported between instances of 'int' and 'str'"
  },
  "126.py": {
    "successful": false,
    "error_type": "KeyError",
    "error_message": "'1'"
  },
  "127.py": {
    "successful": false,
    "error_type": "TypeError",
    "error_message": "unsupported operand type(s) for +="
  },
  "128.py": {
    "successful": false,
    "error_type": "TypeError",
    "error_message": "'>=' not supported between instances of 'int' and 'str'"
  },
  "129.py": {
    "successful": false,
    "error_type": "TypeError",
    "error_message": "unsupported operand type(s) for +="
  },
  "132.py": {
    "successful": false,
    "error_type": "NameError",
    "error_message": "name 'roman_to_mini_roman' is not defined. Did you mean"
  },
  "133.py": {
    "successful": false,
    "error_type": "AssertionError"
  },
  "135.py": {
    "successful": false,
    "error_type": "AssertionError"
  },
  "137.py": {
    "successful": false,
    "error_type": "AssertionError"
  },
  "138.py": {
    "successful": false,
    "error_type": "TypeError",
    "error_message": "'>=' not supported between instances of 'int' and 'str'"
  },
  "139.py": {
    "successful": false,
    "error_type": "KeyError",
    "error_message": "2"
  },
  "140.py": {
    "successful": false,
    "error_type": "KeyError",
    "error_message": "1"
  },
  "141.py": {
    "successful": false,
    "error_type": "TypeError",
    "error_message": "can only concatenate str (not \"int\") to str"
  },
  "142.py": {
    "successful": false,
    "error_type": "KeyError",
    "error_message": "19"
  },
  "143.py": {
    "successful": false,
    "error_type": "ValueError",
    "error_message": "empty separator"
  },
  "146.py": {
    "successful": false,
    "error_type": "KeyError",
    "error_message": "19"
  },
  "148.py": {
    "successful": false,
    "error_type": "NameError",
    "error_message": "name 'roman_to_numeral' is not defined. Did you mean"
  },
  "149.py": {
    "successful": false,
    "error_type": "KeyError",
    "error_message": "'1'"
  },
  "151.py": {
    "successful": false,
    "error_type": "SyntaxError",
    "error_message": "'(' was never closed"
  },
  "154.py": {
    "successful": false,
    "error_type": "ValueError",
    "error_message": "empty separator"
  },
  "155.py": {
    "successful": false,
    "error_type": "KeyError",
    "error_message": "'1'"
  },
  "157.py": {
    "successful": false,
    "error_type": "KeyError",
    "error_message": "19"
  },
  "160.py": {
    "successful": false,
    "error_type": "AssertionError"
  },
  "161.py": {
    "successful": false,
    "error_type": "KeyError",
    "error_message": "'1'"
  },
  "162.py": {
    "successful": false,
    "error_type": "TypeError",
    "error_message": "'>=' not supported between instances of 'int' and 'str'"
  },
  "164.py": {
    "successful": false,
    "error_type": "AssertionError"
  },
  "165.py": {
    "successful": false,
    "error_type": "KeyError",
    "error_message": "19"
  },
  "167.py": {
    "successful": false,
    "error_type": "SyntaxError",
    "error_message": "unterminated string literal (detected at line 22)"
  },
  "168.py": {
    "successful": false,
    "error_type": "KeyError",
    "error_message": "'1'"
  },
  "169.py": {
    "successful": false,
    "error_type": "TypeError",
    "error_message": "unsupported operand type(s) for +="
  },
  "170.py": {
    "successful": true
  },
  "172.py": {
    "successful": false,
    "error_type": "KeyError",
    "error_message": "2"
  },
  "174.py": {
    "successful": false,
    "error_type": "KeyError",
    "error_message": "'1'"
  },
  "175.py": {
    "successful": false,
    "error_type": "KeyError",
    "error_message": "'1'"
  },
  "176.py": {
    "successful": false,
    "error_type": "TypeError",
    "error_message": "'>' not supported between instances of 'int' and 'str'"
  },
  "177.py": {
    "successful": false,
    "error_type": "KeyError",
    "error_message": "1"
  },
  "178.py": {
    "successful": false,
    "error_type": "ValueError",
    "error_message": "empty separator"
  },
  "179.py": {
    "successful": false,
    "error_type": "SyntaxError",
    "error_message": "unterminated string literal (detected at line 43)"
  },
  "180.py": {
    "successful": false,
    "error_type": "AssertionError"
  },
  "181.py": {
    "successful": false,
    "error_type": "KeyError",
    "error_message": "'1'"
  },
  "184.py": {
    "successful": false,
    "error_type": "RecursionError",
    "error_message": "maximum recursion depth exceeded while getting the str of an object"
  },
  "185.py": {
    "successful": false,
    "error_type": "KeyError",
    "error_message": "'1'"
  },
  "186.py": {
    "successful": false,
    "error_type": "KeyError",
    "error_message": "19"
  },
  "188.py": {
    "successful": false,
    "error_type": "KeyError",
    "error_message": "'19'"
  },
  "190.py": {
    "successful": false,
    "error_type": "TypeError",
    "error_message": "unsupported operand type(s) for //"
  },
  "191.py": {
    "successful": false,
    "error_type": "KeyError",
    "error_message": "'1'"
  },
  "192.py": {
    "successful": false,
    "error_type": "AssertionError"
  },
  "193.py": {
    "successful": false,
    "error_type": "AssertionError"
  },
  "194.py": {
    "successful": false,
    "error_type": "KeyError",
    "error_message": "19"
  },
  "195.py": {
    "successful": false,
    "error_type": "TypeError",
    "error_message": "'>=' not supported between instances of 'int' and 'str'"
  },
  "197.py": {
    "successful": false,
    "error_type": "KeyError",
    "error_message": "19"
  },
  "198.py": {
    "successful": false,
    "error_type": "AssertionError"
  }
}