{
  "test_complete": true,
  "0.py": {
    "successful": false,
    "error_type": "NameError",
    "error_message": "name 'scores' is not defined"
  },
  "1.py": {
    "successful": false,
    "error_type": "NameError",
    "error_message": "name 'scores' is not defined"
  },
  "2.py": {
    "successful": false,
    "error_type": "NameError",
    "error_message": "name 'scores' is not defined"
  },
  "3.py": {
    "successful": true
  },
  "5.py": {
    "successful": false,
    "error_type": "SyntaxError",
    "error_message": "'[' was never closed"
  },
  "6.py": {
    "successful": true
  },
  "7.py": {
    "successful": false,
    "error_type": "AssertionError"
  },
  "8.py": {
    "successful": false,
    "error_type": "NameError",
    "error_message": "name 'scores' is not defined"
  },
  "10.py": {
    "successful": false,
    "error_type": "NameError",
    "error_message": "name 'score' is not defined"
  },
  "11.py": {
    "successful": false,
    "error_type": "NameError",
    "error_message": "name 'scores' is not defined"
  },
  "12.py": {
    "successful": true
  },
  "13.py": {
    "successful": false,
    "error_type": "NameError",
    "error_message": "name 'scores' is not defined"
  },
  "15.py": {
    "successful": false,
    "error_type": "NameError",
    "error_message": "name 'scores' is not defined"
  },
  "16.py": {
    "successful": true
  },
  "17.py": {
    "successful": false,
    "error_type": "NameError",
    "error_message": "name 'scores' is not defined"
  },
  "18.py": {
    "successful": false,
    "error_type": "NameError",
    "error_message": "name 'score' is not defined"
  },
  "19.py": {
    "successful": true
  },
  "20.py": {
    "successful": false,
    "error_type": "NameError",
    "error_message": "name 'scores' is not defined"
  },
  "22.py": {
    "successful": false,
    "error_type": "NameError",
    "error_message": "name 'scores' is not defined"
  },
  "23.py": {
    "successful": true
  },
  "24.py": {
    "successful": false,
    "error_type": "NameError",
    "error_message": "name 'scores' is not defined"
  },
  "27.py": {
    "successful": false,
    "error_type": "TypeError",
    "error_message": "unsupported operand type(s) for -"
  },
  "30.py": {
    "successful": false,
    "error_type": "NameError",
    "error_message": "name 'scores' is not defined"
  },
  "31.py": {
    "successful": true
  },
  "32.py": {
    "successful": false,
    "error_type": "NameError",
    "error_message": "name 'scores' is not defined"
  },
  "33.py": {
    "successful": false,
    "error_type": "NameError",
    "error_message": "name 'scores' is not defined"
  },
  "34.py": {
    "successful": false,
    "error_type": "NameError",
    "error_message": "name 'scores' is not defined"
  },
  "35.py": {
    "successful": false,
    "error_type": "NameError",
    "error_message": "name 'scores' is not defined"
  },
  "36.py": {
    "successful": false,
    "error_type": "NameError",
    "error_message": "name 'scores' is not defined"
  },
  "37.py": {
    "successful": false,
    "error_type": "NameError",
    "error_message": "name 'scores' is not defined"
  },
  "39.py": {
    "successful": false,
    "error_type": "NameError",
    "error_message": "name 'guesses' is not defined. Did you mean"
  },
  "40.py": {
    "successful": true
  },
  "44.py": {
    "successful": false,
    "error_type": "NameError",
    "error_message": "name 'scores' is not defined"
  },
  "45.py": {
    "successful": true
  },
  "46.py": {
    "successful": true
  },
  "48.py": {
    "successful": false,
    "error_type": "NameError",
    "error_message": "name 'score' is not defined"
  },
  "51.py": {
    "successful": false,
    "error_type": "NameError",
    "error_message": "name 'score' is not defined"
  },
  "53.py": {
    "successful": true
  },
  "55.py": {
    "successful": false,
    "error_type": "NameError",
    "error_message": "name 'scores' is not defined"
  },
  "58.py": {
    "successful": false,
    "error_type": "NameError",
    "error_message": "name 'scores' is not defined. Did you mean"
  },
  "59.py": {
    "successful": false,
    "error_type": "NameError",
    "error_message": "name 'guesses' is not defined. Did you mean"
  },
  "60.py": {
    "successful": false,
    "error_type": "NameError",
    "error_message": "name 'scores' is not defined"
  },
  "62.py": {
    "successful": false,
    "error_type": "NameError",
    "error_message": "name 'scores' is not defined"
  },
  "63.py": {
    "successful": false,
    "error_type": "AssertionError"
  },
  "64.py": {
    "successful": false,
    "error_type": "NameError",
    "error_message": "name 'scores' is not defined"
  },
  "67.py": {
    "successful": true
  },
  "68.py": {
    "successful": true
  },
  "71.py": {
    "successful": true
  },
  "72.py": {
    "successful": true
  },
  "74.py": {
    "successful": true
  },
  "75.py": {
    "successful": false,
    "error_type": "NameError",
    "error_message": "name 'scores' is not defined"
  },
  "76.py": {
    "successful": false,
    "error_type": "NameError",
    "error_message": "name 'scores' is not defined"
  },
  "77.py": {
    "successful": false,
    "error_type": "NameError",
    "error_message": "name 'scores' is not defined"
  },
  "78.py": {
    "successful": false,
    "error_type": "NameError",
    "error_message": "name 'scores' is not defined"
  },
  "79.py": {
    "successful": true
  },
  "80.py": {
    "successful": false,
    "error_type": "NameError",
    "error_message": "name 'scores' is not defined"
  },
  "81.py": {
    "successful": false,
    "error_type": "NameError",
    "error_message": "name 'scores' is not defined"
  },
  "82.py": {
    "successful": false,
    "error_type": "NameError",
    "error_message": "name 'scores' is not defined"
  },
  "83.py": {
    "successful": false,
    "error_type": "NameError",
    "error_message": "name 'score' is not defined"
  },
  "85.py": {
    "successful": false,
    "error_type": "NameError",
    "error_message": "name 'scores' is not defined"
  },
  "86.py": {
    "successful": false,
    "error_type": "NameError",
    "error_message": "name 'scores' is not defined"
  },
  "88.py": {
    "successful": false,
    "error_type": "NameError",
    "error_message": "name 'score' is not defined"
  },
  "89.py": {
    "successful": false,
    "error_type": "NameError",
    "error_message": "name 'scores' is not defined"
  },
  "90.py": {
    "successful": false,
    "error_type": "NameError",
    "error_message": "name 'scores' is not defined"
  },
  "91.py": {
    "successful": true
  },
  "95.py": {
    "successful": false,
    "error_type": "NameError",
    "error_message": "name 'scores' is not defined"
  },
  "97.py": {
    "successful": true
  },
  "98.py": {
    "successful": false,
    "error_type": "NameError",
    "error_message": "name 'scores' is not defined"
  },
  "99.py": {
    "successful": false,
    "error_type": "AssertionError"
  },
  "100.py": {
    "successful": false,
    "error_type": "NameError",
    "error_message": "name 'guesses' is not defined"
  },
  "101.py": {
    "successful": false,
    "error_type": "IndexError",
    "error_message": "list index out of range"
  },
  "102.py": {
    "successful": false,
    "error_type": "AssertionError"
  },
  "104.py": {
    "successful": false,
    "error_type": "NameError",
    "error_message": "name 'score' is not defined"
  },
  "106.py": {
    "successful": false,
    "error_type": "AssertionError"
  },
  "107.py": {
    "successful": false,
    "error_type": "NameError",
    "error_message": "name 'scores' is not defined"
  },
  "108.py": {
    "successful": false,
    "error_type": "NameError",
    "error_message": "name 'scores' is not defined"
  },
  "113.py": {
    "successful": false,
    "error_type": "NameError",
    "error_message": "name 'score' is not defined"
  },
  "114.py": {
    "successful": false,
    "error_type": "NameError",
    "error_message": "name 'scores' is not defined"
  },
  "115.py": {
    "successful": false,
    "error_type": "NameError",
    "error_message": "name 'scores' is not defined"
  },
  "117.py": {
    "successful": false,
    "error_type": "NameError",
    "error_message": "name 'scores' is not defined"
  },
  "118.py": {
    "successful": false,
    "error_type": "NameError",
    "error_message": "name 'scores' is not defined"
  },
  "119.py": {
    "successful": false,
    "error_type": "NameError",
    "error_message": "name 'scores' is not defined"
  },
  "121.py": {
    "successful": false,
    "error_type": "NameError",
    "error_message": "name 'scores' is not defined"
  },
  "122.py": {
    "successful": false,
    "error_type": "NameError",
    "error_message": "name 'scores' is not defined"
  },
  "123.py": {
    "successful": false,
    "error_type": "NameError",
    "error_message": "name 'scores' is not defined"
  },
  "124.py": {
    "successful": false,
    "error_type": "NameError",
    "error_message": "name 'scores' is not defined"
  },
  "126.py": {
    "successful": false,
    "error_type": "TypeError",
    "error_message": "unsupported operand type(s) for -"
  },
  "127.py": {
    "successful": true
  },
  "128.py": {
    "successful": false,
    "error_type": "NameError",
    "error_message": "name 'scores' is not defined"
  },
  "129.py": {
    "successful": true
  },
  "131.py": {
    "successful": false,
    "error_type": "NameError",
    "error_message": "name 'scores' is not defined"
  },
  "132.py": {
    "successful": false,
    "error_type": "NameError",
    "error_message": "name 'scores' is not defined"
  },
  "134.py": {
    "successful": false,
    "error_type": "NameError",
    "error_message": "name 'scores' is not defined"
  },
  "135.py": {
    "successful": false,
    "error_type": "NameError",
    "error_message": "name 'scores' is not defined"
  },
  "136.py": {
    "successful": false,
    "error_type": "NameError",
    "error_message": "name 'score' is not defined"
  },
  "137.py": {
    "successful": false,
    "error_type": "NameError",
    "error_message": "name 'scores' is not defined"
  },
  "138.py": {
    "successful": false,
    "error_type": "NameError",
    "error_message": "name 'scores' is not defined"
  },
  "140.py": {
    "successful": false,
    "error_type": "NameError",
    "error_message": "name 'scores' is not defined"
  },
  "143.py": {
    "successful": false,
    "error_type": "NameError",
    "error_message": "name 'scores' is not defined"
  },
  "145.py": {
    "successful": false,
    "error_type": "AssertionError"
  },
  "146.py": {
    "successful": false,
    "error_type": "NameError",
    "error_message": "name 'scores' is not defined"
  },
  "147.py": {
    "successful": false,
    "error_type": "NameError",
    "error_message": "name 'score' is not defined"
  },
  "148.py": {
    "successful": false,
    "error_type": "NameError",
    "error_message": "name 'scores' is not defined"
  },
  "149.py": {
    "successful": false,
    "error_type": "NameError",
    "error_message": "name 'score' is not defined"
  },
  "150.py": {
    "successful": false,
    "error_type": "NameError",
    "error_message": "name 'scores' is not defined"
  },
  "151.py": {
    "successful": false,
    "error_type": "AssertionError"
  },
  "152.py": {
    "successful": false,
    "error_type": "NameError",
    "error_message": "name 'scores' is not defined"
  },
  "153.py": {
    "successful": false,
    "error_type": "NameError",
    "error_message": "name 'scores' is not defined"
  },
  "156.py": {
    "successful": false,
    "error_type": "NameError",
    "error_message": "name 'scores' is not defined"
  },
  "157.py": {
    "successful": true
  },
  "158.py": {
    "successful": false,
    "error_type": "NameError",
    "error_message": "name 'scores' is not defined"
  },
  "160.py": {
    "successful": false,
    "error_type": "NameError",
    "error_message": "name 'scores' is not defined"
  },
  "161.py": {
    "successful": false,
    "error_type": "NameError",
    "error_message": "name 'scores' is not defined"
  },
  "162.py": {
    "successful": false,
    "error_type": "NameError",
    "error_message": "name 'scores' is not defined"
  },
  "163.py": {
    "successful": false,
    "error_type": "NameError",
    "error_message": "name 'score' is not defined"
  },
  "165.py": {
    "successful": false,
    "error_type": "NameError",
    "error_message": "name 'scores' is not defined"
  },
  "166.py": {
    "successful": false,
    "error_type": "NameError",
    "error_message": "name 'scores' is not defined"
  },
  "167.py": {
    "successful": false,
    "error_type": "NameError",
    "error_message": "name 'scores' is not defined"
  },
  "168.py": {
    "successful": false,
    "error_type": "NameError",
    "error_message": "name 'scores' is not defined"
  },
  "170.py": {
    "successful": false,
    "error_type": "NameError",
    "error_message": "name 'scores' is not defined"
  },
  "171.py": {
    "successful": false,
    "error_type": "NameError",
    "error_message": "name 'score' is not defined"
  },
  "172.py": {
    "successful": false,
    "error_type": "AssertionError"
  },
  "174.py": {
    "successful": false,
    "error_type": "NameError",
    "error_message": "name 'scores' is not defined"
  },
  "175.py": {
    "successful": false,
    "error_type": "NameError",
    "error_message": "name 'score' is not defined"
  },
  "176.py": {
    "successful": false,
    "error_type": "NameError",
    "error_message": "name 'score' is not defined"
  },
  "178.py": {
    "successful": false,
    "error_type": "AssertionError"
  },
  "179.py": {
    "successful": false,
    "error_type": "NameError",
    "error_message": "name 'scores' is not defined"
  },
  "181.py": {
    "successful": true
  },
  "183.py": {
    "successful": false,
    "error_type": "NameError",
    "error_message": "name 'scores' is not defined"
  },
  "184.py": {
    "successful": false,
    "error_type": "NameError",
    "error_message": "name 'scores' is not defined"
  },
  "185.py": {
    "successful": true
  },
  "186.py": {
    "successful": false,
    "error_type": "NameError",
    "error_message": "name 'scores' is not defined"
  },
  "188.py": {
    "successful": false,
    "error_type": "NameError",
    "error_message": "name 'scores' is not defined"
  },
  "189.py": {
    "successful": true
  },
  "190.py": {
    "successful": false,
    "error_type": "NameError",
    "error_message": "name 'score' is not defined"
  },
  "193.py": {
    "successful": false,
    "error_type": "NameError",
    "error_message": "name 'scores' is not defined"
  },
  "194.py": {
    "successful": true
  },
  "199.py": {
    "successful": false,
    "error_type": "NameError",
    "error_message": "name 'scores' is not defined"
  }
}