{
  "test_complete": true,
  "0.py": {
    "successful": false,
    "error_type": "SyntaxError",
    "error_message": "unterminated string literal (detected at line 9)"
  },
  "1.py": {
    "successful": false,
    "error_type": "AssertionError"
  },
  "2.py": {
    "successful": false,
    "error_type": "NameError",
    "error_message": "name 'logging' is not defined"
  },
  "3.py": {
    "successful": false,
    "error_type": "ArithmeticError",
    "error_message": "Wrong operation."
  },
  "4.py": {
    "successful": false,
    "error_type": "SyntaxError",
    "error_message": "'(' was never closed"
  },
  "5.py": {
    "successful": false,
    "error_type": "ValueError",
    "error_message": "could not convert string to float"
  },
  "6.py": {
    "successful": false,
    "error_type": "IndentationError",
    "error_message": "expected an indented block after 'elif' statement on line 69"
  },
  "7.py": {
    "successful": false,
    "error_type": "NameError",
    "error_message": "name 'operate' is not defined. Did you mean"
  },
  "8.py": {
    "successful": false,
    "error_type": "TypeError",
    "error_message": "can only concatenate list (not \"str\") to list"
  },
  "9.py": {
    "successful": false,
    "error_type": "TypeError",
    "error_message": "globals must be a real dict; try eval(expr, {}, mapping)"
  },
  "10.py": {
    "successful": false,
    "error_type": "AttributeError",
    "error_message": "'list' object has no attribute 'split'"
  },
  "11.py": {
    "successful": false,
    "error_type": "AssertionError"
  },
  "12.py": {
    "successful": false,
    "error_type": "SyntaxError",
    "error_message": "'[' was never closed"
  },
  "13.py": {
    "successful": false,
    "error_type": "AttributeError",
    "error_message": "'list' object has no attribute 'len'"
  },
  "14.py": {
    "successful": false,
    "error_type": "NameError",
    "error_message": "name 'math' is not defined"
  },
  "15.py": {
    "successful": false,
    "error_type": "TypeError",
    "error_message": "list indices must be integers or slices, not list"
  },
  "16.py": {
    "successful": false,
    "error_type": "ValueError",
    "error_message": "too many values to unpack (expected 2)"
  },
  "17.py": {
    "successful": false,
    "error_type": "TypeError",
    "error_message": "sequence item 0"
  },
  "18.py": {
    "successful": false,
    "error_type": "NameError",
    "error_message": "name 'to_positive_int' is not defined"
  },
  "19.py": {
    "successful": false,
    "error_type": "SyntaxError",
    "error_message": "invalid syntax"
  },
  "20.py": {
    "successful": false,
    "error_type": "TypeError",
    "error_message": "'str' object is not callable"
  },
  "21.py": {
    "successful": false,
    "error_type": "IndentationError",
    "error_message": "expected an indented block after 'if' statement on line 6"
  },
  "22.py": {
    "successful": false,
    "error_type": "Exception",
    "error_message": "Invalid operator."
  },
  "23.py": {
    "successful": false,
    "error_type": "TypeError",
    "error_message": "can only concatenate str (not \"int\") to str"
  },
  "24.py": {
    "successful": false,
    "error_type": "AssertionError"
  },
  "25.py": {
    "successful": false,
    "error_type": "AssertionError"
  },
  "26.py": {
    "successful": false,
    "error_type": "SyntaxError",
    "error_message": "unterminated string literal (detected at line 7)"
  },
  "27.py": {
    "successful": false,
    "error_type": "AssertionError"
  },
  "28.py": {
    "successful": false,
    "error_type": "AssertionError"
  },
  "29.py": {
    "successful": false,
    "error_type": "ValueError",
    "error_message": "length of operator list!= length of operand list"
  },
  "30.py": {
    "successful": false,
    "error_type": "TypeError",
    "error_message": "sequence item 0"
  },
  "31.py": {
    "successful": false,
    "error_type": "IndexError",
    "error_message": "string index out of range"
  },
  "32.py": {
    "successful": false,
    "error_type": "TypeError",
    "error_message": "list indices must be integers or slices, not str"
  },
  "33.py": {
    "successful": false,
    "error_type": "AssertionError"
  },
  "34.py": {
    "successful": false,
    "error_type": "NameError",
    "error_message": "name '_len' is not defined. Did you mean"
  },
  "35.py": {
    "successful": false,
    "error_type": "NameError",
    "error_message": "name 'operator_dict' is not defined. Did you mean"
  },
  "36.py": {
    "successful": false,
    "error_type": "IndexError",
    "error_message": "list index out of range"
  },
  "37.py": {
    "successful": false,
    "error_type": "ValueError",
    "error_message": "The length of operator list is equal to the length of operand list minus one."
  },
  "38.py": {
    "successful": false,
    "error_type": "TypeError",
    "error_message": "unsupported operand type(s) for +="
  },
  "39.py": {
    "successful": false,
    "error_type": "ArithmeticError",
    "error_message": "The length of operator list must be equal to the length of operand list minus one"
  },
  "40.py": {
    "successful": false,
    "error_type": "SyntaxError",
    "error_message": "invalid syntax"
  },
  "41.py": {
    "successful": false,
    "error_type": "ArithmeticError",
    "error_message": "Invalid basic algebra operation"
  },
  "42.py": {
    "successful": false,
    "error_type": "AssertionError"
  },
  "43.py": {
    "successful": false,
    "error_type": "TypeError",
    "error_message": "can only concatenate str (not \"list\") to str"
  },
  "44.py": {
    "successful": false,
    "error_type": "ValueError",
    "error_message": "The length operator list is not equal to 2."
  },
  "45.py": {
    "successful": false,
    "error_type": "AttributeError",
    "error_message": "'list' object has no attribute 'upper'"
  },
  "46.py": {
    "successful": false,
    "error_type": "AssertionError"
  },
  "47.py": {
    "successful": false,
    "error_type": "TypeError",
    "error_message": "unsupported operand type(s) for +="
  },
  "48.py": {
    "successful": false,
    "error_type": "TypeError",
    "error_message": "'>' not supported between instances of 'str' and 'int'"
  },
  "49.py": {
    "successful": false,
    "error_type": "AssertionError"
  },
  "50.py": {
    "successful": false,
    "error_type": "AssertionError"
  },
  "51.py": {
    "successful": false,
    "error_type": "AssertionError"
  },
  "52.py": {
    "successful": false,
    "error_type": "ValueError",
    "error_message": "The length of operator and operand lists must have equal length."
  },
  "53.py": {
    "successful": false,
    "error_type": "SyntaxError",
    "error_message": "invalid syntax"
  },
  "54.py": {
    "successful": false,
    "error_type": "TimeOut"
  },
  "55.py": {
    "successful": false,
    "error_type": "SyntaxError",
    "error_message": "expected '"
  },
  "56.py": {
    "successful": false,
    "error_type": "SyntaxError",
    "error_message": "expected 'except' or 'finally' block"
  },
  "57.py": {
    "successful": false,
    "error_type": "TypeError",
    "error_message": "object of type 'map' has no len()"
  },
  "58.py": {
    "successful": false,
    "error_type": "RecursionError",
    "error_message": "maximum recursion depth exceeded in comparison"
  },
  "59.py": {
    "successful": false,
    "error_type": "AssertionError"
  },
  "60.py": {
    "successful": false,
    "error_type": "AssertionError"
  },
  "61.py": {
    "successful": false,
    "error_type": "ValueError",
    "error_message": "0 is not in list"
  },
  "62.py": {
    "successful": false,
    "error_type": "SyntaxError",
    "error_message": "invalid syntax"
  },
  "63.py": {
    "successful": false,
    "error_type": "TypeError",
    "error_message": "unsupported operand type(s) for -"
  },
  "64.py": {
    "successful": false,
    "error_type": "TypeError",
    "error_message": "can't multiply sequence by non-int of type 'str'"
  },
  "65.py": {
    "successful": false,
    "error_type": "TypeError",
    "error_message": "eval() arg 1 must be a string, bytes or code object"
  },
  "66.py": {
    "successful": false,
    "error_type": "TypeError",
    "error_message": "object of type 'int' has no len()"
  },
  "67.py": {
    "successful": false,
    "error_type": "AssertionError"
  },
  "68.py": {
    "successful": false,
    "error_type": "AttributeError",
    "error_message": "'list' object has no attribute 'strip'"
  },
  "69.py": {
    "successful": false,
    "error_type": "NameError",
    "error_message": "name 'operand_len' is not defined. Did you mean"
  },
  "70.py": {
    "successful": false,
    "error_type": "NameError",
    "error_message": "name 'math' is not defined"
  },
  "71.py": {
    "successful": false,
    "error_type": "AssertionError"
  },
  "72.py": {
    "successful": false,
    "error_type": "NameError",
    "error_message": "name 'evaluate_expression' is not defined"
  },
  "73.py": {
    "successful": false,
    "error_type": "AssertionError"
  },
  "74.py": {
    "successful": false,
    "error_type": "TypeError",
    "error_message": "list indices must be integers or slices, not str"
  },
  "75.py": {
    "successful": false,
    "error_type": "IndexError",
    "error_message": "list index out of range"
  },
  "76.py": {
    "successful": false,
    "error_type": "AttributeError",
    "error_message": "'list' object has no attribute 'func'"
  },
  "77.py": {
    "successful": false,
    "error_type": "AssertionError"
  },
  "78.py": {
    "successful": false,
    "error_type": "SyntaxError",
    "error_message": "'(' was never closed"
  },
  "79.py": {
    "successful": false,
    "error_type": "AssertionError"
  },
  "80.py": {
    "successful": false,
    "error_type": "ValueError",
    "error_message": "Length of operator list must be equal to the length of operand list minus one."
  },
  "81.py": {
    "successful": false,
    "error_type": "TypeError",
    "error_message": "'int' object is not subscriptable"
  },
  "82.py": {
    "successful": false,
    "error_type": "SyntaxError",
    "error_message": "invalid syntax"
  },
  "83.py": {
    "successful": false,
    "error_type": "AssertionError"
  },
  "84.py": {
    "successful": false,
    "error_type": "TypeError",
    "error_message": "unsupported operand type(s) for +="
  },
  "85.py": {
    "successful": false,
    "error_type": "IndexError",
    "error_message": "list index out of range"
  },
  "86.py": {
    "successful": false,
    "error_type": "TypeError",
    "error_message": "unsupported operand type(s) for +="
  },
  "87.py": {
    "successful": false,
    "error_type": "ValueError",
    "error_message": "'**' is not in list"
  },
  "88.py": {
    "successful": false,
    "error_type": "SyntaxError",
    "error_message": "'(' was never closed"
  },
  "89.py": {
    "successful": false,
    "error_type": "RecursionError",
    "error_message": "maximum recursion depth exceeded in comparison"
  },
  "90.py": {
    "successful": false,
    "error_type": "NameError",
    "error_message": "name 'operate' is not defined. Did you mean"
  },
  "91.py": {
    "successful": false,
    "error_type": "SyntaxError",
    "error_message": "invalid syntax"
  },
  "92.py": {
    "successful": false,
    "error_type": "AssertionError"
  },
  "93.py": {
    "successful": false,
    "error_type": "ValueError",
    "error_message": "Invalid algebric expression."
  },
  "94.py": {
    "successful": false,
    "error_type": "TypeError",
    "error_message": "'int' object is not callable"
  },
  "95.py": {
    "successful": false,
    "error_type": "SyntaxError",
    "error_message": "invalid syntax"
  },
  "96.py": {
    "successful": false,
    "error_type": "IndexError",
    "error_message": "list index out of range"
  },
  "97.py": {
    "successful": false,
    "error_type": "ValueError",
    "error_message": "invalid literal for int() with base 10"
  },
  "98.py": {
    "successful": false,
    "error_type": "NameError",
    "error_message": "name 'do_algebra_impl' is not defined"
  },
  "99.py": {
    "successful": false,
    "error_type": "AssertionError"
  },
  "100.py": {
    "successful": false,
    "error_type": "ValueError",
    "error_message": "Incompatible length of operand and operator list"
  },
  "101.py": {
    "successful": false,
    "error_type": "AssertionError"
  },
  "102.py": {
    "successful": false,
    "error_type": "IndexError",
    "error_message": "list index out of range"
  },
  "103.py": {
    "successful": false,
    "error_type": "SyntaxError",
    "error_message": "'(' was never closed"
  },
  "104.py": {
    "successful": false,
    "error_type": "TypeError",
    "error_message": "can't multiply sequence by non-int of type 'str'"
  },
  "105.py": {
    "successful": false,
    "error_type": "AssertionError"
  },
  "106.py": {
    "successful": false,
    "error_type": "IndexError",
    "error_message": "list index out of range"
  },
  "107.py": {
    "successful": false,
    "error_type": "SyntaxError",
    "error_message": "'[' was never closed"
  },
  "108.py": {
    "successful": false,
    "error_type": "SyntaxError",
    "error_message": "expected 'except' or 'finally' block"
  },
  "109.py": {
    "successful": false,
    "error_type": "ValueError",
    "error_message": "invalid literal for int() with base 10"
  },
  "110.py": {
    "successful": false,
    "error_type": "ValueError",
    "error_message": "Invalid number of operators."
  },
  "111.py": {
    "successful": false,
    "error_type": "AssertionError"
  },
  "112.py": {
    "successful": false,
    "error_type": "TypeError",
    "error_message": "object of type 'int' has no len()"
  },
  "113.py": {
    "successful": false,
    "error_type": "NameError",
    "error_message": "name 'Expr' is not defined"
  },
  "114.py": {
    "successful": false,
    "error_type": "AttributeError",
    "error_message": "'list' object has no attribute 'split'"
  },
  "115.py": {
    "successful": false,
    "error_type": "TypeError",
    "error_message": "unsupported operand type(s) for +="
  },
  "116.py": {
    "successful": false,
    "error_type": "TypeError",
    "error_message": "list indices must be integers or slices, not str"
  },
  "117.py": {
    "successful": false,
    "error_type": "AssertionError"
  },
  "118.py": {
    "successful": false,
    "error_type": "ArithmeticError",
    "error_message": "the length of operator and operand lists are not equal"
  },
  "119.py": {
    "successful": false,
    "error_type": "ArithmeticError",
    "error_message": "The lengths of operands and operators do not match. The number of operands should be equal to the number of operators."
  },
  "120.py": {
    "successful": false,
    "error_type": "NameError",
    "error_message": "name 'algebra' is not defined. Did you mean"
  },
  "121.py": {
    "successful": false,
    "error_type": "TypeError",
    "error_message": "can only concatenate str (not \"int\") to str"
  },
  "122.py": {
    "successful": false,
    "error_type": "NameError",
    "error_message": "name 'basic_ops' is not defined"
  },
  "123.py": {
    "successful": false,
    "error_type": "AttributeError",
    "error_message": "'list' object has no attribute 'upper'"
  },
  "124.py": {
    "successful": false,
    "error_type": "TypeError",
    "error_message": "unsupported operand type(s) for +"
  },
  "125.py": {
    "successful": false,
    "error_type": "ValueError",
    "error_message": "The length of operator list must be smaller than or equal to the length of operand list minus one."
  },
  "126.py": {
    "successful": false,
    "error_type": "AssertionError"
  },
  "127.py": {
    "successful": false,
    "error_type": "AssertionError"
  },
  "128.py": {
    "successful": false,
    "error_type": "AttributeError",
    "error_message": "'list' object has no attribute 'lower'"
  },
  "129.py": {
    "successful": false,
    "error_type": "SyntaxError",
    "error_message": "unterminated string literal (detected at line 45)"
  },
  "130.py": {
    "successful": false,
    "error_type": "SyntaxError",
    "error_message": "unterminated string literal (detected at line 7)"
  },
  "131.py": {
    "successful": false,
    "error_type": "NameError",
    "error_message": "name 'Operator' is not defined. Did you mean"
  },
  "132.py": {
    "successful": false,
    "error_type": "AssertionError"
  },
  "133.py": {
    "successful": false,
    "error_type": "SyntaxError",
    "error_message": "invalid syntax"
  },
  "134.py": {
    "successful": false,
    "error_type": "TypeError",
    "error_message": "unsupported operand type(s) for +="
  },
  "135.py": {
    "successful": false,
    "error_type": "ValueError",
    "error_message": "operand and operator list must be of same length"
  },
  "136.py": {
    "successful": false,
    "error_type": "TypeError",
    "error_message": "'str' object is not callable"
  },
  "137.py": {
    "successful": false,
    "error_type": "TypeError",
    "error_message": "can only concatenate str (not \"int\") to str"
  },
  "138.py": {
    "successful": false,
    "error_type": "IndentationError",
    "error_message": "expected an indented block after 'else' statement on line 23"
  },
  "139.py": {
    "successful": false,
    "error_type": "SyntaxError",
    "error_message": "'(' was never closed"
  },
  "140.py": {
    "successful": false,
    "error_type": "NameError",
    "error_message": "name 'EvaluationException' is not defined"
  },
  "141.py": {
    "successful": false,
    "error_type": "ModuleNotFoundError",
    "error_message": "No module named 'sympy'"
  },
  "142.py": {
    "successful": false,
    "error_type": "TypeError",
    "error_message": "unsupported operand type(s) for ** or pow()"
  },
  "143.py": {
    "successful": false,
    "error_type": "SyntaxError",
    "error_message": "unterminated string literal (detected at line 5)"
  },
  "144.py": {
    "successful": false,
    "error_type": "IndentationError",
    "error_message": "expected an indented block after 'for' statement on line 9"
  },
  "145.py": {
    "successful": false,
    "error_type": "SyntaxError",
    "error_message": "invalid syntax"
  },
  "146.py": {
    "successful": false,
    "error_type": "AssertionError"
  },
  "147.py": {
    "successful": false,
    "error_type": "ValueError",
    "error_message": "invalid literal for int() with base 10"
  },
  "148.py": {
    "successful": false,
    "error_type": "SyntaxError",
    "error_message": "invalid syntax"
  },
  "149.py": {
    "successful": false,
    "error_type": "TypeError",
    "error_message": "eval() arg 1 must be a string, bytes or code object"
  },
  "150.py": {
    "successful": false,
    "error_type": "NameError",
    "error_message": "name 'reverse_list' is not defined"
  },
  "151.py": {
    "successful": false,
    "error_type": "AttributeError",
    "error_message": "'list' object has no attribute 'lower'"
  },
  "152.py": {
    "successful": false,
    "error_type": "IndexError",
    "error_message": "string index out of range"
  },
  "153.py": {
    "successful": false,
    "error_type": "TypeError",
    "error_message": "'in <string>' requires string as left operand, not list"
  },
  "154.py": {
    "successful": false,
    "error_type": "IndexError",
    "error_message": "string index out of range"
  },
  "155.py": {
    "successful": false,
    "error_type": "IndexError",
    "error_message": "list index out of range"
  },
  "156.py": {
    "successful": false,
    "error_type": "SyntaxError",
    "error_message": "invalid syntax"
  },
  "157.py": {
    "successful": false,
    "error_type": "Exception"
  },
  "158.py": {
    "successful": false,
    "error_type": "AssertionError"
  },
  "159.py": {
    "successful": false,
    "error_type": "AssertionError"
  },
  "160.py": {
    "successful": false,
    "error_type": "TypeError",
    "error_message": "unsupported operand type(s) for +"
  },
  "161.py": {
    "successful": false,
    "error_type": "AssertionError"
  },
  "162.py": {
    "successful": false,
    "error_type": "ValueError",
    "error_message": "Invalid number of operands. Expected 3 or 4. Got [2, 3, 4, 5]."
  },
  "163.py": {
    "successful": false,
    "error_type": "SyntaxError",
    "error_message": "'(' was never closed"
  },
  "164.py": {
    "successful": false,
    "error_type": "NameError",
    "error_message": "name 'operate' is not defined. Did you mean"
  },
  "165.py": {
    "successful": false,
    "error_type": "NameError",
    "error_message": "name 'xrange' is not defined. Did you mean"
  },
  "166.py": {
    "successful": false,
    "error_type": "IndexError",
    "error_message": "list index out of range"
  },
  "167.py": {
    "successful": false,
    "error_type": "AttributeError",
    "error_message": "'int' object has no attribute 'index'"
  },
  "168.py": {
    "successful": false,
    "error_type": "ArithmeticError",
    "error_message": "The length of operator list must be smaller than the length of operand list minus one."
  },
  "169.py": {
    "successful": false,
    "error_type": "ValueError",
    "error_message": "'**' is not in list"
  },
  "170.py": {
    "successful": false,
    "error_type": "Exception",
    "error_message": "Operand and Operator list must have the same length."
  },
  "171.py": {
    "successful": false,
    "error_type": "TypeError",
    "error_message": "'<' not supported between instances of 'int' and 'list'"
  },
  "172.py": {
    "successful": false,
    "error_type": "SyntaxError",
    "error_message": "'(' was never closed"
  },
  "173.py": {
    "successful": false,
    "error_type": "NameError",
    "error_message": "name 'generate_operator_string' is not defined"
  },
  "174.py": {
    "successful": false,
    "error_type": "NameError",
    "error_message": "name 'check_math_operator' is not defined"
  },
  "175.py": {
    "successful": false,
    "error_type": "TypeError",
    "error_message": "object of type 'int' has no len()"
  },
  "176.py": {
    "successful": false,
    "error_type": "SyntaxError",
    "error_message": "unterminated string literal (detected at line 15)"
  },
  "177.py": {
    "successful": false,
    "error_type": "AttributeError",
    "error_message": "'list' object has no attribute 'split'"
  },
  "178.py": {
    "successful": false,
    "error_type": "AssertionError"
  },
  "179.py": {
    "successful": false,
    "error_type": "RecursionError",
    "error_message": "maximum recursion depth exceeded in comparison"
  },
  "180.py": {
    "successful": false,
    "error_type": "AssertionError"
  },
  "181.py": {
    "successful": false,
    "error_type": "TypeError",
    "error_message": "unsupported operand type(s) for +="
  },
  "182.py": {
    "successful": false,
    "error_type": "ValueError",
    "error_message": "The length of operator list is different from the length of operand list"
  },
  "183.py": {
    "successful": false,
    "error_type": "TypeError",
    "error_message": "unsupported operand type(s) for +="
  },
  "184.py": {
    "successful": false,
    "error_type": "IndexError",
    "error_message": "pop index out of range"
  },
  "185.py": {
    "successful": false,
    "error_type": "TypeError",
    "error_message": "operator list length must be equal or larger than operand list"
  },
  "186.py": {
    "successful": false,
    "error_type": "AttributeError",
    "error_message": "'list' object has no attribute 'split'"
  },
  "187.py": {
    "successful": false,
    "error_type": "AssertionError"
  },
  "188.py": {
    "successful": false,
    "error_type": "NameError",
    "error_message": "name 'do_terminal' is not defined"
  },
  "189.py": {
    "successful": false,
    "error_type": "AssertionError"
  },
  "190.py": {
    "successful": false,
    "error_type": "IndexError",
    "error_message": "string index out of range"
  },
  "191.py": {
    "successful": false,
    "error_type": "IndexError",
    "error_message": "list index out of range"
  },
  "192.py": {
    "successful": false,
    "error_type": "AttributeError",
    "error_message": "'int' object has no attribute 'split'"
  },
  "193.py": {
    "successful": false,
    "error_type": "IndexError",
    "error_message": "list index out of range"
  },
  "194.py": {
    "successful": false,
    "error_type": "AssertionError"
  },
  "195.py": {
    "successful": false,
    "error_type": "AssertionError"
  },
  "196.py": {
    "successful": false,
    "error_type": "Exception",
    "error_message": "Invalid operator character"
  },
  "197.py": {
    "successful": false,
    "error_type": "SyntaxError",
    "error_message": "'(' was never closed"
  },
  "198.py": {
    "successful": false,
    "error_type": "AttributeError",
    "error_message": "'list' object has no attribute 'strip'"
  },
  "199.py": {
    "successful": false,
    "error_type": "IndexError",
    "error_message": "list index out of range"
  }
}