{
  "decision_boundary": 0.5,
  "iter_1": {
    "pass": {
      "precision": 0.8895955262172995,
      "recall": 0.9959193711459462,
      "f1-score": 0.9397596574638978,
      "support": 329361.0
    },
    "fail": {
      "precision": 0.21586931155192532,
      "recall": 0.00900703522481073,
      "f1-score": 0.017292547846610426,
      "support": 41079.0
    },
    "accuracy": 0.886478242090487,
    "macro avg": {
      "precision": 0.5527324188846124,
      "recall": 0.5024632031853785,
      "f1-score": 0.4785261026552541,
      "support": 370440.0
    },
    "weighted avg": {
      "precision": 0.8148843741488434,
      "recall": 0.886478242090487,
      "f1-score": 0.8374650175870795,
      "support": 370440.0
    }
  },
  "iter_2": {
    "pass": {
      "precision": 0.890028017130319,
      "recall": 0.9959482960080852,
      "f1-score": 0.9400138070507624,
      "support": 329491.0
    },
    "fail": {
      "precision": 0.231433506044905,
      "recall": 0.009817089550416372,
      "f1-score": 0.018835215293070327,
      "support": 40949.0
    },
    "accuracy": 0.8869398553072022,
    "macro avg": {
      "precision": 0.560730761587612,
      "recall": 0.5028826927792508,
      "f1-score": 0.47942451117191637,
      "support": 370440.0
    },
    "weighted avg": {
      "precision": 0.8172259800003207,
      "recall": 0.8869398553072022,
      "f1-score": 0.8381853269895225,
      "support": 370440.0
    }
  },
  "iter_3": {
    "pass": {
      "precision": 0.8895159168996554,
      "recall": 0.9959919474580748,
      "f1-score": 0.9397475418853567,
      "support": 329337.0
    },
    "fail": {
      "precision": 0.21475312314098752,
      "recall": 0.008782813906527505,
      "f1-score": 0.0168754674644727,
      "support": 41103.0
    },
    "accuracy": 0.8864539466580282,
    "macro avg": {
      "precision": 0.5521345200203215,
      "recall": 0.5023873806823012,
      "f1-score": 0.4783115046749147,
      "support": 370440.0
    },
    "weighted avg": {
      "precision": 0.8146460996232745,
      "recall": 0.8864539466580282,
      "f1-score": 0.8373482035986661,
      "support": 370440.0
    }
  },
  "iter_4": {
    "pass": {
      "precision": 0.8898917603920601,
      "recall": 0.9958843739756462,
      "f1-score": 0.939909337649224,
      "support": 329476.0
    },
    "fail": {
      "precision": 0.21208599651365484,
      "recall": 0.008910262669661165,
      "f1-score": 0.01710202647299988,
      "support": 40964.0
    },
    "accuracy": 0.8867427923550373,
    "macro avg": {
      "precision": 0.5509888784528575,
      "recall": 0.5023973183226537,
      "f1-score": 0.47850568206111194,
      "support": 370440.0
    },
    "weighted avg": {
      "precision": 0.8149386362383105,
      "recall": 0.8867427923550373,
      "f1-score": 0.837863449799578,
      "support": 370440.0
    }
  },
  "iter_5": {
    "pass": {
      "precision": 0.8900169204737732,
      "recall": 0.9960942123328205,
      "f1-score": 0.9400726054174812,
      "support": 329511.0
    },
    "fail": {
      "precision": 0.22282608695652173,
      "recall": 0.009015612401964378,
      "f1-score": 0.0173300457907714,
      "support": 40929.0
    },
    "accuracy": 0.8870343375445416,
    "macro avg": {
      "precision": 0.5564215037151474,
      "recall": 0.5025549123673925,
      "f1-score": 0.47870132560412626,
      "support": 370440.0
    },
    "weighted avg": {
      "precision": 0.8163006543442309,
      "recall": 0.8870343375445416,
      "f1-score": 0.8381210607058907,
      "support": 370440.0
    }
  },
  "iter_6": {
    "pass": {
      "precision": 0.8895830621718946,
      "recall": 0.9961104616739286,
      "f1-score": 0.9398377663726905,
      "support": 329345.0
    },
    "fail": {
      "precision": 0.22644927536231885,
      "recall": 0.009125197712617108,
      "f1-score": 0.017543449276040325,
      "support": 41095.0
    },
    "accuracy": 0.8866186157002484,
    "macro avg": {
      "precision": 0.5580161687671068,
      "recall": 0.5026178296932728,
      "f1-score": 0.4786906078243654,
      "support": 370440.0
    },
    "weighted avg": {
      "precision": 0.8160178884084254,
      "recall": 0.8866186157002484,
      "f1-score": 0.8375224522568098,
      "support": 370440.0
    }
  },
  "iter_7": {
    "pass": {
      "precision": 0.8901875811871012,
      "recall": 0.9960069181054101,
      "f1-score": 0.9401289099363184,
      "support": 329570.0
    },
    "fail": {
      "precision": 0.22268163024217366,
      "recall": 0.009224369953511133,
      "f1-score": 0.017714916711697955,
      "support": 40870.0
    },
    "accuracy": 0.8871369182593672,
    "macro avg": {
      "precision": 0.5564346057146374,
      "recall": 0.5026156440294606,
      "f1-score": 0.4789219133240082,
      "support": 370440.0
    },
    "weighted avg": {
      "precision": 0.8165428122228446,
      "recall": 0.8871369182593672,
      "f1-score": 0.8383605806438817,
      "support": 370440.0
    }
  },
  "iter_8": {
    "pass": {
      "precision": 0.889123330395281,
      "recall": 0.9959232526489744,
      "f1-score": 0.9394978428419751,
      "support": 329184.0
    },
    "fail": {
      "precision": 0.21749271137026238,
      "recall": 0.009041109171999224,
      "f1-score": 0.01736054548416374,
      "support": 41256.0
    },
    "accuracy": 0.8860139293812763,
    "macro avg": {
      "precision": 0.5533080208827716,
      "recall": 0.5024821809104868,
      "f1-score": 0.47842919416306945,
      "support": 370440.0
    },
    "weighted avg": {
      "precision": 0.8143236521248561,
      "recall": 0.8860139293812763,
      "f1-score": 0.8367991700750119,
      "support": 370440.0
    }
  },
  "iter_9": {
    "pass": {
      "precision": 0.8904368858326644,
      "recall": 0.9961203039449138,
      "f1-score": 0.9403184448004673,
      "support": 329665.0
    },
    "fail": {
      "precision": 0.22390776699029127,
      "recall": 0.009049662783568363,
      "f1-score": 0.01739622374655258,
      "support": 40775.0
    },
    "accuracy": 0.8874716553287982,
    "macro avg": {
      "precision": 0.5571723264114778,
      "recall": 0.5025849833642411,
      "f1-score": 0.47885733427350996,
      "support": 370440.0
    },
    "weighted avg": {
      "precision": 0.8170708216365793,
      "recall": 0.8874716553287982,
      "f1-score": 0.8387307286697218,
      "support": 370440.0
    }
  },
  "iter_10": {
    "pass": {
      "precision": 0.8893526088996276,
      "recall": 0.9960244666893435,
      "f1-score": 0.9396708695010608,
      "support": 329264.0
    },
    "fail": {
      "precision": 0.2222222222222222,
      "recall": 0.009082960948125121,
      "f1-score": 0.017452577054994284,
      "support": 41176.0
    },
    "accuracy": 0.8863216715257531,
    "macro avg": {
      "precision": 0.5557874155609249,
      "recall": 0.5025537138187344,
      "f1-score": 0.47856172327802754,
      "support": 370440.0
    },
    "weighted avg": {
      "precision": 0.8151981957643593,
      "recall": 0.8863216715257531,
      "f1-score": 0.8371623379986334,
      "support": 370440.0
    }
  },
  "iter_11": {
    "pass": {
      "precision": 0.8902125443478827,
      "recall": 0.9958611984318676,
      "f1-score": 0.9400779101741522,
      "support": 329564.0
    },
    "fail": {
      "precision": 0.22675736961451248,
      "recall": 0.009785693316371465,
      "f1-score": 0.01876172607879925,
      "support": 40876.0
    },
    "accuracy": 0.8870532339920095,
    "macro avg": {
      "precision": 0.5584849569811976,
      "recall": 0.5028234458741195,
      "f1-score": 0.4794198181264757,
      "support": 370440.0
    },
    "weighted avg": {
      "precision": 0.8170039445141681,
      "recall": 0.8870532339920095,
      "f1-score": 0.8384157777341306,
      "support": 370440.0
    }
  },
  "iter_12": {
    "pass": {
      "precision": 0.8897809070740056,
      "recall": 0.9958292607410195,
      "f1-score": 0.9398229581459306,
      "support": 329438.0
    },
    "fail": {
      "precision": 0.2094361334867664,
      "recall": 0.008877615726062143,
      "f1-score": 0.017033224145999063,
      "support": 41002.0
    },
    "accuracy": 0.8865889212827989,
    "macro avg": {
      "precision": 0.549608520280386,
      "recall": 0.5023534382335408,
      "f1-score": 0.47842809114596485,
      "support": 370440.0
    },
    "weighted avg": {
      "precision": 0.8144772238685635,
      "recall": 0.8865889212827989,
      "f1-score": 0.8376843535852321,
      "support": 370440.0
    }
  },
  "iter_13": {
    "pass": {
      "precision": 0.8883549775332391,
      "recall": 0.9961200710306746,
      "f1-score": 0.9391562111636534,
      "support": 328872.0
    },
    "fail": {
      "precision": 0.2372982665869695,
      "recall": 0.009550615858352578,
      "f1-score": 0.018362202539256724,
      "support": 41568.0
    },
    "accuracy": 0.8854146420472951,
    "macro avg": {
      "precision": 0.5628266220601044,
      "recall": 0.5028353434445135,
      "f1-score": 0.47875920685145507,
      "support": 370440.0
    },
    "weighted avg": {
      "precision": 0.8152982737198968,
      "recall": 0.8854146420472951,
      "f1-score": 0.8358316097423736,
      "support": 370440.0
    }
  },
  "iter_14": {
    "pass": {
      "precision": 0.8898082159089676,
      "recall": 0.996020350549137,
      "f1-score": 0.9399232855992918,
      "support": 329426.0
    },
    "fail": {
      "precision": 0.225177304964539,
      "recall": 0.009289510898717511,
      "f1-score": 0.01784292605254531,
      "support": 41014.0
    },
    "accuracy": 0.8867724867724868,
    "macro avg": {
      "precision": 0.5574927604367533,
      "recall": 0.5026549307239272,
      "f1-score": 0.4788831058259186,
      "support": 370440.0
    },
    "weighted avg": {
      "precision": 0.816222285173964,
      "recall": 0.8867724867724868,
      "f1-score": 0.8378333280718913,
      "support": 370440.0
    }
  },
  "iter_15": {
    "pass": {
      "precision": 0.890002495443104,
      "recall": 0.9958480911234737,
      "f1-score": 0.9399549386314578,
      "support": 329487.0
    },
    "fail": {
      "precision": 0.22624434389140272,
      "recall": 0.00976729421532,
      "f1-score": 0.018726153414011844,
      "support": 40953.0
    },
    "accuracy": 0.8868345750998812,
    "macro avg": {
      "precision": 0.5581234196672533,
      "recall": 0.5028076926693968,
      "f1-score": 0.47934054602273485,
      "support": 370440.0
    },
    "weighted avg": {
      "precision": 0.8166224944159557,
      "recall": 0.8868345750998812,
      "f1-score": 0.8381109627082042,
      "support": 370440.0
    }
  },
  "iter_16": {
    "pass": {
      "precision": 0.8885435144650403,
      "recall": 0.9958716879263592,
      "f1-score": 0.9391511259550192,
      "support": 328948.0
    },
    "fail": {
      "precision": 0.22753128555176336,
      "recall": 0.009640412609659694,
      "f1-score": 0.018497109826589597,
      "support": 41492.0
    },
    "accuracy": 0.8854065435698089,
    "macro avg": {
      "precision": 0.5580374000084019,
      "recall": 0.5027560502680094,
      "f1-score": 0.47882411789080437,
      "support": 370440.0
    },
    "weighted avg": {
      "precision": 0.8145052912654137,
      "recall": 0.8854065435698089,
      "f1-score": 0.8360311161364229,
      "support": 370440.0
    }
  },
  "iter_17": {
    "pass": {
      "precision": 0.8896919434492896,
      "recall": 0.9959198666670714,
      "f1-score": 0.9398136742048782,
      "support": 329401.0
    },
    "fail": {
      "precision": 0.21357519016968987,
      "recall": 0.0088939788981213,
      "f1-score": 0.017076822307476373,
      "support": 41039.0
    },
    "accuracy": 0.8865727243278264,
    "macro avg": {
      "precision": 0.5516335668094897,
      "recall": 0.5024069227825964,
      "f1-score": 0.4784452482561773,
      "support": 370440.0
    },
    "weighted avg": {
      "precision": 0.8147887055758377,
      "recall": 0.8865727243278264,
      "f1-score": 0.8375887587934283,
      "support": 370440.0
    }
  },
  "iter_18": {
    "pass": {
      "precision": 0.889705124379459,
      "recall": 0.9956860042563139,
      "f1-score": 0.9397168861197983,
      "support": 329393.0
    },
    "fail": {
      "precision": 0.2149171270718232,
      "recall": 0.009476941067556702,
      "f1-score": 0.01815339384464615,
      "support": 41047.0
    },
    "accuracy": 0.8864080552856063,
    "macro avg": {
      "precision": 0.5523111257256411,
      "recall": 0.5025814726619353,
      "f1-score": 0.47893513998222226,
      "support": 370440.0
    },
    "weighted avg": {
      "precision": 0.8149345193543901,
      "recall": 0.8864080552856063,
      "f1-score": 0.8376020587053232,
      "support": 370440.0
    }
  },
  "iter_19": {
    "pass": {
      "precision": 0.8902542855438479,
      "recall": 0.9960893532718673,
      "f1-score": 0.9402028318568866,
      "support": 329613.0
    },
    "fail": {
      "precision": 0.21498172959805115,
      "recall": 0.008646239008499278,
      "f1-score": 0.01662389036709129,
      "support": 40827.0
    },
    "accuracy": 0.8872610949141562,
    "macro avg": {
      "precision": 0.5526180075709495,
      "recall": 0.5023677961401833,
      "f1-score": 0.47841336111198896,
      "support": 370440.0
    },
    "weighted avg": {
      "precision": 0.8158310249845157,
      "recall": 0.8872610949141562,
      "f1-score": 0.8384131832114815,
      "support": 370440.0
    }
  },
  "iter_20": {
    "pass": {
      "precision": 0.8896526664876987,
      "recall": 0.9961530754142959,
      "f1-score": 0.9398955789353062,
      "support": 329354.0
    },
    "fail": {
      "precision": 0.23628691983122363,
      "recall": 0.009540962858394586,
      "f1-score": 0.018341326470932274,
      "support": 41086.0
    },
    "accuracy": 0.8867265954000648,
    "macro avg": {
      "precision": 0.5629697931594612,
      "recall": 0.5028470191363452,
      "f1-score": 0.4791184527031192,
      "support": 370440.0
    },
    "weighted avg": {
      "precision": 0.8171869903535663,
      "recall": 0.8867265954000648,
      "f1-score": 0.8376847539251796,
      "support": 370440.0
    }
  },
  "iter_21": {
    "pass": {
      "precision": 0.8895730149344414,
      "recall": 0.995876401355504,
      "f1-score": 0.9397279663955118,
      "support": 329324.0
    },
    "fail": {
      "precision": 0.2292849035187287,
      "recall": 0.00982585854655122,
      "f1-score": 0.018844162507579646,
      "support": 41116.0
    },
    "accuracy": 0.886432350718065,
    "macro avg": {
      "precision": 0.5594289592265851,
      "recall": 0.5028511299510277,
      "f1-score": 0.47928606445154576,
      "support": 370440.0
    },
    "weighted avg": {
      "precision": 0.8162860967048536,
      "recall": 0.886432350718065,
      "f1-score": 0.8375169241736777,
      "support": 370440.0
    }
  },
  "iter_22": {
    "pass": {
      "precision": 0.8896421191923684,
      "recall": 0.996001833631349,
      "f1-score": 0.93982236748818,
      "support": 329401.0
    },
    "fail": {
      "precision": 0.20566948130277443,
      "recall": 0.00830916932673798,
      "f1-score": 0.015973019181675527,
      "support": 41039.0
    },
    "accuracy": 0.8865808228053126,
    "macro avg": {
      "precision": 0.5476558002475714,
      "recall": 0.5021555014790435,
      "f1-score": 0.47789769333492776,
      "support": 370440.0
    },
    "weighted avg": {
      "precision": 0.8138685712862269,
      "recall": 0.8865808228053126,
      "f1-score": 0.8374742047488684,
      "support": 370440.0
    }
  },
  "iter_23": {
    "pass": {
      "precision": 0.8898185565891893,
      "recall": 0.9958688222045494,
      "f1-score": 0.939861578214611,
      "support": 329446.0
    },
    "fail": {
      "precision": 0.21329479768786128,
      "recall": 0.009001317265941357,
      "f1-score": 0.017273663514652187,
      "support": 40994.0
    },
    "accuracy": 0.8866591080876796,
    "macro avg": {
      "precision": 0.5515566771385253,
      "recall": 0.5024350697352454,
      "f1-score": 0.4785676208646316,
      "support": 370440.0
    },
    "weighted avg": {
      "precision": 0.8149524109990773,
      "recall": 0.8866591080876796,
      "f1-score": 0.8377652360938623,
      "support": 370440.0
    }
  },
  "iter_24": {
    "pass": {
      "precision": 0.8902160590908598,
      "recall": 0.9961041916349348,
      "f1-score": 0.9401881229658077,
      "support": 329585.0
    },
    "fail": {
      "precision": 0.22276029055690072,
      "recall": 0.009007465426508383,
      "f1-score": 0.017314795210200674,
      "support": 40855.0
    },
    "accuracy": 0.8872394989741929,
    "macro avg": {
      "precision": 0.5564881748238802,
      "recall": 0.5025558285307216,
      "f1-score": 0.47875145908800415,
      "support": 370440.0
    },
    "weighted avg": {
      "precision": 0.8166038535421747,
      "recall": 0.8872394989741929,
      "f1-score": 0.8384064854389333,
      "support": 370440.0
    }
  },
  "iter_25": {
    "pass": {
      "precision": 0.8900297788553854,
      "recall": 0.9959061541216137,
      "f1-score": 0.9399960185438468,
      "support": 329519.0
    },
    "fail": {
      "precision": 0.21660859465737514,
      "recall": 0.00911512426382542,
      "f1-score": 0.017494078746804868,
      "support": 40921.0
    },
    "accuracy": 0.8868993629197711,
    "macro avg": {
      "precision": 0.5533191867563803,
      "recall": 0.5025106391927195,
      "f1-score": 0.47874504864532585,
      "support": 370440.0
    },
    "weighted avg": {
      "precision": 0.8156396798418696,
      "recall": 0.8868993629197711,
      "f1-score": 0.8380909816190149,
      "support": 370440.0
    }
  },
  "iter_26": {
    "pass": {
      "precision": 0.8901177000344501,
      "recall": 0.995694259012016,
      "f1-score": 0.9399506451506641,
      "support": 329560.0
    },
    "fail": {
      "precision": 0.20770519262981574,
      "recall": 0.009099804305283758,
      "f1-score": 0.017435729183754776,
      "support": 40880.0
    },
    "accuracy": 0.8868183781449087,
    "macro avg": {
      "precision": 0.548911446332133,
      "recall": 0.5023970316586499,
      "f1-score": 0.47869318716720943,
      "support": 370440.0
    },
    "weighted avg": {
      "precision": 0.8148098949845056,
      "recall": 0.8868183781449087,
      "f1-score": 0.8381462780069234,
      "support": 370440.0
    }
  },
  "iter_27": {
    "pass": {
      "precision": 0.8900279337184389,
      "recall": 0.9959274342835986,
      "f1-score": 0.9400044683008427,
      "support": 329522.0
    },
    "fail": {
      "precision": 0.2152046783625731,
      "recall": 0.008993596949997556,
      "f1-score": 0.017265646992587032,
      "support": 40918.0
    },
    "accuracy": 0.8869128603822481,
    "macro avg": {
      "precision": 0.552616306040506,
      "recall": 0.502460515616798,
      "f1-score": 0.4786350576467149,
      "support": 370440.0
    },
    "weighted avg": {
      "precision": 0.8154884186481135,
      "recall": 0.8869128603822481,
      "f1-score": 0.8380807368185751,
      "support": 370440.0
    }
  },
  "iter_28": {
    "pass": {
      "precision": 0.8897233115822932,
      "recall": 0.9959954580783057,
      "f1-score": 0.9398648319567279,
      "support": 329376.0
    },
    "fail": {
      "precision": 0.23403019744483158,
      "recall": 0.009813948957724528,
      "f1-score": 0.018837937643154303,
      "support": 41064.0
    },
    "accuracy": 0.886675305042652,
    "macro avg": {
      "precision": 0.5618767545135624,
      "recall": 0.5029047035180151,
      "f1-score": 0.4793513847999411,
      "support": 370440.0
    },
    "weighted avg": {
      "precision": 0.8170384448321023,
      "recall": 0.886675305042652,
      "f1-score": 0.8377671956645008,
      "support": 370440.0
    }
  },
  "iter_29": {
    "pass": {
      "precision": 0.8899491818660071,
      "recall": 0.9960000121395686,
      "f1-score": 0.9399928680576342,
      "support": 329501.0
    },
    "fail": {
      "precision": 0.2126642771804062,
      "recall": 0.008695864579007792,
      "f1-score": 0.016708516180508295,
      "support": 40939.0
    },
    "accuracy": 0.8868885649497894,
    "macro avg": {
      "precision": 0.5513067295232067,
      "recall": 0.5023479383592881,
      "f1-score": 0.4783506921190712,
      "support": 370440.0
    },
    "weighted avg": {
      "precision": 0.8150993635069643,
      "recall": 0.8868885649497894,
      "f1-score": 0.8379565380676285,
      "support": 370440.0
    }
  },
  "iter_30": {
    "pass": {
      "precision": 0.88943152482808,
      "recall": 0.9960945922553882,
      "f1-score": 0.9397461260659854,
      "support": 329287.0
    },
    "fail": {
      "precision": 0.22716346153846154,
      "recall": 0.009185235584283042,
      "f1-score": 0.01765653829086578,
      "support": 41153.0
    },
    "accuracy": 0.8864566461505237,
    "macro avg": {
      "precision": 0.5582974931832707,
      "recall": 0.5026399139198356,
      "f1-score": 0.4787013321784256,
      "support": 370440.0
    },
    "weighted avg": {
      "precision": 0.8158586989762344,
      "recall": 0.8864566461505237,
      "f1-score": 0.8373091516417616,
      "support": 370440.0
    }
  },
  "iter_31": {
    "pass": {
      "precision": 0.8898978803043248,
      "recall": 0.9958205476084244,
      "f1-score": 0.9398843235160151,
      "support": 329469.0
    },
    "fail": {
      "precision": 0.2153846153846154,
      "recall": 0.009226037929267043,
      "f1-score": 0.017694144080887517,
      "support": 40971.0
    },
    "accuracy": 0.8867022999676061,
    "macro avg": {
      "precision": 0.5526412478444701,
      "recall": 0.5025232927688458,
      "f1-score": 0.47878923379845134,
      "support": 370440.0
    },
    "weighted avg": {
      "precision": 0.8152961014007901,
      "recall": 0.8867022999676061,
      "f1-score": 0.8378892532168125,
      "support": 370440.0
    }
  },
  "iter_32": {
    "pass": {
      "precision": 0.8888207953922999,
      "recall": 0.9961100609626383,
      "f1-score": 0.9394120041041633,
      "support": 329054.0
    },
    "fail": {
      "precision": 0.23169267707082833,
      "recall": 0.009326825496544726,
      "f1-score": 0.017931803400538883,
      "support": 41386.0
    },
    "accuracy": 0.8858654572940288,
    "macro avg": {
      "precision": 0.5602567362315641,
      "recall": 0.5027184432295915,
      "f1-score": 0.4786719037523511,
      "support": 370440.0
    },
    "weighted avg": {
      "precision": 0.8154056558154389,
      "recall": 0.8858654572940288,
      "f1-score": 0.8364631336087519,
      "support": 370440.0
    }
  },
  "iter_33": {
    "pass": {
      "precision": 0.8896806996135855,
      "recall": 0.9959928600051,
      "f1-score": 0.939839899625745,
      "support": 329412.0
    },
    "fail": {
      "precision": 0.2072072072072072,
      "recall": 0.008408891488739398,
      "f1-score": 0.016161900077296044,
      "support": 41028.0
    },
    "accuracy": 0.8866132167152575,
    "macro avg": {
      "precision": 0.5484439534103964,
      "recall": 0.5022008757469197,
      "f1-score": 0.4780008998515205,
      "support": 370440.0
    },
    "weighted avg": {
      "precision": 0.8140934994018133,
      "recall": 0.8866132167152575,
      "f1-score": 0.8375381477483187,
      "support": 370440.0
    }
  },
  "iter_34": {
    "pass": {
      "precision": 0.889296330852518,
      "recall": 0.995878349031245,
      "f1-score": 0.9395744290641078,
      "support": 329237.0
    },
    "fail": {
      "precision": 0.22190366972477063,
      "recall": 0.00939251996213868,
      "f1-score": 0.018022213425850468,
      "support": 41203.0
    },
    "accuracy": 0.8861543029910377,
    "macro avg": {
      "precision": 0.5556000002886443,
      "recall": 0.5026354344966918,
      "f1-score": 0.4787983212449791,
      "support": 370440.0
    },
    "weighted avg": {
      "precision": 0.8150641210035638,
      "recall": 0.8861543029910377,
      "f1-score": 0.8370727663361542,
      "support": 370440.0
    }
  },
  "iter_35": {
    "pass": {
      "precision": 0.8895005599954441,
      "recall": 0.9959555228974488,
      "f1-score": 0.9397227582077409,
      "support": 329338.0
    },
    "fail": {
      "precision": 0.2104327208061648,
      "recall": 0.008637049292005256,
      "f1-score": 0.0165930496155554,
      "support": 41102.0
    },
    "accuracy": 0.8864080552856063,
    "macro avg": {
      "precision": 0.5499666404008045,
      "recall": 0.502296286094727,
      "f1-score": 0.47815790391164814,
      "support": 370440.0
    },
    "weighted avg": {
      "precision": 0.8141548998983765,
      "recall": 0.8864080552856063,
      "f1-score": 0.8372973255261839,
      "support": 370440.0
    }
  },
  "iter_36": {
    "pass": {
      "precision": 0.8899719031036765,
      "recall": 0.9958696872676509,
      "f1-score": 0.9399474964875923,
      "support": 329515.0
    },
    "fail": {
      "precision": 0.20687645687645687,
      "recall": 0.008674404398289554,
      "f1-score": 0.01665064140146807,
      "support": 40925.0
    },
    "accuracy": 0.8868075801749271,
    "macro avg": {
      "precision": 0.5484241799900667,
      "recall": 0.5022720458329702,
      "f1-score": 0.4782990689445302,
      "support": 370440.0
    },
    "weighted avg": {
      "precision": 0.8145057516706536,
      "recall": 0.8868075801749271,
      "f1-score": 0.8379446787724439,
      "support": 370440.0
    }
  },
  "iter_37": {
    "pass": {
      "precision": 0.8893945352227269,
      "recall": 0.9959607862192958,
      "f1-score": 0.9396659297962598,
      "support": 329272.0
    },
    "fail": {
      "precision": 0.22448979591836735,
      "recall": 0.009351923824329577,
      "f1-score": 0.017955833313900615,
      "support": 41168.0
    },
    "accuracy": 0.8863162725407623,
    "macro avg": {
      "precision": 0.5569421655705471,
      "recall": 0.5026563550218127,
      "f1-score": 0.4788108815550802,
      "support": 370440.0
    },
    "weighted avg": {
      "precision": 0.8155018716127445,
      "recall": 0.8863162725407623,
      "f1-score": 0.8372337916578683,
      "support": 370440.0
    }
  },
  "iter_38": {
    "pass": {
      "precision": 0.8892296844702979,
      "recall": 0.9959844602865552,
      "f1-score": 0.9395844496723336,
      "support": 329221.0
    },
    "fail": {
      "precision": 0.2200589970501475,
      "recall": 0.009049224872025037,
      "f1-score": 0.017383604418138604,
      "support": 41219.0
    },
    "accuracy": 0.8861678004535147,
    "macro avg": {
      "precision": 0.5546443407602227,
      "recall": 0.5025168425792901,
      "f1-score": 0.47848402704523607,
      "support": 370440.0
    },
    "weighted avg": {
      "precision": 0.8147708070143774,
      "recall": 0.8861678004535147,
      "f1-score": 0.8369708101071336,
      "support": 370440.0
    }
  },
  "iter_39": {
    "pass": {
      "precision": 0.8895620503280081,
      "recall": 0.9960524477860305,
      "f1-score": 0.9398002174601288,
      "support": 329318.0
    },
    "fail": {
      "precision": 0.23484402589758682,
      "recall": 0.009702835465201108,
      "f1-score": 0.018635716120595034,
      "support": 41122.0
    },
    "accuracy": 0.8865592268653493,
    "macro avg": {
      "precision": 0.5622030381127975,
      "recall": 0.5028776416256158,
      "f1-score": 0.4792179667903619,
      "support": 370440.0
    },
    "weighted avg": {
      "precision": 0.8168827646120276,
      "recall": 0.8865592268653493,
      "f1-score": 0.8375430999132001,
      "support": 370440.0
    }
  },
  "iter_40": {
    "pass": {
      "precision": 0.8900452856794208,
      "recall": 0.9961213960546282,
      "f1-score": 0.940100534177324,
      "support": 329500.0
    },
    "fail": {
      "precision": 0.2347305389221557,
      "recall": 0.009574987787005374,
      "f1-score": 0.018399436751936164,
      "support": 40940.0
    },
    "accuracy": 0.8870910268869453,
    "macro avg": {
      "precision": 0.5623879123007882,
      "recall": 0.5028481919208168,
      "f1-score": 0.47924998546463005,
      "support": 370440.0
    },
    "weighted avg": {
      "precision": 0.8176217198327453,
      "recall": 0.8870910268869453,
      "f1-score": 0.8382366886730712,
      "support": 370440.0
    }
  },
  "iter_41": {
    "pass": {
      "precision": 0.8899744227488358,
      "recall": 0.9958692861240186,
      "f1-score": 0.9399487230903648,
      "support": 329483.0
    },
    "fail": {
      "precision": 0.22361665715915574,
      "recall": 0.009571013501965476,
      "f1-score": 0.018356356825099507,
      "support": 40957.0
    },
    "accuracy": 0.8868210776374041,
    "macro avg": {
      "precision": 0.5567955399539958,
      "recall": 0.5027201498129921,
      "f1-score": 0.47915253995773216,
      "support": 370440.0
    },
    "weighted avg": {
      "precision": 0.8162998330575051,
      "recall": 0.8868210776374041,
      "f1-score": 0.838054601113455,
      "support": 370440.0
    }
  },
  "iter_42": {
    "pass": {
      "precision": 0.8905538890486083,
      "recall": 0.9958358859888027,
      "f1-score": 0.9402569212970917,
      "support": 329722.0
    },
    "fail": {
      "precision": 0.21001150747986191,
      "recall": 0.008964094503659314,
      "f1-score": 0.017194271716600717,
      "support": 40718.0
    },
    "accuracy": 0.8873609761364863,
    "macro avg": {
      "precision": 0.5502826982642351,
      "recall": 0.502399990246231,
      "f1-score": 0.4787255965068462,
      "support": 370440.0
    },
    "weighted avg": {
      "precision": 0.8157500754952226,
      "recall": 0.8873609761364863,
      "f1-score": 0.8387957805843759,
      "support": 370440.0
    }
  },
  "iter_43": {
    "pass": {
      "precision": 0.8903434902295811,
      "recall": 0.9958320314751393,
      "f1-score": 0.9401379207642918,
      "support": 329657.0
    },
    "fail": {
      "precision": 0.20347826086956522,
      "recall": 0.008606527229482873,
      "f1-score": 0.016514538439823093,
      "support": 40783.0
    },
    "accuracy": 0.8871450167368534,
    "macro avg": {
      "precision": 0.5469108755495732,
      "recall": 0.5022192793523111,
      "f1-score": 0.47832622960205745,
      "support": 370440.0
    },
    "weighted avg": {
      "precision": 0.8147241601113717,
      "recall": 0.8871450167368534,
      "f1-score": 0.838453080030735,
      "support": 370440.0
    }
  },
  "iter_44": {
    "pass": {
      "precision": 0.8891534570897799,
      "recall": 0.9959537537136157,
      "f1-score": 0.9395282328145127,
      "support": 329194.0
    },
    "fail": {
      "precision": 0.2187683284457478,
      "recall": 0.009043301168598167,
      "f1-score": 0.01736862936834998,
      "support": 41246.0
    },
    "accuracy": 0.8860679192311846,
    "macro avg": {
      "precision": 0.5539608927677638,
      "recall": 0.5024985274411069,
      "f1-score": 0.4784484310914313,
      "support": 370440.0
    },
    "weighted avg": {
      "precision": 0.8145105864061287,
      "recall": 0.8860679192311846,
      "f1-score": 0.8368519694419276,
      "support": 370440.0
    }
  },
  "iter_45": {
    "pass": {
      "precision": 0.8891287662018893,
      "recall": 0.995814171066141,
      "f1-score": 0.9394523386152716,
      "support": 329206.0
    },
    "fail": {
      "precision": 0.20484708597807272,
      "recall": 0.008609400009700733,
      "f1-score": 0.01652430935369004,
      "support": 41234.0
    },
    "accuracy": 0.8859275456214232,
    "macro avg": {
      "precision": 0.546987926089981,
      "recall": 0.5022117855379209,
      "f1-score": 0.4779883239844808,
      "support": 370440.0
    },
    "weighted avg": {
      "precision": 0.8129607746179652,
      "recall": 0.8859275456214232,
      "f1-score": 0.8367204134490582,
      "support": 370440.0
    }
  },
  "iter_46": {
    "pass": {
      "precision": 0.8901276519578996,
      "recall": 0.9959853859552232,
      "f1-score": 0.9400858964058985,
      "support": 329546.0
    },
    "fail": {
      "precision": 0.22313564298297123,
      "recall": 0.009292316721279406,
      "f1-score": 0.017841632039815012,
      "support": 40894.0
    },
    "accuracy": 0.8870613324694957,
    "macro avg": {
      "precision": 0.5566316474704354,
      "recall": 0.5026388513382514,
      "f1-score": 0.47896376422285675,
      "support": 370440.0
    },
    "weighted avg": {
      "precision": 0.8164963723579084,
      "recall": 0.8870613324694957,
      "f1-score": 0.838276542807511,
      "support": 370440.0
    }
  },
  "iter_47": {
    "pass": {
      "precision": 0.8894213688078868,
      "recall": 0.9958640166411078,
      "f1-score": 0.939637832726856,
      "support": 329305.0
    },
    "fail": {
      "precision": 0.21043478260869566,
      "recall": 0.008824601920505652,
      "f1-score": 0.016938870741950537,
      "support": 41135.0
    },
    "accuracy": 0.8862595831983587,
    "macro avg": {
      "precision": 0.5499280757082913,
      "recall": 0.5023443092808068,
      "f1-score": 0.47828835173440326,
      "support": 370440.0
    },
    "weighted avg": {
      "precision": 0.8140242377656027,
      "recall": 0.8862595831983587,
      "f1-score": 0.8371779963127293,
      "support": 370440.0
    }
  },
  "iter_48": {
    "pass": {
      "precision": 0.8891414004447579,
      "recall": 0.9960233434901616,
      "f1-score": 0.9395524644259798,
      "support": 329171.0
    },
    "fail": {
      "precision": 0.23,
      "recall": 0.009474423901717996,
      "f1-score": 0.018199166841211107,
      "support": 41269.0
    },
    "accuracy": 0.8861165100961019,
    "macro avg": {
      "precision": 0.559570700222379,
      "recall": 0.5027488836959398,
      "f1-score": 0.4788758156335955,
      "support": 370440.0
    },
    "weighted avg": {
      "precision": 0.8157095182102402,
      "recall": 0.8861165100961019,
      "f1-score": 0.8369087724973926,
      "support": 370440.0
    }
  },
  "iter_49": {
    "pass": {
      "precision": 0.8901891971056314,
      "recall": 0.9959098839414398,
      "f1-score": 0.9400865828143281,
      "support": 329575.0
    },
    "fail": {
      "precision": 0.21809744779582366,
      "recall": 0.009201027774379053,
      "f1-score": 0.017657141515414778,
      "support": 40865.0
    },
    "accuracy": 0.8870613324694957,
    "macro avg": {
      "precision": 0.5541433224507275,
      "recall": 0.5025554558579094,
      "f1-score": 0.47887186216487143,
      "support": 370440.0
    },
    "weighted avg": {
      "precision": 0.8160475565280877,
      "recall": 0.8870613324694957,
      "f1-score": 0.8383289996195324,
      "support": 370440.0
    }
  },
  "iter_50": {
    "pass": {
      "precision": 0.8900080547396855,
      "recall": 0.9958880206357636,
      "f1-score": 0.939975825346723,
      "support": 329525.0
    },
    "fail": {
      "precision": 0.208990075890251,
      "recall": 0.008749847244286936,
      "f1-score": 0.01679647180257108,
      "support": 40915.0
    },
    "accuracy": 0.8868588705323399,
    "macro avg": {
      "precision": 0.5494990653149683,
      "recall": 0.5023189339400252,
      "f1-score": 0.478386148574647,
      "support": 370440.0
    },
    "weighted avg": {
      "precision": 0.814789799139252,
      "recall": 0.8868588705323399,
      "f1-score": 0.8380109099751135,
      "support": 370440.0
    }
  },
  "iter_51": {
    "pass": {
      "precision": 0.8894422878162715,
      "recall": 0.995624276912519,
      "f1-score": 0.9395427739602378,
      "support": 329317.0
    },
    "fail": {
      "precision": 0.20342730790491984,
      "recall": 0.00894876346570046,
      "f1-score": 0.0171433895462592,
      "support": 41123.0
    },
    "accuracy": 0.8860922146636432,
    "macro avg": {
      "precision": 0.5464347978605957,
      "recall": 0.5022865201891097,
      "f1-score": 0.47834308175324847,
      "support": 370440.0
    },
    "weighted avg": {
      "precision": 0.813286921174185,
      "recall": 0.8860922146636432,
      "f1-score": 0.8371460838477875,
      "support": 370440.0
    }
  },
  "iter_52": {
    "pass": {
      "precision": 0.8901208583765488,
      "recall": 0.9959153946529906,
      "f1-score": 0.9400509290688115,
      "support": 329530.0
    },
    "fail": {
      "precision": 0.22821100917431192,
      "recall": 0.009728672696162307,
      "f1-score": 0.01866179021897126,
      "support": 40910.0
    },
    "accuracy": 0.8870046431270922,
    "macro avg": {
      "precision": 0.5591659337754303,
      "recall": 0.5028220336745765,
      "f1-score": 0.4793563596438914,
      "support": 370440.0
    },
    "weighted avg": {
      "precision": 0.8170220247439403,
      "recall": 0.8870046431270922,
      "f1-score": 0.8382961788519155,
      "support": 370440.0
    }
  },
  "iter_53": {
    "pass": {
      "precision": 0.8903293699010588,
      "recall": 0.9958590311042887,
      "f1-score": 0.9401420803995778,
      "support": 329633.0
    },
    "fail": {
      "precision": 0.21370967741935484,
      "recall": 0.009091577425441713,
      "f1-score": 0.017441177161930284,
      "support": 40807.0
    },
    "accuracy": 0.8871585141993306,
    "macro avg": {
      "precision": 0.5520195236602068,
      "recall": 0.5024753042648652,
      "f1-score": 0.47879162878075404,
      "support": 370440.0
    },
    "weighted avg": {
      "precision": 0.8157941690828403,
      "recall": 0.8871585141993306,
      "f1-score": 0.838499018747438,
      "support": 370440.0
    }
  },
  "iter_54": {
    "pass": {
      "precision": 0.890007538001833,
      "recall": 0.9960550233208814,
      "f1-score": 0.9400499190212092,
      "support": 329533.0
    },
    "fail": {
      "precision": 0.20828258221680876,
      "recall": 0.008360427310729215,
      "f1-score": 0.01607558344496933,
      "support": 40907.0
    },
    "accuracy": 0.8869857466796243,
    "macro avg": {
      "precision": 0.5491450601093208,
      "recall": 0.5022077253158053,
      "f1-score": 0.4780627512330892,
      "support": 370440.0
    },
    "weighted avg": {
      "precision": 0.814725919477111,
      "recall": 0.8869857466796243,
      "f1-score": 0.8380171521887471,
      "support": 370440.0
    }
  },
  "iter_55": {
    "pass": {
      "precision": 0.889554731838531,
      "recall": 0.9960559514447849,
      "f1-score": 0.9397976927462164,
      "support": 329357.0
    },
    "fail": {
      "precision": 0.21320411871592973,
      "recall": 0.00856802083586885,
      "f1-score": 0.016474001965647963,
      "support": 41083.0
    },
    "accuracy": 0.8865403304178814,
    "macro avg": {
      "precision": 0.5513794252772304,
      "recall": 0.5023119861403269,
      "f1-score": 0.4781358473559322,
      "support": 370440.0
    },
    "weighted avg": {
      "precision": 0.8145452505759355,
      "recall": 0.8865403304178814,
      "f1-score": 0.8373980944621809,
      "support": 370440.0
    }
  },
  "iter_56": {
    "pass": {
      "precision": 0.8892565569991049,
      "recall": 0.9958115533092982,
      "f1-score": 0.9395225015725095,
      "support": 329239.0
    },
    "fail": {
      "precision": 0.212,
      "recall": 0.009004635809810441,
      "f1-score": 0.01727549998835883,
      "support": 41201.0
    },
    "accuracy": 0.8860571212612028,
    "macro avg": {
      "precision": 0.5506282784995524,
      "recall": 0.5024080945595543,
      "f1-score": 0.4783990007804342,
      "support": 370440.0
    },
    "weighted avg": {
      "precision": 0.8139308702349323,
      "recall": 0.8860571212612028,
      "f1-score": 0.8369485389543566,
      "support": 370440.0
    }
  },
  "iter_57": {
    "pass": {
      "precision": 0.8892552660693754,
      "recall": 0.9960121367111213,
      "f1-score": 0.9396110454496616,
      "support": 329249.0
    },
    "fail": {
      "precision": 0.2109375,
      "recall": 0.008521278920152461,
      "f1-score": 0.01638081904095205,
      "support": 41191.0
    },
    "accuracy": 0.8862082928409459,
    "macro avg": {
      "precision": 0.5500963830346877,
      "recall": 0.5022667078156369,
      "f1-score": 0.4779959322453068,
      "support": 370440.0
    },
    "weighted avg": {
      "precision": 0.8138298608697111,
      "recall": 0.8862082928409459,
      "f1-score": 0.8369526493369275,
      "support": 370440.0
    }
  },
  "iter_58": {
    "pass": {
      "precision": 0.8889497622773639,
      "recall": 0.9959737090799697,
      "f1-score": 0.9394233828321825,
      "support": 329087.0
    },
    "fail": {
      "precision": 0.23542989036353146,
      "recall": 0.009866273305443377,
      "f1-score": 0.018938866453140232,
      "support": 41353.0
    },
    "accuracy": 0.8858924522189828,
    "macro avg": {
      "precision": 0.5621898263204477,
      "recall": 0.5029199911927066,
      "f1-score": 0.4791811246426614,
      "support": 370440.0
    },
    "weighted avg": {
      "precision": 0.8159959579817891,
      "recall": 0.8858924522189828,
      "f1-score": 0.8366677511352207,
      "support": 370440.0
    }
  },
  "iter_59": {
    "pass": {
      "precision": 0.8892017098468081,
      "recall": 0.9957628791767532,
      "f1-score": 0.9394702265729216,
      "support": 329233.0
    },
    "fail": {
      "precision": 0.20376712328767124,
      "recall": 0.008663576576795205,
      "f1-score": 0.01662049861495845,
      "support": 41207.0
    },
    "accuracy": 0.8859599395313681,
    "macro avg": {
      "precision": 0.5464844165672397,
      "recall": 0.5022132278767742,
      "f1-score": 0.47804536259394,
      "support": 370440.0
    },
    "weighted avg": {
      "precision": 0.8129553460406793,
      "recall": 0.8859599395313681,
      "f1-score": 0.8368142802929199,
      "support": 370440.0
    }
  },
  "iter_60": {
    "pass": {
      "precision": 0.8898112491186202,
      "recall": 0.9959960901926976,
      "f1-score": 0.9399141753847211,
      "support": 329428.0
    },
    "fail": {
      "precision": 0.22411764705882353,
      "recall": 0.009289963913001072,
      "f1-score": 0.01784041955422364,
      "support": 41012.0
    },
    "accuracy": 0.8867562898175143,
    "macro avg": {
      "precision": 0.5569644480887219,
      "recall": 0.5026430270528494,
      "f1-score": 0.4788772974694724,
      "support": 370440.0
    },
    "weighted avg": {
      "precision": 0.8161112544968829,
      "recall": 0.8867562898175143,
      "f1-score": 0.8378299272632429,
      "support": 370440.0
    }
  },
  "iter_61": {
    "pass": {
      "precision": 0.8896457285410199,
      "recall": 0.9961167937285763,
      "f1-score": 0.9398755571852548,
      "support": 329367.0
    },
    "fail": {
      "precision": 0.227190332326284,
      "recall": 0.009154432352153482,
      "f1-score": 0.017599700430630968,
      "support": 41073.0
    },
    "accuracy": 0.8866861030126336,
    "macro avg": {
      "precision": 0.5584180304336519,
      "recall": 0.5026356130403649,
      "f1-score": 0.4787376288079429,
      "support": 370440.0
    },
    "weighted avg": {
      "precision": 0.8161951549292937,
      "recall": 0.8866861030126336,
      "f1-score": 0.8376170638678954,
      "support": 370440.0
    }
  },
  "iter_62": {
    "pass": {
      "precision": 0.8901383473163007,
      "recall": 0.9960796094174336,
      "f1-score": 0.9401338314662894,
      "support": 329559.0
    },
    "fail": {
      "precision": 0.22074788902291917,
      "recall": 0.008952814265795847,
      "f1-score": 0.017207738780883424,
      "support": 40881.0
    },
    "accuracy": 0.8871423172443581,
    "macro avg": {
      "precision": 0.5554431181696099,
      "recall": 0.5025162118416147,
      "f1-score": 0.4786707851235864,
      "support": 370440.0
    },
    "weighted avg": {
      "precision": 0.8162657867788541,
      "recall": 0.8871423172443581,
      "f1-score": 0.8382815973796031,
      "support": 370440.0
    }
  },
  "iter_63": {
    "pass": {
      "precision": 0.8899704374711833,
      "recall": 0.9958513905580442,
      "f1-score": 0.9399385292272614,
      "support": 329508.0
    },
    "fail": {
      "precision": 0.20982658959537573,
      "recall": 0.008868367047786574,
      "f1-score": 0.0170174862875627,
      "support": 40932.0
    },
    "accuracy": 0.8867940827124501,
    "macro avg": {
      "precision": 0.5498985135332796,
      "recall": 0.5023598788029153,
      "f1-score": 0.47847800775741206,
      "support": 370440.0
    },
    "weighted avg": {
      "precision": 0.814817516670912,
      "recall": 0.8867940827124501,
      "f1-score": 0.8379597900802802,
      "support": 370440.0
    }
  },
  "iter_64": {
    "pass": {
      "precision": 0.8902505165989619,
      "recall": 0.9961010037260447,
      "f1-score": 0.9402059198373262,
      "support": 329572.0
    },
    "fail": {
      "precision": 0.23602853745541022,
      "recall": 0.009714201820495254,
      "f1-score": 0.018660399529964747,
      "support": 40868.0
    },
    "accuracy": 0.887279991361624,
    "macro avg": {
      "precision": 0.5631395270271861,
      "recall": 0.50290760277327,
      "f1-score": 0.47943315968364547,
      "support": 370440.0
    },
    "weighted avg": {
      "precision": 0.8180748772413368,
      "recall": 0.887279991361624,
      "f1-score": 0.838538383059653,
      "support": 370440.0
    }
  },
  "iter_65": {
    "pass": {
      "precision": 0.890295255681279,
      "recall": 0.9960351527543099,
      "f1-score": 0.9402015331178073,
      "support": 329647.0
    },
    "fail": {
      "precision": 0.20353443022547227,
      "recall": 0.008187679258696345,
      "f1-score": 0.015742093604185322,
      "support": 40793.0
    },
    "accuracy": 0.8872529964366699,
    "macro avg": {
      "precision": 0.5469148429533757,
      "recall": 0.5021114160065031,
      "f1-score": 0.4779718133609963,
      "support": 370440.0
    },
    "weighted avg": {
      "precision": 0.8146688806871674,
      "recall": 0.8872529964366699,
      "f1-score": 0.8383996922904691,
      "support": 370440.0
    }
  },
  "iter_66": {
    "pass": {
      "precision": 0.889957122981919,
      "recall": 0.9958847861515163,
      "f1-score": 0.9399459783053916,
      "support": 329509.0
    },
    "fail": {
      "precision": 0.2074810052600818,
      "recall": 0.00867313283330483,
      "f1-score": 0.01665025092631678,
      "support": 40931.0
    },
    "accuracy": 0.8868048806824317,
    "macro avg": {
      "precision": 0.5487190641210004,
      "recall": 0.5022789594924105,
      "f1-score": 0.4782981146158542,
      "support": 370440.0
    },
    "weighted avg": {
      "precision": 0.8145483389022501,
      "recall": 0.8868048806824317,
      "f1-score": 0.8379283305963081,
      "support": 370440.0
    }
  },
  "iter_67": {
    "pass": {
      "precision": 0.8894212908351841,
      "recall": 0.9959825576805116,
      "f1-score": 0.9396905525560714,
      "support": 329314.0
    },
    "fail": {
      "precision": 0.20825852782764812,
      "recall": 0.00846180032096484,
      "f1-score": 0.016262822160431806,
      "support": 41126.0
    },
    "accuracy": 0.8863486664507073,
    "macro avg": {
      "precision": 0.5488399093314161,
      "recall": 0.5022221790007382,
      "f1-score": 0.4779766873582516,
      "support": 370440.0
    },
    "weighted avg": {
      "precision": 0.8137990583779766,
      "recall": 0.8863486664507073,
      "f1-score": 0.8371722261327611,
      "support": 370440.0
    }
  },
  "iter_68": {
    "pass": {
      "precision": 0.8895093553627559,
      "recall": 0.9958856358590368,
      "f1-score": 0.9396965559921668,
      "support": 329334.0
    },
    "fail": {
      "precision": 0.2126670540383498,
      "recall": 0.008903809662822946,
      "f1-score": 0.017092021388376493,
      "support": 41106.0
    },
    "accuracy": 0.8863648634056798,
    "macro avg": {
      "precision": 0.5510882047005529,
      "recall": 0.5023947227609299,
      "f1-score": 0.4783942886902717,
      "support": 370440.0
    },
    "weighted avg": {
      "precision": 0.8144033202741017,
      "recall": 0.8863648634056798,
      "f1-score": 0.8373194314931294,
      "support": 370440.0
    }
  },
  "iter_69": {
    "pass": {
      "precision": 0.8898254520996735,
      "recall": 0.9958780785411191,
      "f1-score": 0.9398695469089722,
      "support": 329458.0
    },
    "fail": {
      "precision": 0.20862470862470864,
      "recall": 0.008735542433263384,
      "f1-score": 0.01676893531312942,
      "support": 40982.0
    },
    "accuracy": 0.8866699060576612,
    "macro avg": {
      "precision": 0.5492250803621911,
      "recall": 0.5023068104871913,
      "f1-score": 0.4783192411110508,
      "support": 370440.0
    },
    "weighted avg": {
      "precision": 0.8144638041429436,
      "recall": 0.8866699060576612,
      "f1-score": 0.837746371052097,
      "support": 370440.0
    }
  },
  "iter_70": {
    "pass": {
      "precision": 0.8895502717243923,
      "recall": 0.9959769486749739,
      "f1-score": 0.9397600371289256,
      "support": 329352.0
    },
    "fail": {
      "precision": 0.21318289786223277,
      "recall": 0.008737344236760125,
      "f1-score": 0.016786682876648275,
      "support": 41088.0
    },
    "accuracy": 0.8864755425979916,
    "macro avg": {
      "precision": 0.5513665847933125,
      "recall": 0.502357146455867,
      "f1-score": 0.478273360002787,
      "support": 370440.0
    },
    "weighted avg": {
      "precision": 0.8145298023980548,
      "recall": 0.8864755425979916,
      "f1-score": 0.8373868345063213,
      "support": 370440.0
    }
  },
  "iter_71": {
    "pass": {
      "precision": 0.889060013069308,
      "recall": 0.9960357601771606,
      "f1-score": 0.9395125473498416,
      "support": 329193.0
    },
    "fail": {
      "precision": 0.2028100183262065,
      "recall": 0.00804907023541106,
      "f1-score": 0.015483630258371421,
      "support": 41247.0
    },
    "accuracy": 0.8860274268437534,
    "macro avg": {
      "precision": 0.5459350156977573,
      "recall": 0.5020424152062858,
      "f1-score": 0.4774980888041065,
      "support": 370440.0
    },
    "weighted avg": {
      "precision": 0.8126488438295696,
      "recall": 0.8860274268437534,
      "f1-score": 0.8366256540789424,
      "support": 370440.0
    }
  },
  "iter_72": {
    "pass": {
      "precision": 0.889524651468024,
      "recall": 0.9960343487343924,
      "f1-score": 0.9397712899071609,
      "support": 329328.0
    },
    "fail": {
      "precision": 0.2221560452650387,
      "recall": 0.00907277680482584,
      "f1-score": 0.017433572480194434,
      "support": 41112.0
    },
    "accuracy": 0.8864998380304503,
    "macro avg": {
      "precision": 0.5558403483665313,
      "recall": 0.5025535627696092,
      "f1-score": 0.4786024311936776,
      "support": 370440.0
    },
    "weighted avg": {
      "precision": 0.8154590588262544,
      "recall": 0.8864998380304503,
      "f1-score": 0.8374088338039932,
      "support": 370440.0
    }
  },
  "iter_73": {
    "pass": {
      "precision": 0.8901017245166661,
      "recall": 0.9959520681169227,
      "f1-score": 0.9400565952352311,
      "support": 329551.0
    },
    "fail": {
      "precision": 0.214832254267216,
      "recall": 0.008926606177700604,
      "f1-score": 0.017140978679440217,
      "support": 40889.0
    },
    "accuracy": 0.8870046431270922,
    "macro avg": {
      "precision": 0.552466989391941,
      "recall": 0.5024393371473117,
      "f1-score": 0.47859878695733565,
      "support": 370440.0
    },
    "weighted avg": {
      "precision": 0.8155657851768816,
      "recall": 0.8870046431270922,
      "f1-score": 0.838185586042515,
      "support": 370440.0
    }
  },
  "iter_74": {
    "pass": {
      "precision": 0.8892794852807547,
      "recall": 0.9958204748135009,
      "f1-score": 0.939539269026252,
      "support": 329224.0
    },
    "fail": {
      "precision": 0.2239142695995488,
      "recall": 0.009632181677018634,
      "f1-score": 0.018469841122147525,
      "support": 41216.0
    },
    "accuracy": 0.8860949141561386,
    "macro avg": {
      "precision": 0.5565968774401517,
      "recall": 0.5027263282452598,
      "f1-score": 0.47900455507419976,
      "support": 370440.0
    },
    "weighted avg": {
      "precision": 0.8152494325609713,
      "recall": 0.8860949141561386,
      "f1-score": 0.8370589819608822,
      "support": 370440.0
    }
  },
  "iter_75": {
    "pass": {
      "precision": 0.8885038584389455,
      "recall": 0.9961059450454914,
      "f1-score": 0.9392331228995435,
      "support": 328963.0
    },
    "fail": {
      "precision": 0.21794871794871795,
      "recall": 0.008607179882826627,
      "f1-score": 0.016560361823031427,
      "support": 41477.0
    },
    "accuracy": 0.8855388187020841,
    "macro avg": {
      "precision": 0.5532262881938317,
      "recall": 0.502356562464159,
      "f1-score": 0.4778967423612875,
      "support": 370440.0
    },
    "weighted avg": {
      "precision": 0.8134239114512737,
      "recall": 0.8855388187020841,
      "f1-score": 0.8359243600467995,
      "support": 370440.0
    }
  },
  "iter_76": {
    "pass": {
      "precision": 0.8898000580327967,
      "recall": 0.9959811075630456,
      "f1-score": 0.9399012605252642,
      "support": 329444.0
    },
    "fail": {
      "precision": 0.2133095662507427,
      "recall": 0.008756951897746121,
      "f1-score": 0.01682326202582066,
      "support": 40996.0
    },
    "accuracy": 0.8867265954000648,
    "macro avg": {
      "precision": 0.5515548121417697,
      "recall": 0.5023690297303959,
      "f1-score": 0.47836226127554243,
      "support": 370440.0
    },
    "weighted avg": {
      "precision": 0.814933941519739,
      "recall": 0.8867265954000648,
      "f1-score": 0.8377457005790294,
      "support": 370440.0
    }
  },
  "iter_77": {
    "pass": {
      "precision": 0.8898293134027216,
      "recall": 0.9959992593469504,
      "f1-score": 0.939925664401269,
      "support": 329439.0
    },
    "fail": {
      "precision": 0.22195985832349469,
      "recall": 0.009170508036389356,
      "f1-score": 0.017613303665534607,
      "support": 41001.0
    },
    "accuracy": 0.8867751862649822,
    "macro avg": {
      "precision": 0.5558945858631081,
      "recall": 0.5025848836916699,
      "f1-score": 0.4787694840334018,
      "support": 370440.0
    },
    "weighted avg": {
      "precision": 0.8159082586362186,
      "recall": 0.8867751862649822,
      "f1-score": 0.8378423874805104,
      "support": 370440.0
    }
  },
  "iter_78": {
    "pass": {
      "precision": 0.8888210886014156,
      "recall": 0.9959279799437818,
      "f1-score": 0.93933118851255,
      "support": 329075.0
    },
    "fail": {
      "precision": 0.21637426900584794,
      "recall": 0.008944760062855071,
      "f1-score": 0.01717933836331979,
      "support": 41365.0
    },
    "accuracy": 0.8857169852067811,
    "macro avg": {
      "precision": 0.5525976788036318,
      "recall": 0.5024363700033184,
      "f1-score": 0.4782552634379349,
      "support": 370440.0
    },
    "weighted avg": {
      "precision": 0.8137326459586918,
      "recall": 0.8857169852067811,
      "f1-score": 0.8363595567194853,
      "support": 370440.0
    }
  },
  "iter_79": {
    "pass": {
      "precision": 0.8904118135310936,
      "recall": 0.9957320698399602,
      "f1-score": 0.9401314564747326,
      "support": 329668.0
    },
    "fail": {
      "precision": 0.20866141732283464,
      "recall": 0.00909938192877465,
      "f1-score": 0.017438307873090482,
      "support": 40772.0
    },
    "accuracy": 0.8871396177518627,
    "macro avg": {
      "precision": 0.5495366154269641,
      "recall": 0.5024157258843674,
      "f1-score": 0.4787848821739116,
      "support": 370440.0
    },
    "weighted avg": {
      "precision": 0.815375836978337,
      "recall": 0.8871396177518627,
      "f1-score": 0.8385764271723188,
      "support": 370440.0
    }
  },
  "iter_80": {
    "pass": {
      "precision": 0.8905282514299973,
      "recall": 0.9958328025767474,
      "f1-score": 0.9402412571142212,
      "support": 329718.0
    },
    "fail": {
      "precision": 0.20715522215810733,
      "recall": 0.008815873483620647,
      "f1-score": 0.01691202449652573,
      "support": 40722.0
    },
    "accuracy": 0.8873312817190369,
    "macro avg": {
      "precision": 0.5488417367940523,
      "recall": 0.5023243380301841,
      "f1-score": 0.4785766408053735,
      "support": 370440.0
    },
    "weighted avg": {
      "precision": 0.8154059198837011,
      "recall": 0.8873312817190369,
      "f1-score": 0.8387408440630988,
      "support": 370440.0
    }
  },
  "iter_81": {
    "pass": {
      "precision": 0.889617732317713,
      "recall": 0.9960772287989701,
      "f1-score": 0.939842322082357,
      "support": 329359.0
    },
    "fail": {
      "precision": 0.22495500899820037,
      "recall": 0.009128307490080572,
      "f1-score": 0.017544680452886686,
      "support": 41081.0
    },
    "accuracy": 0.8866267141777345,
    "macro avg": {
      "precision": 0.5572863706579567,
      "recall": 0.5026027681445253,
      "f1-score": 0.47869350126762183,
      "support": 370440.0
    },
    "weighted avg": {
      "precision": 0.8159080645261977,
      "recall": 0.8866267141777345,
      "f1-score": 0.8375614954551561,
      "support": 370440.0
    }
  },
  "iter_82": {
    "pass": {
      "precision": 0.8900441895729969,
      "recall": 0.9956786807837853,
      "f1-score": 0.9399027168246038,
      "support": 329529.0
    },
    "fail": {
      "precision": 0.20932815102720712,
      "recall": 0.009215125516364792,
      "f1-score": 0.017653118561528375,
      "support": 40911.0
    },
    "accuracy": 0.886734693877551,
    "macro avg": {
      "precision": 0.549686170300102,
      "recall": 0.502446903150075,
      "f1-score": 0.4787779176930661,
      "support": 370440.0
    },
    "weighted avg": {
      "precision": 0.8148666335505726,
      "recall": 0.886734693877551,
      "f1-score": 0.8380504511012998,
      "support": 370440.0
    }
  },
  "iter_83": {
    "pass": {
      "precision": 0.8897873736675262,
      "recall": 0.9960356006702445,
      "f1-score": 0.9399184475530685,
      "support": 329432.0
    },
    "fail": {
      "precision": 0.21843207660083783,
      "recall": 0.008900702301989855,
      "f1-score": 0.017104430750486187,
      "support": 41008.0
    },
    "accuracy": 0.8867589893100097,
    "macro avg": {
      "precision": 0.554109725134182,
      "recall": 0.5024681514861172,
      "f1-score": 0.47851143915177735,
      "support": 370440.0
    },
    "weighted avg": {
      "precision": 0.8154678130852167,
      "recall": 0.8867589893100097,
      "f1-score": 0.8377622084832049,
      "support": 370440.0
    }
  },
  "iter_84": {
    "pass": {
      "precision": 0.8904550607814525,
      "recall": 0.9957961145907581,
      "f1-score": 0.9401841083745112,
      "support": 329695.0
    },
    "fail": {
      "precision": 0.20436280137772675,
      "recall": 0.008737268376487913,
      "f1-score": 0.01675806717348836,
      "support": 40745.0
    },
    "accuracy": 0.8872287010042113,
    "macro avg": {
      "precision": 0.5474089310795897,
      "recall": 0.502266691483623,
      "f1-score": 0.47847108777399977,
      "support": 370440.0
    },
    "weighted avg": {
      "precision": 0.8149912093901212,
      "recall": 0.8872287010042113,
      "f1-score": 0.8386157193000708,
      "support": 370440.0
    }
  },
  "iter_85": {
    "pass": {
      "precision": 0.8896510199266076,
      "recall": 0.9958437820672402,
      "f1-score": 0.9397569650861136,
      "support": 329386.0
    },
    "fail": {
      "precision": 0.2118595279217041,
      "recall": 0.008963803770643543,
      "f1-score": 0.01719987847911944,
      "support": 41054.0
    },
    "accuracy": 0.8864728431054961,
    "macro avg": {
      "precision": 0.5507552739241558,
      "recall": 0.5024037929189419,
      "f1-score": 0.4784784217826165,
      "support": 370440.0
    },
    "weighted avg": {
      "precision": 0.8145348016111738,
      "recall": 0.8864728431054961,
      "f1-score": 0.8375146083385605,
      "support": 370440.0
    }
  },
  "iter_86": {
    "pass": {
      "precision": 0.8895667428574527,
      "recall": 0.9961651156082527,
      "f1-score": 0.9398529841468096,
      "support": 329345.0
    },
    "fail": {
      "precision": 0.22467771639042358,
      "recall": 0.008906192967514296,
      "f1-score": 0.017133227225915176,
      "support": 41095.0
    },
    "accuracy": 0.8866429111327071,
    "macro avg": {
      "precision": 0.5571222296239382,
      "recall": 0.5025356542878835,
      "f1-score": 0.4784931056863624,
      "support": 370440.0
    },
    "weighted avg": {
      "precision": 0.8158068504520362,
      "recall": 0.8866429111327071,
      "f1-score": 0.8374904735900012,
      "support": 370440.0
    }
  },
  "iter_87": {
    "pass": {
      "precision": 0.8900503395751513,
      "recall": 0.9958546266736262,
      "f1-score": 0.939984532095901,
      "support": 329524.0
    },
    "fail": {
      "precision": 0.21674311926605505,
      "recall": 0.009238439730178903,
      "f1-score": 0.017721518987341773,
      "support": 40916.0
    },
    "accuracy": 0.8868804664723032,
    "macro avg": {
      "precision": 0.5533967294206033,
      "recall": 0.5025465332019026,
      "f1-score": 0.4788530255416214,
      "support": 370440.0
    },
    "weighted avg": {
      "precision": 0.8156819176278266,
      "recall": 0.8868804664723032,
      "f1-score": 0.8381183366409022,
      "support": 370440.0
    }
  },
  "iter_88": {
    "pass": {
      "precision": 0.8887626094810821,
      "recall": 0.9957787570278073,
      "f1-score": 0.9392321572662998,
      "support": 329050.0
    },
    "fail": {
      "precision": 0.21481062747314866,
      "recall": 0.009180961584923895,
      "f1-score": 0.01760930512755161,
      "support": 41390.0
    },
    "accuracy": 0.8855442176870748,
    "macro avg": {
      "precision": 0.5517866184771154,
      "recall": 0.5024798593063656,
      "f1-score": 0.47842073119692574,
      "support": 370440.0
    },
    "weighted avg": {
      "precision": 0.8134606104115746,
      "recall": 0.8855442176870748,
      "f1-score": 0.8362573979259942,
      "support": 370440.0
    }
  },
  "iter_89": {
    "pass": {
      "precision": 0.8896839044607064,
      "recall": 0.9958256043765882,
      "f1-score": 0.9397672169895784,
      "support": 329389.0
    },
    "fail": {
      "precision": 0.2160775370581528,
      "recall": 0.00923241821149302,
      "f1-score": 0.017708211657516647,
      "support": 41051.0
    },
    "accuracy": 0.8864944390454594,
    "macro avg": {
      "precision": 0.5528807207594296,
      "recall": 0.5025290112940406,
      "f1-score": 0.47873771432354756,
      "support": 370440.0
    },
    "weighted avg": {
      "precision": 0.8150369576184587,
      "recall": 0.8864944390454594,
      "f1-score": 0.837587527355936,
      "support": 370440.0
    }
  },
  "iter_90": {
    "pass": {
      "precision": 0.8893182243408797,
      "recall": 0.9960458102900043,
      "f1-score": 0.9396611742863773,
      "support": 329271.0
    },
    "fail": {
      "precision": 0.21234119782214156,
      "recall": 0.008525832543904394,
      "f1-score": 0.01639344262295082,
      "support": 41169.0
    },
    "accuracy": 0.8862973760932945,
    "macro avg": {
      "precision": 0.5508297110815106,
      "recall": 0.5022858214169543,
      "f1-score": 0.47802730845466407,
      "support": 370440.0
    },
    "weighted avg": {
      "precision": 0.8140821072780628,
      "recall": 0.8862973760932945,
      "f1-score": 0.837053439579403,
      "support": 370440.0
    }
  },
  "iter_91": {
    "pass": {
      "precision": 0.8892929490152052,
      "recall": 0.9960151255144345,
      "f1-score": 0.9396334107925192,
      "support": 329245.0
    },
    "fail": {
      "precision": 0.22043969102792632,
      "recall": 0.009005947323704333,
      "f1-score": 0.01730491160968329,
      "support": 41195.0
    },
    "accuracy": 0.8862541842133679,
    "macro avg": {
      "precision": 0.5548663200215658,
      "recall": 0.5025105364190694,
      "f1-score": 0.4784691612011012,
      "support": 370440.0
    },
    "weighted avg": {
      "precision": 0.8149127255976855,
      "recall": 0.8862541842133679,
      "f1-score": 0.837065322778706,
      "support": 370440.0
    }
  },
  "iter_92": {
    "pass": {
      "precision": 0.8890452599239115,
      "recall": 0.9960808499390861,
      "f1-score": 0.9395243676336158,
      "support": 329153.0
    },
    "fail": {
      "precision": 0.2224231464737794,
      "recall": 0.00893743793445879,
      "f1-score": 0.01718437107064686,
      "support": 41287.0
    },
    "accuracy": 0.8860598207536983,
    "macro avg": {
      "precision": 0.5557342031988455,
      "recall": 0.5025091439367725,
      "f1-score": 0.4783543693521313,
      "support": 370440.0
    },
    "weighted avg": {
      "precision": 0.8147475944503784,
      "recall": 0.8860598207536983,
      "f1-score": 0.8367259348561207,
      "support": 370440.0
    }
  },
  "iter_93": {
    "pass": {
      "precision": 0.8903650070506562,
      "recall": 0.9960199367194207,
      "f1-score": 0.9402336473354209,
      "support": 329643.0
    },
    "fail": {
      "precision": 0.21904761904761905,
      "recall": 0.009020271098365076,
      "f1-score": 0.01732702403653742,
      "support": 40797.0
    },
    "accuracy": 0.8873204837490551,
    "macro avg": {
      "precision": 0.5547063130491376,
      "recall": 0.5025201039088929,
      "f1-score": 0.47878033568597916,
      "support": 370440.0
    },
    "weighted avg": {
      "precision": 0.8164320206605257,
      "recall": 0.8873204837490551,
      "f1-score": 0.8385928377286708,
      "support": 370440.0
    }
  },
  "iter_94": {
    "pass": {
      "precision": 0.8894843180061561,
      "recall": 0.995879650574936,
      "f1-score": 0.939679920237911,
      "support": 329341.0
    },
    "fail": {
      "precision": 0.20410557184750733,
      "recall": 0.008467359303146063,
      "f1-score": 0.016260162601626018,
      "support": 41099.0
    },
    "accuracy": 0.8863297700032394,
    "macro avg": {
      "precision": 0.5467949449268317,
      "recall": 0.502173504939041,
      "f1-score": 0.4779700414197685,
      "support": 370440.0
    },
    "weighted avg": {
      "precision": 0.8134439846502164,
      "recall": 0.8863297700032394,
      "f1-score": 0.8372297835920476,
      "support": 370440.0
    }
  },
  "iter_95": {
    "pass": {
      "precision": 0.8901857310601233,
      "recall": 0.9959345153578233,
      "f1-score": 0.9400956236226718,
      "support": 329604.0
    },
    "fail": {
      "precision": 0.20285544318857823,
      "recall": 0.008350475071015771,
      "f1-score": 0.01604064256650281,
      "support": 40836.0
    },
    "accuracy": 0.8870667314544866,
    "macro avg": {
      "precision": 0.5465205871243508,
      "recall": 0.5021424952144196,
      "f1-score": 0.47806813309458734,
      "support": 370440.0
    },
    "weighted avg": {
      "precision": 0.8144168625914849,
      "recall": 0.8870667314544866,
      "f1-score": 0.8382310593034578,
      "support": 370440.0
    }
  },
  "iter_96": {
    "pass": {
      "precision": 0.8893302926190366,
      "recall": 0.9960517644057449,
      "f1-score": 0.9396705604598057,
      "support": 329261.0
    },
    "fail": {
      "precision": 0.22015596880623875,
      "recall": 0.008912309672405838,
      "f1-score": 0.017131120758063764,
      "support": 41179.0
    },
    "accuracy": 0.8863189720332577,
    "macro avg": {
      "precision": 0.5547431307126377,
      "recall": 0.5024820370390753,
      "f1-score": 0.47840084060893473,
      "support": 370440.0
    },
    "weighted avg": {
      "precision": 0.8149432677829304,
      "recall": 0.8863189720332577,
      "f1-score": 0.8371188608931336,
      "support": 370440.0
    }
  },
  "iter_97": {
    "pass": {
      "precision": 0.8897406555741154,
      "recall": 0.9960717527450677,
      "f1-score": 0.9399084769795971,
      "support": 329409.0
    },
    "fail": {
      "precision": 0.22235576923076922,
      "recall": 0.009017572079647096,
      "f1-score": 0.017332240309169692,
      "support": 41031.0
    },
    "accuracy": 0.8867427923550373,
    "macro avg": {
      "precision": 0.5560482124024423,
      "recall": 0.5025446624123574,
      "f1-score": 0.4786203586443834,
      "support": 370440.0
    },
    "weighted avg": {
      "precision": 0.8158191857772418,
      "recall": 0.8867427923550373,
      "f1-score": 0.8377212791423648,
      "support": 370440.0
    }
  },
  "iter_98": {
    "pass": {
      "precision": 0.8892039985792951,
      "recall": 0.9962091527091801,
      "f1-score": 0.939670078576596,
      "support": 329214.0
    },
    "fail": {
      "precision": 0.22436295835922934,
      "recall": 0.008756609906369766,
      "f1-score": 0.016855375277226567,
      "support": 41226.0
    },
    "accuracy": 0.8863162725407623,
    "macro avg": {
      "precision": 0.5567834784692622,
      "recall": 0.502482881307775,
      "f1-score": 0.4782627269269113,
      "support": 370440.0
    },
    "weighted avg": {
      "precision": 0.8152143194838615,
      "recall": 0.8863162725407623,
      "f1-score": 0.8369706968731628,
      "support": 370440.0
    }
  },
  "iter_99": {
    "pass": {
      "precision": 0.8904200222348763,
      "recall": 0.9960537371200471,
      "f1-score": 0.9402793824779625,
      "support": 329679.0
    },
    "fail": {
      "precision": 0.21151515151515152,
      "recall": 0.008562105934594343,
      "f1-score": 0.016457994388248333,
      "support": 40761.0
    },
    "accuracy": 0.8873960695389267,
    "macro avg": {
      "precision": 0.5509675868750139,
      "recall": 0.5023079215273207,
      "f1-score": 0.4783686884331054,
      "support": 370440.0
    },
    "weighted avg": {
      "precision": 0.815717394453301,
      "recall": 0.8873960695389267,
      "f1-score": 0.8386276072919003,
      "support": 370440.0
    }
  },
  "iter_100": {
    "pass": {
      "precision": 0.8905460225177343,
      "recall": 0.9960601860417153,
      "f1-score": 0.9403525047710265,
      "support": 329711.0
    },
    "fail": {
      "precision": 0.21935096153846154,
      "recall": 0.008961673500454221,
      "f1-score": 0.01721982402755172,
      "support": 40729.0
    },
    "accuracy": 0.8875310441636972,
    "macro avg": {
      "precision": 0.5549484920280979,
      "recall": 0.5025109297710848,
      "f1-score": 0.4787861643992891,
      "support": 370440.0
    },
    "weighted avg": {
      "precision": 0.8167497163989976,
      "recall": 0.8875310441636972,
      "f1-score": 0.8388562544902768,
      "support": 370440.0
    }
  }
}