{
  "test_complete": true,
  "1.py": {
    "successful": false,
    "error_type": "TypeError",
    "error_message": "type str doesn't define __round__ method"
  },
  "2.py": {
    "successful": false,
    "error_type": "AssertionError"
  },
  "4.py": {
    "successful": false,
    "error_type": "AssertionError"
  },
  "6.py": {
    "successful": false,
    "error_type": "TypeError",
    "error_message": "type str doesn't define __round__ method"
  },
  "7.py": {
    "successful": false,
    "error_type": "TypeError",
    "error_message": "type str doesn't define __round__ method"
  },
  "11.py": {
    "successful": false,
    "error_type": "AssertionError"
  },
  "18.py": {
    "successful": false,
    "error_type": "TypeError",
    "error_message": "type str doesn't define __round__ method"
  },
  "19.py": {
    "successful": false,
    "error_type": "TypeError",
    "error_message": "replace() argument 1 must be str, not int"
  },
  "27.py": {
    "successful": false,
    "error_type": "TypeError",
    "error_message": "type str doesn't define __round__ method"
  },
  "28.py": {
    "successful": false,
    "error_type": "AssertionError"
  },
  "33.py": {
    "successful": false,
    "error_type": "TypeError",
    "error_message": "'<' not supported between instances of 'str' and 'int'"
  },
  "35.py": {
    "successful": false,
    "error_type": "AssertionError"
  },
  "37.py": {
    "successful": false,
    "error_type": "TypeError",
    "error_message": "type str doesn't define __round__ method"
  },
  "41.py": {
    "successful": false,
    "error_type": "TypeError",
    "error_message": "'<' not supported between instances of 'str' and 'int'"
  },
  "46.py": {
    "successful": false,
    "error_type": "TypeError",
    "error_message": "type str doesn't define __round__ method"
  },
  "48.py": {
    "successful": false,
    "error_type": "AssertionError"
  },
  "54.py": {
    "successful": false,
    "error_type": "SyntaxError",
    "error_message": "unmatched ')'"
  },
  "58.py": {
    "successful": false,
    "error_type": "TypeError",
    "error_message": "type str doesn't define __round__ method"
  },
  "66.py": {
    "successful": false,
    "error_type": "AssertionError"
  },
  "76.py": {
    "successful": false,
    "error_type": "NameError",
    "error_message": "name 'Rounding' is not defined"
  },
  "77.py": {
    "successful": false,
    "error_type": "AssertionError"
  },
  "80.py": {
    "successful": false,
    "error_type": "TypeError",
    "error_message": "'rounding' is an invalid keyword argument for int()"
  },
  "88.py": {
    "successful": false,
    "error_type": "TypeError",
    "error_message": "lstrip arg must be None or str"
  },
  "91.py": {
    "successful": false,
    "error_type": "AssertionError"
  },
  "96.py": {
    "successful": false,
    "error_type": "ValueError",
    "error_message": "int() base must be >= 2 and <= 36, or 0"
  },
  "97.py": {
    "successful": false,
    "error_type": "SyntaxError",
    "error_message": "'(' was never closed"
  },
  "106.py": {
    "successful": false,
    "error_type": "ValueError",
    "error_message": "Number must be float or int"
  },
  "107.py": {
    "successful": false,
    "error_type": "SyntaxError",
    "error_message": "'(' was never closed"
  },
  "115.py": {
    "successful": false,
    "error_type": "AssertionError"
  },
  "124.py": {
    "successful": false,
    "error_type": "ValueError",
    "error_message": "invalid literal for int() with base 10"
  },
  "132.py": {
    "successful": false,
    "error_type": "TypeError",
    "error_message": "type str doesn't define __round__ method"
  },
  "135.py": {
    "successful": false,
    "error_type": "SyntaxError",
    "error_message": "'(' was never closed"
  },
  "136.py": {
    "successful": false,
    "error_type": "AssertionError"
  },
  "137.py": {
    "successful": false,
    "error_type": "TypeError",
    "error_message": "type str doesn't define __round__ method"
  },
  "139.py": {
    "successful": false,
    "error_type": "TypeError",
    "error_message": "type str doesn't define __round__ method"
  },
  "140.py": {
    "successful": false,
    "error_type": "TypeError",
    "error_message": "value must be an integer"
  },
  "147.py": {
    "successful": false,
    "error_type": "ValueError",
    "error_message": "invalid literal for int() with base 0"
  },
  "153.py": {
    "successful": false,
    "error_type": "TypeError",
    "error_message": "'<' not supported between instances of 'str' and 'int'"
  },
  "157.py": {
    "successful": false,
    "error_type": "TypeError",
    "error_message": "type str doesn't define __round__ method"
  },
  "189.py": {
    "successful": false,
    "error_type": "AssertionError"
  }
}