{
  "test_complete": true,
  "4.py": {
    "successful": false,
    "error_type": "NameError",
    "error_message": "name 'x' is not defined"
  },
  "131.py": {
    "successful": false,
    "error_type": "NameError",
    "error_message": "name 'x' is not defined"
  }
}