{
  "test_complete": true,
  "0.py": {
    "successful": false,
    "error_type": "TypeError",
    "error_message": "unsupported operand type(s) for -"
  },
  "1.py": {
    "successful": false,
    "error_type": "TypeError",
    "error_message": "'>=' not supported between instances of 'int' and 'str'"
  },
  "2.py": {
    "successful": false,
    "error_type": "TypeError",
    "error_message": "'>' not supported between instances of 'str' and 'int'"
  },
  "3.py": {
    "successful": false,
    "error_type": "AssertionError"
  },
  "4.py": {
    "successful": false,
    "error_type": "TypeError",
    "error_message": "sequence item 0"
  },
  "5.py": {
    "successful": false,
    "error_type": "AssertionError"
  },
  "6.py": {
    "successful": false,
    "error_type": "SyntaxError",
    "error_message": "unterminated string literal (detected at line 41)"
  },
  "7.py": {
    "successful": false,
    "error_type": "ValueError",
    "error_message": "invalid literal for int() with base 10"
  },
  "8.py": {
    "successful": false,
    "error_type": "IndentationError",
    "error_message": "expected an indented block after function definition on line 1"
  },
  "9.py": {
    "successful": false,
    "error_type": "IndentationError",
    "error_message": "expected an indented block after function definition on line 1"
  },
  "10.py": {
    "successful": false,
    "error_type": "AssertionError"
  },
  "11.py": {
    "successful": false,
    "error_type": "TypeError",
    "error_message": "can only concatenate str (not \"int\") to str"
  },
  "12.py": {
    "successful": false,
    "error_type": "AssertionError"
  },
  "13.py": {
    "successful": false,
    "error_type": "AssertionError"
  },
  "14.py": {
    "successful": false,
    "error_type": "IndentationError",
    "error_message": "expected an indented block after function definition on line 1"
  },
  "15.py": {
    "successful": false,
    "error_type": "AssertionError"
  },
  "16.py": {
    "successful": false,
    "error_type": "NameError",
    "error_message": "name 'n' is not defined"
  },
  "17.py": {
    "successful": false,
    "error_type": "ValueError",
    "error_message": "empty separator"
  },
  "18.py": {
    "successful": false,
    "error_type": "KeyError",
    "error_message": "19"
  },
  "19.py": {
    "successful": false,
    "error_type": "AttributeError",
    "error_message": "'int' object has no attribute 'upper'"
  },
  "20.py": {
    "successful": false,
    "error_type": "TypeError",
    "error_message": "replace() argument 1 must be str, not int"
  },
  "21.py": {
    "successful": false,
    "error_type": "AssertionError"
  },
  "22.py": {
    "successful": false,
    "error_type": "AssertionError"
  },
  "23.py": {
    "successful": false,
    "error_type": "KeyError",
    "error_message": "'19'"
  },
  "24.py": {
    "successful": false,
    "error_type": "TypeError",
    "error_message": "sequence item 0"
  },
  "25.py": {
    "successful": false,
    "error_type": "IndentationError",
    "error_message": "expected an indented block after function definition on line 1"
  },
  "26.py": {
    "successful": false,
    "error_type": "IndentationError",
    "error_message": "expected an indented block after function definition on line 1"
  },
  "27.py": {
    "successful": false,
    "error_type": "NameError",
    "error_message": "name 'RomanNumeral' is not defined"
  },
  "28.py": {
    "successful": false,
    "error_type": "KeyError",
    "error_message": "'M'"
  },
  "29.py": {
    "successful": false,
    "error_type": "ValueError",
    "error_message": "empty separator"
  },
  "30.py": {
    "successful": false,
    "error_type": "IndentationError",
    "error_message": "expected an indented block after function definition on line 1"
  },
  "31.py": {
    "successful": false,
    "error_type": "ValueError",
    "error_message": "empty separator"
  },
  "32.py": {
    "successful": false,
    "error_type": "AssertionError"
  },
  "33.py": {
    "successful": false,
    "error_type": "AssertionError"
  },
  "34.py": {
    "successful": false,
    "error_type": "AssertionError"
  },
  "35.py": {
    "successful": false,
    "error_type": "KeyError",
    "error_message": "19"
  },
  "36.py": {
    "successful": false,
    "error_type": "NameError",
    "error_message": "name 'roman_to_mini' is not defined"
  },
  "37.py": {
    "successful": false,
    "error_type": "KeyError",
    "error_message": "'1'"
  },
  "38.py": {
    "successful": false,
    "error_type": "KeyError",
    "error_message": "'1'"
  },
  "39.py": {
    "successful": false,
    "error_type": "TypeError",
    "error_message": "'>=' not supported between instances of 'str' and 'int'"
  },
  "40.py": {
    "successful": false,
    "error_type": "TypeError",
    "error_message": "'>=' not supported between instances of 'int' and 'str'"
  },
  "41.py": {
    "successful": false,
    "error_type": "AssertionError"
  },
  "42.py": {
    "successful": false,
    "error_type": "TypeError",
    "error_message": "'str' object cannot be interpreted as an integer"
  },
  "43.py": {
    "successful": false,
    "error_type": "TypeError",
    "error_message": "'>=' not supported between instances of 'int' and 'str'"
  },
  "44.py": {
    "successful": false,
    "error_type": "IndentationError",
    "error_message": "expected an indented block after function definition on line 1"
  },
  "45.py": {
    "successful": false,
    "error_type": "SyntaxError",
    "error_message": "unterminated string literal (detected at line 15)"
  },
  "46.py": {
    "successful": false,
    "error_type": "KeyError",
    "error_message": "'0'"
  },
  "47.py": {
    "successful": false,
    "error_type": "KeyError",
    "error_message": "19"
  },
  "48.py": {
    "successful": false,
    "error_type": "AssertionError"
  },
  "49.py": {
    "successful": false,
    "error_type": "IndentationError",
    "error_message": "expected an indented block after function definition on line 1"
  },
  "50.py": {
    "successful": false,
    "error_type": "TypeError",
    "error_message": "ord() expected a character, but string of length 2 found"
  },
  "51.py": {
    "successful": false,
    "error_type": "TypeError",
    "error_message": "'>=' not supported between instances of 'int' and 'str'"
  },
  "52.py": {
    "successful": false,
    "error_type": "AssertionError"
  },
  "53.py": {
    "successful": false,
    "error_type": "AssertionError"
  },
  "54.py": {
    "successful": false,
    "error_type": "TypeError",
    "error_message": "'>=' not supported between instances of 'int' and 'str'"
  },
  "55.py": {
    "successful": false,
    "error_type": "NameError",
    "error_message": "name 'get_roman_numeral' is not defined. Did you mean"
  },
  "56.py": {
    "successful": false,
    "error_type": "AssertionError"
  },
  "57.py": {
    "successful": false,
    "error_type": "TypeError",
    "error_message": "'>=' not supported between instances of 'int' and 'str'"
  },
  "58.py": {
    "successful": false,
    "error_type": "KeyError",
    "error_message": "'1'"
  },
  "59.py": {
    "successful": false,
    "error_type": "TypeError",
    "error_message": "'>=' not supported between instances of 'str' and 'int'"
  },
  "60.py": {
    "successful": false,
    "error_type": "KeyError",
    "error_message": "''"
  },
  "61.py": {
    "successful": false,
    "error_type": "AssertionError"
  },
  "62.py": {
    "successful": false,
    "error_type": "TypeError",
    "error_message": "object of type 'int' has no len()"
  },
  "63.py": {
    "successful": false,
    "error_type": "TypeError",
    "error_message": "'>=' not supported between instances of 'int' and 'str'"
  },
  "64.py": {
    "successful": false,
    "error_type": "AssertionError"
  },
  "65.py": {
    "successful": false,
    "error_type": "AssertionError"
  },
  "66.py": {
    "successful": false,
    "error_type": "AssertionError"
  },
  "67.py": {
    "successful": false,
    "error_type": "AssertionError"
  },
  "68.py": {
    "successful": false,
    "error_type": "KeyError",
    "error_message": "'1'"
  },
  "69.py": {
    "successful": false,
    "error_type": "TypeError",
    "error_message": "'>=' not supported between instances of 'int' and 'str'"
  },
  "70.py": {
    "successful": false,
    "error_type": "KeyError",
    "error_message": "'1'"
  },
  "71.py": {
    "successful": false,
    "error_type": "TypeError",
    "error_message": "'>=' not supported between instances of 'int' and 'str'"
  },
  "72.py": {
    "successful": false,
    "error_type": "ValueError",
    "error_message": "empty separator"
  },
  "73.py": {
    "successful": false,
    "error_type": "IndentationError",
    "error_message": "expected an indented block after function definition on line 1"
  },
  "74.py": {
    "successful": false,
    "error_type": "AssertionError"
  },
  "75.py": {
    "successful": false,
    "error_type": "TypeError",
    "error_message": "'int' object is not iterable"
  },
  "76.py": {
    "successful": false,
    "error_type": "SyntaxError",
    "error_message": "invalid syntax. Perhaps you forgot a comma?"
  },
  "77.py": {
    "successful": false,
    "error_type": "AssertionError"
  },
  "78.py": {
    "successful": false,
    "error_type": "AssertionError"
  },
  "79.py": {
    "successful": false,
    "error_type": "KeyError",
    "error_message": "19"
  },
  "80.py": {
    "successful": false,
    "error_type": "AssertionError"
  },
  "81.py": {
    "successful": false,
    "error_type": "IndentationError",
    "error_message": "expected an indented block after function definition on line 1"
  },
  "82.py": {
    "successful": false,
    "error_type": "AssertionError"
  },
  "83.py": {
    "successful": false,
    "error_type": "IndentationError",
    "error_message": "expected an indented block after function definition on line 1"
  },
  "84.py": {
    "successful": false,
    "error_type": "AssertionError"
  },
  "85.py": {
    "successful": false,
    "error_type": "AssertionError"
  },
  "86.py": {
    "successful": false,
    "error_type": "TypeError",
    "error_message": "unsupported operand type(s) for -"
  },
  "87.py": {
    "successful": false,
    "error_type": "IndentationError",
    "error_message": "expected an indented block after function definition on line 1"
  },
  "88.py": {
    "successful": false,
    "error_type": "IndentationError",
    "error_message": "expected an indented block after function definition on line 1"
  },
  "89.py": {
    "successful": false,
    "error_type": "NameError",
    "error_message": "name 'roman_to_number' is not defined"
  },
  "90.py": {
    "successful": true
  },
  "91.py": {
    "successful": false,
    "error_type": "NameError",
    "error_message": "name 'convert_to_roman' is not defined"
  },
  "92.py": {
    "successful": false,
    "error_type": "AssertionError"
  },
  "93.py": {
    "successful": false,
    "error_type": "IndexError",
    "error_message": "string index out of range"
  },
  "94.py": {
    "successful": false,
    "error_type": "SyntaxError",
    "error_message": "invalid syntax"
  },
  "95.py": {
    "successful": false,
    "error_type": "ValueError",
    "error_message": "n must be a positive integer less than 3000"
  },
  "96.py": {
    "successful": false,
    "error_type": "AssertionError"
  },
  "97.py": {
    "successful": false,
    "error_type": "TypeError",
    "error_message": "unsupported operand type(s) for +="
  },
  "98.py": {
    "successful": false,
    "error_type": "ValueError",
    "error_message": "not enough values to unpack (expected 3, got 2)"
  },
  "99.py": {
    "successful": false,
    "error_type": "IndexError",
    "error_message": "string index out of range"
  },
  "100.py": {
    "successful": false,
    "error_type": "IndentationError",
    "error_message": "expected an indented block after function definition on line 1"
  },
  "101.py": {
    "successful": false,
    "error_type": "AssertionError"
  },
  "102.py": {
    "successful": false,
    "error_type": "SyntaxError",
    "error_message": "invalid syntax"
  },
  "103.py": {
    "successful": false,
    "error_type": "NameError",
    "error_message": "name 'symbols' is not defined"
  },
  "104.py": {
    "successful": false,
    "error_type": "SyntaxError",
    "error_message": "unterminated string literal (detected at line 21)"
  },
  "105.py": {
    "successful": false,
    "error_type": "AssertionError"
  },
  "106.py": {
    "successful": false,
    "error_type": "SyntaxError",
    "error_message": "'(' was never closed"
  },
  "107.py": {
    "successful": false,
    "error_type": "AssertionError"
  },
  "108.py": {
    "successful": false,
    "error_type": "IndentationError",
    "error_message": "expected an indented block after function definition on line 1"
  },
  "109.py": {
    "successful": false,
    "error_type": "KeyError",
    "error_message": "'1'"
  },
  "110.py": {
    "successful": false,
    "error_type": "NameError",
    "error_message": "name 'MinesweeperGame' is not defined"
  },
  "111.py": {
    "successful": false,
    "error_type": "IndentationError",
    "error_message": "expected an indented block after function definition on line 1"
  },
  "112.py": {
    "successful": false,
    "error_type": "AssertionError"
  },
  "113.py": {
    "successful": false,
    "error_type": "IndentationError",
    "error_message": "expected an indented block after function definition on line 1"
  },
  "114.py": {
    "successful": false,
    "error_type": "AssertionError"
  },
  "115.py": {
    "successful": false,
    "error_type": "AssertionError"
  },
  "116.py": {
    "successful": false,
    "error_type": "TypeError",
    "error_message": "'>=' not supported between instances of 'int' and 'str'"
  },
  "117.py": {
    "successful": false,
    "error_type": "TypeError",
    "error_message": "unsupported operand type(s) for -"
  },
  "118.py": {
    "successful": false,
    "error_type": "KeyError",
    "error_message": "'\\x00'"
  },
  "119.py": {
    "successful": false,
    "error_type": "AssertionError"
  },
  "120.py": {
    "successful": false,
    "error_type": "SyntaxError",
    "error_message": "unterminated string literal (detected at line 43)"
  },
  "121.py": {
    "successful": false,
    "error_type": "TypeError",
    "error_message": "can only concatenate str (not \"int\") to str"
  },
  "122.py": {
    "successful": false,
    "error_type": "KeyError",
    "error_message": "19"
  },
  "123.py": {
    "successful": false,
    "error_type": "ValueError",
    "error_message": "empty separator"
  },
  "124.py": {
    "successful": false,
    "error_type": "AssertionError"
  },
  "125.py": {
    "successful": false,
    "error_type": "AssertionError"
  },
  "126.py": {
    "successful": false,
    "error_type": "AssertionError"
  },
  "127.py": {
    "successful": false,
    "error_type": "TypeError",
    "error_message": "'>=' not supported between instances of 'int' and 'str'"
  },
  "128.py": {
    "successful": false,
    "error_type": "KeyError",
    "error_message": "19"
  },
  "129.py": {
    "successful": false,
    "error_type": "TypeError",
    "error_message": "unsupported operand type(s) for //"
  },
  "130.py": {
    "successful": false,
    "error_type": "NameError",
    "error_message": "name 'get_roman_numeral' is not defined. Did you mean"
  },
  "131.py": {
    "successful": false,
    "error_type": "ValueError",
    "error_message": "empty separator"
  },
  "132.py": {
    "successful": false,
    "error_type": "AssertionError"
  },
  "133.py": {
    "successful": false,
    "error_type": "AssertionError"
  },
  "134.py": {
    "successful": false,
    "error_type": "AssertionError"
  },
  "135.py": {
    "successful": false,
    "error_type": "KeyError",
    "error_message": "9"
  },
  "136.py": {
    "successful": false,
    "error_type": "AssertionError"
  },
  "137.py": {
    "successful": false,
    "error_type": "KeyError",
    "error_message": "19"
  },
  "138.py": {
    "successful": false,
    "error_type": "KeyError",
    "error_message": "19"
  },
  "139.py": {
    "successful": false,
    "error_type": "AssertionError"
  },
  "140.py": {
    "successful": false,
    "error_type": "KeyError",
    "error_message": "19"
  },
  "141.py": {
    "successful": false,
    "error_type": "IndentationError",
    "error_message": "expected an indented block after function definition on line 1"
  },
  "142.py": {
    "successful": false,
    "error_type": "AssertionError"
  },
  "143.py": {
    "successful": false,
    "error_type": "AssertionError"
  },
  "144.py": {
    "successful": false,
    "error_type": "KeyError",
    "error_message": "1"
  },
  "145.py": {
    "successful": false,
    "error_type": "AssertionError"
  },
  "146.py": {
    "successful": false,
    "error_type": "AssertionError"
  },
  "147.py": {
    "successful": false,
    "error_type": "AssertionError"
  },
  "148.py": {
    "successful": false,
    "error_type": "AssertionError"
  },
  "149.py": {
    "successful": false,
    "error_type": "KeyError",
    "error_message": "'9'"
  },
  "150.py": {
    "successful": false,
    "error_type": "UnboundLocalError",
    "error_message": "cannot access local variable 'result_str' where it is not associated with a value"
  },
  "151.py": {
    "successful": false,
    "error_type": "SyntaxError",
    "error_message": "'{' was never closed"
  },
  "152.py": {
    "successful": false,
    "error_type": "IndentationError",
    "error_message": "expected an indented block after function definition on line 1"
  },
  "153.py": {
    "successful": false,
    "error_type": "KeyError",
    "error_message": "0"
  },
  "154.py": {
    "successful": false,
    "error_type": "IndentationError",
    "error_message": "expected an indented block after function definition on line 1"
  },
  "155.py": {
    "successful": false,
    "error_type": "KeyError",
    "error_message": "19"
  },
  "156.py": {
    "successful": false,
    "error_type": "IndentationError",
    "error_message": "expected an indented block after function definition on line 1"
  },
  "157.py": {
    "successful": false,
    "error_type": "IndentationError",
    "error_message": "expected an indented block after function definition on line 1"
  },
  "158.py": {
    "successful": false,
    "error_type": "SyntaxError",
    "error_message": "unterminated string literal (detected at line 37)"
  },
  "159.py": {
    "successful": false,
    "error_type": "TypeError",
    "error_message": "'>=' not supported between instances of 'int' and 'str'"
  },
  "160.py": {
    "successful": false,
    "error_type": "AssertionError"
  },
  "161.py": {
    "successful": false,
    "error_type": "NameError",
    "error_message": "name 'int_to_roman' is not defined. Did you mean"
  },
  "162.py": {
    "successful": false,
    "error_type": "KeyError",
    "error_message": "19"
  },
  "163.py": {
    "successful": false,
    "error_type": "KeyError",
    "error_message": "19"
  },
  "164.py": {
    "successful": false,
    "error_type": "NameError",
    "error_message": "name 'convert_to_roman' is not defined"
  },
  "165.py": {
    "successful": false,
    "error_type": "RecursionError",
    "error_message": "maximum recursion depth exceeded"
  },
  "166.py": {
    "successful": false,
    "error_type": "KeyError",
    "error_message": "8"
  },
  "167.py": {
    "successful": false,
    "error_type": "KeyError",
    "error_message": "1"
  },
  "168.py": {
    "successful": false,
    "error_type": "KeyError",
    "error_message": "19"
  },
  "169.py": {
    "successful": false,
    "error_type": "AssertionError"
  },
  "170.py": {
    "successful": false,
    "error_type": "KeyError",
    "error_message": "0"
  },
  "171.py": {
    "successful": false,
    "error_type": "NameError",
    "error_message": "name 'roman_numerals' is not defined"
  },
  "172.py": {
    "successful": false,
    "error_type": "KeyError",
    "error_message": "1"
  },
  "173.py": {
    "successful": false,
    "error_type": "NameError",
    "error_message": "cannot access free variable 'roman_numeral_value' where it is not associated with a value in enclosing scope"
  },
  "174.py": {
    "successful": false,
    "error_type": "SyntaxError",
    "error_message": "invalid syntax"
  },
  "175.py": {
    "successful": false,
    "error_type": "KeyError",
    "error_message": "'1'"
  },
  "176.py": {
    "successful": false,
    "error_type": "AttributeError",
    "error_message": "'int' object has no attribute 'upper'"
  },
  "177.py": {
    "successful": false,
    "error_type": "KeyError",
    "error_message": "19"
  },
  "178.py": {
    "successful": false,
    "error_type": "NameError",
    "error_message": "name 'roman_to_numeral' is not defined. Did you mean"
  },
  "179.py": {
    "successful": false,
    "error_type": "KeyError",
    "error_message": "'1'"
  },
  "180.py": {
    "successful": false,
    "error_type": "AssertionError"
  },
  "181.py": {
    "successful": false,
    "error_type": "TypeError",
    "error_message": "'>' not supported between instances of 'str' and 'int'"
  },
  "182.py": {
    "successful": false,
    "error_type": "KeyError",
    "error_message": "11"
  },
  "183.py": {
    "successful": false,
    "error_type": "IndentationError",
    "error_message": "expected an indented block after function definition on line 1"
  },
  "184.py": {
    "successful": false,
    "error_type": "KeyError",
    "error_message": "'1'"
  },
  "185.py": {
    "successful": false,
    "error_type": "IndentationError",
    "error_message": "expected an indented block after function definition on line 1"
  },
  "186.py": {
    "successful": false,
    "error_type": "SyntaxError",
    "error_message": "unterminated string literal (detected at line 33)"
  },
  "187.py": {
    "successful": false,
    "error_type": "TypeError",
    "error_message": "'>=' not supported between instances of 'int' and 'str'"
  },
  "188.py": {
    "successful": false,
    "error_type": "KeyError",
    "error_message": "'9'"
  },
  "189.py": {
    "successful": false,
    "error_type": "TypeError",
    "error_message": "'>=' not supported between instances of 'int' and 'str'"
  },
  "190.py": {
    "successful": false,
    "error_type": "TypeError",
    "error_message": "'>=' not supported between instances of 'int' and 'str'"
  },
  "191.py": {
    "successful": false,
    "error_type": "IndentationError",
    "error_message": "expected an indented block after function definition on line 1"
  },
  "192.py": {
    "successful": false,
    "error_type": "KeyError",
    "error_message": "19"
  },
  "193.py": {
    "successful": false,
    "error_type": "KeyError",
    "error_message": "19"
  },
  "194.py": {
    "successful": false,
    "error_type": "NameError",
    "error_message": "name 'convert_to_roman' is not defined"
  },
  "195.py": {
    "successful": false,
    "error_type": "AssertionError"
  },
  "196.py": {
    "successful": false,
    "error_type": "KeyError",
    "error_message": "19"
  },
  "197.py": {
    "successful": false,
    "error_type": "NameError",
    "error_message": "name 'roman_numeral_map' is not defined. Did you mean"
  },
  "198.py": {
    "successful": false,
    "error_type": "IndentationError",
    "error_message": "expected an indented block after 'elif' statement on line 37"
  },
  "199.py": {
    "successful": false,
    "error_type": "KeyError",
    "error_message": "'9'"
  }
}