{
  "decision_boundary": 0.5,
  "average": {
    "pass": {
      "precision": 0.89115827388457,
      "recall": 0.9955825474344212,
      "f1-score": 0.9404805863839327,
      "support": 32938395.0
    },
    "fail": {
      "precision": 0.4084166330553499,
      "recall": 0.024464378597200964,
      "f1-score": 0.04616247568236164,
      "support": 4105605.0
    },
    "accuracy": 0.8879530288305801,
    "macro avg": {
      "precision": 0.6497874534699603,
      "recall": 0.5100234630158114,
      "f1-score": 0.49332153103314735,
      "support": 37044000.0
    },
    "weighted avg": {
      "precision": 0.8376568302660811,
      "recall": 0.8879530288305801,
      "f1-score": 0.8413629868913207,
      "support": 37044000.0
    }
  },
  "variance": {
    "pass": {
      "precision": 0.0003792724608415399,
      "recall": 9.874917843342269e-05,
      "f1-score": 0.0002124286554791599,
      "support": 32938395.0
    },
    "fail": {
      "precision": 0.00727466421351459,
      "recall": 0.0005359591916723062,
      "f1-score": 0.0009913476215722592,
      "support": 4105605.0
    },
    "accuracy": 0.0003766310333657441,
    "macro avg": {
      "precision": 0.003642820626089942,
      "recall": 0.0002748599330495094,
      "f1-score": 0.0005086085548837765,
      "support": 37044000.0
    },
    "weighted avg": {
      "precision": 0.0009080887169152984,
      "recall": 0.0003766310333657441,
      "f1-score": 0.0005321383256561485,
      "support": 37044000.0
    }
  }
}