{
  "test_complete": true,
  "0.py": {
    "successful": true
  },
  "2.py": {
    "successful": true
  },
  "4.py": {
    "successful": true
  },
  "7.py": {
    "successful": true
  },
  "11.py": {
    "successful": true
  },
  "26.py": {
    "successful": true
  },
  "29.py": {
    "successful": true
  },
  "30.py": {
    "successful": true
  },
  "40.py": {
    "successful": true
  },
  "51.py": {
    "successful": true
  },
  "58.py": {
    "successful": true
  },
  "79.py": {
    "successful": true
  },
  "81.py": {
    "successful": true
  },
  "103.py": {
    "successful": true
  },
  "107.py": {
    "successful": true
  },
  "122.py": {
    "successful": true
  },
  "142.py": {
    "successful": true
  },
  "169.py": {
    "successful": false,
    "error_type": "AssertionError"
  },
  "186.py": {
    "successful": true
  }
}