{
  "test_complete": true,
  "1.py": {
    "successful": true
  },
  "2.py": {
    "successful": true
  },
  "4.py": {
    "successful": true
  },
  "7.py": {
    "successful": true
  },
  "13.py": {
    "successful": true
  },
  "20.py": {
    "successful": true
  },
  "23.py": {
    "successful": true
  },
  "32.py": {
    "successful": true
  },
  "33.py": {
    "successful": true
  },
  "35.py": {
    "successful": true
  },
  "42.py": {
    "successful": true
  },
  "43.py": {
    "successful": true
  },
  "44.py": {
    "successful": true
  },
  "46.py": {
    "successful": true
  },
  "56.py": {
    "successful": false,
    "error_type": "IndexError",
    "error_message": "string index out of range"
  },
  "62.py": {
    "successful": true
  },
  "70.py": {
    "successful": true
  },
  "75.py": {
    "successful": true
  },
  "79.py": {
    "successful": true
  },
  "86.py": {
    "successful": true
  },
  "89.py": {
    "successful": true
  },
  "94.py": {
    "successful": true
  },
  "97.py": {
    "successful": true
  },
  "102.py": {
    "successful": true
  },
  "120.py": {
    "successful": true
  },
  "131.py": {
    "successful": true
  },
  "132.py": {
    "successful": false,
    "error_type": "AssertionError"
  },
  "138.py": {
    "successful": false,
    "error_type": "IndexError",
    "error_message": "string index out of range"
  },
  "139.py": {
    "successful": true
  },
  "142.py": {
    "successful": true
  },
  "145.py": {
    "successful": true
  },
  "160.py": {
    "successful": true
  },
  "166.py": {
    "successful": true
  },
  "176.py": {
    "successful": true
  },
  "177.py": {
    "successful": true
  },
  "192.py": {
    "successful": true
  }
}