{
  "test_complete": true,
  "0.py": {
    "successful": false,
    "error_type": "TypeError",
    "error_message": "array must be an integer or float"
  },
  "1.py": {
    "successful": false,
    "error_type": "IndexError",
    "error_message": "list index out of range"
  },
  "2.py": {
    "successful": false,
    "error_type": "AttributeError",
    "error_message": "'NoneType' object has no attribute 'reverse'"
  },
  "4.py": {
    "successful": false,
    "error_type": "IndexError",
    "error_message": "list index out of range"
  },
  "5.py": {
    "successful": false,
    "error_type": "AssertionError"
  },
  "7.py": {
    "successful": false,
    "error_type": "AssertionError"
  },
  "8.py": {
    "successful": false,
    "error_type": "UnboundLocalError",
    "error_message": "cannot access local variable 'x' where it is not associated with a value"
  },
  "9.py": {
    "successful": false,
    "error_type": "NameError",
    "error_message": "name 'np' is not defined"
  },
  "10.py": {
    "successful": false,
    "error_type": "SyntaxError",
    "error_message": "invalid syntax"
  },
  "11.py": {
    "successful": false,
    "error_type": "NameError",
    "error_message": "name 'elements' is not defined"
  },
  "12.py": {
    "successful": false,
    "error_type": "AssertionError"
  },
  "13.py": {
    "successful": false,
    "error_type": "ValueError",
    "error_message": "The given array has no sum"
  },
  "14.py": {
    "successful": false,
    "error_type": "TypeError",
    "error_message": "Input must be an integer or a list"
  },
  "15.py": {
    "successful": false,
    "error_type": "AssertionError"
  },
  "16.py": {
    "successful": false,
    "error_type": "AssertionError"
  },
  "17.py": {
    "successful": false,
    "error_type": "AssertionError"
  },
  "18.py": {
    "successful": false,
    "error_type": "AssertionError"
  },
  "19.py": {
    "successful": false,
    "error_type": "AssertionError"
  },
  "20.py": {
    "successful": false,
    "error_type": "AssertionError"
  },
  "21.py": {
    "successful": false,
    "error_type": "IndexError",
    "error_message": "list index out of range"
  },
  "22.py": {
    "successful": false,
    "error_type": "SyntaxError",
    "error_message": "unterminated string literal (detected at line 15)"
  },
  "23.py": {
    "successful": false,
    "error_type": "AssertionError"
  },
  "25.py": {
    "successful": false,
    "error_type": "NameError",
    "error_message": "name 'a' is not defined"
  },
  "26.py": {
    "successful": false,
    "error_type": "NameError",
    "error_message": "name 'np' is not defined"
  },
  "27.py": {
    "successful": false,
    "error_type": "NameError",
    "error_message": "name 'np' is not defined"
  },
  "28.py": {
    "successful": false,
    "error_type": "AssertionError"
  },
  "29.py": {
    "successful": false,
    "error_type": "TypeError",
    "error_message": "'int' object is not subscriptable"
  },
  "30.py": {
    "successful": false,
    "error_type": "TypeError",
    "error_message": "Array must be an integer."
  },
  "31.py": {
    "successful": false,
    "error_type": "IndentationError",
    "error_message": "expected an indented block after function definition on line 13"
  },
  "32.py": {
    "successful": false,
    "error_type": "TypeError",
    "error_message": "'int' object is not iterable"
  },
  "33.py": {
    "successful": false,
    "error_type": "TypeError",
    "error_message": "int() can't convert non-string with explicit base"
  },
  "34.py": {
    "successful": false,
    "error_type": "NameError",
    "error_message": "name 'long' is not defined"
  },
  "35.py": {
    "successful": false,
    "error_type": "NameError",
    "error_message": "name 'x' is not defined"
  },
  "36.py": {
    "successful": false,
    "error_type": "ValueError",
    "error_message": "Type must be int or float"
  },
  "37.py": {
    "successful": false,
    "error_type": "AssertionError"
  },
  "38.py": {
    "successful": false,
    "error_type": "NameError",
    "error_message": "name 'first' is not defined. Did you mean"
  },
  "40.py": {
    "successful": false,
    "error_type": "TypeError",
    "error_message": "'int' object is not subscriptable"
  },
  "41.py": {
    "successful": false,
    "error_type": "AssertionError"
  },
  "42.py": {
    "successful": false,
    "error_type": "NameError",
    "error_message": "name 'numbers' is not defined"
  },
  "43.py": {
    "successful": false,
    "error_type": "AssertionError"
  },
  "44.py": {
    "successful": false,
    "error_type": "NameError",
    "error_message": "name 'np' is not defined"
  },
  "45.py": {
    "successful": false,
    "error_type": "NameError",
    "error_message": "name 'numbers' is not defined"
  },
  "46.py": {
    "successful": false,
    "error_type": "AssertionError"
  },
  "47.py": {
    "successful": false,
    "error_type": "AssertionError"
  },
  "48.py": {
    "successful": false,
    "error_type": "AssertionError"
  },
  "49.py": {
    "successful": false,
    "error_type": "AssertionError"
  },
  "50.py": {
    "successful": false,
    "error_type": "TypeError",
    "error_message": "'property' object is not callable"
  },
  "51.py": {
    "successful": false,
    "error_type": "NameError",
    "error_message": "name 'dataclass' is not defined"
  },
  "52.py": {
    "successful": false,
    "error_type": "AssertionError"
  },
  "53.py": {
    "successful": false,
    "error_type": "NameError",
    "error_message": "name 'first' is not defined. Did you mean"
  },
  "55.py": {
    "successful": false,
    "error_type": "AssertionError"
  },
  "56.py": {
    "successful": false,
    "error_type": "TypeError",
    "error_message": "Array must be int."
  },
  "57.py": {
    "successful": false,
    "error_type": "AssertionError"
  },
  "58.py": {
    "successful": false,
    "error_type": "NameError",
    "error_message": "name 'copy' is not defined"
  },
  "59.py": {
    "successful": false,
    "error_type": "TypeError",
    "error_message": "'int' object is not subscriptable"
  },
  "60.py": {
    "successful": false,
    "error_type": "NameError",
    "error_message": "name 'np' is not defined"
  },
  "61.py": {
    "successful": false,
    "error_type": "TypeError",
    "error_message": "'int' object is not subscriptable"
  },
  "63.py": {
    "successful": false,
    "error_type": "TypeError",
    "error_message": "list indices must be integers or slices, not list"
  },
  "64.py": {
    "successful": false,
    "error_type": "IndexError",
    "error_message": "list index out of range"
  },
  "65.py": {
    "successful": false,
    "error_type": "IndentationError",
    "error_message": "expected an indented block after function definition on line 51"
  },
  "66.py": {
    "successful": false,
    "error_type": "NameError",
    "error_message": "name 'xrange' is not defined. Did you mean"
  },
  "67.py": {
    "successful": false,
    "error_type": "NameError",
    "error_message": "name 'fast_sorted' is not defined"
  },
  "68.py": {
    "successful": false,
    "error_type": "UnboundLocalError",
    "error_message": "cannot access local variable 'sorted' where it is not associated with a value"
  },
  "69.py": {
    "successful": false,
    "error_type": "TypeError",
    "error_message": "'property' object is not callable"
  },
  "70.py": {
    "successful": false,
    "error_type": "AssertionError"
  },
  "71.py": {
    "successful": false,
    "error_type": "IndexError",
    "error_message": "list index out of range"
  },
  "72.py": {
    "successful": false,
    "error_type": "AttributeError",
    "error_message": "'list' object has no attribute 'sorted'. Did you mean"
  },
  "73.py": {
    "successful": false,
    "error_type": "AssertionError"
  },
  "74.py": {
    "successful": false,
    "error_type": "IndexError",
    "error_message": "list index out of range"
  },
  "75.py": {
    "successful": false,
    "error_type": "IndexError",
    "error_message": "list index out of range"
  },
  "76.py": {
    "successful": false,
    "error_type": "TypeError",
    "error_message": "int() argument must be a string, a bytes-like object or a real number, not 'builtin_function_or_method'"
  },
  "77.py": {
    "successful": false,
    "error_type": "NameError",
    "error_message": "name 'x' is not defined"
  },
  "78.py": {
    "successful": false,
    "error_type": "ValueError",
    "error_message": "Need a 2-element array"
  },
  "79.py": {
    "successful": false,
    "error_type": "ValueError",
    "error_message": "array must be an integer or None"
  },
  "80.py": {
    "successful": false,
    "error_type": "AssertionError"
  },
  "81.py": {
    "successful": false,
    "error_type": "ValueError",
    "error_message": "can only sort an even number of elements"
  },
  "82.py": {
    "successful": false,
    "error_type": "UnboundLocalError",
    "error_message": "cannot access local variable 'first' where it is not associated with a value"
  },
  "83.py": {
    "successful": false,
    "error_type": "NameError",
    "error_message": "name 'dataclass' is not defined"
  },
  "84.py": {
    "successful": false,
    "error_type": "ModuleNotFoundError",
    "error_message": "No module named 'arrayobject'"
  },
  "86.py": {
    "successful": false,
    "error_type": "ValueError",
    "error_message": "not a valid array"
  },
  "87.py": {
    "successful": false,
    "error_type": "NameError",
    "error_message": "name 'first' is not defined. Did you mean"
  },
  "88.py": {
    "successful": false,
    "error_type": "NameError",
    "error_message": "name 'n' is not defined"
  },
  "89.py": {
    "successful": false,
    "error_type": "NameError",
    "error_message": "name 'firstindex' is not defined"
  },
  "90.py": {
    "successful": false,
    "error_type": "AssertionError"
  },
  "91.py": {
    "successful": false,
    "error_type": "ValueError",
    "error_message": "array length must be 2"
  },
  "92.py": {
    "successful": false,
    "error_type": "TypeError",
    "error_message": "object of type 'type' has no len()"
  },
  "93.py": {
    "successful": false,
    "error_type": "IndexError",
    "error_message": "list index out of range"
  },
  "94.py": {
    "successful": false,
    "error_type": "NameError",
    "error_message": "name 'np' is not defined"
  },
  "95.py": {
    "successful": false,
    "error_type": "AssertionError"
  },
  "96.py": {
    "successful": false,
    "error_type": "AssertionError"
  },
  "98.py": {
    "successful": false,
    "error_type": "AttributeError",
    "error_message": "'collections.deque' object has no attribute 'sort_from_end'"
  },
  "99.py": {
    "successful": false,
    "error_type": "AssertionError"
  },
  "100.py": {
    "successful": false,
    "error_type": "AssertionError"
  },
  "101.py": {
    "successful": false,
    "error_type": "AssertionError"
  },
  "102.py": {
    "successful": false,
    "error_type": "AssertionError"
  },
  "103.py": {
    "successful": false,
    "error_type": "TypeError",
    "error_message": "list.copy() takes no keyword arguments"
  },
  "104.py": {
    "successful": false,
    "error_type": "AssertionError"
  },
  "105.py": {
    "successful": false,
    "error_type": "NameError",
    "error_message": "name 'np' is not defined"
  },
  "106.py": {
    "successful": false,
    "error_type": "IndexError",
    "error_message": "list index out of range"
  },
  "107.py": {
    "successful": false,
    "error_type": "AttributeError",
    "error_message": "'list' object has no attribute 'sum'"
  },
  "108.py": {
    "successful": false,
    "error_type": "TypeError",
    "error_message": "sort() takes no positional arguments"
  },
  "109.py": {
    "successful": false,
    "error_type": "TypeError",
    "error_message": "'int' object is not subscriptable"
  },
  "110.py": {
    "successful": false,
    "error_type": "UnboundLocalError",
    "error_message": "cannot access local variable 'a' where it is not associated with a value"
  },
  "111.py": {
    "successful": false,
    "error_type": "AssertionError"
  },
  "112.py": {
    "successful": false,
    "error_type": "AssertionError"
  },
  "113.py": {
    "successful": false,
    "error_type": "SyntaxError",
    "error_message": "unmatched ')'"
  },
  "114.py": {
    "successful": false,
    "error_type": "UnboundLocalError",
    "error_message": "cannot access local variable 'm' where it is not associated with a value"
  },
  "115.py": {
    "successful": false,
    "error_type": "IndexError",
    "error_message": "list index out of range"
  },
  "116.py": {
    "successful": false,
    "error_type": "NameError",
    "error_message": "name 'i' is not defined. Did you mean"
  },
  "117.py": {
    "successful": false,
    "error_type": "ValueError",
    "error_message": "You must provide a 2-dimensional array."
  },
  "118.py": {
    "successful": false,
    "error_type": "SyntaxError",
    "error_message": "'function call' is an illegal expression for augmented assignment"
  },
  "119.py": {
    "successful": false,
    "error_type": "AssertionError"
  },
  "120.py": {
    "successful": false,
    "error_type": "SyntaxError",
    "error_message": "invalid syntax"
  },
  "121.py": {
    "successful": false,
    "error_type": "AttributeError",
    "error_message": "'list' object has no attribute 'sort_by'"
  },
  "122.py": {
    "successful": false,
    "error_type": "ValueError",
    "error_message": "cannot sort an array in ascending order"
  },
  "123.py": {
    "successful": false,
    "error_type": "NameError",
    "error_message": "name 'copy' is not defined"
  },
  "124.py": {
    "successful": false,
    "error_type": "AssertionError"
  },
  "127.py": {
    "successful": false,
    "error_type": "TypeError",
    "error_message": "Expected array to be of type int"
  },
  "128.py": {
    "successful": false,
    "error_type": "ValueError",
    "error_message": "All elements in an array must be of same length"
  },
  "129.py": {
    "successful": false,
    "error_type": "AssertionError"
  },
  "130.py": {
    "successful": false,
    "error_type": "NameError",
    "error_message": "name 'x' is not defined"
  },
  "131.py": {
    "successful": false,
    "error_type": "IndexError",
    "error_message": "list index out of range"
  },
  "132.py": {
    "successful": false,
    "error_type": "NameError",
    "error_message": "name 'is_sorted' is not defined. Did you mean"
  },
  "133.py": {
    "successful": false,
    "error_type": "TypeError",
    "error_message": "'NoneType' object is not iterable"
  },
  "134.py": {
    "successful": false,
    "error_type": "SyntaxError",
    "error_message": "unterminated string literal (detected at line 5)"
  },
  "135.py": {
    "successful": false,
    "error_type": "SyntaxError",
    "error_message": "invalid syntax"
  },
  "136.py": {
    "successful": false,
    "error_type": "AssertionError"
  },
  "137.py": {
    "successful": false,
    "error_type": "NameError",
    "error_message": "name 'xrange' is not defined. Did you mean"
  },
  "138.py": {
    "successful": false,
    "error_type": "NameError",
    "error_message": "name 'copy' is not defined"
  },
  "139.py": {
    "successful": false,
    "error_type": "SyntaxError",
    "error_message": "unmatched ')'"
  },
  "140.py": {
    "successful": false,
    "error_type": "SyntaxError",
    "error_message": "unmatched ')'"
  },
  "141.py": {
    "successful": false,
    "error_type": "AssertionError"
  },
  "142.py": {
    "successful": false,
    "error_type": "AssertionError"
  },
  "143.py": {
    "successful": false,
    "error_type": "NameError",
    "error_message": "name 'numbers' is not defined"
  },
  "144.py": {
    "successful": false,
    "error_type": "TypeError",
    "error_message": "'int' object is not iterable"
  },
  "145.py": {
    "successful": false,
    "error_type": "NameError",
    "error_message": "name 'first' is not defined. Did you mean"
  },
  "146.py": {
    "successful": false,
    "error_type": "AttributeError",
    "error_message": "'list' object has no attribute 'tolist'"
  },
  "148.py": {
    "successful": false,
    "error_type": "TypeError",
    "error_message": "Expected a number, integer, float, or complex, but got []"
  },
  "149.py": {
    "successful": false,
    "error_type": "IndexError",
    "error_message": "list index out of range"
  },
  "150.py": {
    "successful": false,
    "error_type": "AttributeError",
    "error_message": "type object 'array.array' has no attribute 'sorted'"
  },
  "151.py": {
    "successful": false,
    "error_type": "AssertionError"
  },
  "152.py": {
    "successful": false,
    "error_type": "NameError",
    "error_message": "name 'np' is not defined"
  },
  "153.py": {
    "successful": false,
    "error_type": "IndexError",
    "error_message": "list index out of range"
  },
  "154.py": {
    "successful": false,
    "error_type": "AssertionError"
  },
  "155.py": {
    "successful": false,
    "error_type": "AssertionError"
  },
  "156.py": {
    "successful": false,
    "error_type": "NameError",
    "error_message": "name 'np' is not defined"
  },
  "157.py": {
    "successful": false,
    "error_type": "TypeError",
    "error_message": "'int' object is not subscriptable"
  },
  "158.py": {
    "successful": false,
    "error_type": "AssertionError"
  },
  "159.py": {
    "successful": false,
    "error_type": "TypeError",
    "error_message": "enumerate() takes at most 2 arguments (4 given)"
  },
  "160.py": {
    "successful": false,
    "error_type": "NameError",
    "error_message": "name 'first' is not defined. Did you mean"
  },
  "161.py": {
    "successful": false,
    "error_type": "UnboundLocalError",
    "error_message": "cannot access local variable 'a' where it is not associated with a value"
  },
  "162.py": {
    "successful": false,
    "error_type": "IndexError",
    "error_message": "list index out of range"
  },
  "163.py": {
    "successful": false,
    "error_type": "NameError",
    "error_message": "name 'copy' is not defined"
  },
  "164.py": {
    "successful": false,
    "error_type": "AssertionError"
  },
  "165.py": {
    "successful": false,
    "error_type": "RuntimeError",
    "error_message": "{1}"
  },
  "166.py": {
    "successful": false,
    "error_type": "AssertionError"
  },
  "167.py": {
    "successful": false,
    "error_type": "UnboundLocalError",
    "error_message": "cannot access local variable 'sorted_array_sorted' where it is not associated with a value"
  },
  "168.py": {
    "successful": false,
    "error_type": "TypeError",
    "error_message": "sort_function must be a str, not <class 'function'>"
  },
  "169.py": {
    "successful": false,
    "error_type": "UnboundLocalError",
    "error_message": "cannot access local variable 'sorted_array' where it is not associated with a value"
  },
  "170.py": {
    "successful": false,
    "error_type": "TypeError",
    "error_message": "'int' object is not iterable"
  },
  "171.py": {
    "successful": false,
    "error_type": "SyntaxError",
    "error_message": "'(' was never closed"
  },
  "172.py": {
    "successful": false,
    "error_type": "NameError",
    "error_message": "name 'first' is not defined. Did you mean"
  },
  "173.py": {
    "successful": false,
    "error_type": "TypeError",
    "error_message": "'int' object is not subscriptable"
  },
  "174.py": {
    "successful": false,
    "error_type": "AssertionError"
  },
  "175.py": {
    "successful": false,
    "error_type": "NameError",
    "error_message": "name 'first_index' is not defined"
  },
  "176.py": {
    "successful": false,
    "error_type": "NameError",
    "error_message": "name 'numbers' is not defined"
  },
  "177.py": {
    "successful": false,
    "error_type": "SyntaxError",
    "error_message": "invalid syntax. Perhaps you forgot a comma?"
  },
  "179.py": {
    "successful": false,
    "error_type": "AssertionError"
  },
  "180.py": {
    "successful": false,
    "error_type": "AssertionError"
  },
  "181.py": {
    "successful": false,
    "error_type": "TimeOut"
  },
  "182.py": {
    "successful": false,
    "error_type": "NameError",
    "error_message": "name 'first' is not defined. Did you mean"
  },
  "183.py": {
    "successful": false,
    "error_type": "TypeError",
    "error_message": "'int' object is not subscriptable"
  },
  "184.py": {
    "successful": false,
    "error_type": "SyntaxError",
    "error_message": "invalid syntax"
  },
  "186.py": {
    "successful": false,
    "error_type": "AssertionError"
  },
  "187.py": {
    "successful": false,
    "error_type": "AssertionError"
  },
  "188.py": {
    "successful": false,
    "error_type": "AssertionError"
  },
  "189.py": {
    "successful": false,
    "error_type": "AssertionError"
  },
  "190.py": {
    "successful": false,
    "error_type": "AssertionError"
  },
  "191.py": {
    "successful": false,
    "error_type": "SyntaxError",
    "error_message": "'[' was never closed"
  },
  "192.py": {
    "successful": false,
    "error_type": "TypeError",
    "error_message": "'int' object is not subscriptable"
  },
  "193.py": {
    "successful": false,
    "error_type": "AssertionError"
  },
  "194.py": {
    "successful": false,
    "error_type": "ValueError",
    "error_message": "The given array can't be converted into an integer."
  },
  "195.py": {
    "successful": false,
    "error_type": "AttributeError",
    "error_message": "'NoneType' object has no attribute 'reverse'"
  },
  "196.py": {
    "successful": false,
    "error_type": "AssertionError"
  },
  "197.py": {
    "successful": false,
    "error_type": "IndexError",
    "error_message": "list index out of range"
  },
  "198.py": {
    "successful": false,
    "error_type": "ValueError",
    "error_message": "need more than two elements"
  },
  "199.py": {
    "successful": false,
    "error_type": "AssertionError"
  }
}