{
  "test_complete": true,
  "1.py": {
    "successful": false,
    "error_type": "AssertionError"
  },
  "2.py": {
    "successful": false,
    "error_type": "NameError",
    "error_message": "name 's' is not defined"
  },
  "4.py": {
    "successful": false,
    "error_type": "AssertionError"
  },
  "5.py": {
    "successful": false,
    "error_type": "AssertionError"
  },
  "7.py": {
    "successful": false,
    "error_type": "TypeError",
    "error_message": "sequence item 0"
  },
  "8.py": {
    "successful": false,
    "error_type": "AssertionError"
  },
  "10.py": {
    "successful": false,
    "error_type": "TypeError",
    "error_message": "can only concatenate str (not \"type\") to str"
  },
  "11.py": {
    "successful": false,
    "error_type": "NameError",
    "error_message": "name 'string' is not defined. Did you mean"
  },
  "12.py": {
    "successful": false,
    "error_type": "AssertionError"
  },
  "13.py": {
    "successful": true
  },
  "16.py": {
    "successful": false,
    "error_type": "NameError",
    "error_message": "name 'string' is not defined. Did you mean"
  },
  "17.py": {
    "successful": false,
    "error_type": "IndexError",
    "error_message": "list index out of range"
  },
  "18.py": {
    "successful": false,
    "error_type": "AssertionError"
  },
  "19.py": {
    "successful": true
  },
  "20.py": {
    "successful": false,
    "error_type": "NameError",
    "error_message": "name 'string' is not defined. Did you mean"
  },
  "21.py": {
    "successful": false,
    "error_type": "AssertionError"
  },
  "23.py": {
    "successful": false,
    "error_type": "NameError",
    "error_message": "name 'contextmanager' is not defined"
  },
  "24.py": {
    "successful": true
  },
  "25.py": {
    "successful": false,
    "error_type": "NameError",
    "error_message": "name 'unicode' is not defined"
  },
  "26.py": {
    "successful": false,
    "error_type": "NameError",
    "error_message": "name 'typedproperty' is not defined"
  },
  "28.py": {
    "successful": false,
    "error_type": "AssertionError"
  },
  "30.py": {
    "successful": true
  },
  "31.py": {
    "successful": false,
    "error_type": "AttributeError",
    "error_message": "'str' object has no attribute 'pop'"
  },
  "34.py": {
    "successful": false,
    "error_type": "AssertionError"
  },
  "35.py": {
    "successful": true
  },
  "37.py": {
    "successful": false,
    "error_type": "NameError",
    "error_message": "name 'string' is not defined. Did you mean"
  },
  "38.py": {
    "successful": false,
    "error_type": "AssertionError"
  },
  "43.py": {
    "successful": false,
    "error_type": "AssertionError"
  },
  "45.py": {
    "successful": true
  },
  "48.py": {
    "successful": false,
    "error_type": "UnboundLocalError",
    "error_message": "cannot access local variable 'string' where it is not associated with a value"
  },
  "50.py": {
    "successful": true
  },
  "51.py": {
    "successful": false,
    "error_type": "AssertionError"
  },
  "52.py": {
    "successful": true
  },
  "55.py": {
    "successful": false,
    "error_type": "IndexError",
    "error_message": "list index out of range"
  },
  "57.py": {
    "successful": false,
    "error_type": "NameError",
    "error_message": "name 'string' is not defined. Did you mean"
  },
  "58.py": {
    "successful": false,
    "error_type": "NameError",
    "error_message": "name 'i' is not defined. Did you mean"
  },
  "61.py": {
    "successful": false,
    "error_type": "AssertionError"
  },
  "62.py": {
    "successful": false,
    "error_type": "TypeError",
    "error_message": "'<' not supported between instances of 'reversed' and 'reversed'"
  },
  "65.py": {
    "successful": false,
    "error_type": "TypeError",
    "error_message": "'in <string>' requires string as left operand, not int"
  },
  "66.py": {
    "successful": false,
    "error_type": "NameError",
    "error_message": "name 'concatenated_strings' is not defined"
  },
  "67.py": {
    "successful": false,
    "error_type": "NameError",
    "error_message": "name 'string_join' is not defined"
  },
  "68.py": {
    "successful": false,
    "error_type": "NameError",
    "error_message": "name 'string' is not defined. Did you mean"
  },
  "72.py": {
    "successful": false,
    "error_type": "TypeError",
    "error_message": "sequence item 0"
  },
  "73.py": {
    "successful": false,
    "error_type": "AssertionError"
  },
  "75.py": {
    "successful": true
  },
  "76.py": {
    "successful": false,
    "error_type": "NameError",
    "error_message": "name 'string' is not defined. Did you mean"
  },
  "78.py": {
    "successful": false,
    "error_type": "SyntaxError",
    "error_message": "Generator expression must be parenthesized"
  },
  "82.py": {
    "successful": true
  },
  "84.py": {
    "successful": false,
    "error_type": "NameError",
    "error_message": "name 's' is not defined"
  },
  "86.py": {
    "successful": false,
    "error_type": "NameError",
    "error_message": "name 'string' is not defined. Did you mean"
  },
  "88.py": {
    "successful": false,
    "error_type": "AssertionError"
  },
  "91.py": {
    "successful": false,
    "error_type": "NameError",
    "error_message": "name 'string' is not defined. Did you mean"
  },
  "94.py": {
    "successful": true
  },
  "95.py": {
    "successful": false,
    "error_type": "NameError",
    "error_message": "name 'string_list' is not defined"
  },
  "97.py": {
    "successful": false,
    "error_type": "AttributeError",
    "error_message": "'list' object has no attribute 'join'"
  },
  "98.py": {
    "successful": false,
    "error_type": "AssertionError"
  },
  "101.py": {
    "successful": false,
    "error_type": "NameError",
    "error_message": "name 'string' is not defined. Did you mean"
  },
  "102.py": {
    "successful": false,
    "error_type": "SyntaxError",
    "error_message": "invalid syntax"
  },
  "103.py": {
    "successful": true
  },
  "106.py": {
    "successful": true
  },
  "108.py": {
    "successful": true
  },
  "109.py": {
    "successful": false,
    "error_type": "TypeError",
    "error_message": "sequence item 0"
  },
  "113.py": {
    "successful": false,
    "error_type": "SyntaxError",
    "error_message": "unmatched ')'"
  },
  "116.py": {
    "successful": true
  },
  "117.py": {
    "successful": false,
    "error_type": "AssertionError"
  },
  "120.py": {
    "successful": true
  },
  "121.py": {
    "successful": false,
    "error_type": "IndexError",
    "error_message": "list index out of range"
  },
  "123.py": {
    "successful": false,
    "error_type": "NameError",
    "error_message": "name 'string' is not defined"
  },
  "124.py": {
    "successful": false,
    "error_type": "TypeError",
    "error_message": "Strings must be of type str"
  },
  "125.py": {
    "successful": false,
    "error_type": "AssertionError"
  },
  "126.py": {
    "successful": false,
    "error_type": "AssertionError"
  },
  "127.py": {
    "successful": true
  },
  "129.py": {
    "successful": false,
    "error_type": "NameError",
    "error_message": "name 'string' is not defined"
  },
  "130.py": {
    "successful": false,
    "error_type": "NameError",
    "error_message": "name 'doc' is not defined"
  },
  "132.py": {
    "successful": false,
    "error_type": "TypeError",
    "error_message": "The fill character must be exactly one character long"
  },
  "133.py": {
    "successful": false,
    "error_type": "TypeError",
    "error_message": "sequence item 0"
  },
  "134.py": {
    "successful": true
  },
  "138.py": {
    "successful": false,
    "error_type": "AssertionError"
  },
  "139.py": {
    "successful": false,
    "error_type": "UnboundLocalError",
    "error_message": "cannot access local variable 's' where it is not associated with a value"
  },
  "142.py": {
    "successful": false,
    "error_type": "AssertionError"
  },
  "144.py": {
    "successful": false,
    "error_type": "AssertionError"
  },
  "145.py": {
    "successful": true
  },
  "146.py": {
    "successful": false,
    "error_type": "NameError",
    "error_message": "name 'string' is not defined. Did you mean"
  },
  "149.py": {
    "successful": false,
    "error_type": "TypeError",
    "error_message": "sequence item 0"
  },
  "152.py": {
    "successful": false,
    "error_type": "ValueError",
    "error_message": "Invalid concatenation. Given"
  },
  "154.py": {
    "successful": true
  },
  "155.py": {
    "successful": false,
    "error_type": "AssertionError"
  },
  "156.py": {
    "successful": false,
    "error_type": "AttributeError",
    "error_message": "'list' object has no attribute 'values'"
  },
  "157.py": {
    "successful": false,
    "error_type": "NameError",
    "error_message": "name 'string' is not defined. Did you mean"
  },
  "161.py": {
    "successful": true
  },
  "162.py": {
    "successful": false,
    "error_type": "TypeError",
    "error_message": "sequence item 0"
  },
  "164.py": {
    "successful": false,
    "error_type": "AttributeError",
    "error_message": "'list' object has no attribute 'join'"
  },
  "165.py": {
    "successful": true
  },
  "168.py": {
    "successful": true
  },
  "169.py": {
    "successful": false,
    "error_type": "NameError",
    "error_message": "name 'sre_compile' is not defined"
  },
  "171.py": {
    "successful": false,
    "error_type": "AssertionError"
  },
  "172.py": {
    "successful": false,
    "error_type": "TypeError",
    "error_message": "sequence item 0"
  },
  "173.py": {
    "successful": false,
    "error_type": "NameError",
    "error_message": "name 'string' is not defined. Did you mean"
  },
  "174.py": {
    "successful": false,
    "error_type": "NameError",
    "error_message": "name 'string' is not defined. Did you mean"
  },
  "176.py": {
    "successful": false,
    "error_type": "TypeError",
    "error_message": "object of type 'int' has no len()"
  },
  "177.py": {
    "successful": false,
    "error_type": "NameError",
    "error_message": "name 'dataclass' is not defined"
  },
  "179.py": {
    "successful": true
  },
  "182.py": {
    "successful": true
  },
  "187.py": {
    "successful": false,
    "error_type": "TypeError",
    "error_message": "sequence item 0"
  },
  "188.py": {
    "successful": false,
    "error_type": "TypeError",
    "error_message": "sequence item 0"
  },
  "189.py": {
    "successful": false,
    "error_type": "AssertionError"
  },
  "190.py": {
    "successful": false,
    "error_type": "AssertionError"
  },
  "191.py": {
    "successful": false,
    "error_type": "AssertionError"
  },
  "193.py": {
    "successful": true
  },
  "194.py": {
    "successful": false,
    "error_type": "SyntaxError",
    "error_message": "unmatched ')'"
  },
  "195.py": {
    "successful": true
  },
  "199.py": {
    "successful": false,
    "error_type": "TypeError",
    "error_message": "sequence item 0"
  }
}