{
  "test_complete": true,
  "1.py": {
    "successful": true
  },
  "2.py": {
    "successful": true
  },
  "8.py": {
    "successful": true
  },
  "9.py": {
    "successful": true
  },
  "10.py": {
    "successful": true
  },
  "13.py": {
    "successful": true
  },
  "14.py": {
    "successful": true
  },
  "15.py": {
    "successful": true
  },
  "19.py": {
    "successful": false,
    "error_type": "AssertionError"
  },
  "37.py": {
    "successful": true
  },
  "55.py": {
    "successful": false,
    "error_type": "AssertionError"
  },
  "58.py": {
    "successful": false,
    "error_type": "AssertionError"
  },
  "77.py": {
    "successful": true
  }
}