{
  "test_complete": true,
  "0.py": {
    "successful": true
  },
  "1.py": {
    "successful": true
  },
  "2.py": {
    "successful": true
  },
  "4.py": {
    "successful": true
  },
  "5.py": {
    "successful": true
  },
  "6.py": {
    "successful": true
  },
  "7.py": {
    "successful": true
  },
  "8.py": {
    "successful": true
  },
  "10.py": {
    "successful": true
  },
  "11.py": {
    "successful": true
  },
  "13.py": {
    "successful": true
  },
  "15.py": {
    "successful": true
  },
  "18.py": {
    "successful": true
  },
  "20.py": {
    "successful": true
  },
  "21.py": {
    "successful": true
  },
  "23.py": {
    "successful": true
  },
  "24.py": {
    "successful": true
  },
  "27.py": {
    "successful": true
  },
  "28.py": {
    "successful": true
  },
  "29.py": {
    "successful": true
  },
  "31.py": {
    "successful": true
  },
  "33.py": {
    "successful": true
  },
  "35.py": {
    "successful": true
  },
  "38.py": {
    "successful": true
  },
  "39.py": {
    "successful": true
  },
  "42.py": {
    "successful": true
  },
  "46.py": {
    "successful": true
  },
  "47.py": {
    "successful": true
  },
  "50.py": {
    "successful": true
  },
  "51.py": {
    "successful": true
  },
  "53.py": {
    "successful": true
  },
  "55.py": {
    "successful": true
  },
  "57.py": {
    "successful": true
  },
  "58.py": {
    "successful": true
  },
  "59.py": {
    "successful": true
  },
  "67.py": {
    "successful": true
  },
  "73.py": {
    "successful": true
  },
  "79.py": {
    "successful": true
  },
  "80.py": {
    "successful": true
  },
  "81.py": {
    "successful": true
  },
  "85.py": {
    "successful": true
  },
  "86.py": {
    "successful": true
  },
  "91.py": {
    "successful": true
  },
  "92.py": {
    "successful": true
  },
  "94.py": {
    "successful": true
  },
  "95.py": {
    "successful": true
  },
  "96.py": {
    "successful": true
  },
  "98.py": {
    "successful": true
  },
  "99.py": {
    "successful": true
  },
  "100.py": {
    "successful": true
  },
  "101.py": {
    "successful": true
  },
  "108.py": {
    "successful": true
  },
  "113.py": {
    "successful": true
  },
  "123.py": {
    "successful": true
  },
  "127.py": {
    "successful": true
  },
  "136.py": {
    "successful": true
  },
  "147.py": {
    "successful": true
  },
  "153.py": {
    "successful": true
  },
  "158.py": {
    "successful": true
  },
  "168.py": {
    "successful": true
  },
  "173.py": {
    "successful": true
  },
  "179.py": {
    "successful": true
  },
  "197.py": {
    "successful": true
  }
}