{
  "test_complete": true,
  "0.py": {
    "successful": true
  },
  "7.py": {
    "successful": true
  },
  "15.py": {
    "successful": true
  },
  "35.py": {
    "successful": true
  },
  "39.py": {
    "successful": true
  },
  "79.py": {
    "successful": true
  },
  "105.py": {
    "successful": true
  },
  "111.py": {
    "successful": true
  },
  "175.py": {
    "successful": true
  }
}