{
  "test_complete": true,
  "1.py": {
    "successful": true
  },
  "2.py": {
    "successful": true
  },
  "3.py": {
    "successful": true
  },
  "4.py": {
    "successful": true
  },
  "11.py": {
    "successful": true
  },
  "30.py": {
    "successful": true
  },
  "42.py": {
    "successful": true
  }
}