{
  "test_complete": true,
  "0.py": {
    "successful": true
  },
  "12.py": {
    "successful": true
  },
  "13.py": {
    "successful": true
  },
  "17.py": {
    "successful": true
  },
  "22.py": {
    "successful": true
  },
  "35.py": {
    "successful": true
  },
  "56.py": {
    "successful": true
  },
  "66.py": {
    "successful": true
  },
  "182.py": {
    "successful": true
  }
}