{
  "test_complete": true,
  "0.py": {
    "successful": true
  },
  "1.py": {
    "successful": true
  },
  "3.py": {
    "successful": true
  },
  "4.py": {
    "successful": true
  },
  "5.py": {
    "successful": true
  },
  "6.py": {
    "successful": true
  },
  "10.py": {
    "successful": true
  },
  "11.py": {
    "successful": true
  },
  "12.py": {
    "successful": true
  },
  "14.py": {
    "successful": true
  },
  "17.py": {
    "successful": true
  },
  "28.py": {
    "successful": true
  },
  "32.py": {
    "successful": true
  },
  "35.py": {
    "successful": false,
    "error_type": "AssertionError"
  },
  "51.py": {
    "successful": false,
    "error_type": "AssertionError"
  },
  "62.py": {
    "successful": true
  },
  "70.py": {
    "successful": true
  },
  "71.py": {
    "successful": true
  },
  "86.py": {
    "successful": true
  },
  "109.py": {
    "successful": true
  },
  "113.py": {
    "successful": true
  },
  "133.py": {
    "successful": false,
    "error_type": "AssertionError"
  },
  "134.py": {
    "successful": true
  },
  "152.py": {
    "successful": true
  },
  "157.py": {
    "successful": true
  },
  "163.py": {
    "successful": false,
    "error_type": "AssertionError"
  },
  "194.py": {
    "successful": true
  }
}