{
  "test_complete": true,
  "4.py": {
    "successful": true
  },
  "5.py": {
    "successful": false,
    "error_type": "AssertionError"
  },
  "7.py": {
    "successful": true
  },
  "9.py": {
    "successful": true
  },
  "17.py": {
    "successful": true
  },
  "18.py": {
    "successful": true
  },
  "19.py": {
    "successful": true
  },
  "21.py": {
    "successful": true
  },
  "22.py": {
    "successful": true
  },
  "29.py": {
    "successful": true
  },
  "30.py": {
    "successful": true
  },
  "38.py": {
    "successful": true
  },
  "43.py": {
    "successful": false,
    "error_type": "SyntaxError",
    "error_message": "invalid syntax"
  },
  "46.py": {
    "successful": true
  },
  "50.py": {
    "successful": true
  },
  "53.py": {
    "successful": true
  },
  "64.py": {
    "successful": true
  },
  "66.py": {
    "successful": false,
    "error_type": "AssertionError"
  },
  "68.py": {
    "successful": false,
    "error_type": "AssertionError"
  },
  "70.py": {
    "successful": true
  },
  "76.py": {
    "successful": true
  },
  "85.py": {
    "successful": true
  },
  "89.py": {
    "successful": true
  },
  "91.py": {
    "successful": true
  },
  "103.py": {
    "successful": true
  },
  "113.py": {
    "successful": true
  },
  "120.py": {
    "successful": false,
    "error_type": "AssertionError"
  },
  "124.py": {
    "successful": true
  },
  "129.py": {
    "successful": true
  },
  "133.py": {
    "successful": true
  },
  "136.py": {
    "successful": false,
    "error_type": "AssertionError"
  },
  "137.py": {
    "successful": true
  },
  "150.py": {
    "successful": true
  },
  "156.py": {
    "successful": true
  },
  "159.py": {
    "successful": true
  },
  "161.py": {
    "successful": true
  },
  "164.py": {
    "successful": true
  },
  "179.py": {
    "successful": false,
    "error_type": "AssertionError"
  },
  "181.py": {
    "successful": true
  },
  "184.py": {
    "successful": true
  },
  "186.py": {
    "successful": false,
    "error_type": "AssertionError"
  },
  "198.py": {
    "successful": true
  }
}