{
  "test_complete": true,
  "2.py": {
    "successful": false,
    "error_type": "AssertionError"
  },
  "43.py": {
    "successful": true
  },
  "48.py": {
    "successful": true
  },
  "66.py": {
    "successful": true
  },
  "90.py": {
    "successful": true
  },
  "100.py": {
    "successful": true
  },
  "114.py": {
    "successful": true
  },
  "121.py": {
    "successful": true
  },
  "127.py": {
    "successful": true
  },
  "148.py": {
    "successful": true
  },
  "149.py": {
    "successful": true
  },
  "193.py": {
    "successful": true
  }
}