{
  "test_complete": true,
  "0.py": {
    "successful": false,
    "error_type": "AssertionError"
  },
  "2.py": {
    "successful": true
  },
  "4.py": {
    "successful": true
  },
  "6.py": {
    "successful": false,
    "error_type": "AssertionError"
  },
  "8.py": {
    "successful": true
  },
  "9.py": {
    "successful": true
  },
  "10.py": {
    "successful": true
  },
  "11.py": {
    "successful": true
  },
  "20.py": {
    "successful": false,
    "error_type": "IndentationError",
    "error_message": "expected an indented block after function definition on line 1"
  },
  "21.py": {
    "successful": true
  },
  "22.py": {
    "successful": true
  },
  "23.py": {
    "successful": true
  },
  "26.py": {
    "successful": true
  },
  "27.py": {
    "successful": false,
    "error_type": "AssertionError"
  },
  "29.py": {
    "successful": true
  },
  "31.py": {
    "successful": true
  },
  "32.py": {
    "successful": true
  },
  "33.py": {
    "successful": true
  },
  "34.py": {
    "successful": false,
    "error_type": "AssertionError"
  },
  "35.py": {
    "successful": true
  },
  "38.py": {
    "successful": true
  },
  "40.py": {
    "successful": true
  },
  "45.py": {
    "successful": true
  },
  "46.py": {
    "successful": true
  },
  "47.py": {
    "successful": true
  },
  "49.py": {
    "successful": false,
    "error_type": "AssertionError"
  },
  "51.py": {
    "successful": true
  },
  "54.py": {
    "successful": true
  },
  "59.py": {
    "successful": true
  },
  "62.py": {
    "successful": true
  },
  "66.py": {
    "successful": true
  },
  "67.py": {
    "successful": true
  },
  "69.py": {
    "successful": true
  },
  "70.py": {
    "successful": true
  },
  "71.py": {
    "successful": false,
    "error_type": "IndentationError",
    "error_message": "expected an indented block after function definition on line 1"
  },
  "76.py": {
    "successful": true
  },
  "77.py": {
    "successful": true
  },
  "78.py": {
    "successful": false,
    "error_type": "AssertionError"
  },
  "79.py": {
    "successful": false,
    "error_type": "AssertionError"
  },
  "81.py": {
    "successful": true
  },
  "83.py": {
    "successful": true
  },
  "84.py": {
    "successful": true
  },
  "87.py": {
    "successful": false,
    "error_type": "AssertionError"
  },
  "89.py": {
    "successful": true
  },
  "91.py": {
    "successful": true
  },
  "93.py": {
    "successful": true
  },
  "95.py": {
    "successful": true
  },
  "97.py": {
    "successful": true
  },
  "99.py": {
    "successful": true
  },
  "100.py": {
    "successful": false,
    "error_type": "AssertionError"
  },
  "102.py": {
    "successful": true
  },
  "107.py": {
    "successful": true
  },
  "108.py": {
    "successful": false,
    "error_type": "AssertionError"
  },
  "111.py": {
    "successful": true
  },
  "112.py": {
    "successful": true
  },
  "113.py": {
    "successful": true
  },
  "120.py": {
    "successful": true
  },
  "122.py": {
    "successful": true
  },
  "126.py": {
    "successful": true
  },
  "135.py": {
    "successful": true
  },
  "140.py": {
    "successful": true
  },
  "141.py": {
    "successful": false,
    "error_type": "AssertionError"
  },
  "146.py": {
    "successful": true
  },
  "147.py": {
    "successful": true
  },
  "149.py": {
    "successful": true
  },
  "150.py": {
    "successful": true
  },
  "153.py": {
    "successful": true
  },
  "154.py": {
    "successful": true
  },
  "156.py": {
    "successful": true
  },
  "157.py": {
    "successful": false,
    "error_type": "AssertionError"
  },
  "158.py": {
    "successful": true
  },
  "159.py": {
    "successful": false,
    "error_type": "TypeError",
    "error_message": "object of type 'type' has no len()"
  },
  "163.py": {
    "successful": true
  },
  "166.py": {
    "successful": true
  },
  "167.py": {
    "successful": true
  },
  "168.py": {
    "successful": true
  },
  "169.py": {
    "successful": true
  },
  "171.py": {
    "successful": true
  },
  "172.py": {
    "successful": true
  },
  "174.py": {
    "successful": true
  },
  "177.py": {
    "successful": false,
    "error_type": "AssertionError"
  },
  "178.py": {
    "successful": true
  },
  "182.py": {
    "successful": true
  },
  "183.py": {
    "successful": false,
    "error_type": "AssertionError"
  },
  "186.py": {
    "successful": false,
    "error_type": "AssertionError"
  },
  "189.py": {
    "successful": true
  },
  "194.py": {
    "successful": true
  },
  "197.py": {
    "successful": true
  },
  "198.py": {
    "successful": true
  },
  "199.py": {
    "successful": true
  }
}