{
  "test_complete": true,
  "0.py": {
    "successful": true
  },
  "1.py": {
    "successful": true
  },
  "2.py": {
    "successful": true
  },
  "3.py": {
    "successful": true
  },
  "5.py": {
    "successful": true
  },
  "10.py": {
    "successful": true
  },
  "11.py": {
    "successful": true
  },
  "13.py": {
    "successful": true
  },
  "15.py": {
    "successful": true
  },
  "18.py": {
    "successful": true
  },
  "23.py": {
    "successful": true
  },
  "25.py": {
    "successful": true
  },
  "29.py": {
    "successful": true
  },
  "36.py": {
    "successful": true
  },
  "37.py": {
    "successful": false,
    "error_type": "SyntaxError",
    "error_message": "'[' was never closed"
  },
  "40.py": {
    "successful": true
  },
  "41.py": {
    "successful": true
  },
  "42.py": {
    "successful": true
  },
  "43.py": {
    "successful": true
  },
  "48.py": {
    "successful": true
  },
  "51.py": {
    "successful": true
  },
  "57.py": {
    "successful": true
  },
  "61.py": {
    "successful": true
  },
  "62.py": {
    "successful": true
  },
  "65.py": {
    "successful": true
  },
  "67.py": {
    "successful": true
  },
  "73.py": {
    "successful": true
  },
  "105.py": {
    "successful": false,
    "error_type": "AssertionError"
  },
  "125.py": {
    "successful": true
  },
  "135.py": {
    "successful": false,
    "error_type": "AssertionError"
  },
  "167.py": {
    "successful": false,
    "error_type": "AssertionError"
  },
  "168.py": {
    "successful": false,
    "error_type": "AssertionError"
  },
  "175.py": {
    "successful": false,
    "error_type": "AssertionError"
  },
  "176.py": {
    "successful": true
  },
  "178.py": {
    "successful": false,
    "error_type": "AssertionError"
  },
  "179.py": {
    "successful": true
  },
  "198.py": {
    "successful": false,
    "error_type": "AssertionError"
  }
}