{
  "test_complete": true,
  "0.py": {
    "successful": true
  },
  "3.py": {
    "successful": true
  },
  "4.py": {
    "successful": true
  },
  "17.py": {
    "successful": true
  },
  "19.py": {
    "successful": false,
    "error_type": "NameError",
    "error_message": "name 'math' is not defined"
  },
  "22.py": {
    "successful": true
  },
  "31.py": {
    "successful": true
  },
  "33.py": {
    "successful": true
  },
  "35.py": {
    "successful": false,
    "error_type": "AssertionError"
  },
  "36.py": {
    "successful": true
  },
  "45.py": {
    "successful": false,
    "error_type": "IndentationError",
    "error_message": "expected an indented block after function definition on line 1"
  },
  "49.py": {
    "successful": true
  },
  "60.py": {
    "successful": false,
    "error_type": "NameError",
    "error_message": "name 'is_prime' is not defined"
  },
  "79.py": {
    "successful": false,
    "error_type": "AssertionError"
  },
  "83.py": {
    "successful": true
  },
  "91.py": {
    "successful": true
  },
  "96.py": {
    "successful": false,
    "error_type": "AssertionError"
  },
  "100.py": {
    "successful": false,
    "error_type": "AssertionError"
  },
  "103.py": {
    "successful": false,
    "error_type": "AssertionError"
  },
  "116.py": {
    "successful": true
  },
  "119.py": {
    "successful": false,
    "error_type": "AssertionError"
  },
  "133.py": {
    "successful": true
  },
  "140.py": {
    "successful": true
  },
  "166.py": {
    "successful": true
  },
  "176.py": {
    "successful": false,
    "error_type": "AssertionError"
  },
  "184.py": {
    "successful": false,
    "error_type": "NameError",
    "error_message": "name 'is_prime' is not defined"
  },
  "196.py": {
    "successful": true
  }
}