{
  "test_complete": true,
  "10.py": {
    "successful": true
  },
  "25.py": {
    "successful": true
  },
  "65.py": {
    "successful": true
  },
  "129.py": {
    "successful": true
  },
  "160.py": {
    "successful": false,
    "error_type": "AssertionError"
  }
}