{
  "test_complete": true,
  "8.py": {
    "successful": true
  },
  "32.py": {
    "successful": true
  },
  "86.py": {
    "successful": true
  },
  "103.py": {
    "successful": true
  },
  "132.py": {
    "successful": true
  }
}