{
  "test_complete": true,
  "2.py": {
    "successful": false,
    "error_type": "NameError",
    "error_message": "name 're' is not defined"
  },
  "159.py": {
    "successful": false,
    "error_type": "AssertionError"
  }
}