{
  "test_complete": true,
  "0.py": {
    "successful": false,
    "error_type": "AssertionError"
  },
  "5.py": {
    "successful": false,
    "error_type": "AssertionError"
  },
  "30.py": {
    "successful": false,
    "error_type": "AssertionError"
  },
  "122.py": {
    "successful": false,
    "error_type": "AssertionError"
  }
}