{
  "test_complete": true,
  "6.py": {
    "successful": false,
    "error_type": "NameError",
    "error_message": "name 'math' is not defined"
  },
  "7.py": {
    "successful": false,
    "error_type": "NameError",
    "error_message": "name 'math' is not defined"
  }
}