{
  "test_complete": true,
  "1.py": {
    "successful": false,
    "error_type": "AssertionError"
  },
  "2.py": {
    "successful": false,
    "error_type": "AssertionError"
  },
  "3.py": {
    "successful": false,
    "error_type": "NameError",
    "error_message": "name 'factorial' is not defined"
  },
  "6.py": {
    "successful": false,
    "error_type": "NameError",
    "error_message": "name 'sum_numbers' is not defined"
  },
  "10.py": {
    "successful": false,
    "error_type": "NameError",
    "error_message": "name 'factorial' is not defined"
  },
  "11.py": {
    "successful": false,
    "error_type": "AssertionError"
  },
  "12.py": {
    "successful": true
  },
  "13.py": {
    "successful": false,
    "error_type": "AssertionError"
  },
  "14.py": {
    "successful": false,
    "error_type": "AssertionError"
  },
  "21.py": {
    "successful": true
  },
  "25.py": {
    "successful": false,
    "error_type": "NameError",
    "error_message": "name 'factorial' is not defined"
  },
  "30.py": {
    "successful": false,
    "error_type": "NameError",
    "error_message": "name 'fact' is not defined"
  },
  "31.py": {
    "successful": true
  },
  "38.py": {
    "successful": false,
    "error_type": "NameError",
    "error_message": "name 'factorial' is not defined"
  },
  "48.py": {
    "successful": false,
    "error_type": "NameError",
    "error_message": "name 'factorial' is not defined"
  },
  "53.py": {
    "successful": true
  },
  "55.py": {
    "successful": false,
    "error_type": "NameError",
    "error_message": "name 'sum_to' is not defined"
  },
  "59.py": {
    "successful": false,
    "error_type": "NameError",
    "error_message": "name 'factorial' is not defined"
  },
  "86.py": {
    "successful": false,
    "error_type": "AssertionError"
  },
  "87.py": {
    "successful": false,
    "error_type": "NameError",
    "error_message": "name 'factorial' is not defined"
  },
  "102.py": {
    "successful": false,
    "error_type": "AssertionError"
  },
  "112.py": {
    "successful": false,
    "error_type": "AssertionError"
  },
  "132.py": {
    "successful": false,
    "error_type": "NameError",
    "error_message": "name 'factorial' is not defined"
  },
  "137.py": {
    "successful": true
  },
  "158.py": {
    "successful": false,
    "error_type": "AssertionError"
  },
  "167.py": {
    "successful": false,
    "error_type": "AssertionError"
  },
  "187.py": {
    "successful": false,
    "error_type": "NameError",
    "error_message": "name 'sum_numbers' is not defined"
  }
}