{
  "test_complete": true,
  "1.py": {
    "successful": true
  },
  "2.py": {
    "successful": true
  },
  "17.py": {
    "successful": true
  },
  "18.py": {
    "successful": true
  },
  "19.py": {
    "successful": true
  },
  "25.py": {
    "successful": true
  },
  "29.py": {
    "successful": true
  },
  "38.py": {
    "successful": true
  },
  "41.py": {
    "successful": true
  },
  "43.py": {
    "successful": true
  },
  "49.py": {
    "successful": true
  },
  "57.py": {
    "successful": true
  },
  "66.py": {
    "successful": true
  },
  "71.py": {
    "successful": true
  },
  "79.py": {
    "successful": true
  },
  "87.py": {
    "successful": true
  },
  "90.py": {
    "successful": true
  },
  "96.py": {
    "successful": true
  },
  "99.py": {
    "successful": true
  },
  "129.py": {
    "successful": true
  },
  "144.py": {
    "successful": true
  },
  "177.py": {
    "successful": true
  },
  "185.py": {
    "successful": true
  },
  "187.py": {
    "successful": true
  }
}