{
  "test_complete": true,
  "0.py": {
    "successful": true
  },
  "1.py": {
    "successful": true
  },
  "3.py": {
    "successful": true
  },
  "6.py": {
    "successful": true
  },
  "14.py": {
    "successful": true
  },
  "19.py": {
    "successful": true
  },
  "20.py": {
    "successful": true
  },
  "22.py": {
    "successful": true
  },
  "24.py": {
    "successful": true
  },
  "26.py": {
    "successful": true
  },
  "35.py": {
    "successful": true
  },
  "45.py": {
    "successful": true
  },
  "76.py": {
    "successful": true
  },
  "83.py": {
    "successful": true
  },
  "143.py": {
    "successful": true
  }
}