{
  "test_complete": true,
  "0.py": {
    "successful": true
  },
  "3.py": {
    "successful": true
  },
  "6.py": {
    "successful": true
  },
  "9.py": {
    "successful": true
  },
  "12.py": {
    "successful": true
  },
  "26.py": {
    "successful": true
  },
  "32.py": {
    "successful": true
  },
  "45.py": {
    "successful": true
  },
  "98.py": {
    "successful": true
  },
  "128.py": {
    "successful": true
  },
  "147.py": {
    "successful": true
  },
  "169.py": {
    "successful": false,
    "error_type": "NameError",
    "error_message": "name 'is_prime' is not defined"
  },
  "171.py": {
    "successful": true
  },
  "177.py": {
    "successful": true
  },
  "191.py": {
    "successful": true
  }
}