{
  "test_complete": true,
  "6.py": {
    "successful": true
  },
  "8.py": {
    "successful": true
  },
  "10.py": {
    "successful": true
  },
  "14.py": {
    "successful": true
  },
  "18.py": {
    "successful": true
  },
  "25.py": {
    "successful": true
  },
  "28.py": {
    "successful": false,
    "error_type": "AssertionError"
  },
  "33.py": {
    "successful": true
  },
  "41.py": {
    "successful": true
  },
  "48.py": {
    "successful": false,
    "error_type": "AssertionError"
  },
  "51.py": {
    "successful": true
  },
  "61.py": {
    "successful": false,
    "error_type": "AssertionError"
  },
  "66.py": {
    "successful": false,
    "error_type": "AssertionError"
  },
  "100.py": {
    "successful": false,
    "error_type": "AssertionError"
  },
  "113.py": {
    "successful": true
  },
  "133.py": {
    "successful": true
  },
  "135.py": {
    "successful": true
  },
  "141.py": {
    "successful": true
  },
  "149.py": {
    "successful": true
  },
  "151.py": {
    "successful": false,
    "error_type": "AssertionError"
  },
  "157.py": {
    "successful": true
  },
  "160.py": {
    "successful": true
  },
  "168.py": {
    "successful": false,
    "error_type": "AssertionError"
  },
  "183.py": {
    "successful": false,
    "error_type": "AssertionError"
  }
}