{
  "test_complete": true,
  "3.py": {
    "successful": false,
    "error_type": "AssertionError"
  },
  "5.py": {
    "successful": false,
    "error_type": "AssertionError"
  },
  "14.py": {
    "successful": false,
    "error_type": "AssertionError"
  },
  "18.py": {
    "successful": false,
    "error_type": "AssertionError"
  },
  "33.py": {
    "successful": false,
    "error_type": "AssertionError"
  },
  "54.py": {
    "successful": false,
    "error_type": "AssertionError"
  },
  "88.py": {
    "successful": false,
    "error_type": "AssertionError"
  },
  "137.py": {
    "successful": false,
    "error_type": "AssertionError"
  },
  "139.py": {
    "successful": false,
    "error_type": "AssertionError"
  }
}