{
  "test_complete": true,
  "0.py": {
    "successful": true
  },
  "1.py": {
    "successful": false,
    "error_type": "AssertionError"
  },
  "2.py": {
    "successful": true
  },
  "5.py": {
    "successful": true
  },
  "6.py": {
    "successful": false,
    "error_type": "AssertionError"
  },
  "7.py": {
    "successful": true
  },
  "8.py": {
    "successful": false,
    "error_type": "AssertionError"
  },
  "11.py": {
    "successful": true
  },
  "12.py": {
    "successful": false,
    "error_type": "AssertionError"
  },
  "13.py": {
    "successful": true
  },
  "14.py": {
    "successful": true
  },
  "15.py": {
    "successful": true
  },
  "17.py": {
    "successful": true
  },
  "19.py": {
    "successful": false,
    "error_type": "AssertionError"
  },
  "22.py": {
    "successful": true
  },
  "24.py": {
    "successful": false,
    "error_type": "AssertionError"
  },
  "27.py": {
    "successful": true
  },
  "28.py": {
    "successful": true
  },
  "29.py": {
    "successful": true
  },
  "32.py": {
    "successful": false,
    "error_type": "AssertionError"
  },
  "33.py": {
    "successful": true
  },
  "34.py": {
    "successful": true
  },
  "36.py": {
    "successful": true
  },
  "38.py": {
    "successful": true
  },
  "41.py": {
    "successful": true
  },
  "42.py": {
    "successful": true
  },
  "43.py": {
    "successful": true
  },
  "44.py": {
    "successful": true
  },
  "45.py": {
    "successful": true
  },
  "46.py": {
    "successful": false,
    "error_type": "SyntaxError",
    "error_message": "invalid syntax"
  },
  "47.py": {
    "successful": true
  },
  "48.py": {
    "successful": true
  },
  "49.py": {
    "successful": true
  },
  "51.py": {
    "successful": true
  },
  "53.py": {
    "successful": false,
    "error_type": "AssertionError"
  },
  "55.py": {
    "successful": false,
    "error_type": "AssertionError"
  },
  "56.py": {
    "successful": true
  },
  "59.py": {
    "successful": true
  },
  "60.py": {
    "successful": true
  },
  "62.py": {
    "successful": true
  },
  "63.py": {
    "successful": false,
    "error_type": "AssertionError"
  },
  "64.py": {
    "successful": true
  },
  "65.py": {
    "successful": false,
    "error_type": "AssertionError"
  },
  "67.py": {
    "successful": true
  },
  "68.py": {
    "successful": false,
    "error_type": "AssertionError"
  },
  "69.py": {
    "successful": true
  },
  "70.py": {
    "successful": false,
    "error_type": "AssertionError"
  },
  "71.py": {
    "successful": false,
    "error_type": "AssertionError"
  },
  "72.py": {
    "successful": true
  },
  "74.py": {
    "successful": true
  },
  "75.py": {
    "successful": false,
    "error_type": "AssertionError"
  },
  "76.py": {
    "successful": true
  },
  "77.py": {
    "successful": false,
    "error_type": "AssertionError"
  },
  "80.py": {
    "successful": false,
    "error_type": "AssertionError"
  },
  "81.py": {
    "successful": true
  },
  "82.py": {
    "successful": true
  },
  "88.py": {
    "successful": false,
    "error_type": "AssertionError"
  },
  "89.py": {
    "successful": false,
    "error_type": "AssertionError"
  },
  "90.py": {
    "successful": false,
    "error_type": "AssertionError"
  },
  "91.py": {
    "successful": true
  },
  "92.py": {
    "successful": true
  },
  "95.py": {
    "successful": true
  },
  "96.py": {
    "successful": false,
    "error_type": "IndexError",
    "error_message": "list index out of range"
  },
  "97.py": {
    "successful": true
  },
  "98.py": {
    "successful": true
  },
  "99.py": {
    "successful": true
  },
  "100.py": {
    "successful": false,
    "error_type": "AssertionError"
  },
  "101.py": {
    "successful": true
  },
  "103.py": {
    "successful": true
  },
  "104.py": {
    "successful": true
  },
  "105.py": {
    "successful": true
  },
  "106.py": {
    "successful": false,
    "error_type": "AssertionError"
  },
  "107.py": {
    "successful": true
  },
  "109.py": {
    "successful": true
  },
  "110.py": {
    "successful": true
  },
  "112.py": {
    "successful": true
  },
  "113.py": {
    "successful": true
  },
  "114.py": {
    "successful": false,
    "error_type": "AssertionError"
  },
  "117.py": {
    "successful": true
  },
  "118.py": {
    "successful": false,
    "error_type": "AssertionError"
  },
  "120.py": {
    "successful": true
  },
  "121.py": {
    "successful": false,
    "error_type": "AssertionError"
  },
  "122.py": {
    "successful": true
  },
  "123.py": {
    "successful": false,
    "error_type": "AssertionError"
  },
  "126.py": {
    "successful": true
  },
  "127.py": {
    "successful": false,
    "error_type": "AssertionError"
  },
  "128.py": {
    "successful": true
  },
  "129.py": {
    "successful": true
  },
  "130.py": {
    "successful": false,
    "error_type": "AssertionError"
  },
  "131.py": {
    "successful": true
  },
  "134.py": {
    "successful": false,
    "error_type": "AssertionError"
  },
  "135.py": {
    "successful": false,
    "error_type": "AssertionError"
  },
  "136.py": {
    "successful": true
  },
  "137.py": {
    "successful": false,
    "error_type": "AssertionError"
  },
  "138.py": {
    "successful": true
  },
  "141.py": {
    "successful": false,
    "error_type": "AssertionError"
  },
  "146.py": {
    "successful": true
  },
  "150.py": {
    "successful": true
  },
  "151.py": {
    "successful": true
  },
  "154.py": {
    "successful": true
  },
  "155.py": {
    "successful": false,
    "error_type": "AssertionError"
  },
  "156.py": {
    "successful": true
  },
  "157.py": {
    "successful": false,
    "error_type": "TimeOut"
  },
  "158.py": {
    "successful": true
  },
  "159.py": {
    "successful": true
  },
  "160.py": {
    "successful": true
  },
  "166.py": {
    "successful": true
  },
  "167.py": {
    "successful": true
  },
  "168.py": {
    "successful": true
  },
  "169.py": {
    "successful": false,
    "error_type": "AssertionError"
  },
  "172.py": {
    "successful": true
  },
  "174.py": {
    "successful": false,
    "error_type": "AssertionError"
  },
  "175.py": {
    "successful": true
  },
  "178.py": {
    "successful": true
  },
  "179.py": {
    "successful": true
  },
  "180.py": {
    "successful": false,
    "error_type": "IndexError",
    "error_message": "list index out of range"
  },
  "182.py": {
    "successful": true
  },
  "183.py": {
    "successful": false,
    "error_type": "IndexError",
    "error_message": "list index out of range"
  },
  "185.py": {
    "successful": true
  },
  "187.py": {
    "successful": true
  },
  "189.py": {
    "successful": true
  },
  "190.py": {
    "successful": false,
    "error_type": "AssertionError"
  },
  "191.py": {
    "successful": true
  },
  "194.py": {
    "successful": false,
    "error_type": "AssertionError"
  },
  "196.py": {
    "successful": true
  },
  "197.py": {
    "successful": true
  }
}