{
  "test_complete": true,
  "1.py": {
    "successful": true
  },
  "3.py": {
    "successful": true
  },
  "11.py": {
    "successful": true
  },
  "13.py": {
    "successful": true
  },
  "19.py": {
    "successful": true
  },
  "22.py": {
    "successful": true
  },
  "31.py": {
    "successful": true
  },
  "32.py": {
    "successful": true
  },
  "33.py": {
    "successful": true
  },
  "35.py": {
    "successful": true
  },
  "37.py": {
    "successful": true
  },
  "39.py": {
    "successful": true
  },
  "41.py": {
    "successful": true
  },
  "43.py": {
    "successful": true
  },
  "44.py": {
    "successful": true
  },
  "46.py": {
    "successful": true
  },
  "50.py": {
    "successful": true
  },
  "51.py": {
    "successful": true
  },
  "52.py": {
    "successful": true
  },
  "59.py": {
    "successful": true
  },
  "61.py": {
    "successful": true
  },
  "67.py": {
    "successful": true
  },
  "68.py": {
    "successful": true
  },
  "72.py": {
    "successful": true
  },
  "78.py": {
    "successful": true
  },
  "81.py": {
    "successful": true
  },
  "83.py": {
    "successful": true
  },
  "90.py": {
    "successful": true
  },
  "92.py": {
    "successful": true
  },
  "96.py": {
    "successful": true
  },
  "98.py": {
    "successful": true
  },
  "99.py": {
    "successful": true
  },
  "100.py": {
    "successful": true
  },
  "102.py": {
    "successful": true
  },
  "108.py": {
    "successful": true
  },
  "115.py": {
    "successful": true
  },
  "118.py": {
    "successful": true
  },
  "122.py": {
    "successful": true
  },
  "125.py": {
    "successful": true
  },
  "129.py": {
    "successful": true
  },
  "134.py": {
    "successful": true
  },
  "150.py": {
    "successful": true
  },
  "151.py": {
    "successful": true
  },
  "154.py": {
    "successful": true
  },
  "164.py": {
    "successful": true
  },
  "166.py": {
    "successful": true
  },
  "168.py": {
    "successful": true
  },
  "179.py": {
    "successful": true
  },
  "182.py": {
    "successful": true
  },
  "184.py": {
    "successful": true
  },
  "190.py": {
    "successful": true
  },
  "194.py": {
    "successful": true
  },
  "199.py": {
    "successful": true
  }
}