{
  "test_complete": true,
  "0.py": {
    "successful": false,
    "error_type": "AssertionError"
  },
  "18.py": {
    "successful": true
  },
  "28.py": {
    "successful": true
  },
  "53.py": {
    "successful": true
  },
  "84.py": {
    "successful": true
  },
  "86.py": {
    "successful": true
  },
  "177.py": {
    "successful": false,
    "error_type": "AssertionError"
  }
}