{
  "test_complete": true,
  "17.py": {
    "successful": true
  },
  "27.py": {
    "successful": true
  },
  "38.py": {
    "successful": true
  },
  "52.py": {
    "successful": true
  },
  "54.py": {
    "successful": true
  },
  "63.py": {
    "successful": true
  },
  "71.py": {
    "successful": true
  },
  "74.py": {
    "successful": true
  },
  "78.py": {
    "successful": true
  },
  "99.py": {
    "successful": true
  },
  "100.py": {
    "successful": true
  },
  "101.py": {
    "successful": true
  },
  "107.py": {
    "successful": true
  },
  "111.py": {
    "successful": true
  },
  "142.py": {
    "successful": true
  },
  "143.py": {
    "successful": true
  },
  "146.py": {
    "successful": true
  },
  "162.py": {
    "successful": false,
    "error_type": "AssertionError"
  },
  "177.py": {
    "successful": true
  },
  "182.py": {
    "successful": true
  },
  "195.py": {
    "successful": true
  }
}