{
  "test_complete": true,
  "0.py": {
    "successful": false,
    "error_type": "TypeError",
    "error_message": "unsupported operand type(s) for ^"
  },
  "1.py": {
    "successful": false,
    "error_type": "NameError",
    "error_message": "name 'alphabet' is not defined"
  },
  "2.py": {
    "successful": false,
    "error_type": "AssertionError"
  },
  "3.py": {
    "successful": false,
    "error_type": "NameError",
    "error_message": "name 'rot' is not defined"
  },
  "4.py": {
    "successful": false,
    "error_type": "NameError",
    "error_message": "name 'sys' is not defined"
  },
  "5.py": {
    "successful": false,
    "error_type": "AssertionError"
  },
  "6.py": {
    "successful": false,
    "error_type": "AssertionError"
  },
  "7.py": {
    "successful": false,
    "error_type": "TypeError",
    "error_message": "unsupported operand type(s) for -"
  },
  "8.py": {
    "successful": false,
    "error_type": "AssertionError"
  },
  "9.py": {
    "successful": false,
    "error_type": "AssertionError"
  },
  "10.py": {
    "successful": false,
    "error_type": "IndexError",
    "error_message": "list assignment index out of range"
  },
  "11.py": {
    "successful": false,
    "error_type": "NameError",
    "error_message": "name 'rotrot' is not defined"
  },
  "12.py": {
    "successful": false,
    "error_type": "AssertionError"
  },
  "13.py": {
    "successful": false,
    "error_type": "AssertionError"
  },
  "14.py": {
    "successful": false,
    "error_type": "AssertionError"
  },
  "15.py": {
    "successful": false,
    "error_type": "AssertionError"
  },
  "16.py": {
    "successful": false,
    "error_type": "AssertionError"
  },
  "17.py": {
    "successful": false,
    "error_type": "SyntaxError",
    "error_message": "invalid syntax. Perhaps you forgot a comma?"
  },
  "18.py": {
    "successful": false,
    "error_type": "AssertionError"
  },
  "19.py": {
    "successful": false,
    "error_type": "ModuleNotFoundError",
    "error_message": "No module named 'pycipher'"
  },
  "20.py": {
    "successful": false,
    "error_type": "NameError",
    "error_message": "name 'random' is not defined"
  },
  "21.py": {
    "successful": false,
    "error_type": "TypeError",
    "error_message": "can only concatenate str (not \"int\") to str"
  },
  "22.py": {
    "successful": false,
    "error_type": "KeyError",
    "error_message": "'i'"
  },
  "23.py": {
    "successful": false,
    "error_type": "NameError",
    "error_message": "name 'lowercase' is not defined"
  },
  "24.py": {
    "successful": false,
    "error_type": "NameError",
    "error_message": "name 'encrypt_gens' is not defined"
  },
  "25.py": {
    "successful": false,
    "error_type": "NameError",
    "error_message": "name 'alphabet' is not defined"
  },
  "26.py": {
    "successful": false,
    "error_type": "AssertionError"
  },
  "27.py": {
    "successful": false,
    "error_type": "IndexError",
    "error_message": "list index out of range"
  },
  "28.py": {
    "successful": false,
    "error_type": "ValueError",
    "error_message": "invalid literal for int() with base 10"
  },
  "29.py": {
    "successful": false,
    "error_type": "SyntaxError",
    "error_message": "'(' was never closed"
  },
  "30.py": {
    "successful": false,
    "error_type": "SyntaxError",
    "error_message": "'[' was never closed"
  },
  "31.py": {
    "successful": false,
    "error_type": "AssertionError"
  },
  "32.py": {
    "successful": false,
    "error_type": "TypeError",
    "error_message": "'str' object cannot be interpreted as an integer"
  },
  "33.py": {
    "successful": false,
    "error_type": "ValueError",
    "error_message": "argument must be a string of length 16"
  },
  "34.py": {
    "successful": false,
    "error_type": "NameError",
    "error_message": "name 'rot13' is not defined"
  },
  "35.py": {
    "successful": false,
    "error_type": "NameError",
    "error_message": "name 'string_types' is not defined"
  },
  "36.py": {
    "successful": false,
    "error_type": "IndexError",
    "error_message": "string index out of range"
  },
  "37.py": {
    "successful": false,
    "error_type": "TypeError",
    "error_message": "'str' object does not support item assignment"
  },
  "38.py": {
    "successful": false,
    "error_type": "AssertionError"
  },
  "39.py": {
    "successful": false,
    "error_type": "AssertionError"
  },
  "40.py": {
    "successful": false,
    "error_type": "NameError",
    "error_message": "name 'alphabet' is not defined"
  },
  "41.py": {
    "successful": false,
    "error_type": "AssertionError"
  },
  "42.py": {
    "successful": false,
    "error_type": "NameError",
    "error_message": "name '_encrypt' is not defined. Did you mean"
  },
  "43.py": {
    "successful": false,
    "error_type": "NameError",
    "error_message": "name 'ROTATE_TABLE' is not defined"
  },
  "44.py": {
    "successful": false,
    "error_type": "ValueError",
    "error_message": "invalid literal for int() with base 16"
  },
  "45.py": {
    "successful": false,
    "error_type": "NameError",
    "error_message": "name 'string' is not defined"
  },
  "46.py": {
    "successful": false,
    "error_type": "AssertionError"
  },
  "47.py": {
    "successful": false,
    "error_type": "NameError",
    "error_message": "name 'alphabet' is not defined"
  },
  "48.py": {
    "successful": false,
    "error_type": "NameError",
    "error_message": "name 'rotate' is not defined"
  },
  "49.py": {
    "successful": false,
    "error_type": "IndexError",
    "error_message": "string index out of range"
  },
  "50.py": {
    "successful": false,
    "error_type": "TypeError",
    "error_message": "str.translate() takes exactly one argument (2 given)"
  },
  "51.py": {
    "successful": false,
    "error_type": "AssertionError"
  },
  "52.py": {
    "successful": false,
    "error_type": "AssertionError"
  },
  "53.py": {
    "successful": false,
    "error_type": "NameError",
    "error_message": "name 'alphabet' is not defined"
  },
  "54.py": {
    "successful": false,
    "error_type": "NameError",
    "error_message": "name 'rot_table' is not defined"
  },
  "55.py": {
    "successful": false,
    "error_type": "SyntaxError",
    "error_message": "closing parenthesis ']' does not match opening parenthesis '(' on line 6"
  },
  "56.py": {
    "successful": false,
    "error_type": "AssertionError"
  },
  "57.py": {
    "successful": false,
    "error_type": "AttributeError",
    "error_message": "'str' object has no attribute 'rotate'"
  },
  "58.py": {
    "successful": false,
    "error_type": "NameError",
    "error_message": "name 'isascii' is not defined. Did you mean"
  },
  "59.py": {
    "successful": false,
    "error_type": "AssertionError"
  },
  "60.py": {
    "successful": false,
    "error_type": "AssertionError"
  },
  "61.py": {
    "successful": false,
    "error_type": "IndexError",
    "error_message": "string index out of range"
  },
  "62.py": {
    "successful": false,
    "error_type": "TypeError",
    "error_message": "sequence item 0"
  },
  "63.py": {
    "successful": false,
    "error_type": "IndexError",
    "error_message": "string index out of range"
  },
  "64.py": {
    "successful": false,
    "error_type": "AssertionError"
  },
  "65.py": {
    "successful": false,
    "error_type": "AssertionError"
  },
  "66.py": {
    "successful": false,
    "error_type": "AssertionError"
  },
  "67.py": {
    "successful": false,
    "error_type": "TypeError",
    "error_message": "'generator' object cannot be interpreted as an integer"
  },
  "68.py": {
    "successful": false,
    "error_type": "TypeError",
    "error_message": "ord() expected a character, but string of length 2 found"
  },
  "69.py": {
    "successful": false,
    "error_type": "TypeError",
    "error_message": "encrypt() argument must be an string"
  },
  "70.py": {
    "successful": false,
    "error_type": "AssertionError"
  },
  "71.py": {
    "successful": false,
    "error_type": "AssertionError"
  },
  "72.py": {
    "successful": false,
    "error_type": "NameError",
    "error_message": "name '_builtin_encrypt' is not defined"
  },
  "73.py": {
    "successful": false,
    "error_type": "NameError",
    "error_message": "name '_alphabet' is not defined"
  },
  "74.py": {
    "successful": false,
    "error_type": "AssertionError"
  },
  "75.py": {
    "successful": false,
    "error_type": "AssertionError"
  },
  "76.py": {
    "successful": false,
    "error_type": "KeyError",
    "error_message": "'h'"
  },
  "77.py": {
    "successful": false,
    "error_type": "AssertionError"
  },
  "78.py": {
    "successful": false,
    "error_type": "SyntaxError",
    "error_message": "unterminated string literal (detected at line 14)"
  },
  "79.py": {
    "successful": false,
    "error_type": "KeyError",
    "error_message": "'h'"
  },
  "80.py": {
    "successful": false,
    "error_type": "SyntaxError",
    "error_message": "unterminated string literal (detected at line 13)"
  },
  "81.py": {
    "successful": false,
    "error_type": "AssertionError"
  },
  "82.py": {
    "successful": false,
    "error_type": "AssertionError"
  },
  "83.py": {
    "successful": false,
    "error_type": "AssertionError"
  },
  "84.py": {
    "successful": false,
    "error_type": "NameError",
    "error_message": "name 'alphabet' is not defined"
  },
  "85.py": {
    "successful": false,
    "error_type": "NameError",
    "error_message": "name 'random' is not defined"
  },
  "86.py": {
    "successful": false,
    "error_type": "AssertionError"
  },
  "87.py": {
    "successful": false,
    "error_type": "AssertionError"
  },
  "88.py": {
    "successful": false,
    "error_type": "IndexError",
    "error_message": "string index out of range"
  },
  "89.py": {
    "successful": false,
    "error_type": "NameError",
    "error_message": "name 'alphabet' is not defined"
  },
  "90.py": {
    "successful": false,
    "error_type": "TypeError",
    "error_message": "not all arguments converted during string formatting"
  },
  "91.py": {
    "successful": false,
    "error_type": "TypeError",
    "error_message": "unsupported operand type(s) for -"
  },
  "92.py": {
    "successful": false,
    "error_type": "ValueError",
    "error_message": "invalid literal for int() with base 10"
  },
  "93.py": {
    "successful": false,
    "error_type": "AssertionError"
  },
  "94.py": {
    "successful": false,
    "error_type": "IndexError",
    "error_message": "string index out of range"
  },
  "95.py": {
    "successful": false,
    "error_type": "AssertionError"
  },
  "96.py": {
    "successful": false,
    "error_type": "AssertionError"
  },
  "97.py": {
    "successful": false,
    "error_type": "AssertionError"
  },
  "98.py": {
    "successful": false,
    "error_type": "TypeError",
    "error_message": "unsupported operand type(s) for <<"
  },
  "99.py": {
    "successful": false,
    "error_type": "AssertionError"
  },
  "100.py": {
    "successful": false,
    "error_type": "NameError",
    "error_message": "name 'ALPHANUMERIC_CHARS' is not defined"
  },
  "101.py": {
    "successful": false,
    "error_type": "TypeError",
    "error_message": "list indices must be integers or slices, not str"
  },
  "102.py": {
    "successful": false,
    "error_type": "AssertionError"
  },
  "103.py": {
    "successful": false,
    "error_type": "AssertionError"
  },
  "104.py": {
    "successful": false,
    "error_type": "AssertionError"
  },
  "105.py": {
    "successful": false,
    "error_type": "AssertionError"
  },
  "106.py": {
    "successful": false,
    "error_type": "IndexError",
    "error_message": "string index out of range"
  },
  "107.py": {
    "successful": false,
    "error_type": "AssertionError"
  },
  "108.py": {
    "successful": false,
    "error_type": "AssertionError"
  },
  "109.py": {
    "successful": false,
    "error_type": "NameError",
    "error_message": "name '_alphabet' is not defined"
  },
  "110.py": {
    "successful": false,
    "error_type": "NameError",
    "error_message": "name 'ROTATE_ALPHABETS' is not defined"
  },
  "111.py": {
    "successful": false,
    "error_type": "TypeError",
    "error_message": "'str' object does not support item assignment"
  },
  "112.py": {
    "successful": false,
    "error_type": "ValueError",
    "error_message": "invalid literal for int() with base 10"
  },
  "113.py": {
    "successful": false,
    "error_type": "AssertionError"
  },
  "114.py": {
    "successful": false,
    "error_type": "AssertionError"
  },
  "115.py": {
    "successful": false,
    "error_type": "AssertionError"
  },
  "116.py": {
    "successful": false,
    "error_type": "ValueError",
    "error_message": "The string length should be an even number"
  },
  "117.py": {
    "successful": false,
    "error_type": "AssertionError"
  },
  "118.py": {
    "successful": false,
    "error_type": "NameError",
    "error_message": "name 're' is not defined"
  },
  "119.py": {
    "successful": false,
    "error_type": "AssertionError"
  },
  "120.py": {
    "successful": false,
    "error_type": "AssertionError"
  },
  "121.py": {
    "successful": false,
    "error_type": "SyntaxError",
    "error_message": "invalid syntax"
  },
  "122.py": {
    "successful": false,
    "error_type": "AssertionError"
  },
  "123.py": {
    "successful": false,
    "error_type": "NameError",
    "error_message": "name 'alphabet' is not defined"
  },
  "124.py": {
    "successful": false,
    "error_type": "NameError",
    "error_message": "name 'rotate' is not defined"
  },
  "125.py": {
    "successful": false,
    "error_type": "AssertionError"
  },
  "126.py": {
    "successful": false,
    "error_type": "TypeError",
    "error_message": "can only concatenate str (not \"int\") to str"
  },
  "127.py": {
    "successful": false,
    "error_type": "IndexError",
    "error_message": "string index out of range"
  },
  "128.py": {
    "successful": false,
    "error_type": "AssertionError"
  },
  "129.py": {
    "successful": false,
    "error_type": "AssertionError"
  },
  "130.py": {
    "successful": false,
    "error_type": "AssertionError"
  },
  "131.py": {
    "successful": false,
    "error_type": "NameError",
    "error_message": "name 'LETTERS' is not defined"
  },
  "132.py": {
    "successful": false,
    "error_type": "SyntaxError",
    "error_message": "'(' was never closed"
  },
  "133.py": {
    "successful": false,
    "error_type": "NameError",
    "error_message": "name 'letters' is not defined. Did you mean"
  },
  "134.py": {
    "successful": false,
    "error_type": "NameError",
    "error_message": "name 'rotations' is not defined"
  },
  "135.py": {
    "successful": false,
    "error_type": "NameError",
    "error_message": "name 'crot' is not defined"
  },
  "136.py": {
    "successful": false,
    "error_type": "TypeError",
    "error_message": "'function' object is not subscriptable"
  },
  "137.py": {
    "successful": false,
    "error_type": "NameError",
    "error_message": "name 'SALT' is not defined"
  },
  "138.py": {
    "successful": false,
    "error_type": "TypeError",
    "error_message": "slice indices must be integers or None or have an __index__ method"
  },
  "139.py": {
    "successful": false,
    "error_type": "ValueError",
    "error_message": "empty separator"
  },
  "140.py": {
    "successful": false,
    "error_type": "NameError",
    "error_message": "name 'en_alphabet' is not defined"
  },
  "141.py": {
    "successful": false,
    "error_type": "SyntaxError",
    "error_message": "'[' was never closed"
  },
  "142.py": {
    "successful": false,
    "error_type": "NameError",
    "error_message": "name 'rot' is not defined"
  },
  "143.py": {
    "successful": false,
    "error_type": "AssertionError"
  },
  "144.py": {
    "successful": false,
    "error_type": "TypeError",
    "error_message": "str.translate() takes exactly one argument (2 given)"
  },
  "145.py": {
    "successful": false,
    "error_type": "NameError",
    "error_message": "name 'rotate' is not defined"
  },
  "146.py": {
    "successful": false,
    "error_type": "IndexError",
    "error_message": "list index out of range"
  },
  "147.py": {
    "successful": false,
    "error_type": "TypeError",
    "error_message": "'str' object does not support item assignment"
  },
  "148.py": {
    "successful": false,
    "error_type": "NameError",
    "error_message": "name 'rot' is not defined"
  },
  "149.py": {
    "successful": false,
    "error_type": "AssertionError"
  },
  "150.py": {
    "successful": false,
    "error_type": "AssertionError"
  },
  "151.py": {
    "successful": false,
    "error_type": "NameError",
    "error_message": "name 'random' is not defined"
  },
  "152.py": {
    "successful": false,
    "error_type": "IndexError",
    "error_message": "string index out of range"
  },
  "153.py": {
    "successful": false,
    "error_type": "AssertionError"
  },
  "154.py": {
    "successful": false,
    "error_type": "AssertionError"
  },
  "155.py": {
    "successful": false,
    "error_type": "AssertionError"
  },
  "156.py": {
    "successful": false,
    "error_type": "AssertionError"
  },
  "157.py": {
    "successful": false,
    "error_type": "AssertionError"
  },
  "158.py": {
    "successful": false,
    "error_type": "AssertionError"
  },
  "159.py": {
    "successful": false,
    "error_type": "AssertionError"
  },
  "160.py": {
    "successful": false,
    "error_type": "NameError",
    "error_message": "name 'rot13' is not defined"
  },
  "161.py": {
    "successful": false,
    "error_type": "TypeError",
    "error_message": "ord() expected a character, but string of length 2 found"
  },
  "162.py": {
    "successful": false,
    "error_type": "NameError",
    "error_message": "name 'default_cmap' is not defined"
  },
  "163.py": {
    "successful": false,
    "error_type": "NameError",
    "error_message": "name 'table' is not defined. Did you mean"
  },
  "164.py": {
    "successful": false,
    "error_type": "NameError",
    "error_message": "name 'letters' is not defined"
  },
  "165.py": {
    "successful": false,
    "error_type": "IndexError",
    "error_message": "list assignment index out of range"
  },
  "166.py": {
    "successful": false,
    "error_type": "AssertionError"
  },
  "167.py": {
    "successful": false,
    "error_type": "AttributeError",
    "error_message": "'str' object has no attribute 'items'"
  },
  "168.py": {
    "successful": false,
    "error_type": "AssertionError"
  },
  "169.py": {
    "successful": false,
    "error_type": "SyntaxError",
    "error_message": "'(' was never closed"
  },
  "170.py": {
    "successful": false,
    "error_type": "AssertionError"
  },
  "171.py": {
    "successful": false,
    "error_type": "AssertionError"
  },
  "172.py": {
    "successful": false,
    "error_type": "TypeError",
    "error_message": "object of type 'map' has no len()"
  },
  "173.py": {
    "successful": false,
    "error_type": "NameError",
    "error_message": "name 'rotate' is not defined"
  },
  "174.py": {
    "successful": false,
    "error_type": "NameError",
    "error_message": "name 'rot' is not defined"
  },
  "175.py": {
    "successful": false,
    "error_type": "AssertionError"
  },
  "176.py": {
    "successful": false,
    "error_type": "AssertionError"
  },
  "177.py": {
    "successful": false,
    "error_type": "NameError",
    "error_message": "name 'alphabet' is not defined"
  },
  "178.py": {
    "successful": false,
    "error_type": "AssertionError"
  },
  "179.py": {
    "successful": false,
    "error_type": "TypeError",
    "error_message": "str.translate() takes exactly one argument (0 given)"
  },
  "180.py": {
    "successful": false,
    "error_type": "AssertionError"
  },
  "181.py": {
    "successful": false,
    "error_type": "NameError",
    "error_message": "name 'alphabet' is not defined"
  },
  "182.py": {
    "successful": false,
    "error_type": "UnboundLocalError",
    "error_message": "cannot access local variable 'alphabet' where it is not associated with a value"
  },
  "183.py": {
    "successful": false,
    "error_type": "SyntaxError",
    "error_message": "invalid syntax"
  },
  "184.py": {
    "successful": false,
    "error_type": "AssertionError"
  },
  "185.py": {
    "successful": false,
    "error_type": "NameError",
    "error_message": "name '_alphabet' is not defined"
  },
  "186.py": {
    "successful": false,
    "error_type": "NameError",
    "error_message": "name '_encrypt' is not defined. Did you mean"
  },
  "187.py": {
    "successful": false,
    "error_type": "AssertionError"
  },
  "188.py": {
    "successful": false,
    "error_type": "ValueError",
    "error_message": "must be at least 4 characters"
  },
  "189.py": {
    "successful": false,
    "error_type": "AssertionError"
  },
  "190.py": {
    "successful": false,
    "error_type": "AssertionError"
  },
  "191.py": {
    "successful": false,
    "error_type": "AssertionError"
  },
  "192.py": {
    "successful": false,
    "error_type": "TypeError",
    "error_message": "string indices must be integers, not 'str'"
  },
  "193.py": {
    "successful": false,
    "error_type": "ValueError",
    "error_message": "invalid literal for int() with base 10"
  },
  "194.py": {
    "successful": false,
    "error_type": "TypeError",
    "error_message": "string indices must be integers, not 'float'"
  },
  "195.py": {
    "successful": false,
    "error_type": "TypeError",
    "error_message": "'str' object cannot be interpreted as an integer"
  },
  "196.py": {
    "successful": false,
    "error_type": "TypeError",
    "error_message": "'str' object cannot be interpreted as an integer"
  },
  "197.py": {
    "successful": false,
    "error_type": "NameError",
    "error_message": "name 'random' is not defined"
  },
  "198.py": {
    "successful": false,
    "error_type": "TypeError",
    "error_message": "string indices must be integers, not 'str'"
  },
  "199.py": {
    "successful": false,
    "error_type": "AssertionError"
  }
}