{
  "test_complete": true,
  "0.py": {
    "successful": false,
    "error_type": "SyntaxError",
    "error_message": "'[' was never closed"
  },
  "1.py": {
    "successful": false,
    "error_type": "AssertionError"
  },
  "2.py": {
    "successful": false,
    "error_type": "AssertionError"
  },
  "3.py": {
    "successful": false,
    "error_type": "SyntaxError",
    "error_message": "unterminated string literal (detected at line 7)"
  },
  "4.py": {
    "successful": false,
    "error_type": "AssertionError"
  },
  "5.py": {
    "successful": false,
    "error_type": "IndentationError",
    "error_message": "expected an indented block after function definition on line 1"
  },
  "6.py": {
    "successful": false,
    "error_type": "NameError",
    "error_message": "name 'vowels' is not defined"
  },
  "7.py": {
    "successful": false,
    "error_type": "IndentationError",
    "error_message": "expected an indented block after function definition on line 1"
  },
  "8.py": {
    "successful": false,
    "error_type": "AssertionError"
  },
  "9.py": {
    "successful": false,
    "error_type": "AssertionError"
  },
  "11.py": {
    "successful": false,
    "error_type": "IndentationError",
    "error_message": "expected an indented block after 'else' statement on line 6"
  },
  "12.py": {
    "successful": false,
    "error_type": "AssertionError"
  },
  "13.py": {
    "successful": false,
    "error_type": "AssertionError"
  },
  "15.py": {
    "successful": false,
    "error_type": "AssertionError"
  },
  "16.py": {
    "successful": false,
    "error_type": "AssertionError"
  },
  "17.py": {
    "successful": false,
    "error_type": "AssertionError"
  },
  "18.py": {
    "successful": false,
    "error_type": "AttributeError",
    "error_message": "'int' object has no attribute 'lower'"
  },
  "19.py": {
    "successful": false,
    "error_type": "AssertionError"
  },
  "20.py": {
    "successful": false,
    "error_type": "SyntaxError",
    "error_message": "'[' was never closed"
  },
  "21.py": {
    "successful": false,
    "error_type": "SyntaxError",
    "error_message": "'[' was never closed"
  },
  "23.py": {
    "successful": false,
    "error_type": "NameError",
    "error_message": "name 'string' is not defined"
  },
  "24.py": {
    "successful": false,
    "error_type": "AssertionError"
  },
  "25.py": {
    "successful": false,
    "error_type": "AssertionError"
  },
  "26.py": {
    "successful": false,
    "error_type": "SyntaxError",
    "error_message": "unterminated string literal (detected at line 16)"
  },
  "27.py": {
    "successful": false,
    "error_type": "AssertionError"
  },
  "28.py": {
    "successful": false,
    "error_type": "AssertionError"
  },
  "29.py": {
    "successful": false,
    "error_type": "AssertionError"
  },
  "31.py": {
    "successful": false,
    "error_type": "AssertionError"
  },
  "33.py": {
    "successful": false,
    "error_type": "AssertionError"
  },
  "34.py": {
    "successful": false,
    "error_type": "SyntaxError",
    "error_message": "'(' was never closed"
  },
  "35.py": {
    "successful": false,
    "error_type": "IndexError",
    "error_message": "list index out of range"
  },
  "37.py": {
    "successful": false,
    "error_type": "AssertionError"
  },
  "38.py": {
    "successful": false,
    "error_type": "AssertionError"
  },
  "39.py": {
    "successful": false,
    "error_type": "IndexError",
    "error_message": "string index out of range"
  },
  "40.py": {
    "successful": false,
    "error_type": "AssertionError"
  },
  "43.py": {
    "successful": false,
    "error_type": "SyntaxError",
    "error_message": "'(' was never closed"
  },
  "45.py": {
    "successful": false,
    "error_type": "SyntaxError",
    "error_message": "'[' was never closed"
  },
  "46.py": {
    "successful": false,
    "error_type": "ValueError",
    "error_message": "empty separator"
  },
  "47.py": {
    "successful": false,
    "error_type": "AssertionError"
  },
  "49.py": {
    "successful": false,
    "error_type": "AssertionError"
  },
  "50.py": {
    "successful": false,
    "error_type": "NameError",
    "error_message": "name 'vowels' is not defined"
  },
  "51.py": {
    "successful": false,
    "error_type": "IndentationError",
    "error_message": "expected an indented block after 'if' statement on line 4"
  },
  "52.py": {
    "successful": false,
    "error_type": "AssertionError"
  },
  "53.py": {
    "successful": false,
    "error_type": "SyntaxError",
    "error_message": "'[' was never closed"
  },
  "54.py": {
    "successful": false,
    "error_type": "AssertionError"
  },
  "55.py": {
    "successful": false,
    "error_type": "AssertionError"
  },
  "56.py": {
    "successful": false,
    "error_type": "AssertionError"
  },
  "57.py": {
    "successful": false,
    "error_type": "AssertionError"
  },
  "58.py": {
    "successful": false,
    "error_type": "AssertionError"
  },
  "59.py": {
    "successful": false,
    "error_type": "NameError",
    "error_message": "name 'find_right_most_consonant' is not defined"
  },
  "61.py": {
    "successful": false,
    "error_type": "NameError",
    "error_message": "name 'vowel_right_' is not defined. Did you mean"
  },
  "62.py": {
    "successful": false,
    "error_type": "SyntaxError",
    "error_message": "'(' was never closed"
  },
  "64.py": {
    "successful": false,
    "error_type": "AssertionError"
  },
  "65.py": {
    "successful": false,
    "error_type": "AssertionError"
  },
  "66.py": {
    "successful": false,
    "error_type": "AssertionError"
  },
  "67.py": {
    "successful": false,
    "error_type": "NameError",
    "error_message": "name 'find_closest_vowel' is not defined. Did you mean"
  },
  "68.py": {
    "successful": false,
    "error_type": "SyntaxError",
    "error_message": "'[' was never closed"
  },
  "69.py": {
    "successful": false,
    "error_type": "AssertionError"
  },
  "71.py": {
    "successful": false,
    "error_type": "IndentationError",
    "error_message": "expected an indented block after 'if' statement on line 6"
  },
  "72.py": {
    "successful": false,
    "error_type": "AssertionError"
  },
  "73.py": {
    "successful": false,
    "error_type": "AssertionError"
  },
  "74.py": {
    "successful": false,
    "error_type": "AssertionError"
  },
  "75.py": {
    "successful": false,
    "error_type": "AssertionError"
  },
  "76.py": {
    "successful": false,
    "error_type": "SyntaxError",
    "error_message": "'(' was never closed"
  },
  "77.py": {
    "successful": false,
    "error_type": "AssertionError"
  },
  "78.py": {
    "successful": false,
    "error_type": "ValueError",
    "error_message": "not enough values to unpack (expected 2, got 1)"
  },
  "79.py": {
    "successful": false,
    "error_type": "NameError",
    "error_message": "name 'LETTERS' is not defined"
  },
  "80.py": {
    "successful": false,
    "error_type": "TypeError",
    "error_message": "argument of type 'int' is not iterable"
  },
  "81.py": {
    "successful": false,
    "error_type": "AssertionError"
  },
  "83.py": {
    "successful": false,
    "error_type": "NameError",
    "error_message": "name 'is_vowel' is not defined"
  },
  "84.py": {
    "successful": false,
    "error_type": "NameError",
    "error_message": "name 'string' is not defined"
  },
  "85.py": {
    "successful": false,
    "error_type": "AssertionError"
  },
  "86.py": {
    "successful": false,
    "error_type": "AssertionError"
  },
  "87.py": {
    "successful": false,
    "error_type": "AssertionError"
  },
  "88.py": {
    "successful": false,
    "error_type": "AssertionError"
  },
  "89.py": {
    "successful": false,
    "error_type": "AssertionError"
  },
  "91.py": {
    "successful": false,
    "error_type": "AssertionError"
  },
  "93.py": {
    "successful": false,
    "error_type": "AssertionError"
  },
  "94.py": {
    "successful": false,
    "error_type": "AssertionError"
  },
  "95.py": {
    "successful": false,
    "error_type": "NameError",
    "error_message": "name 'current_v' is not defined. Did you mean"
  },
  "96.py": {
    "successful": false,
    "error_type": "SyntaxError",
    "error_message": "'(' was never closed"
  },
  "97.py": {
    "successful": false,
    "error_type": "AssertionError"
  },
  "98.py": {
    "successful": false,
    "error_type": "AssertionError"
  },
  "99.py": {
    "successful": false,
    "error_type": "AssertionError"
  },
  "100.py": {
    "successful": false,
    "error_type": "SyntaxError",
    "error_message": "'(' was never closed"
  },
  "101.py": {
    "successful": false,
    "error_type": "AssertionError"
  },
  "103.py": {
    "successful": false,
    "error_type": "NameError",
    "error_message": "name 'closest_vow' is not defined. Did you mean"
  },
  "104.py": {
    "successful": false,
    "error_type": "AssertionError"
  },
  "105.py": {
    "successful": false,
    "error_type": "AssertionError"
  },
  "107.py": {
    "successful": false,
    "error_type": "AssertionError"
  },
  "109.py": {
    "successful": false,
    "error_type": "AssertionError"
  },
  "110.py": {
    "successful": false,
    "error_type": "IndexError",
    "error_message": "string index out of range"
  },
  "111.py": {
    "successful": false,
    "error_type": "NameError",
    "error_message": "name 'VOWELS' is not defined"
  },
  "112.py": {
    "successful": false,
    "error_type": "SyntaxError",
    "error_message": "'[' was never closed"
  },
  "113.py": {
    "successful": false,
    "error_type": "AssertionError"
  },
  "116.py": {
    "successful": false,
    "error_type": "AssertionError"
  },
  "117.py": {
    "successful": false,
    "error_type": "AssertionError"
  },
  "118.py": {
    "successful": false,
    "error_type": "AssertionError"
  },
  "120.py": {
    "successful": false,
    "error_type": "SyntaxError",
    "error_message": "unterminated string literal (detected at line 8)"
  },
  "121.py": {
    "successful": false,
    "error_type": "AssertionError"
  },
  "122.py": {
    "successful": false,
    "error_type": "AssertionError"
  },
  "123.py": {
    "successful": false,
    "error_type": "RecursionError",
    "error_message": "maximum recursion depth exceeded"
  },
  "124.py": {
    "successful": false,
    "error_type": "AssertionError"
  },
  "126.py": {
    "successful": false,
    "error_type": "AssertionError"
  },
  "127.py": {
    "successful": false,
    "error_type": "AssertionError"
  },
  "128.py": {
    "successful": false,
    "error_type": "AssertionError"
  },
  "129.py": {
    "successful": false,
    "error_type": "AssertionError"
  },
  "130.py": {
    "successful": false,
    "error_type": "AssertionError"
  },
  "131.py": {
    "successful": false,
    "error_type": "AssertionError"
  },
  "132.py": {
    "successful": false,
    "error_type": "AssertionError"
  },
  "136.py": {
    "successful": false,
    "error_type": "AssertionError"
  },
  "137.py": {
    "successful": false,
    "error_type": "AssertionError"
  },
  "138.py": {
    "successful": false,
    "error_type": "AssertionError"
  },
  "139.py": {
    "successful": false,
    "error_type": "NameError",
    "error_message": "name 'vowels_c' is not defined"
  },
  "141.py": {
    "successful": false,
    "error_type": "AssertionError"
  },
  "143.py": {
    "successful": false,
    "error_type": "SyntaxError",
    "error_message": "'[' was never closed"
  },
  "144.py": {
    "successful": false,
    "error_type": "ValueError",
    "error_message": "too many values to unpack (expected 2)"
  },
  "146.py": {
    "successful": false,
    "error_type": "AssertionError"
  },
  "147.py": {
    "successful": false,
    "error_type": "SyntaxError",
    "error_message": "'[' was never closed"
  },
  "148.py": {
    "successful": false,
    "error_type": "AssertionError"
  },
  "150.py": {
    "successful": false,
    "error_type": "SyntaxError",
    "error_message": "'[' was never closed"
  },
  "151.py": {
    "successful": false,
    "error_type": "AssertionError"
  },
  "153.py": {
    "successful": false,
    "error_type": "AssertionError"
  },
  "154.py": {
    "successful": false,
    "error_type": "AssertionError"
  },
  "155.py": {
    "successful": false,
    "error_type": "AssertionError"
  },
  "156.py": {
    "successful": false,
    "error_type": "AssertionError"
  },
  "157.py": {
    "successful": false,
    "error_type": "AssertionError"
  },
  "158.py": {
    "successful": false,
    "error_type": "AssertionError"
  },
  "159.py": {
    "successful": false,
    "error_type": "SyntaxError",
    "error_message": "'[' was never closed"
  },
  "160.py": {
    "successful": false,
    "error_type": "NameError",
    "error_message": "name 're' is not defined"
  },
  "161.py": {
    "successful": false,
    "error_type": "AssertionError"
  },
  "162.py": {
    "successful": false,
    "error_type": "AssertionError"
  },
  "164.py": {
    "successful": false,
    "error_type": "SyntaxError",
    "error_message": "'[' was never closed"
  },
  "165.py": {
    "successful": false,
    "error_type": "AssertionError"
  },
  "167.py": {
    "successful": false,
    "error_type": "NameError",
    "error_message": "name 'get_closest_consonant' is not defined"
  },
  "169.py": {
    "successful": false,
    "error_type": "NameError",
    "error_message": "name 'right_vowel_from_right' is not defined"
  },
  "170.py": {
    "successful": false,
    "error_type": "NameError",
    "error_message": "name 'VOWELS' is not defined"
  },
  "172.py": {
    "successful": false,
    "error_type": "AssertionError"
  },
  "174.py": {
    "successful": false,
    "error_type": "AssertionError"
  },
  "175.py": {
    "successful": false,
    "error_type": "AssertionError"
  },
  "176.py": {
    "successful": false,
    "error_type": "NameError",
    "error_message": "name 'get_closest_consonant' is not defined"
  },
  "177.py": {
    "successful": false,
    "error_type": "AssertionError"
  },
  "178.py": {
    "successful": false,
    "error_type": "AssertionError"
  },
  "179.py": {
    "successful": false,
    "error_type": "AssertionError"
  },
  "180.py": {
    "successful": false,
    "error_type": "RecursionError",
    "error_message": "maximum recursion depth exceeded while calling a Python object"
  },
  "181.py": {
    "successful": false,
    "error_type": "ValueError",
    "error_message": "not enough values to unpack (expected 2, got 1)"
  },
  "182.py": {
    "successful": false,
    "error_type": "AssertionError"
  },
  "183.py": {
    "successful": false,
    "error_type": "AssertionError"
  },
  "184.py": {
    "successful": false,
    "error_type": "IndexError",
    "error_message": "string index out of range"
  },
  "186.py": {
    "successful": false,
    "error_type": "AssertionError"
  },
  "187.py": {
    "successful": false,
    "error_type": "SyntaxError",
    "error_message": "'[' was never closed"
  },
  "188.py": {
    "successful": false,
    "error_type": "AssertionError"
  },
  "190.py": {
    "successful": false,
    "error_type": "AssertionError"
  },
  "192.py": {
    "successful": false,
    "error_type": "StopIteration"
  },
  "193.py": {
    "successful": false,
    "error_type": "SyntaxError",
    "error_message": "'[' was never closed"
  },
  "196.py": {
    "successful": false,
    "error_type": "AssertionError"
  },
  "197.py": {
    "successful": false,
    "error_type": "AssertionError"
  },
  "198.py": {
    "successful": false,
    "error_type": "AssertionError"
  },
  "199.py": {
    "successful": false,
    "error_type": "SyntaxError",
    "error_message": "'[' was never closed"
  }
}