{
  "test_complete": true,
  "0.py": {
    "successful": true
  },
  "1.py": {
    "successful": false,
    "error_type": "NameError",
    "error_message": "name 'mean' is not defined"
  },
  "2.py": {
    "successful": true
  },
  "4.py": {
    "successful": true
  },
  "6.py": {
    "successful": true
  },
  "10.py": {
    "successful": true
  },
  "11.py": {
    "successful": true
  },
  "14.py": {
    "successful": true
  },
  "16.py": {
    "successful": true
  },
  "19.py": {
    "successful": true
  },
  "21.py": {
    "successful": false,
    "error_type": "AssertionError"
  },
  "22.py": {
    "successful": false,
    "error_type": "NameError",
    "error_message": "name 'mean' is not defined"
  },
  "23.py": {
    "successful": false,
    "error_type": "TypeError",
    "error_message": "'float' object is not iterable"
  },
  "25.py": {
    "successful": true
  },
  "28.py": {
    "successful": false,
    "error_type": "NameError",
    "error_message": "name 'num' is not defined. Did you mean"
  },
  "29.py": {
    "successful": false,
    "error_type": "NameError",
    "error_message": "name 'mean' is not defined"
  },
  "30.py": {
    "successful": false,
    "error_type": "RecursionError",
    "error_message": "maximum recursion depth exceeded"
  },
  "31.py": {
    "successful": false,
    "error_type": "NameError",
    "error_message": "name 'mean' is not defined"
  },
  "33.py": {
    "successful": true
  },
  "35.py": {
    "successful": true
  },
  "38.py": {
    "successful": true
  },
  "40.py": {
    "successful": false,
    "error_type": "NameError",
    "error_message": "name 'mean' is not defined"
  },
  "44.py": {
    "successful": true
  },
  "45.py": {
    "successful": true
  },
  "46.py": {
    "successful": false,
    "error_type": "NameError",
    "error_message": "name 'mean' is not defined"
  },
  "52.py": {
    "successful": false,
    "error_type": "NameError",
    "error_message": "name 'x' is not defined"
  },
  "54.py": {
    "successful": true
  },
  "55.py": {
    "successful": true
  },
  "56.py": {
    "successful": true
  },
  "57.py": {
    "successful": false,
    "error_type": "NameError",
    "error_message": "name 'mean' is not defined"
  },
  "61.py": {
    "successful": true
  },
  "62.py": {
    "successful": true
  },
  "68.py": {
    "successful": true
  },
  "69.py": {
    "successful": true
  },
  "70.py": {
    "successful": true
  },
  "71.py": {
    "successful": true
  },
  "74.py": {
    "successful": true
  },
  "77.py": {
    "successful": false,
    "error_type": "RecursionError",
    "error_message": "maximum recursion depth exceeded"
  },
  "80.py": {
    "successful": true
  },
  "84.py": {
    "successful": false,
    "error_type": "NameError",
    "error_message": "name 'mean' is not defined"
  },
  "85.py": {
    "successful": true
  },
  "86.py": {
    "successful": false,
    "error_type": "RecursionError",
    "error_message": "maximum recursion depth exceeded"
  },
  "91.py": {
    "successful": true
  },
  "94.py": {
    "successful": false,
    "error_type": "NameError",
    "error_message": "name 'x' is not defined"
  },
  "98.py": {
    "successful": false,
    "error_type": "AttributeError",
    "error_message": "'function' object has no attribute '__mean'"
  },
  "99.py": {
    "successful": false,
    "error_type": "NameError",
    "error_message": "name 'mean' is not defined"
  },
  "101.py": {
    "successful": true
  },
  "102.py": {
    "successful": true
  },
  "103.py": {
    "successful": false,
    "error_type": "NameError",
    "error_message": "name 'mean' is not defined"
  },
  "114.py": {
    "successful": false,
    "error_type": "RecursionError",
    "error_message": "maximum recursion depth exceeded"
  },
  "116.py": {
    "successful": true
  },
  "117.py": {
    "successful": true
  },
  "119.py": {
    "successful": false,
    "error_type": "RecursionError",
    "error_message": "maximum recursion depth exceeded"
  },
  "123.py": {
    "successful": true
  },
  "125.py": {
    "successful": true
  },
  "127.py": {
    "successful": false,
    "error_type": "RecursionError",
    "error_message": "maximum recursion depth exceeded"
  },
  "131.py": {
    "successful": true
  },
  "132.py": {
    "successful": true
  },
  "134.py": {
    "successful": true
  },
  "138.py": {
    "successful": true
  },
  "139.py": {
    "successful": true
  },
  "143.py": {
    "successful": false,
    "error_type": "RecursionError",
    "error_message": "maximum recursion depth exceeded"
  },
  "144.py": {
    "successful": true
  },
  "146.py": {
    "successful": true
  },
  "151.py": {
    "successful": true
  },
  "152.py": {
    "successful": false,
    "error_type": "NameError",
    "error_message": "name 'mean' is not defined"
  },
  "157.py": {
    "successful": true
  },
  "158.py": {
    "successful": false,
    "error_type": "RecursionError",
    "error_message": "maximum recursion depth exceeded"
  },
  "159.py": {
    "successful": false,
    "error_type": "NameError",
    "error_message": "name 'mean' is not defined"
  },
  "162.py": {
    "successful": true
  },
  "163.py": {
    "successful": false,
    "error_type": "AttributeError",
    "error_message": "'function' object has no attribute '__mean'"
  },
  "166.py": {
    "successful": false,
    "error_type": "NameError",
    "error_message": "name 'n' is not defined"
  },
  "167.py": {
    "successful": true
  },
  "168.py": {
    "successful": true
  },
  "173.py": {
    "successful": false,
    "error_type": "NameError",
    "error_message": "name 'number' is not defined. Did you mean"
  },
  "176.py": {
    "successful": false,
    "error_type": "RecursionError",
    "error_message": "maximum recursion depth exceeded"
  },
  "177.py": {
    "successful": true
  },
  "179.py": {
    "successful": true
  },
  "182.py": {
    "successful": true
  },
  "184.py": {
    "successful": false,
    "error_type": "NameError",
    "error_message": "name 'mean' is not defined"
  },
  "191.py": {
    "successful": true
  },
  "197.py": {
    "successful": true
  },
  "198.py": {
    "successful": true
  }
}