{
  "test_complete": true,
  "1.py": {
    "successful": false,
    "error_type": "AssertionError"
  },
  "2.py": {
    "successful": false,
    "error_type": "AssertionError"
  },
  "3.py": {
    "successful": false,
    "error_type": "AssertionError"
  },
  "4.py": {
    "successful": true
  },
  "5.py": {
    "successful": false,
    "error_type": "AssertionError"
  },
  "6.py": {
    "successful": false,
    "error_type": "AssertionError"
  },
  "7.py": {
    "successful": false,
    "error_type": "AssertionError"
  },
  "8.py": {
    "successful": false,
    "error_type": "AssertionError"
  },
  "9.py": {
    "successful": false,
    "error_type": "AssertionError"
  },
  "10.py": {
    "successful": false,
    "error_type": "AssertionError"
  },
  "11.py": {
    "successful": false,
    "error_type": "AssertionError"
  },
  "12.py": {
    "successful": false,
    "error_type": "AssertionError"
  },
  "13.py": {
    "successful": false,
    "error_type": "AssertionError"
  },
  "15.py": {
    "successful": false,
    "error_type": "AssertionError"
  },
  "16.py": {
    "successful": false,
    "error_type": "AssertionError"
  },
  "17.py": {
    "successful": false,
    "error_type": "AssertionError"
  },
  "20.py": {
    "successful": true
  },
  "22.py": {
    "successful": false,
    "error_type": "AssertionError"
  },
  "24.py": {
    "successful": false,
    "error_type": "AssertionError"
  },
  "25.py": {
    "successful": true
  },
  "28.py": {
    "successful": false,
    "error_type": "AssertionError"
  },
  "32.py": {
    "successful": true
  },
  "33.py": {
    "successful": false,
    "error_type": "AssertionError"
  },
  "36.py": {
    "successful": false,
    "error_type": "AssertionError"
  },
  "37.py": {
    "successful": false,
    "error_type": "AssertionError"
  },
  "38.py": {
    "successful": false,
    "error_type": "AssertionError"
  },
  "39.py": {
    "successful": false,
    "error_type": "AssertionError"
  },
  "40.py": {
    "successful": false,
    "error_type": "AssertionError"
  },
  "41.py": {
    "successful": false,
    "error_type": "AssertionError"
  },
  "43.py": {
    "successful": false,
    "error_type": "AssertionError"
  },
  "45.py": {
    "successful": false,
    "error_type": "AssertionError"
  },
  "46.py": {
    "successful": false,
    "error_type": "AssertionError"
  },
  "47.py": {
    "successful": true
  },
  "48.py": {
    "successful": false,
    "error_type": "AssertionError"
  },
  "49.py": {
    "successful": false,
    "error_type": "AssertionError"
  },
  "52.py": {
    "successful": false,
    "error_type": "AssertionError"
  },
  "54.py": {
    "successful": true
  },
  "57.py": {
    "successful": true
  },
  "59.py": {
    "successful": true
  },
  "60.py": {
    "successful": false,
    "error_type": "AssertionError"
  },
  "61.py": {
    "successful": true
  },
  "62.py": {
    "successful": false,
    "error_type": "AssertionError"
  },
  "63.py": {
    "successful": false,
    "error_type": "AssertionError"
  },
  "64.py": {
    "successful": false,
    "error_type": "AssertionError"
  },
  "65.py": {
    "successful": true
  },
  "66.py": {
    "successful": true
  },
  "67.py": {
    "successful": false,
    "error_type": "AssertionError"
  },
  "68.py": {
    "successful": false,
    "error_type": "AssertionError"
  },
  "71.py": {
    "successful": false,
    "error_type": "AssertionError"
  },
  "74.py": {
    "successful": false,
    "error_type": "AssertionError"
  },
  "76.py": {
    "successful": false,
    "error_type": "AssertionError"
  },
  "78.py": {
    "successful": false,
    "error_type": "AssertionError"
  },
  "79.py": {
    "successful": true
  },
  "80.py": {
    "successful": false,
    "error_type": "AssertionError"
  },
  "81.py": {
    "successful": false,
    "error_type": "AssertionError"
  },
  "85.py": {
    "successful": false,
    "error_type": "TypeError",
    "error_message": "can only concatenate list (not \"int\") to list"
  },
  "87.py": {
    "successful": false,
    "error_type": "AssertionError"
  },
  "88.py": {
    "successful": false,
    "error_type": "AssertionError"
  },
  "89.py": {
    "successful": true
  },
  "91.py": {
    "successful": false,
    "error_type": "AssertionError"
  },
  "94.py": {
    "successful": false,
    "error_type": "AssertionError"
  },
  "96.py": {
    "successful": false,
    "error_type": "AssertionError"
  },
  "97.py": {
    "successful": false,
    "error_type": "AssertionError"
  },
  "98.py": {
    "successful": true
  },
  "103.py": {
    "successful": false,
    "error_type": "AssertionError"
  },
  "106.py": {
    "successful": false,
    "error_type": "AssertionError"
  },
  "107.py": {
    "successful": false,
    "error_type": "AssertionError"
  },
  "108.py": {
    "successful": true
  },
  "112.py": {
    "successful": false,
    "error_type": "AssertionError"
  },
  "113.py": {
    "successful": false,
    "error_type": "AssertionError"
  },
  "115.py": {
    "successful": true
  },
  "119.py": {
    "successful": false,
    "error_type": "AssertionError"
  },
  "121.py": {
    "successful": false,
    "error_type": "IndentationError",
    "error_message": "expected an indented block after function definition on line 1"
  },
  "124.py": {
    "successful": false,
    "error_type": "AssertionError"
  },
  "125.py": {
    "successful": false,
    "error_type": "AssertionError"
  },
  "127.py": {
    "successful": true
  },
  "128.py": {
    "successful": false,
    "error_type": "AssertionError"
  },
  "133.py": {
    "successful": true
  },
  "134.py": {
    "successful": false,
    "error_type": "AssertionError"
  },
  "139.py": {
    "successful": false,
    "error_type": "AssertionError"
  },
  "144.py": {
    "successful": false,
    "error_type": "AssertionError"
  },
  "145.py": {
    "successful": false,
    "error_type": "AssertionError"
  },
  "148.py": {
    "successful": false,
    "error_type": "AssertionError"
  },
  "150.py": {
    "successful": true
  },
  "151.py": {
    "successful": false,
    "error_type": "AssertionError"
  },
  "152.py": {
    "successful": true
  },
  "153.py": {
    "successful": false,
    "error_type": "AssertionError"
  },
  "154.py": {
    "successful": false,
    "error_type": "AssertionError"
  },
  "157.py": {
    "successful": false,
    "error_type": "AssertionError"
  },
  "158.py": {
    "successful": true
  },
  "160.py": {
    "successful": false,
    "error_type": "AssertionError"
  },
  "163.py": {
    "successful": false,
    "error_type": "AssertionError"
  },
  "166.py": {
    "successful": true
  },
  "168.py": {
    "successful": false,
    "error_type": "AssertionError"
  },
  "169.py": {
    "successful": false,
    "error_type": "AssertionError"
  },
  "172.py": {
    "successful": false,
    "error_type": "AssertionError"
  },
  "173.py": {
    "successful": false,
    "error_type": "AssertionError"
  },
  "175.py": {
    "successful": false,
    "error_type": "AssertionError"
  },
  "176.py": {
    "successful": false,
    "error_type": "AssertionError"
  },
  "177.py": {
    "successful": true
  },
  "179.py": {
    "successful": false,
    "error_type": "AssertionError"
  },
  "181.py": {
    "successful": false,
    "error_type": "AssertionError"
  },
  "183.py": {
    "successful": false,
    "error_type": "AssertionError"
  },
  "184.py": {
    "successful": false,
    "error_type": "AssertionError"
  },
  "185.py": {
    "successful": false,
    "error_type": "AssertionError"
  },
  "186.py": {
    "successful": true
  },
  "190.py": {
    "successful": false,
    "error_type": "AssertionError"
  },
  "191.py": {
    "successful": true
  },
  "194.py": {
    "successful": false,
    "error_type": "AssertionError"
  },
  "195.py": {
    "successful": true
  },
  "197.py": {
    "successful": false,
    "error_type": "AssertionError"
  },
  "199.py": {
    "successful": false,
    "error_type": "AssertionError"
  }
}