{
  "test_complete": true,
  "0.py": {
    "successful": false,
    "error_type": "TypeError",
    "error_message": "can only concatenate str (not \"int\") to str"
  },
  "1.py": {
    "successful": false,
    "error_type": "TypeError",
    "error_message": "ord() expected a character, but string of length 3 found"
  },
  "2.py": {
    "successful": false,
    "error_type": "IndexError",
    "error_message": "list index out of range"
  },
  "8.py": {
    "successful": false,
    "error_type": "AssertionError"
  },
  "9.py": {
    "successful": false,
    "error_type": "NameError",
    "error_message": "name 'operator' is not defined"
  },
  "10.py": {
    "successful": false,
    "error_type": "NameError",
    "error_message": "name 'defaultdict' is not defined"
  },
  "11.py": {
    "successful": false,
    "error_type": "AssertionError"
  },
  "13.py": {
    "successful": false,
    "error_type": "NameError",
    "error_message": "name 'operator' is not defined"
  },
  "14.py": {
    "successful": false,
    "error_type": "AssertionError"
  },
  "15.py": {
    "successful": false,
    "error_type": "ValueError",
    "error_message": "'tEN' is not in list"
  },
  "17.py": {
    "successful": false,
    "error_type": "AssertionError"
  },
  "18.py": {
    "successful": false,
    "error_type": "TypeError",
    "error_message": "count() takes at least 1 argument (0 given)"
  },
  "19.py": {
    "successful": false,
    "error_type": "TypeError",
    "error_message": "'int' object is not iterable"
  },
  "21.py": {
    "successful": false,
    "error_type": "SyntaxError",
    "error_message": "'(' was never closed"
  },
  "23.py": {
    "successful": false,
    "error_type": "SyntaxError",
    "error_message": "'(' was never closed"
  },
  "24.py": {
    "successful": false,
    "error_type": "AssertionError"
  },
  "25.py": {
    "successful": false,
    "error_type": "AssertionError"
  },
  "26.py": {
    "successful": false,
    "error_type": "AssertionError"
  },
  "28.py": {
    "successful": false,
    "error_type": "NameError",
    "error_message": "name 'defaultdict' is not defined"
  },
  "29.py": {
    "successful": false,
    "error_type": "TypeError",
    "error_message": "can only concatenate str (not \"int\") to str"
  },
  "30.py": {
    "successful": false,
    "error_type": "AssertionError"
  },
  "31.py": {
    "successful": false,
    "error_type": "NameError",
    "error_message": "name 'extension_' is not defined. Did you mean"
  },
  "32.py": {
    "successful": false,
    "error_type": "AssertionError"
  },
  "33.py": {
    "successful": false,
    "error_type": "NameError",
    "error_message": "name 'extensions_' is not defined. Did you mean"
  },
  "40.py": {
    "successful": false,
    "error_type": "AssertionError"
  },
  "41.py": {
    "successful": false,
    "error_type": "AssertionError"
  },
  "42.py": {
    "successful": false,
    "error_type": "SyntaxError",
    "error_message": "unterminated string literal (detected at line 2)"
  },
  "43.py": {
    "successful": false,
    "error_type": "AttributeError",
    "error_message": "'dict' object has no attribute 'iteritems'"
  },
  "44.py": {
    "successful": false,
    "error_type": "SyntaxError",
    "error_message": "'(' was never closed"
  },
  "45.py": {
    "successful": false,
    "error_type": "IndentationError",
    "error_message": "expected an indented block after 'for' statement on line 48"
  },
  "46.py": {
    "successful": false,
    "error_type": "AssertionError"
  },
  "48.py": {
    "successful": false,
    "error_type": "NameError",
    "error_message": "name 'np' is not defined"
  },
  "49.py": {
    "successful": false,
    "error_type": "NameError",
    "error_message": "name 'Counter' is not defined"
  },
  "51.py": {
    "successful": false,
    "error_type": "AssertionError"
  },
  "52.py": {
    "successful": false,
    "error_type": "AssertionError"
  },
  "53.py": {
    "successful": false,
    "error_type": "SyntaxError",
    "error_message": "unterminated string literal (detected at line 4)"
  },
  "55.py": {
    "successful": false,
    "error_type": "NameError",
    "error_message": "name 'np' is not defined"
  },
  "56.py": {
    "successful": false,
    "error_type": "AssertionError"
  },
  "59.py": {
    "successful": false,
    "error_type": "NameError",
    "error_message": "name 'collections' is not defined"
  },
  "63.py": {
    "successful": false,
    "error_type": "IndexError",
    "error_message": "list index out of range"
  },
  "64.py": {
    "successful": false,
    "error_type": "AssertionError"
  },
  "66.py": {
    "successful": false,
    "error_type": "AssertionError"
  },
  "67.py": {
    "successful": false,
    "error_type": "AssertionError"
  },
  "68.py": {
    "successful": false,
    "error_type": "NameError",
    "error_message": "name 'defaultdict' is not defined"
  },
  "69.py": {
    "successful": false,
    "error_type": "NameError",
    "error_message": "name 'defaultdict' is not defined"
  },
  "70.py": {
    "successful": false,
    "error_type": "TypeError",
    "error_message": "'>' not supported between instances of 'str' and 'int'"
  },
  "73.py": {
    "successful": false,
    "error_type": "TypeError",
    "error_message": "count() takes at least 1 argument (0 given)"
  },
  "75.py": {
    "successful": false,
    "error_type": "TypeError",
    "error_message": "can only concatenate str (not \"int\") to str"
  },
  "76.py": {
    "successful": false,
    "error_type": "AssertionError"
  },
  "78.py": {
    "successful": false,
    "error_type": "SyntaxError",
    "error_message": "unterminated string literal (detected at line 40)"
  },
  "80.py": {
    "successful": false,
    "error_type": "SyntaxError",
    "error_message": "'(' was never closed"
  },
  "82.py": {
    "successful": false,
    "error_type": "AssertionError"
  },
  "86.py": {
    "successful": false,
    "error_type": "AssertionError"
  },
  "89.py": {
    "successful": false,
    "error_type": "AssertionError"
  },
  "90.py": {
    "successful": false,
    "error_type": "TypeError",
    "error_message": "ord() expected a character, but string of length 3 found"
  },
  "93.py": {
    "successful": false,
    "error_type": "TypeError",
    "error_message": "can only concatenate str (not \"int\") to str"
  },
  "95.py": {
    "successful": false,
    "error_type": "AssertionError"
  },
  "100.py": {
    "successful": false,
    "error_type": "TypeError",
    "error_message": "can only concatenate str (not \"int\") to str"
  },
  "101.py": {
    "successful": false,
    "error_type": "KeyError",
    "error_message": "3"
  },
  "104.py": {
    "successful": false,
    "error_type": "SyntaxError",
    "error_message": "Lambda expression parameters cannot be parenthesized"
  },
  "105.py": {
    "successful": false,
    "error_type": "NameError",
    "error_message": "name 'uppercase_letter' is not defined"
  },
  "106.py": {
    "successful": false,
    "error_type": "SyntaxError",
    "error_message": "'[' was never closed"
  },
  "107.py": {
    "successful": false,
    "error_type": "IndexError",
    "error_message": "list index out of range"
  },
  "110.py": {
    "successful": false,
    "error_type": "NameError",
    "error_message": "name 'count_upper' is not defined"
  },
  "112.py": {
    "successful": false,
    "error_type": "AssertionError"
  },
  "114.py": {
    "successful": false,
    "error_type": "AttributeError",
    "error_message": "'dict' object has no attribute 'iteritems'"
  },
  "115.py": {
    "successful": false,
    "error_type": "SyntaxError",
    "error_message": "unterminated string literal (detected at line 5)"
  },
  "120.py": {
    "successful": false,
    "error_type": "SyntaxError",
    "error_message": "'(' was never closed"
  },
  "125.py": {
    "successful": false,
    "error_type": "TypeError",
    "error_message": "ord() expected a character, but string of length 3 found"
  },
  "126.py": {
    "successful": false,
    "error_type": "TypeError",
    "error_message": "ord() expected a character, but string of length 3 found"
  },
  "131.py": {
    "successful": false,
    "error_type": "NameError",
    "error_message": "name 'extension_name' is not defined"
  },
  "132.py": {
    "successful": false,
    "error_type": "TypeError",
    "error_message": "ord() expected a character, but string of length 3 found"
  },
  "133.py": {
    "successful": false,
    "error_type": "SyntaxError",
    "error_message": "'(' was never closed"
  },
  "141.py": {
    "successful": false,
    "error_type": "AttributeError",
    "error_message": "'int' object has no attribute 'count'"
  },
  "146.py": {
    "successful": false,
    "error_type": "TypeError",
    "error_message": "can only concatenate str (not \"int\") to str"
  },
  "148.py": {
    "successful": false,
    "error_type": "AssertionError"
  },
  "149.py": {
    "successful": false,
    "error_type": "NameError",
    "error_message": "name 'operator' is not defined"
  },
  "151.py": {
    "successful": false,
    "error_type": "TypeError",
    "error_message": "ord() expected a character, but string of length 3 found"
  },
  "152.py": {
    "successful": false,
    "error_type": "TypeError",
    "error_message": "count() takes at least 1 argument (0 given)"
  },
  "153.py": {
    "successful": false,
    "error_type": "NameError",
    "error_message": "name 'count_upper' is not defined"
  },
  "155.py": {
    "successful": false,
    "error_type": "AssertionError"
  },
  "157.py": {
    "successful": false,
    "error_type": "AssertionError"
  },
  "158.py": {
    "successful": false,
    "error_type": "AssertionError"
  },
  "159.py": {
    "successful": false,
    "error_type": "TypeError",
    "error_message": "ord() expected a character, but string of length 3 found"
  },
  "161.py": {
    "successful": false,
    "error_type": "NameError",
    "error_message": "name 'count_uppercase_letters' is not defined"
  },
  "163.py": {
    "successful": false,
    "error_type": "NameError",
    "error_message": "name 'count_extension_chars' is not defined"
  },
  "164.py": {
    "successful": false,
    "error_type": "AssertionError"
  },
  "165.py": {
    "successful": false,
    "error_type": "SyntaxError",
    "error_message": "unterminated string literal (detected at line 2)"
  },
  "168.py": {
    "successful": false,
    "error_type": "AssertionError"
  },
  "169.py": {
    "successful": false,
    "error_type": "AssertionError"
  },
  "170.py": {
    "successful": false,
    "error_type": "AssertionError"
  },
  "172.py": {
    "successful": false,
    "error_type": "AssertionError"
  },
  "174.py": {
    "successful": false,
    "error_type": "SyntaxError",
    "error_message": "unterminated string literal (detected at line 4)"
  },
  "175.py": {
    "successful": false,
    "error_type": "AssertionError"
  },
  "177.py": {
    "successful": false,
    "error_type": "NameError",
    "error_message": "name 'defaultdict' is not defined"
  },
  "179.py": {
    "successful": false,
    "error_type": "AssertionError"
  },
  "182.py": {
    "successful": false,
    "error_type": "AssertionError"
  },
  "185.py": {
    "successful": false,
    "error_type": "SyntaxError",
    "error_message": "unterminated string literal (detected at line 4)"
  },
  "186.py": {
    "successful": false,
    "error_type": "AssertionError"
  },
  "188.py": {
    "successful": false,
    "error_type": "AssertionError"
  },
  "190.py": {
    "successful": false,
    "error_type": "SyntaxError",
    "error_message": "'[' was never closed"
  },
  "192.py": {
    "successful": false,
    "error_type": "AssertionError"
  },
  "193.py": {
    "successful": false,
    "error_type": "TypeError",
    "error_message": "can only concatenate str (not \"int\") to str"
  },
  "195.py": {
    "successful": false,
    "error_type": "AssertionError"
  },
  "196.py": {
    "successful": false,
    "error_type": "TypeError",
    "error_message": "ord() expected a character, but string of length 3 found"
  },
  "197.py": {
    "successful": false,
    "error_type": "SyntaxError",
    "error_message": "invalid syntax"
  }
}