{
  "test_complete": true,
  "48.py": {
    "successful": true
  },
  "53.py": {
    "successful": true
  },
  "62.py": {
    "successful": true
  },
  "63.py": {
    "successful": true
  },
  "69.py": {
    "successful": true
  },
  "96.py": {
    "successful": true
  },
  "98.py": {
    "successful": true
  },
  "127.py": {
    "successful": true
  },
  "140.py": {
    "successful": true
  },
  "149.py": {
    "successful": true
  },
  "154.py": {
    "successful": true
  },
  "175.py": {
    "successful": true
  },
  "185.py": {
    "successful": true
  }
}