{
  "test_complete": true,
  "0.py": {
    "successful": false,
    "error_type": "IndentationError",
    "error_message": "expected an indented block after function definition on line 2"
  },
  "5.py": {
    "successful": true
  },
  "6.py": {
    "successful": false,
    "error_type": "AssertionError"
  },
  "9.py": {
    "successful": false,
    "error_type": "AssertionError"
  },
  "11.py": {
    "successful": true
  },
  "12.py": {
    "successful": true
  },
  "22.py": {
    "successful": true
  },
  "27.py": {
    "successful": true
  },
  "39.py": {
    "successful": true
  },
  "44.py": {
    "successful": true
  },
  "47.py": {
    "successful": true
  },
  "50.py": {
    "successful": true
  },
  "53.py": {
    "successful": true
  },
  "55.py": {
    "successful": true
  },
  "58.py": {
    "successful": true
  },
  "60.py": {
    "successful": true
  },
  "61.py": {
    "successful": false,
    "error_type": "AssertionError"
  },
  "62.py": {
    "successful": true
  },
  "79.py": {
    "successful": true
  },
  "87.py": {
    "successful": true
  },
  "90.py": {
    "successful": true
  },
  "93.py": {
    "successful": true
  },
  "102.py": {
    "successful": true
  },
  "106.py": {
    "successful": true
  },
  "111.py": {
    "successful": false,
    "error_type": "AssertionError"
  },
  "136.py": {
    "successful": true
  },
  "147.py": {
    "successful": true
  },
  "152.py": {
    "successful": true
  },
  "165.py": {
    "successful": true
  },
  "178.py": {
    "successful": true
  },
  "184.py": {
    "successful": true
  },
  "192.py": {
    "successful": true
  },
  "193.py": {
    "successful": true
  },
  "196.py": {
    "successful": true
  },
  "197.py": {
    "successful": true
  }
}