{
  "test_complete": true,
  "0.py": {
    "successful": false,
    "error_type": "AssertionError"
  },
  "4.py": {
    "successful": false,
    "error_type": "AssertionError"
  },
  "5.py": {
    "successful": true
  },
  "7.py": {
    "successful": false,
    "error_type": "AssertionError"
  },
  "8.py": {
    "successful": false,
    "error_type": "TypeError",
    "error_message": "unsupported operand type(s) for ^"
  },
  "9.py": {
    "successful": false,
    "error_type": "AssertionError"
  },
  "10.py": {
    "successful": true
  },
  "12.py": {
    "successful": true
  },
  "14.py": {
    "successful": true
  },
  "15.py": {
    "successful": true
  },
  "17.py": {
    "successful": false,
    "error_type": "AssertionError"
  },
  "18.py": {
    "successful": false,
    "error_type": "AssertionError"
  },
  "19.py": {
    "successful": true
  },
  "22.py": {
    "successful": false,
    "error_type": "TypeError",
    "error_message": "unsupported operand type(s) for ^"
  },
  "23.py": {
    "successful": true
  },
  "25.py": {
    "successful": true
  },
  "26.py": {
    "successful": false,
    "error_type": "AssertionError"
  },
  "27.py": {
    "successful": false,
    "error_type": "AssertionError"
  },
  "28.py": {
    "successful": false,
    "error_type": "TypeError",
    "error_message": "unsupported operand type(s) for ^"
  },
  "29.py": {
    "successful": true
  },
  "30.py": {
    "successful": true
  },
  "32.py": {
    "successful": false,
    "error_type": "AssertionError"
  },
  "33.py": {
    "successful": true
  },
  "34.py": {
    "successful": true
  },
  "36.py": {
    "successful": false,
    "error_type": "AssertionError"
  },
  "39.py": {
    "successful": false,
    "error_type": "AssertionError"
  },
  "41.py": {
    "successful": false,
    "error_type": "TypeError",
    "error_message": "string indices must be integers, not 'str'"
  },
  "44.py": {
    "successful": false,
    "error_type": "AssertionError"
  },
  "45.py": {
    "successful": false,
    "error_type": "TypeError",
    "error_message": "unsupported operand type(s) for ^"
  },
  "48.py": {
    "successful": false,
    "error_type": "AssertionError"
  },
  "50.py": {
    "successful": true
  },
  "51.py": {
    "successful": false,
    "error_type": "AssertionError"
  },
  "52.py": {
    "successful": true
  },
  "53.py": {
    "successful": false,
    "error_type": "AssertionError"
  },
  "54.py": {
    "successful": false,
    "error_type": "AssertionError"
  },
  "57.py": {
    "successful": true
  },
  "59.py": {
    "successful": false,
    "error_type": "AssertionError"
  },
  "61.py": {
    "successful": false,
    "error_type": "AssertionError"
  },
  "62.py": {
    "successful": true
  },
  "63.py": {
    "successful": false,
    "error_type": "AssertionError"
  },
  "64.py": {
    "successful": false,
    "error_type": "AssertionError"
  },
  "65.py": {
    "successful": false,
    "error_type": "AssertionError"
  },
  "66.py": {
    "successful": true
  },
  "68.py": {
    "successful": false,
    "error_type": "AssertionError"
  },
  "69.py": {
    "successful": false,
    "error_type": "AssertionError"
  },
  "74.py": {
    "successful": false,
    "error_type": "TypeError",
    "error_message": "unsupported operand type(s) for ^"
  },
  "75.py": {
    "successful": false,
    "error_type": "AssertionError"
  },
  "76.py": {
    "successful": false,
    "error_type": "AssertionError"
  },
  "77.py": {
    "successful": false,
    "error_type": "AssertionError"
  },
  "79.py": {
    "successful": false,
    "error_type": "AssertionError"
  },
  "80.py": {
    "successful": false,
    "error_type": "AssertionError"
  },
  "81.py": {
    "successful": true
  },
  "82.py": {
    "successful": true
  },
  "83.py": {
    "successful": false,
    "error_type": "AssertionError"
  },
  "84.py": {
    "successful": false,
    "error_type": "AssertionError"
  },
  "85.py": {
    "successful": false,
    "error_type": "TypeError",
    "error_message": "unsupported operand type(s) for ^"
  },
  "86.py": {
    "successful": false,
    "error_type": "TypeError",
    "error_message": "unsupported operand type(s) for ^"
  },
  "87.py": {
    "successful": false,
    "error_type": "ValueError",
    "error_message": "invalid literal for int() with base 10"
  },
  "88.py": {
    "successful": false,
    "error_type": "AssertionError"
  },
  "92.py": {
    "successful": true
  },
  "93.py": {
    "successful": false,
    "error_type": "AssertionError"
  },
  "94.py": {
    "successful": true
  },
  "95.py": {
    "successful": false,
    "error_type": "AssertionError"
  },
  "97.py": {
    "successful": true
  },
  "98.py": {
    "successful": false,
    "error_type": "AssertionError"
  },
  "99.py": {
    "successful": false,
    "error_type": "TypeError",
    "error_message": "unsupported operand type(s) for +"
  },
  "101.py": {
    "successful": true
  },
  "102.py": {
    "successful": false,
    "error_type": "AssertionError"
  },
  "104.py": {
    "successful": false,
    "error_type": "AssertionError"
  },
  "106.py": {
    "successful": false,
    "error_type": "AssertionError"
  },
  "108.py": {
    "successful": false,
    "error_type": "AssertionError"
  },
  "110.py": {
    "successful": false,
    "error_type": "AssertionError"
  },
  "112.py": {
    "successful": false,
    "error_type": "TypeError",
    "error_message": "ord() expected a character, but string of length 6 found"
  },
  "114.py": {
    "successful": false,
    "error_type": "TypeError",
    "error_message": "unsupported operand type(s) for ^"
  },
  "115.py": {
    "successful": true
  },
  "116.py": {
    "successful": true
  },
  "119.py": {
    "successful": false,
    "error_type": "AssertionError"
  },
  "122.py": {
    "successful": true
  },
  "124.py": {
    "successful": true
  },
  "127.py": {
    "successful": true
  },
  "130.py": {
    "successful": false,
    "error_type": "TypeError",
    "error_message": "unsupported operand type(s) for ^"
  },
  "131.py": {
    "successful": true
  },
  "134.py": {
    "successful": true
  },
  "139.py": {
    "successful": false,
    "error_type": "AssertionError"
  },
  "141.py": {
    "successful": false,
    "error_type": "AssertionError"
  },
  "142.py": {
    "successful": true
  },
  "144.py": {
    "successful": false,
    "error_type": "AssertionError"
  },
  "146.py": {
    "successful": false,
    "error_type": "TypeError",
    "error_message": "ord() expected a character, but string of length 6 found"
  },
  "147.py": {
    "successful": false,
    "error_type": "AssertionError"
  },
  "149.py": {
    "successful": true
  },
  "150.py": {
    "successful": true
  },
  "152.py": {
    "successful": true
  },
  "153.py": {
    "successful": false,
    "error_type": "TypeError",
    "error_message": "string_xor.<locals>.<lambda>() takes from 1 to 3 positional arguments but 4 were given"
  },
  "157.py": {
    "successful": true
  },
  "158.py": {
    "successful": false,
    "error_type": "TypeError",
    "error_message": "unsupported operand type(s) for ^"
  },
  "159.py": {
    "successful": false,
    "error_type": "TypeError",
    "error_message": "unsupported operand type(s) for ^"
  },
  "160.py": {
    "successful": true
  },
  "161.py": {
    "successful": false,
    "error_type": "AssertionError"
  },
  "165.py": {
    "successful": true
  },
  "167.py": {
    "successful": false,
    "error_type": "AssertionError"
  },
  "170.py": {
    "successful": true
  },
  "172.py": {
    "successful": false,
    "error_type": "AssertionError"
  },
  "175.py": {
    "successful": false,
    "error_type": "AssertionError"
  },
  "176.py": {
    "successful": false,
    "error_type": "AssertionError"
  },
  "177.py": {
    "successful": true
  },
  "180.py": {
    "successful": false,
    "error_type": "AssertionError"
  },
  "182.py": {
    "successful": false,
    "error_type": "TypeError",
    "error_message": "unsupported operand type(s) for ^"
  },
  "183.py": {
    "successful": true
  },
  "184.py": {
    "successful": false,
    "error_type": "AssertionError"
  },
  "185.py": {
    "successful": false,
    "error_type": "AssertionError"
  },
  "188.py": {
    "successful": false,
    "error_type": "AssertionError"
  },
  "189.py": {
    "successful": false,
    "error_type": "AssertionError"
  },
  "190.py": {
    "successful": false,
    "error_type": "AssertionError"
  },
  "191.py": {
    "successful": false,
    "error_type": "TypeError",
    "error_message": "unsupported operand type(s) for ^"
  },
  "194.py": {
    "successful": false,
    "error_type": "TypeError",
    "error_message": "unsupported operand type(s) for ^"
  },
  "198.py": {
    "successful": false,
    "error_type": "AssertionError"
  }
}