{
  "test_complete": true,
  "3.py": {
    "successful": true
  },
  "19.py": {
    "successful": true
  },
  "25.py": {
    "successful": true
  },
  "42.py": {
    "successful": true
  },
  "47.py": {
    "successful": true
  },
  "49.py": {
    "successful": false,
    "error_type": "IndentationError",
    "error_message": "expected an indented block after function definition on line 1"
  },
  "58.py": {
    "successful": true
  },
  "67.py": {
    "successful": false,
    "error_type": "AssertionError"
  },
  "69.py": {
    "successful": true
  },
  "77.py": {
    "successful": true
  },
  "84.py": {
    "successful": true
  },
  "113.py": {
    "successful": true
  },
  "121.py": {
    "successful": true
  },
  "122.py": {
    "successful": false,
    "error_type": "IndentationError",
    "error_message": "expected an indented block after function definition on line 1"
  },
  "130.py": {
    "successful": true
  },
  "135.py": {
    "successful": true
  },
  "144.py": {
    "successful": true
  },
  "146.py": {
    "successful": true
  },
  "172.py": {
    "successful": false,
    "error_type": "AssertionError"
  }
}