{
  "test_complete": true,
  "1.py": {
    "successful": false,
    "error_type": "TypeError",
    "error_message": "type complex doesn't define __round__ method"
  },
  "2.py": {
    "successful": true
  },
  "4.py": {
    "successful": false,
    "error_type": "ValueError",
    "error_message": "math domain error"
  },
  "6.py": {
    "successful": false,
    "error_type": "TypeError",
    "error_message": "type complex doesn't define __round__ method"
  },
  "7.py": {
    "successful": false,
    "error_type": "TypeError",
    "error_message": "type complex doesn't define __round__ method"
  },
  "11.py": {
    "successful": false,
    "error_type": "TypeError",
    "error_message": "type complex doesn't define __round__ method"
  },
  "12.py": {
    "successful": false,
    "error_type": "TypeError",
    "error_message": "type complex doesn't define __round__ method"
  },
  "23.py": {
    "successful": false,
    "error_type": "TypeError",
    "error_message": "type complex doesn't define __round__ method"
  },
  "25.py": {
    "successful": false,
    "error_type": "AssertionError"
  },
  "26.py": {
    "successful": false,
    "error_type": "TypeError",
    "error_message": "type complex doesn't define __round__ method"
  },
  "29.py": {
    "successful": false,
    "error_type": "ValueError",
    "error_message": "math domain error"
  },
  "31.py": {
    "successful": false,
    "error_type": "TypeError",
    "error_message": "type complex doesn't define __round__ method"
  },
  "32.py": {
    "successful": true
  },
  "33.py": {
    "successful": true
  },
  "35.py": {
    "successful": false,
    "error_type": "TypeError",
    "error_message": "type complex doesn't define __round__ method"
  },
  "37.py": {
    "successful": false,
    "error_type": "TypeError",
    "error_message": "type complex doesn't define __round__ method"
  },
  "38.py": {
    "successful": false,
    "error_type": "ValueError",
    "error_message": "math domain error"
  },
  "39.py": {
    "successful": true
  },
  "40.py": {
    "successful": false,
    "error_type": "TypeError",
    "error_message": "type complex doesn't define __round__ method"
  },
  "45.py": {
    "successful": false,
    "error_type": "TypeError",
    "error_message": "type complex doesn't define __round__ method"
  },
  "49.py": {
    "successful": false,
    "error_type": "TypeError",
    "error_message": "type complex doesn't define __round__ method"
  },
  "50.py": {
    "successful": true
  },
  "51.py": {
    "successful": false,
    "error_type": "TypeError",
    "error_message": "type complex doesn't define __round__ method"
  },
  "54.py": {
    "successful": true
  },
  "57.py": {
    "successful": true
  },
  "59.py": {
    "successful": false,
    "error_type": "TypeError",
    "error_message": "type complex doesn't define __round__ method"
  },
  "62.py": {
    "successful": false,
    "error_type": "TypeError",
    "error_message": "type complex doesn't define __round__ method"
  },
  "66.py": {
    "successful": false,
    "error_type": "TypeError",
    "error_message": "type complex doesn't define __round__ method"
  },
  "67.py": {
    "successful": false,
    "error_type": "ValueError",
    "error_message": "math domain error"
  },
  "74.py": {
    "successful": false,
    "error_type": "TypeError",
    "error_message": "type complex doesn't define __round__ method"
  },
  "75.py": {
    "successful": false,
    "error_type": "TypeError",
    "error_message": "type complex doesn't define __round__ method"
  },
  "76.py": {
    "successful": false,
    "error_type": "AssertionError"
  },
  "82.py": {
    "successful": false,
    "error_type": "TypeError",
    "error_message": "type complex doesn't define __round__ method"
  },
  "85.py": {
    "successful": false,
    "error_type": "ValueError",
    "error_message": "math domain error"
  },
  "87.py": {
    "successful": false,
    "error_type": "TypeError",
    "error_message": "type complex doesn't define __round__ method"
  },
  "90.py": {
    "successful": true
  },
  "92.py": {
    "successful": false,
    "error_type": "AssertionError"
  },
  "100.py": {
    "successful": true
  },
  "107.py": {
    "successful": false,
    "error_type": "TypeError",
    "error_message": "type complex doesn't define __round__ method"
  },
  "109.py": {
    "successful": true
  },
  "112.py": {
    "successful": false,
    "error_type": "TypeError",
    "error_message": "type complex doesn't define __round__ method"
  },
  "115.py": {
    "successful": false,
    "error_type": "TypeError",
    "error_message": "type complex doesn't define __round__ method"
  },
  "118.py": {
    "successful": true
  },
  "120.py": {
    "successful": false,
    "error_type": "TypeError",
    "error_message": "type complex doesn't define __round__ method"
  },
  "123.py": {
    "successful": true
  },
  "126.py": {
    "successful": false,
    "error_type": "TypeError",
    "error_message": "type complex doesn't define __round__ method"
  },
  "127.py": {
    "successful": false,
    "error_type": "TypeError",
    "error_message": "type complex doesn't define __round__ method"
  },
  "130.py": {
    "successful": false,
    "error_type": "ValueError",
    "error_message": "math domain error"
  },
  "131.py": {
    "successful": false,
    "error_type": "ValueError",
    "error_message": "math domain error"
  },
  "132.py": {
    "successful": false,
    "error_type": "ValueError",
    "error_message": "math domain error"
  },
  "134.py": {
    "successful": false,
    "error_type": "TypeError",
    "error_message": "type complex doesn't define __round__ method"
  },
  "136.py": {
    "successful": true
  },
  "141.py": {
    "successful": false,
    "error_type": "TypeError",
    "error_message": "type complex doesn't define __round__ method"
  },
  "144.py": {
    "successful": true
  },
  "145.py": {
    "successful": false,
    "error_type": "TypeError",
    "error_message": "type complex doesn't define __round__ method"
  },
  "147.py": {
    "successful": true
  },
  "154.py": {
    "successful": false,
    "error_type": "TypeError",
    "error_message": "type complex doesn't define __round__ method"
  },
  "159.py": {
    "successful": true
  },
  "160.py": {
    "successful": false,
    "error_type": "TypeError",
    "error_message": "type complex doesn't define __round__ method"
  },
  "162.py": {
    "successful": false,
    "error_type": "TypeError",
    "error_message": "type complex doesn't define __round__ method"
  },
  "166.py": {
    "successful": false,
    "error_type": "TypeError",
    "error_message": "type complex doesn't define __round__ method"
  },
  "167.py": {
    "successful": true
  },
  "168.py": {
    "successful": false,
    "error_type": "TypeError",
    "error_message": "type complex doesn't define __round__ method"
  },
  "172.py": {
    "successful": false,
    "error_type": "TypeError",
    "error_message": "int() argument must be a string, a bytes-like object or a real number, not 'complex'"
  },
  "174.py": {
    "successful": false,
    "error_type": "TypeError",
    "error_message": "type complex doesn't define __round__ method"
  },
  "175.py": {
    "successful": true
  },
  "177.py": {
    "successful": true
  },
  "179.py": {
    "successful": false,
    "error_type": "TypeError",
    "error_message": "type complex doesn't define __round__ method"
  },
  "181.py": {
    "successful": false,
    "error_type": "TypeError",
    "error_message": "type complex doesn't define __round__ method"
  },
  "187.py": {
    "successful": false,
    "error_type": "TypeError",
    "error_message": "type complex doesn't define __round__ method"
  },
  "189.py": {
    "successful": false,
    "error_type": "TypeError",
    "error_message": "type complex doesn't define __round__ method"
  },
  "191.py": {
    "successful": false,
    "error_type": "TypeError",
    "error_message": "type complex doesn't define __round__ method"
  },
  "195.py": {
    "successful": false,
    "error_type": "IndentationError",
    "error_message": "expected an indented block after function definition on line 1"
  },
  "196.py": {
    "successful": true
  },
  "197.py": {
    "successful": false,
    "error_type": "TypeError",
    "error_message": "type complex doesn't define __round__ method"
  }
}