{
  "test_complete": true,
  "11.py": {
    "successful": true
  },
  "24.py": {
    "successful": true
  },
  "46.py": {
    "successful": true
  },
  "64.py": {
    "successful": true
  },
  "81.py": {
    "successful": true
  },
  "82.py": {
    "successful": true
  },
  "91.py": {
    "successful": true
  },
  "95.py": {
    "successful": true
  },
  "107.py": {
    "successful": true
  },
  "147.py": {
    "successful": true
  },
  "148.py": {
    "successful": true
  },
  "166.py": {
    "successful": true
  },
  "171.py": {
    "successful": true
  },
  "187.py": {
    "successful": true
  },
  "199.py": {
    "successful": true
  }
}