{
  "test_complete": true,
  "3.py": {
    "successful": true
  },
  "4.py": {
    "successful": true
  },
  "12.py": {
    "successful": true
  },
  "34.py": {
    "successful": true
  },
  "37.py": {
    "successful": true
  },
  "38.py": {
    "successful": true
  },
  "39.py": {
    "successful": true
  },
  "40.py": {
    "successful": true
  },
  "41.py": {
    "successful": true
  },
  "43.py": {
    "successful": true
  },
  "62.py": {
    "successful": true
  },
  "64.py": {
    "successful": true
  },
  "66.py": {
    "successful": false,
    "error_type": "AssertionError"
  },
  "67.py": {
    "successful": true
  },
  "69.py": {
    "successful": false,
    "error_type": "AssertionError"
  },
  "76.py": {
    "successful": true
  },
  "77.py": {
    "successful": true
  },
  "82.py": {
    "successful": true
  },
  "83.py": {
    "successful": true
  },
  "88.py": {
    "successful": true
  },
  "89.py": {
    "successful": true
  },
  "94.py": {
    "successful": true
  },
  "99.py": {
    "successful": false,
    "error_type": "AssertionError"
  },
  "102.py": {
    "successful": true
  },
  "103.py": {
    "successful": true
  },
  "105.py": {
    "successful": true
  },
  "107.py": {
    "successful": true
  },
  "108.py": {
    "successful": false,
    "error_type": "AssertionError"
  },
  "112.py": {
    "successful": true
  },
  "120.py": {
    "successful": true
  },
  "124.py": {
    "successful": false,
    "error_type": "AssertionError"
  },
  "125.py": {
    "successful": false,
    "error_type": "AssertionError"
  },
  "127.py": {
    "successful": true
  },
  "128.py": {
    "successful": true
  },
  "129.py": {
    "successful": true
  },
  "132.py": {
    "successful": true
  },
  "134.py": {
    "successful": true
  },
  "137.py": {
    "successful": true
  },
  "145.py": {
    "successful": false,
    "error_type": "AssertionError"
  },
  "146.py": {
    "successful": true
  },
  "155.py": {
    "successful": true
  },
  "157.py": {
    "successful": true
  },
  "164.py": {
    "successful": true
  },
  "179.py": {
    "successful": true
  },
  "184.py": {
    "successful": true
  },
  "190.py": {
    "successful": true
  },
  "199.py": {
    "successful": true
  }
}