{
  "test_complete": true,
  "0.py": {
    "successful": false,
    "error_type": "AssertionError"
  },
  "1.py": {
    "successful": false,
    "error_type": "TypeError",
    "error_message": "unsupported operand type(s) for +="
  },
  "3.py": {
    "successful": false,
    "error_type": "TypeError",
    "error_message": "'str' object is not callable"
  },
  "4.py": {
    "successful": false,
    "error_type": "TypeError",
    "error_message": "'str' object is not callable"
  },
  "5.py": {
    "successful": false,
    "error_type": "ValueError",
    "error_message": "Operator and operand lists must have the same length."
  },
  "6.py": {
    "successful": false,
    "error_type": "ValueError",
    "error_message": "Operator and operand lists have different lengths."
  },
  "7.py": {
    "successful": false,
    "error_type": "ValueError",
    "error_message": "The length of operator list is not equal to the length of operand list."
  },
  "8.py": {
    "successful": false,
    "error_type": "AssertionError"
  },
  "9.py": {
    "successful": false,
    "error_type": "AssertionError"
  },
  "10.py": {
    "successful": false,
    "error_type": "TypeError",
    "error_message": "'str' object is not callable"
  },
  "11.py": {
    "successful": false,
    "error_type": "IndexError",
    "error_message": "list index out of range"
  },
  "14.py": {
    "successful": false,
    "error_type": "ValueError",
    "error_message": "Operator and operand lists must have the same length."
  },
  "15.py": {
    "successful": false,
    "error_type": "TypeError",
    "error_message": "'str' object is not callable"
  },
  "16.py": {
    "successful": false,
    "error_type": "AssertionError"
  },
  "18.py": {
    "successful": false,
    "error_type": "AssertionError"
  },
  "20.py": {
    "successful": false,
    "error_type": "ValueError",
    "error_message": "Operator and operand list must have the same length."
  },
  "21.py": {
    "successful": false,
    "error_type": "AssertionError"
  },
  "22.py": {
    "successful": false,
    "error_type": "Exception",
    "error_message": "Operator and operand must have the same length"
  },
  "23.py": {
    "successful": false,
    "error_type": "AssertionError"
  },
  "24.py": {
    "successful": false,
    "error_type": "ValueError",
    "error_message": "Operator list and operand list must have the same length."
  },
  "25.py": {
    "successful": false,
    "error_type": "AssertionError"
  },
  "27.py": {
    "successful": false,
    "error_type": "AssertionError"
  },
  "28.py": {
    "successful": false,
    "error_type": "AssertionError"
  },
  "29.py": {
    "successful": false,
    "error_type": "AssertionError"
  },
  "30.py": {
    "successful": false,
    "error_type": "AssertionError"
  },
  "31.py": {
    "successful": false,
    "error_type": "TypeError",
    "error_message": "'str' object is not callable"
  },
  "32.py": {
    "successful": false,
    "error_type": "ValueError",
    "error_message": "Unknown operator"
  },
  "34.py": {
    "successful": false,
    "error_type": "AssertionError"
  },
  "35.py": {
    "successful": false,
    "error_type": "Exception",
    "error_message": "Operator list and operand list have different length"
  },
  "36.py": {
    "successful": false,
    "error_type": "AssertionError"
  },
  "38.py": {
    "successful": false,
    "error_type": "TypeError",
    "error_message": "'str' object is not callable"
  },
  "40.py": {
    "successful": false,
    "error_type": "TypeError",
    "error_message": "unsupported operand type(s) for +="
  },
  "42.py": {
    "successful": false,
    "error_type": "AssertionError"
  },
  "45.py": {
    "successful": false,
    "error_type": "AssertionError"
  },
  "46.py": {
    "successful": false,
    "error_type": "AssertionError"
  },
  "48.py": {
    "successful": false,
    "error_type": "Exception",
    "error_message": "Operator and operand lists must have the same length."
  },
  "53.py": {
    "successful": false,
    "error_type": "TypeError",
    "error_message": "'str' object is not callable"
  },
  "54.py": {
    "successful": false,
    "error_type": "AssertionError"
  },
  "56.py": {
    "successful": false,
    "error_type": "ValueError",
    "error_message": "Operator and operand must have same length."
  },
  "58.py": {
    "successful": false,
    "error_type": "ValueError",
    "error_message": "Operator and operand lists must have the same length."
  },
  "61.py": {
    "successful": false,
    "error_type": "TypeError",
    "error_message": "'str' object is not callable"
  },
  "62.py": {
    "successful": false,
    "error_type": "AssertionError"
  },
  "64.py": {
    "successful": false,
    "error_type": "AssertionError"
  },
  "67.py": {
    "successful": false,
    "error_type": "ValueError",
    "error_message": "Operator and operand lists must have the same length."
  },
  "68.py": {
    "successful": false,
    "error_type": "TypeError",
    "error_message": "can only concatenate str (not \"int\") to str"
  },
  "79.py": {
    "successful": false,
    "error_type": "TypeError",
    "error_message": "can only concatenate str (not \"int\") to str"
  },
  "80.py": {
    "successful": false,
    "error_type": "ValueError",
    "error_message": "Operator and operand lists must have the same length."
  },
  "82.py": {
    "successful": false,
    "error_type": "ValueError",
    "error_message": "Operator and operand lists must have the same length."
  },
  "90.py": {
    "successful": false,
    "error_type": "ValueError",
    "error_message": "Operator and operand lists must have the same length."
  },
  "97.py": {
    "successful": false,
    "error_type": "Exception",
    "error_message": "Operator list and operand list must have the same length."
  },
  "98.py": {
    "successful": false,
    "error_type": "Exception",
    "error_message": "Operator and operand lists must have the same length."
  },
  "104.py": {
    "successful": false,
    "error_type": "ValueError",
    "error_message": "Operator list and operand list must have the same length."
  },
  "105.py": {
    "successful": false,
    "error_type": "ValueError",
    "error_message": "Operator and operand lists must have the same length."
  },
  "106.py": {
    "successful": false,
    "error_type": "ValueError",
    "error_message": "Operator and operand lists must have the same length."
  },
  "107.py": {
    "successful": false,
    "error_type": "ValueError",
    "error_message": "Operator list and operand list must have the same length."
  },
  "109.py": {
    "successful": false,
    "error_type": "AssertionError"
  },
  "113.py": {
    "successful": false,
    "error_type": "ValueError",
    "error_message": "Operator list and operand list must have same length."
  },
  "114.py": {
    "successful": false,
    "error_type": "TypeError",
    "error_message": "'str' object is not callable"
  },
  "115.py": {
    "successful": false,
    "error_type": "ValueError",
    "error_message": "Operator and operand list must have same length."
  },
  "117.py": {
    "successful": false,
    "error_type": "AssertionError"
  },
  "118.py": {
    "successful": false,
    "error_type": "AssertionError"
  },
  "119.py": {
    "successful": false,
    "error_type": "Exception",
    "error_message": "Operator and operand list must have the same length."
  },
  "120.py": {
    "successful": false,
    "error_type": "AssertionError"
  },
  "123.py": {
    "successful": false,
    "error_type": "TypeError",
    "error_message": "'str' object is not callable"
  },
  "126.py": {
    "successful": false,
    "error_type": "ValueError",
    "error_message": "Operator and operand lists must have the same length."
  },
  "137.py": {
    "successful": false,
    "error_type": "Exception",
    "error_message": "Operator and operand lists must have the same length."
  },
  "140.py": {
    "successful": false,
    "error_type": "TypeError",
    "error_message": "'str' object is not callable"
  },
  "143.py": {
    "successful": false,
    "error_type": "ValueError",
    "error_message": "Operator list and operand list must have the same length."
  },
  "147.py": {
    "successful": false,
    "error_type": "IndexError",
    "error_message": "list index out of range"
  },
  "148.py": {
    "successful": false,
    "error_type": "ValueError",
    "error_message": "Operator list and operand list must have same length."
  },
  "149.py": {
    "successful": false,
    "error_type": "AssertionError"
  },
  "155.py": {
    "successful": false,
    "error_type": "ValueError",
    "error_message": "Operator and operand lists must have the same length."
  },
  "156.py": {
    "successful": false,
    "error_type": "AssertionError"
  },
  "157.py": {
    "successful": false,
    "error_type": "IndexError",
    "error_message": "list index out of range"
  },
  "159.py": {
    "successful": false,
    "error_type": "ValueError",
    "error_message": "Operator and operand list must have the same length"
  },
  "160.py": {
    "successful": false,
    "error_type": "Exception",
    "error_message": "The length of operator list is not equal to the length of operand list."
  },
  "163.py": {
    "successful": false,
    "error_type": "Exception",
    "error_message": "Operator and operand lists must have the same length."
  },
  "164.py": {
    "successful": false,
    "error_type": "AssertionError"
  },
  "170.py": {
    "successful": false,
    "error_type": "ValueError",
    "error_message": "Operator and operand lists must have the same length."
  },
  "176.py": {
    "successful": false,
    "error_type": "Exception",
    "error_message": "Operator list and operand list must have the same length."
  },
  "177.py": {
    "successful": false,
    "error_type": "ValueError",
    "error_message": "Operator and operand lists must have the same length"
  },
  "178.py": {
    "successful": false,
    "error_type": "ValueError",
    "error_message": "Operator list and operand list must have the same length."
  },
  "181.py": {
    "successful": false,
    "error_type": "AssertionError"
  },
  "182.py": {
    "successful": false,
    "error_type": "Exception",
    "error_message": "Invalid operator"
  },
  "187.py": {
    "successful": false,
    "error_type": "ValueError",
    "error_message": "Operator and operand lists must have the same length."
  },
  "189.py": {
    "successful": false,
    "error_type": "AssertionError"
  },
  "192.py": {
    "successful": false,
    "error_type": "Exception",
    "error_message": "Operator and operand lists must have the same length."
  },
  "197.py": {
    "successful": false,
    "error_type": "Exception",
    "error_message": "Operator and operand lists must have the same length."
  }
}