{
  "test_complete": true,
  "0.py": {
    "successful": false,
    "error_type": "SyntaxError",
    "error_message": "'(' was never closed"
  },
  "1.py": {
    "successful": false,
    "error_type": "SyntaxError",
    "error_message": "invalid syntax"
  },
  "2.py": {
    "successful": false,
    "error_type": "TypeError",
    "error_message": "unsupported operand type(s) for *"
  },
  "3.py": {
    "successful": false,
    "error_type": "NameError",
    "error_message": "name 'prod' is not defined"
  },
  "4.py": {
    "successful": false,
    "error_type": "SyntaxError",
    "error_message": "'[' was never closed"
  },
  "5.py": {
    "successful": false,
    "error_type": "SyntaxError",
    "error_message": "invalid syntax"
  },
  "8.py": {
    "successful": false,
    "error_type": "NameError",
    "error_message": "name 'prod_sign' is not defined. Did you mean"
  },
  "10.py": {
    "successful": false,
    "error_type": "NameError",
    "error_message": "name 'prod' is not defined"
  },
  "11.py": {
    "successful": false,
    "error_type": "NameError",
    "error_message": "name 'prod_sign' is not defined. Did you mean"
  },
  "14.py": {
    "successful": false,
    "error_type": "NameError",
    "error_message": "name 'prod' is not defined"
  },
  "16.py": {
    "successful": false,
    "error_type": "SyntaxError",
    "error_message": "'(' was never closed"
  },
  "17.py": {
    "successful": false,
    "error_type": "TypeError",
    "error_message": "unsupported operand type(s) for *"
  },
  "18.py": {
    "successful": false,
    "error_type": "NameError",
    "error_message": "name 'prod_sign' is not defined. Did you mean"
  },
  "19.py": {
    "successful": false,
    "error_type": "NameError",
    "error_message": "name 'prod' is not defined"
  },
  "21.py": {
    "successful": false,
    "error_type": "NameError",
    "error_message": "name 'prod' is not defined"
  },
  "22.py": {
    "successful": false,
    "error_type": "SyntaxError",
    "error_message": "'(' was never closed"
  },
  "24.py": {
    "successful": false,
    "error_type": "IndexError",
    "error_message": "list index out of range"
  },
  "26.py": {
    "successful": false,
    "error_type": "IndexError",
    "error_message": "list index out of range"
  },
  "27.py": {
    "successful": false,
    "error_type": "TypeError",
    "error_message": "unsupported operand type(s) for *"
  },
  "28.py": {
    "successful": false,
    "error_type": "SyntaxError",
    "error_message": "'[' was never closed"
  },
  "31.py": {
    "successful": false,
    "error_type": "NameError",
    "error_message": "name 'prod_sign' is not defined. Did you mean"
  },
  "32.py": {
    "successful": false,
    "error_type": "NameError",
    "error_message": "name 'prod' is not defined"
  },
  "33.py": {
    "successful": false,
    "error_type": "NameError",
    "error_message": "name 'prod_sign' is not defined. Did you mean"
  },
  "34.py": {
    "successful": false,
    "error_type": "IndexError",
    "error_message": "list index out of range"
  },
  "37.py": {
    "successful": false,
    "error_type": "IndexError",
    "error_message": "list index out of range"
  },
  "42.py": {
    "successful": false,
    "error_type": "NameError",
    "error_message": "name 'prod_sign' is not defined. Did you mean"
  },
  "48.py": {
    "successful": false,
    "error_type": "IndexError",
    "error_message": "list index out of range"
  },
  "49.py": {
    "successful": false,
    "error_type": "AssertionError"
  },
  "55.py": {
    "successful": false,
    "error_type": "IndexError",
    "error_message": "list index out of range"
  },
  "56.py": {
    "successful": false,
    "error_type": "AssertionError"
  },
  "59.py": {
    "successful": false,
    "error_type": "SyntaxError",
    "error_message": "'(' was never closed"
  },
  "64.py": {
    "successful": false,
    "error_type": "SyntaxError",
    "error_message": "'(' was never closed"
  },
  "65.py": {
    "successful": false,
    "error_type": "NameError",
    "error_message": "name 'prod' is not defined"
  },
  "67.py": {
    "successful": false,
    "error_type": "SyntaxError",
    "error_message": "'(' was never closed"
  },
  "71.py": {
    "successful": false,
    "error_type": "SyntaxError",
    "error_message": "'(' was never closed"
  },
  "73.py": {
    "successful": false,
    "error_type": "AssertionError"
  },
  "74.py": {
    "successful": false,
    "error_type": "IndexError",
    "error_message": "list index out of range"
  },
  "84.py": {
    "successful": false,
    "error_type": "SyntaxError",
    "error_message": "'(' was never closed"
  },
  "85.py": {
    "successful": false,
    "error_type": "IndexError",
    "error_message": "list index out of range"
  },
  "86.py": {
    "successful": false,
    "error_type": "AssertionError"
  },
  "88.py": {
    "successful": false,
    "error_type": "IndexError",
    "error_message": "list index out of range"
  },
  "97.py": {
    "successful": false,
    "error_type": "NameError",
    "error_message": "name 'prod_sign' is not defined. Did you mean"
  },
  "98.py": {
    "successful": false,
    "error_type": "IndexError",
    "error_message": "list index out of range"
  },
  "99.py": {
    "successful": false,
    "error_type": "NameError",
    "error_message": "name 'x' is not defined"
  },
  "101.py": {
    "successful": false,
    "error_type": "NameError",
    "error_message": "name 'prod' is not defined"
  },
  "103.py": {
    "successful": false,
    "error_type": "SyntaxError",
    "error_message": "'(' was never closed"
  },
  "106.py": {
    "successful": false,
    "error_type": "SyntaxError",
    "error_message": "invalid syntax"
  },
  "108.py": {
    "successful": false,
    "error_type": "SyntaxError",
    "error_message": "'(' was never closed"
  },
  "112.py": {
    "successful": false,
    "error_type": "RecursionError",
    "error_message": "maximum recursion depth exceeded while calling a Python object"
  },
  "113.py": {
    "successful": false,
    "error_type": "NameError",
    "error_message": "name 'prod' is not defined"
  },
  "116.py": {
    "successful": false,
    "error_type": "NameError",
    "error_message": "name 'prod_sign' is not defined. Did you mean"
  },
  "117.py": {
    "successful": false,
    "error_type": "IndexError",
    "error_message": "list index out of range"
  },
  "119.py": {
    "successful": false,
    "error_type": "NameError",
    "error_message": "name 'prod_sign' is not defined. Did you mean"
  },
  "122.py": {
    "successful": false,
    "error_type": "AssertionError"
  },
  "123.py": {
    "successful": false,
    "error_type": "SyntaxError",
    "error_message": "invalid syntax"
  },
  "132.py": {
    "successful": false,
    "error_type": "SyntaxError",
    "error_message": "'(' was never closed"
  },
  "136.py": {
    "successful": false,
    "error_type": "NameError",
    "error_message": "name 'prod' is not defined"
  },
  "137.py": {
    "successful": false,
    "error_type": "IndexError",
    "error_message": "list index out of range"
  },
  "142.py": {
    "successful": false,
    "error_type": "NameError",
    "error_message": "name 'prod' is not defined"
  },
  "143.py": {
    "successful": false,
    "error_type": "TypeError",
    "error_message": "unsupported operand type(s) for *"
  },
  "146.py": {
    "successful": false,
    "error_type": "AssertionError"
  },
  "162.py": {
    "successful": false,
    "error_type": "NameError",
    "error_message": "name 'prod' is not defined"
  },
  "163.py": {
    "successful": false,
    "error_type": "NameError",
    "error_message": "name 'prod_sign' is not defined. Did you mean"
  },
  "164.py": {
    "successful": false,
    "error_type": "TypeError",
    "error_message": "unsupported operand type(s) for *"
  },
  "165.py": {
    "successful": false,
    "error_type": "RecursionError",
    "error_message": "maximum recursion depth exceeded while calling a Python object"
  },
  "170.py": {
    "successful": false,
    "error_type": "RecursionError",
    "error_message": "maximum recursion depth exceeded while calling a Python object"
  },
  "173.py": {
    "successful": false,
    "error_type": "AssertionError"
  },
  "174.py": {
    "successful": false,
    "error_type": "NameError",
    "error_message": "name 'prod' is not defined"
  },
  "184.py": {
    "successful": false,
    "error_type": "SyntaxError",
    "error_message": "'[' was never closed"
  },
  "190.py": {
    "successful": false,
    "error_type": "SyntaxError",
    "error_message": "invalid syntax"
  },
  "191.py": {
    "successful": false,
    "error_type": "NameError",
    "error_message": "name 'prod' is not defined"
  }
}