{
  "test_complete": true,
  "2.py": {
    "successful": true
  },
  "5.py": {
    "successful": true
  },
  "22.py": {
    "successful": false,
    "error_type": "NameError",
    "error_message": "name 'math' is not defined"
  },
  "50.py": {
    "successful": true
  },
  "147.py": {
    "successful": true
  },
  "177.py": {
    "successful": true
  }
}