{
  "test_complete": true,
  "17.py": {
    "successful": true
  },
  "22.py": {
    "successful": true
  },
  "33.py": {
    "successful": true
  },
  "34.py": {
    "successful": true
  },
  "71.py": {
    "successful": true
  },
  "96.py": {
    "successful": true
  }
}