{
  "test_complete": true,
  "1.py": {
    "successful": true
  },
  "13.py": {
    "successful": true
  },
  "33.py": {
    "successful": true
  },
  "35.py": {
    "successful": true
  },
  "46.py": {
    "successful": true
  },
  "49.py": {
    "successful": true
  },
  "52.py": {
    "successful": true
  },
  "61.py": {
    "successful": true
  },
  "66.py": {
    "successful": false,
    "error_type": "AssertionError"
  },
  "68.py": {
    "successful": true
  },
  "69.py": {
    "successful": true
  },
  "71.py": {
    "successful": false,
    "error_type": "AssertionError"
  },
  "74.py": {
    "successful": true
  },
  "77.py": {
    "successful": true
  },
  "79.py": {
    "successful": true
  },
  "81.py": {
    "successful": true
  },
  "93.py": {
    "successful": true
  },
  "101.py": {
    "successful": true
  },
  "103.py": {
    "successful": false,
    "error_type": "AssertionError"
  },
  "115.py": {
    "successful": false,
    "error_type": "AssertionError"
  },
  "124.py": {
    "successful": true
  },
  "131.py": {
    "successful": true
  },
  "139.py": {
    "successful": true
  },
  "166.py": {
    "successful": true
  },
  "171.py": {
    "successful": false,
    "error_type": "ValueError",
    "error_message": "invalid literal for int() with base 10"
  },
  "175.py": {
    "successful": false,
    "error_type": "AssertionError"
  },
  "182.py": {
    "successful": true
  },
  "198.py": {
    "successful": false,
    "error_type": "AssertionError"
  }
}