{
  "test_complete": true,
  "2.py": {
    "successful": true
  },
  "7.py": {
    "successful": true
  },
  "9.py": {
    "successful": true
  },
  "10.py": {
    "successful": true
  },
  "13.py": {
    "successful": true
  },
  "18.py": {
    "successful": true
  },
  "20.py": {
    "successful": true
  },
  "22.py": {
    "successful": true
  },
  "23.py": {
    "successful": true
  },
  "26.py": {
    "successful": true
  },
  "29.py": {
    "successful": true
  },
  "34.py": {
    "successful": true
  },
  "36.py": {
    "successful": true
  },
  "41.py": {
    "successful": true
  },
  "42.py": {
    "successful": true
  },
  "43.py": {
    "successful": true
  },
  "45.py": {
    "successful": true
  },
  "47.py": {
    "successful": true
  },
  "50.py": {
    "successful": false,
    "error_type": "AssertionError"
  },
  "52.py": {
    "successful": false,
    "error_type": "AssertionError"
  },
  "53.py": {
    "successful": false,
    "error_type": "AssertionError"
  },
  "64.py": {
    "successful": true
  },
  "68.py": {
    "successful": true
  },
  "69.py": {
    "successful": true
  },
  "70.py": {
    "successful": true
  },
  "72.py": {
    "successful": false,
    "error_type": "IndexError",
    "error_message": "list index out of range"
  },
  "75.py": {
    "successful": false,
    "error_type": "AssertionError"
  },
  "77.py": {
    "successful": false,
    "error_type": "AssertionError"
  },
  "85.py": {
    "successful": true
  },
  "86.py": {
    "successful": true
  },
  "89.py": {
    "successful": true
  },
  "90.py": {
    "successful": false,
    "error_type": "AssertionError"
  },
  "95.py": {
    "successful": true
  },
  "96.py": {
    "successful": false,
    "error_type": "AssertionError"
  },
  "98.py": {
    "successful": true
  },
  "99.py": {
    "successful": true
  },
  "108.py": {
    "successful": true
  },
  "110.py": {
    "successful": true
  },
  "111.py": {
    "successful": false,
    "error_type": "AssertionError"
  },
  "112.py": {
    "successful": false,
    "error_type": "AssertionError"
  },
  "113.py": {
    "successful": true
  },
  "114.py": {
    "successful": true
  },
  "119.py": {
    "successful": true
  },
  "122.py": {
    "successful": true
  },
  "127.py": {
    "successful": true
  },
  "128.py": {
    "successful": true
  },
  "131.py": {
    "successful": false,
    "error_type": "AssertionError"
  },
  "132.py": {
    "successful": true
  },
  "133.py": {
    "successful": true
  },
  "137.py": {
    "successful": true
  },
  "138.py": {
    "successful": true
  },
  "139.py": {
    "successful": true
  },
  "140.py": {
    "successful": false,
    "error_type": "AssertionError"
  },
  "142.py": {
    "successful": true
  },
  "143.py": {
    "successful": true
  },
  "144.py": {
    "successful": true
  },
  "146.py": {
    "successful": true
  },
  "147.py": {
    "successful": false,
    "error_type": "AssertionError"
  },
  "150.py": {
    "successful": true
  },
  "155.py": {
    "successful": true
  },
  "158.py": {
    "successful": true
  },
  "161.py": {
    "successful": true
  },
  "162.py": {
    "successful": false,
    "error_type": "AssertionError"
  },
  "163.py": {
    "successful": false,
    "error_type": "UnboundLocalError",
    "error_message": "cannot access local variable 'longest_string' where it is not associated with a value"
  },
  "166.py": {
    "successful": true
  },
  "170.py": {
    "successful": true
  },
  "171.py": {
    "successful": true
  },
  "172.py": {
    "successful": true
  },
  "177.py": {
    "successful": true
  },
  "180.py": {
    "successful": true
  },
  "181.py": {
    "successful": true
  },
  "183.py": {
    "successful": true
  },
  "184.py": {
    "successful": false,
    "error_type": "AssertionError"
  },
  "186.py": {
    "successful": true
  },
  "188.py": {
    "successful": false,
    "error_type": "AssertionError"
  },
  "190.py": {
    "successful": true
  },
  "193.py": {
    "successful": true
  },
  "197.py": {
    "successful": false,
    "error_type": "AssertionError"
  },
  "198.py": {
    "successful": true
  }
}