{
  "test_complete": true,
  "0.py": {
    "successful": false,
    "error_type": "AssertionError"
  },
  "1.py": {
    "successful": true
  },
  "3.py": {
    "successful": true
  },
  "5.py": {
    "successful": true
  },
  "8.py": {
    "successful": true
  },
  "9.py": {
    "successful": true
  },
  "11.py": {
    "successful": true
  },
  "12.py": {
    "successful": true
  },
  "13.py": {
    "successful": false,
    "error_type": "AssertionError"
  },
  "17.py": {
    "successful": true
  },
  "18.py": {
    "successful": true
  },
  "20.py": {
    "successful": true
  },
  "21.py": {
    "successful": false,
    "error_type": "AssertionError"
  },
  "23.py": {
    "successful": true
  },
  "24.py": {
    "successful": false,
    "error_type": "AssertionError"
  },
  "25.py": {
    "successful": true
  },
  "26.py": {
    "successful": true
  },
  "27.py": {
    "successful": true
  },
  "28.py": {
    "successful": true
  },
  "29.py": {
    "successful": true
  },
  "30.py": {
    "successful": true
  },
  "31.py": {
    "successful": false,
    "error_type": "NameError",
    "error_message": "name 'next_prime' is not defined"
  },
  "32.py": {
    "successful": true
  },
  "33.py": {
    "successful": false,
    "error_type": "AssertionError"
  },
  "34.py": {
    "successful": true
  },
  "35.py": {
    "successful": true
  },
  "36.py": {
    "successful": true
  },
  "37.py": {
    "successful": true
  },
  "38.py": {
    "successful": false,
    "error_type": "AssertionError"
  },
  "39.py": {
    "successful": true
  },
  "42.py": {
    "successful": false,
    "error_type": "AssertionError"
  },
  "44.py": {
    "successful": true
  },
  "45.py": {
    "successful": false,
    "error_type": "AssertionError"
  },
  "46.py": {
    "successful": true
  },
  "47.py": {
    "successful": true
  },
  "49.py": {
    "successful": true
  },
  "50.py": {
    "successful": false,
    "error_type": "AssertionError"
  },
  "51.py": {
    "successful": true
  },
  "52.py": {
    "successful": true
  },
  "53.py": {
    "successful": false,
    "error_type": "AssertionError"
  },
  "54.py": {
    "successful": true
  },
  "55.py": {
    "successful": true
  },
  "56.py": {
    "successful": true
  },
  "57.py": {
    "successful": true
  },
  "59.py": {
    "successful": false,
    "error_type": "AssertionError"
  },
  "62.py": {
    "successful": true
  },
  "63.py": {
    "successful": true
  },
  "65.py": {
    "successful": true
  },
  "67.py": {
    "successful": false,
    "error_type": "AssertionError"
  },
  "69.py": {
    "successful": false,
    "error_type": "AssertionError"
  },
  "70.py": {
    "successful": true
  },
  "71.py": {
    "successful": true
  },
  "72.py": {
    "successful": true
  },
  "74.py": {
    "successful": false,
    "error_type": "AssertionError"
  },
  "75.py": {
    "successful": true
  },
  "76.py": {
    "successful": true
  },
  "77.py": {
    "successful": true
  },
  "78.py": {
    "successful": true
  },
  "79.py": {
    "successful": true
  },
  "80.py": {
    "successful": true
  },
  "83.py": {
    "successful": true
  },
  "84.py": {
    "successful": false,
    "error_type": "AssertionError"
  },
  "86.py": {
    "successful": false,
    "error_type": "AssertionError"
  },
  "87.py": {
    "successful": false,
    "error_type": "AssertionError"
  },
  "88.py": {
    "successful": true
  },
  "89.py": {
    "successful": true
  },
  "90.py": {
    "successful": true
  },
  "91.py": {
    "successful": true
  },
  "92.py": {
    "successful": false,
    "error_type": "AssertionError"
  },
  "94.py": {
    "successful": true
  },
  "95.py": {
    "successful": true
  },
  "96.py": {
    "successful": false,
    "error_type": "AssertionError"
  },
  "97.py": {
    "successful": true
  },
  "98.py": {
    "successful": true
  },
  "99.py": {
    "successful": false,
    "error_type": "AssertionError"
  },
  "100.py": {
    "successful": true
  },
  "102.py": {
    "successful": false,
    "error_type": "AssertionError"
  },
  "103.py": {
    "successful": true
  },
  "104.py": {
    "successful": true
  },
  "106.py": {
    "successful": true
  },
  "107.py": {
    "successful": true
  },
  "108.py": {
    "successful": true
  },
  "109.py": {
    "successful": true
  },
  "110.py": {
    "successful": true
  },
  "112.py": {
    "successful": false,
    "error_type": "IndexError",
    "error_message": "list index out of range"
  },
  "113.py": {
    "successful": true
  },
  "115.py": {
    "successful": true
  },
  "117.py": {
    "successful": true
  },
  "120.py": {
    "successful": true
  },
  "122.py": {
    "successful": true
  },
  "123.py": {
    "successful": true
  },
  "127.py": {
    "successful": true
  },
  "128.py": {
    "successful": true
  },
  "129.py": {
    "successful": true
  },
  "130.py": {
    "successful": true
  },
  "131.py": {
    "successful": true
  },
  "132.py": {
    "successful": true
  },
  "133.py": {
    "successful": true
  },
  "134.py": {
    "successful": true
  },
  "135.py": {
    "successful": false,
    "error_type": "AssertionError"
  },
  "136.py": {
    "successful": false,
    "error_type": "AssertionError"
  },
  "137.py": {
    "successful": true
  },
  "139.py": {
    "successful": true
  },
  "143.py": {
    "successful": false,
    "error_type": "AssertionError"
  },
  "145.py": {
    "successful": true
  },
  "148.py": {
    "successful": true
  },
  "149.py": {
    "successful": true
  },
  "151.py": {
    "successful": false,
    "error_type": "AssertionError"
  },
  "152.py": {
    "successful": false,
    "error_type": "AssertionError"
  },
  "154.py": {
    "successful": false,
    "error_type": "AssertionError"
  },
  "155.py": {
    "successful": true
  },
  "158.py": {
    "successful": true
  },
  "161.py": {
    "successful": true
  },
  "162.py": {
    "successful": true
  },
  "163.py": {
    "successful": false,
    "error_type": "AssertionError"
  },
  "165.py": {
    "successful": true
  },
  "168.py": {
    "successful": true
  },
  "169.py": {
    "successful": true
  },
  "170.py": {
    "successful": true
  },
  "171.py": {
    "successful": true
  },
  "172.py": {
    "successful": false,
    "error_type": "AssertionError"
  },
  "173.py": {
    "successful": true
  },
  "174.py": {
    "successful": true
  },
  "175.py": {
    "successful": false,
    "error_type": "IndentationError",
    "error_message": "expected an indented block after function definition on line 2"
  },
  "176.py": {
    "successful": true
  },
  "177.py": {
    "successful": false,
    "error_type": "AssertionError"
  },
  "178.py": {
    "successful": false,
    "error_type": "RecursionError",
    "error_message": "maximum recursion depth exceeded in comparison"
  },
  "179.py": {
    "successful": false,
    "error_type": "IndentationError",
    "error_message": "expected an indented block after 'if' statement on line 8"
  },
  "180.py": {
    "successful": true
  },
  "181.py": {
    "successful": true
  },
  "182.py": {
    "successful": true
  },
  "183.py": {
    "successful": true
  },
  "184.py": {
    "successful": true
  },
  "186.py": {
    "successful": true
  },
  "188.py": {
    "successful": false,
    "error_type": "AssertionError"
  },
  "191.py": {
    "successful": false,
    "error_type": "AssertionError"
  },
  "192.py": {
    "successful": false,
    "error_type": "AssertionError"
  },
  "193.py": {
    "successful": true
  },
  "194.py": {
    "successful": true
  },
  "195.py": {
    "successful": true
  },
  "196.py": {
    "successful": true
  },
  "197.py": {
    "successful": false,
    "error_type": "TimeOut"
  },
  "198.py": {
    "successful": false,
    "error_type": "AssertionError"
  }
}