{
  "test_complete": true,
  "1.py": {
    "successful": false,
    "error_type": "AssertionError"
  },
  "2.py": {
    "successful": false,
    "error_type": "AssertionError"
  },
  "4.py": {
    "successful": false,
    "error_type": "TimeOut"
  },
  "5.py": {
    "successful": false,
    "error_type": "AssertionError"
  },
  "6.py": {
    "successful": false,
    "error_type": "AssertionError"
  },
  "7.py": {
    "successful": false,
    "error_type": "IndexError",
    "error_message": "string index out of range"
  },
  "8.py": {
    "successful": false,
    "error_type": "SyntaxError",
    "error_message": "expected '"
  },
  "9.py": {
    "successful": false,
    "error_type": "AssertionError"
  },
  "11.py": {
    "successful": false,
    "error_type": "AssertionError"
  },
  "12.py": {
    "successful": false,
    "error_type": "AssertionError"
  },
  "13.py": {
    "successful": false,
    "error_type": "AssertionError"
  },
  "14.py": {
    "successful": false,
    "error_type": "AssertionError"
  },
  "15.py": {
    "successful": false,
    "error_type": "AssertionError"
  },
  "17.py": {
    "successful": false,
    "error_type": "AssertionError"
  },
  "19.py": {
    "successful": false,
    "error_type": "AssertionError"
  },
  "20.py": {
    "successful": false,
    "error_type": "AssertionError"
  },
  "21.py": {
    "successful": false,
    "error_type": "AssertionError"
  },
  "22.py": {
    "successful": false,
    "error_type": "AssertionError"
  },
  "23.py": {
    "successful": false,
    "error_type": "AssertionError"
  },
  "24.py": {
    "successful": false,
    "error_type": "AssertionError"
  },
  "25.py": {
    "successful": false,
    "error_type": "ValueError",
    "error_message": "Invalid character"
  },
  "26.py": {
    "successful": false,
    "error_type": "AssertionError"
  },
  "28.py": {
    "successful": false,
    "error_type": "AssertionError"
  },
  "29.py": {
    "successful": false,
    "error_type": "AssertionError"
  },
  "31.py": {
    "successful": false,
    "error_type": "ValueError",
    "error_message": "empty separator"
  },
  "32.py": {
    "successful": false,
    "error_type": "AssertionError"
  },
  "33.py": {
    "successful": false,
    "error_type": "AssertionError"
  },
  "35.py": {
    "successful": false,
    "error_type": "AssertionError"
  },
  "36.py": {
    "successful": false,
    "error_type": "AssertionError"
  },
  "37.py": {
    "successful": false,
    "error_type": "AssertionError"
  },
  "38.py": {
    "successful": false,
    "error_type": "AssertionError"
  },
  "39.py": {
    "successful": false,
    "error_type": "ValueError",
    "error_message": "empty separator"
  },
  "40.py": {
    "successful": false,
    "error_type": "SyntaxError",
    "error_message": "unterminated string literal (detected at line 11)"
  },
  "42.py": {
    "successful": false,
    "error_type": "AssertionError"
  },
  "43.py": {
    "successful": false,
    "error_type": "AssertionError"
  },
  "47.py": {
    "successful": false,
    "error_type": "AssertionError"
  },
  "50.py": {
    "successful": false,
    "error_type": "IndexError",
    "error_message": "string index out of range"
  },
  "51.py": {
    "successful": false,
    "error_type": "ValueError",
    "error_message": "empty separator"
  },
  "52.py": {
    "successful": false,
    "error_type": "NameError",
    "error_message": "name 'i' is not defined. Did you mean"
  },
  "54.py": {
    "successful": false,
    "error_type": "AssertionError"
  },
  "56.py": {
    "successful": false,
    "error_type": "AssertionError"
  },
  "58.py": {
    "successful": false,
    "error_type": "SyntaxError",
    "error_message": "expected '"
  },
  "62.py": {
    "successful": false,
    "error_type": "ValueError",
    "error_message": "empty separator"
  },
  "63.py": {
    "successful": false,
    "error_type": "AssertionError"
  },
  "64.py": {
    "successful": false,
    "error_type": "AssertionError"
  },
  "65.py": {
    "successful": false,
    "error_type": "AssertionError"
  },
  "70.py": {
    "successful": false,
    "error_type": "AssertionError"
  },
  "72.py": {
    "successful": false,
    "error_type": "ValueError",
    "error_message": "empty separator"
  },
  "73.py": {
    "successful": false,
    "error_type": "AssertionError"
  },
  "75.py": {
    "successful": false,
    "error_type": "AssertionError"
  },
  "76.py": {
    "successful": false,
    "error_type": "AssertionError"
  },
  "78.py": {
    "successful": false,
    "error_type": "AssertionError"
  },
  "79.py": {
    "successful": false,
    "error_type": "AssertionError"
  },
  "81.py": {
    "successful": false,
    "error_type": "AssertionError"
  },
  "82.py": {
    "successful": false,
    "error_type": "IndexError",
    "error_message": "string index out of range"
  },
  "83.py": {
    "successful": false,
    "error_type": "AssertionError"
  },
  "86.py": {
    "successful": false,
    "error_type": "AssertionError"
  },
  "87.py": {
    "successful": false,
    "error_type": "AssertionError"
  },
  "88.py": {
    "successful": false,
    "error_type": "AssertionError"
  },
  "89.py": {
    "successful": false,
    "error_type": "ValueError",
    "error_message": "empty separator"
  },
  "90.py": {
    "successful": false,
    "error_type": "AssertionError"
  },
  "92.py": {
    "successful": false,
    "error_type": "IndexError",
    "error_message": "string index out of range"
  },
  "93.py": {
    "successful": false,
    "error_type": "AssertionError"
  },
  "96.py": {
    "successful": false,
    "error_type": "SyntaxError",
    "error_message": "'[' was never closed"
  },
  "97.py": {
    "successful": false,
    "error_type": "AssertionError"
  },
  "100.py": {
    "successful": false,
    "error_type": "AssertionError"
  },
  "101.py": {
    "successful": false,
    "error_type": "AssertionError"
  },
  "102.py": {
    "successful": false,
    "error_type": "AssertionError"
  },
  "103.py": {
    "successful": false,
    "error_type": "ValueError",
    "error_message": "empty separator"
  },
  "105.py": {
    "successful": false,
    "error_type": "AssertionError"
  },
  "106.py": {
    "successful": false,
    "error_type": "AssertionError"
  },
  "107.py": {
    "successful": false,
    "error_type": "AssertionError"
  },
  "108.py": {
    "successful": false,
    "error_type": "AssertionError"
  },
  "109.py": {
    "successful": false,
    "error_type": "AssertionError"
  },
  "110.py": {
    "successful": false,
    "error_type": "AssertionError"
  },
  "111.py": {
    "successful": false,
    "error_type": "AssertionError"
  },
  "112.py": {
    "successful": false,
    "error_type": "AssertionError"
  },
  "114.py": {
    "successful": false,
    "error_type": "AssertionError"
  },
  "115.py": {
    "successful": false,
    "error_type": "AssertionError"
  },
  "117.py": {
    "successful": false,
    "error_type": "AssertionError"
  },
  "119.py": {
    "successful": false,
    "error_type": "AssertionError"
  },
  "124.py": {
    "successful": false,
    "error_type": "AssertionError"
  },
  "125.py": {
    "successful": false,
    "error_type": "AssertionError"
  },
  "126.py": {
    "successful": false,
    "error_type": "AssertionError"
  },
  "127.py": {
    "successful": false,
    "error_type": "AssertionError"
  },
  "128.py": {
    "successful": false,
    "error_type": "AssertionError"
  },
  "129.py": {
    "successful": false,
    "error_type": "AssertionError"
  },
  "130.py": {
    "successful": false,
    "error_type": "AssertionError"
  },
  "132.py": {
    "successful": false,
    "error_type": "ValueError",
    "error_message": "empty separator"
  },
  "133.py": {
    "successful": false,
    "error_type": "AssertionError"
  },
  "134.py": {
    "successful": false,
    "error_type": "AssertionError"
  },
  "135.py": {
    "successful": false,
    "error_type": "AssertionError"
  },
  "136.py": {
    "successful": false,
    "error_type": "AssertionError"
  },
  "137.py": {
    "successful": false,
    "error_type": "AssertionError"
  },
  "138.py": {
    "successful": false,
    "error_type": "AssertionError"
  },
  "139.py": {
    "successful": false,
    "error_type": "IndexError",
    "error_message": "string index out of range"
  },
  "141.py": {
    "successful": false,
    "error_type": "AssertionError"
  },
  "144.py": {
    "successful": false,
    "error_type": "AssertionError"
  },
  "146.py": {
    "successful": false,
    "error_type": "AssertionError"
  },
  "147.py": {
    "successful": false,
    "error_type": "AssertionError"
  },
  "148.py": {
    "successful": false,
    "error_type": "AssertionError"
  },
  "149.py": {
    "successful": false,
    "error_type": "SyntaxError",
    "error_message": "unterminated string literal (detected at line 23)"
  },
  "150.py": {
    "successful": false,
    "error_type": "AssertionError"
  },
  "151.py": {
    "successful": false,
    "error_type": "AssertionError"
  },
  "153.py": {
    "successful": false,
    "error_type": "AssertionError"
  },
  "157.py": {
    "successful": false,
    "error_type": "AssertionError"
  },
  "158.py": {
    "successful": false,
    "error_type": "AssertionError"
  },
  "159.py": {
    "successful": false,
    "error_type": "SyntaxError",
    "error_message": "expected '"
  },
  "160.py": {
    "successful": false,
    "error_type": "AssertionError"
  },
  "161.py": {
    "successful": false,
    "error_type": "AssertionError"
  },
  "162.py": {
    "successful": false,
    "error_type": "AssertionError"
  },
  "163.py": {
    "successful": false,
    "error_type": "AssertionError"
  },
  "165.py": {
    "successful": false,
    "error_type": "AssertionError"
  },
  "166.py": {
    "successful": false,
    "error_type": "AssertionError"
  },
  "168.py": {
    "successful": false,
    "error_type": "AssertionError"
  },
  "169.py": {
    "successful": false,
    "error_type": "AssertionError"
  },
  "170.py": {
    "successful": false,
    "error_type": "TypeError",
    "error_message": "startswith first arg must be str or a tuple of str, not list"
  },
  "171.py": {
    "successful": false,
    "error_type": "ValueError",
    "error_message": "empty separator"
  },
  "173.py": {
    "successful": false,
    "error_type": "SyntaxError",
    "error_message": "invalid syntax"
  },
  "174.py": {
    "successful": false,
    "error_type": "AssertionError"
  },
  "176.py": {
    "successful": false,
    "error_type": "AssertionError"
  },
  "177.py": {
    "successful": false,
    "error_type": "AssertionError"
  },
  "179.py": {
    "successful": false,
    "error_type": "AssertionError"
  },
  "182.py": {
    "successful": false,
    "error_type": "ValueError",
    "error_message": "empty separator"
  },
  "186.py": {
    "successful": false,
    "error_type": "AssertionError"
  },
  "187.py": {
    "successful": false,
    "error_type": "AssertionError"
  },
  "188.py": {
    "successful": false,
    "error_type": "AssertionError"
  },
  "189.py": {
    "successful": false,
    "error_type": "AssertionError"
  },
  "190.py": {
    "successful": false,
    "error_type": "AssertionError"
  },
  "194.py": {
    "successful": false,
    "error_type": "AssertionError"
  },
  "196.py": {
    "successful": false,
    "error_type": "AssertionError"
  },
  "197.py": {
    "successful": false,
    "error_type": "AssertionError"
  },
  "198.py": {
    "successful": false,
    "error_type": "IndentationError",
    "error_message": "expected an indented block after 'if' statement on line 45"
  }
}