{
  "test_complete": true,
  "0.py": {
    "successful": false,
    "error_type": "AssertionError"
  },
  "1.py": {
    "successful": false,
    "error_type": "TypeError",
    "error_message": "unsupported operand type(s) for -"
  },
  "2.py": {
    "successful": false,
    "error_type": "NameError",
    "error_message": "name 'by_length_helper' is not defined"
  },
  "3.py": {
    "successful": false,
    "error_type": "NameError",
    "error_message": "name 'number_names' is not defined"
  },
  "4.py": {
    "successful": false,
    "error_type": "AssertionError"
  },
  "5.py": {
    "successful": false,
    "error_type": "AssertionError"
  },
  "6.py": {
    "successful": false,
    "error_type": "NameError",
    "error_message": "name 'name_dict' is not defined"
  },
  "7.py": {
    "successful": false,
    "error_type": "KeyError",
    "error_message": "'8'"
  },
  "8.py": {
    "successful": false,
    "error_type": "NameError",
    "error_message": "name 'get_num_name' is not defined"
  },
  "9.py": {
    "successful": false,
    "error_type": "AssertionError"
  },
  "10.py": {
    "successful": false,
    "error_type": "NameError",
    "error_message": "name 'digit_map' is not defined"
  },
  "11.py": {
    "successful": false,
    "error_type": "AssertionError"
  },
  "12.py": {
    "successful": false,
    "error_type": "AssertionError"
  },
  "13.py": {
    "successful": true
  },
  "14.py": {
    "successful": false,
    "error_type": "AssertionError"
  },
  "15.py": {
    "successful": false,
    "error_type": "NameError",
    "error_message": "name 'get_digit' is not defined"
  },
  "16.py": {
    "successful": false,
    "error_type": "TypeError",
    "error_message": "object of type 'map' has no len()"
  },
  "17.py": {
    "successful": false,
    "error_type": "AssertionError"
  },
  "19.py": {
    "successful": false,
    "error_type": "NameError",
    "error_message": "name 'to_num_name' is not defined"
  },
  "20.py": {
    "successful": false,
    "error_type": "IndexError",
    "error_message": "list index out of range"
  },
  "21.py": {
    "successful": false,
    "error_type": "AssertionError"
  },
  "22.py": {
    "successful": false,
    "error_type": "NameError",
    "error_message": "name '_sort_and_reverse_by_digit' is not defined"
  },
  "23.py": {
    "successful": false,
    "error_type": "SyntaxError",
    "error_message": "'[' was never closed"
  },
  "24.py": {
    "successful": false,
    "error_type": "AssertionError"
  },
  "25.py": {
    "successful": false,
    "error_type": "AssertionError"
  },
  "26.py": {
    "successful": false,
    "error_type": "AssertionError"
  },
  "27.py": {
    "successful": false,
    "error_type": "TypeError",
    "error_message": "'NoneType' object is not subscriptable"
  },
  "28.py": {
    "successful": false,
    "error_type": "AssertionError"
  },
  "29.py": {
    "successful": false,
    "error_type": "AssertionError"
  },
  "30.py": {
    "successful": false,
    "error_type": "AssertionError"
  },
  "31.py": {
    "successful": false,
    "error_type": "AssertionError"
  },
  "32.py": {
    "successful": false,
    "error_type": "NameError",
    "error_message": "name 'char_table' is not defined"
  },
  "33.py": {
    "successful": false,
    "error_type": "SyntaxError",
    "error_message": "unterminated string literal (detected at line 28)"
  },
  "34.py": {
    "successful": false,
    "error_type": "TypeError",
    "error_message": "can only concatenate list (not \"list_reverseiterator\") to list"
  },
  "36.py": {
    "successful": false,
    "error_type": "IndexError",
    "error_message": "list index out of range"
  },
  "37.py": {
    "successful": false,
    "error_type": "NameError",
    "error_message": "name 'd' is not defined. Did you mean"
  },
  "38.py": {
    "successful": false,
    "error_type": "AssertionError"
  },
  "39.py": {
    "successful": false,
    "error_type": "AssertionError"
  },
  "40.py": {
    "successful": false,
    "error_type": "AssertionError"
  },
  "41.py": {
    "successful": false,
    "error_type": "KeyError",
    "error_message": "1"
  },
  "42.py": {
    "successful": false,
    "error_type": "IndentationError",
    "error_message": "expected an indented block after function definition on line 1"
  },
  "43.py": {
    "successful": false,
    "error_type": "AssertionError"
  },
  "44.py": {
    "successful": false,
    "error_type": "AssertionError"
  },
  "45.py": {
    "successful": false,
    "error_type": "AssertionError"
  },
  "46.py": {
    "successful": false,
    "error_type": "AssertionError"
  },
  "47.py": {
    "successful": false,
    "error_type": "NameError",
    "error_message": "name 'names_by_length' is not defined"
  },
  "48.py": {
    "successful": false,
    "error_type": "NameError",
    "error_message": "name 'numberToName' is not defined"
  },
  "49.py": {
    "successful": false,
    "error_type": "NameError",
    "error_message": "name 'num2name' is not defined"
  },
  "50.py": {
    "successful": false,
    "error_type": "AssertionError"
  },
  "51.py": {
    "successful": false,
    "error_type": "NameError",
    "error_message": "name 'nb_to_name' is not defined"
  },
  "52.py": {
    "successful": false,
    "error_type": "KeyError",
    "error_message": "'1'"
  },
  "54.py": {
    "successful": false,
    "error_type": "AssertionError"
  },
  "55.py": {
    "successful": false,
    "error_type": "NameError",
    "error_message": "name 'get_number_by_digit' is not defined"
  },
  "56.py": {
    "successful": false,
    "error_type": "NameError",
    "error_message": "name 'Name' is not defined"
  },
  "58.py": {
    "successful": false,
    "error_type": "IndentationError",
    "error_message": "expected an indented block after 'else' statement on line 14"
  },
  "59.py": {
    "successful": false,
    "error_type": "AssertionError"
  },
  "60.py": {
    "successful": false,
    "error_type": "AssertionError"
  },
  "61.py": {
    "successful": false,
    "error_type": "NameError",
    "error_message": "name 'reverse_name' is not defined. Did you mean"
  },
  "62.py": {
    "successful": false,
    "error_type": "NameError",
    "error_message": "name 'replace' is not defined"
  },
  "63.py": {
    "successful": false,
    "error_type": "NameError",
    "error_message": "name 'num_to_name' is not defined"
  },
  "65.py": {
    "successful": false,
    "error_type": "AssertionError"
  },
  "66.py": {
    "successful": false,
    "error_type": "NameError",
    "error_message": "name 'numbers' is not defined"
  },
  "67.py": {
    "successful": false,
    "error_type": "AssertionError"
  },
  "68.py": {
    "successful": false,
    "error_type": "AssertionError"
  },
  "69.py": {
    "successful": false,
    "error_type": "AssertionError"
  },
  "70.py": {
    "successful": false,
    "error_type": "AssertionError"
  },
  "71.py": {
    "successful": false,
    "error_type": "AssertionError"
  },
  "72.py": {
    "successful": false,
    "error_type": "NameError",
    "error_message": "name 'get_digit_name' is not defined"
  },
  "73.py": {
    "successful": false,
    "error_type": "NameError",
    "error_message": "name 'get_name_by_digit' is not defined"
  },
  "74.py": {
    "successful": false,
    "error_type": "AssertionError"
  },
  "75.py": {
    "successful": false,
    "error_type": "IndexError",
    "error_message": "list index out of range"
  },
  "76.py": {
    "successful": false,
    "error_type": "AssertionError"
  },
  "77.py": {
    "successful": false,
    "error_type": "NameError",
    "error_message": "name 'reverse_digit' is not defined"
  },
  "78.py": {
    "successful": false,
    "error_type": "AssertionError"
  },
  "79.py": {
    "successful": false,
    "error_type": "AssertionError"
  },
  "80.py": {
    "successful": false,
    "error_type": "AssertionError"
  },
  "81.py": {
    "successful": false,
    "error_type": "AssertionError"
  },
  "82.py": {
    "successful": false,
    "error_type": "ValueError",
    "error_message": "'8' is not in list"
  },
  "84.py": {
    "successful": false,
    "error_type": "NameError",
    "error_message": "name 'numbers' is not defined"
  },
  "85.py": {
    "successful": false,
    "error_type": "NameError",
    "error_message": "name 'by_index' is not defined"
  },
  "86.py": {
    "successful": false,
    "error_type": "AssertionError"
  },
  "87.py": {
    "successful": false,
    "error_type": "AssertionError"
  },
  "88.py": {
    "successful": false,
    "error_type": "AssertionError"
  },
  "89.py": {
    "successful": false,
    "error_type": "AssertionError"
  },
  "90.py": {
    "successful": false,
    "error_type": "AssertionError"
  },
  "91.py": {
    "successful": false,
    "error_type": "AssertionError"
  },
  "92.py": {
    "successful": false,
    "error_type": "NameError",
    "error_message": "name 'reverse_string' is not defined"
  },
  "93.py": {
    "successful": false,
    "error_type": "AssertionError"
  },
  "94.py": {
    "successful": false,
    "error_type": "NameError",
    "error_message": "name 'convert_to_letter' is not defined"
  },
  "95.py": {
    "successful": false,
    "error_type": "NameError",
    "error_message": "name 'get_numbers_by_length' is not defined"
  },
  "96.py": {
    "successful": false,
    "error_type": "AssertionError"
  },
  "97.py": {
    "successful": false,
    "error_type": "IndentationError",
    "error_message": "expected an indented block after function definition on line 1"
  },
  "98.py": {
    "successful": false,
    "error_type": "AssertionError"
  },
  "99.py": {
    "successful": false,
    "error_type": "AssertionError"
  },
  "100.py": {
    "successful": false,
    "error_type": "IndexError",
    "error_message": "list index out of range"
  },
  "101.py": {
    "successful": true
  },
  "102.py": {
    "successful": false,
    "error_type": "AssertionError"
  },
  "103.py": {
    "successful": false,
    "error_type": "AssertionError"
  },
  "104.py": {
    "successful": true
  },
  "105.py": {
    "successful": false,
    "error_type": "AssertionError"
  },
  "106.py": {
    "successful": false,
    "error_type": "NameError",
    "error_message": "name 'names' is not defined"
  },
  "107.py": {
    "successful": false,
    "error_type": "AssertionError"
  },
  "108.py": {
    "successful": false,
    "error_type": "NameError",
    "error_message": "name 'names' is not defined"
  },
  "109.py": {
    "successful": false,
    "error_type": "AssertionError"
  },
  "110.py": {
    "successful": false,
    "error_type": "NameError",
    "error_message": "name 'NUMBERS' is not defined"
  },
  "111.py": {
    "successful": false,
    "error_type": "AssertionError"
  },
  "112.py": {
    "successful": false,
    "error_type": "AssertionError"
  },
  "113.py": {
    "successful": false,
    "error_type": "AssertionError"
  },
  "114.py": {
    "successful": false,
    "error_type": "AssertionError"
  },
  "115.py": {
    "successful": false,
    "error_type": "IndexError",
    "error_message": "list index out of range"
  },
  "116.py": {
    "successful": false,
    "error_type": "AssertionError"
  },
  "117.py": {
    "successful": false,
    "error_type": "NameError",
    "error_message": "name 'num_names' is not defined"
  },
  "118.py": {
    "successful": false,
    "error_type": "AssertionError"
  },
  "119.py": {
    "successful": false,
    "error_type": "AssertionError"
  },
  "120.py": {
    "successful": true
  },
  "121.py": {
    "successful": false,
    "error_type": "AssertionError"
  },
  "122.py": {
    "successful": false,
    "error_type": "AssertionError"
  },
  "123.py": {
    "successful": false,
    "error_type": "NameError",
    "error_message": "name 'get_num_name' is not defined"
  },
  "124.py": {
    "successful": false,
    "error_type": "AttributeError",
    "error_message": "'NoneType' object has no attribute 'map'"
  },
  "126.py": {
    "successful": false,
    "error_type": "NameError",
    "error_message": "name 'name_of_digit' is not defined"
  },
  "127.py": {
    "successful": false,
    "error_type": "NameError",
    "error_message": "name 'name_by_length' is not defined"
  },
  "128.py": {
    "successful": false,
    "error_type": "AssertionError"
  },
  "129.py": {
    "successful": false,
    "error_type": "NameError",
    "error_message": "name '_numbers_dict' is not defined"
  },
  "130.py": {
    "successful": true
  },
  "131.py": {
    "successful": false,
    "error_type": "SyntaxError",
    "error_message": "'(' was never closed"
  },
  "132.py": {
    "successful": false,
    "error_type": "AssertionError"
  },
  "133.py": {
    "successful": false,
    "error_type": "KeyError",
    "error_message": "8"
  },
  "134.py": {
    "successful": false,
    "error_type": "AssertionError"
  },
  "135.py": {
    "successful": false,
    "error_type": "NameError",
    "error_message": "name 'name_by_num' is not defined"
  },
  "136.py": {
    "successful": false,
    "error_type": "AssertionError"
  },
  "137.py": {
    "successful": false,
    "error_type": "IndentationError",
    "error_message": "expected an indented block after function definition on line 1"
  },
  "138.py": {
    "successful": false,
    "error_type": "NameError",
    "error_message": "name '_digits' is not defined"
  },
  "139.py": {
    "successful": false,
    "error_type": "AssertionError"
  },
  "140.py": {
    "successful": false,
    "error_type": "AssertionError"
  },
  "141.py": {
    "successful": false,
    "error_type": "AssertionError"
  },
  "143.py": {
    "successful": false,
    "error_type": "NameError",
    "error_message": "name 'get_digit_name' is not defined"
  },
  "145.py": {
    "successful": false,
    "error_type": "AssertionError"
  },
  "146.py": {
    "successful": false,
    "error_type": "TypeError",
    "error_message": "object of type 'int' has no len()"
  },
  "147.py": {
    "successful": false,
    "error_type": "NameError",
    "error_message": "name 'one_to_nine' is not defined"
  },
  "148.py": {
    "successful": false,
    "error_type": "NameError",
    "error_message": "name 'num_dict' is not defined"
  },
  "149.py": {
    "successful": false,
    "error_type": "NameError",
    "error_message": "name 'convert_number' is not defined"
  },
  "150.py": {
    "successful": false,
    "error_type": "AssertionError"
  },
  "151.py": {
    "successful": true
  },
  "152.py": {
    "successful": false,
    "error_type": "KeyError",
    "error_message": "'Zero'"
  },
  "153.py": {
    "successful": false,
    "error_type": "AssertionError"
  },
  "154.py": {
    "successful": false,
    "error_type": "NameError",
    "error_message": "name 'digit_name' is not defined"
  },
  "156.py": {
    "successful": false,
    "error_type": "NameError",
    "error_message": "name 'numbers' is not defined"
  },
  "158.py": {
    "successful": false,
    "error_type": "AssertionError"
  },
  "159.py": {
    "successful": false,
    "error_type": "AssertionError"
  },
  "160.py": {
    "successful": false,
    "error_type": "AssertionError"
  },
  "161.py": {
    "successful": false,
    "error_type": "NameError",
    "error_message": "name 'get_name' is not defined"
  },
  "162.py": {
    "successful": false,
    "error_type": "AssertionError"
  },
  "163.py": {
    "successful": false,
    "error_type": "AssertionError"
  },
  "164.py": {
    "successful": false,
    "error_type": "AssertionError"
  },
  "165.py": {
    "successful": false,
    "error_type": "NameError",
    "error_message": "name 'i_to_digit' is not defined"
  },
  "166.py": {
    "successful": false,
    "error_type": "AssertionError"
  },
  "167.py": {
    "successful": false,
    "error_type": "NameError",
    "error_message": "name 'get_digit_name' is not defined"
  },
  "168.py": {
    "successful": false,
    "error_type": "AssertionError"
  },
  "169.py": {
    "successful": false,
    "error_type": "AssertionError"
  },
  "171.py": {
    "successful": false,
    "error_type": "AssertionError"
  },
  "173.py": {
    "successful": false,
    "error_type": "NameError",
    "error_message": "name 'DIGITS' is not defined"
  },
  "174.py": {
    "successful": false,
    "error_type": "IndexError",
    "error_message": "list index out of range"
  },
  "175.py": {
    "successful": false,
    "error_type": "AssertionError"
  },
  "176.py": {
    "successful": false,
    "error_type": "NameError",
    "error_message": "name 'one_to_nine' is not defined"
  },
  "177.py": {
    "successful": false,
    "error_type": "SyntaxError",
    "error_message": "unterminated string literal (detected at line 104)"
  },
  "178.py": {
    "successful": false,
    "error_type": "NameError",
    "error_message": "name 'by_length_aux' is not defined. Did you mean"
  },
  "179.py": {
    "successful": false,
    "error_type": "AssertionError"
  },
  "180.py": {
    "successful": false,
    "error_type": "TypeError",
    "error_message": "ord() expected a character, but string of length 3 found"
  },
  "181.py": {
    "successful": false,
    "error_type": "NameError",
    "error_message": "name '_count' is not defined"
  },
  "182.py": {
    "successful": false,
    "error_type": "AssertionError"
  },
  "184.py": {
    "successful": false,
    "error_type": "NameError",
    "error_message": "name 'get_name' is not defined"
  },
  "185.py": {
    "successful": false,
    "error_type": "NameError",
    "error_message": "name 'find_name' is not defined"
  },
  "187.py": {
    "successful": false,
    "error_type": "TypeError",
    "error_message": "'NoneType' object is not subscriptable"
  },
  "188.py": {
    "successful": false,
    "error_type": "NameError",
    "error_message": "name 'by_number' is not defined"
  },
  "189.py": {
    "successful": false,
    "error_type": "AssertionError"
  },
  "190.py": {
    "successful": false,
    "error_type": "NameError",
    "error_message": "name 'name_by_number' is not defined"
  },
  "191.py": {
    "successful": false,
    "error_type": "AssertionError"
  },
  "192.py": {
    "successful": false,
    "error_type": "KeyError",
    "error_message": "'8'"
  },
  "193.py": {
    "successful": false,
    "error_type": "AssertionError"
  },
  "194.py": {
    "successful": false,
    "error_type": "AssertionError"
  },
  "195.py": {
    "successful": false,
    "error_type": "AssertionError"
  },
  "196.py": {
    "successful": false,
    "error_type": "NameError",
    "error_message": "name 'by_digits' is not defined"
  },
  "197.py": {
    "successful": false,
    "error_type": "NameError",
    "error_message": "name 'num_to_letter' is not defined"
  },
  "198.py": {
    "successful": false,
    "error_type": "AssertionError"
  },
  "199.py": {
    "successful": false,
    "error_type": "IndentationError",
    "error_message": "expected an indented block after 'elif' statement on line 58"
  }
}