{
  "test_complete": true,
  "0.py": {
    "successful": false,
    "error_type": "AssertionError"
  },
  "1.py": {
    "successful": false,
    "error_type": "NameError",
    "error_message": "name 'is_prime' is not defined"
  },
  "2.py": {
    "successful": false,
    "error_type": "IndentationError",
    "error_message": "expected an indented block after function definition on line 1"
  },
  "3.py": {
    "successful": false,
    "error_type": "AssertionError"
  },
  "5.py": {
    "successful": false,
    "error_type": "AssertionError"
  },
  "6.py": {
    "successful": false,
    "error_type": "AssertionError"
  },
  "7.py": {
    "successful": false,
    "error_type": "AssertionError"
  },
  "8.py": {
    "successful": false,
    "error_type": "SyntaxError",
    "error_message": "invalid syntax"
  },
  "9.py": {
    "successful": false,
    "error_type": "NameError",
    "error_message": "name 'is_prime' is not defined"
  },
  "10.py": {
    "successful": false,
    "error_type": "AssertionError"
  },
  "11.py": {
    "successful": false,
    "error_type": "SyntaxError",
    "error_message": "invalid syntax"
  },
  "12.py": {
    "successful": false,
    "error_type": "NameError",
    "error_message": "name 'is_prime' is not defined"
  },
  "13.py": {
    "successful": false,
    "error_type": "AssertionError"
  },
  "15.py": {
    "successful": false,
    "error_type": "AssertionError"
  },
  "16.py": {
    "successful": false,
    "error_type": "IndentationError",
    "error_message": "expected an indented block after function definition on line 1"
  },
  "19.py": {
    "successful": false,
    "error_type": "AssertionError"
  },
  "23.py": {
    "successful": false,
    "error_type": "AssertionError"
  },
  "24.py": {
    "successful": false,
    "error_type": "AssertionError"
  },
  "26.py": {
    "successful": false,
    "error_type": "AssertionError"
  },
  "27.py": {
    "successful": false,
    "error_type": "NameError",
    "error_message": "name 'is_prime' is not defined"
  },
  "28.py": {
    "successful": false,
    "error_type": "IndentationError",
    "error_message": "expected an indented block after function definition on line 1"
  },
  "30.py": {
    "successful": false,
    "error_type": "IndentationError",
    "error_message": "expected an indented block after function definition on line 1"
  },
  "34.py": {
    "successful": false,
    "error_type": "AssertionError"
  },
  "35.py": {
    "successful": false,
    "error_type": "IndentationError",
    "error_message": "expected an indented block after function definition on line 1"
  },
  "36.py": {
    "successful": false,
    "error_type": "NameError",
    "error_message": "name 'get_prime_factors' is not defined. Did you mean"
  },
  "40.py": {
    "successful": false,
    "error_type": "AssertionError"
  },
  "42.py": {
    "successful": false,
    "error_type": "AssertionError"
  },
  "45.py": {
    "successful": false,
    "error_type": "IndentationError",
    "error_message": "expected an indented block after function definition on line 1"
  },
  "46.py": {
    "successful": false,
    "error_type": "AssertionError"
  },
  "48.py": {
    "successful": false,
    "error_type": "NameError",
    "error_message": "name 'is_prime' is not defined"
  },
  "52.py": {
    "successful": false,
    "error_type": "NameError",
    "error_message": "name 'is_prime' is not defined"
  },
  "54.py": {
    "successful": false,
    "error_type": "IndentationError",
    "error_message": "expected an indented block after function definition on line 1"
  },
  "55.py": {
    "successful": false,
    "error_type": "IndentationError",
    "error_message": "expected an indented block after function definition on line 1"
  },
  "57.py": {
    "successful": false,
    "error_type": "AssertionError"
  },
  "60.py": {
    "successful": false,
    "error_type": "AssertionError"
  },
  "63.py": {
    "successful": false,
    "error_type": "AssertionError"
  },
  "65.py": {
    "successful": false,
    "error_type": "AssertionError"
  },
  "66.py": {
    "successful": false,
    "error_type": "IndentationError",
    "error_message": "expected an indented block after function definition on line 1"
  },
  "67.py": {
    "successful": false,
    "error_type": "IndentationError",
    "error_message": "expected an indented block after function definition on line 1"
  },
  "69.py": {
    "successful": false,
    "error_type": "AssertionError"
  },
  "77.py": {
    "successful": false,
    "error_type": "AssertionError"
  },
  "84.py": {
    "successful": false,
    "error_type": "AssertionError"
  },
  "86.py": {
    "successful": false,
    "error_type": "AssertionError"
  },
  "87.py": {
    "successful": false,
    "error_type": "NameError",
    "error_message": "name 'is_prime' is not defined"
  },
  "90.py": {
    "successful": false,
    "error_type": "IndentationError",
    "error_message": "expected an indented block after function definition on line 1"
  },
  "93.py": {
    "successful": false,
    "error_type": "AssertionError"
  },
  "94.py": {
    "successful": false,
    "error_type": "AssertionError"
  },
  "97.py": {
    "successful": false,
    "error_type": "AssertionError"
  },
  "98.py": {
    "successful": false,
    "error_type": "NameError",
    "error_message": "name 'get_prime_factors' is not defined. Did you mean"
  },
  "99.py": {
    "successful": false,
    "error_type": "AssertionError"
  },
  "100.py": {
    "successful": false,
    "error_type": "IndentationError",
    "error_message": "expected an indented block after function definition on line 1"
  },
  "101.py": {
    "successful": false,
    "error_type": "AssertionError"
  },
  "102.py": {
    "successful": false,
    "error_type": "NameError",
    "error_message": "name 'is_prime' is not defined"
  },
  "103.py": {
    "successful": false,
    "error_type": "AssertionError"
  },
  "105.py": {
    "successful": false,
    "error_type": "AssertionError"
  },
  "106.py": {
    "successful": false,
    "error_type": "AssertionError"
  },
  "107.py": {
    "successful": false,
    "error_type": "AssertionError"
  },
  "109.py": {
    "successful": false,
    "error_type": "AssertionError"
  },
  "111.py": {
    "successful": false,
    "error_type": "AssertionError"
  },
  "112.py": {
    "successful": false,
    "error_type": "AssertionError"
  },
  "117.py": {
    "successful": false,
    "error_type": "AssertionError"
  },
  "121.py": {
    "successful": false,
    "error_type": "AssertionError"
  },
  "123.py": {
    "successful": false,
    "error_type": "IndentationError",
    "error_message": "expected an indented block after function definition on line 1"
  },
  "124.py": {
    "successful": false,
    "error_type": "AssertionError"
  },
  "127.py": {
    "successful": false,
    "error_type": "AssertionError"
  },
  "129.py": {
    "successful": false,
    "error_type": "NameError",
    "error_message": "name 'is_prime' is not defined"
  },
  "130.py": {
    "successful": false,
    "error_type": "NameError",
    "error_message": "name 'is_prime' is not defined"
  },
  "131.py": {
    "successful": false,
    "error_type": "AssertionError"
  },
  "132.py": {
    "successful": false,
    "error_type": "IndentationError",
    "error_message": "expected an indented block after function definition on line 1"
  },
  "135.py": {
    "successful": false,
    "error_type": "AssertionError"
  },
  "136.py": {
    "successful": false,
    "error_type": "AssertionError"
  },
  "137.py": {
    "successful": false,
    "error_type": "AssertionError"
  },
  "138.py": {
    "successful": false,
    "error_type": "AssertionError"
  },
  "139.py": {
    "successful": false,
    "error_type": "AssertionError"
  },
  "141.py": {
    "successful": false,
    "error_type": "NameError",
    "error_message": "name 'is_prime' is not defined"
  },
  "142.py": {
    "successful": false,
    "error_type": "AssertionError"
  },
  "143.py": {
    "successful": false,
    "error_type": "AssertionError"
  },
  "146.py": {
    "successful": false,
    "error_type": "IndentationError",
    "error_message": "expected an indented block after function definition on line 1"
  },
  "148.py": {
    "successful": false,
    "error_type": "AssertionError"
  },
  "154.py": {
    "successful": false,
    "error_type": "AssertionError"
  },
  "155.py": {
    "successful": false,
    "error_type": "NameError",
    "error_message": "name 'is_prime' is not defined"
  },
  "156.py": {
    "successful": false,
    "error_type": "IndentationError",
    "error_message": "expected an indented block after function definition on line 1"
  },
  "157.py": {
    "successful": false,
    "error_type": "AssertionError"
  },
  "158.py": {
    "successful": false,
    "error_type": "AssertionError"
  },
  "160.py": {
    "successful": false,
    "error_type": "IndentationError",
    "error_message": "expected an indented block after function definition on line 1"
  },
  "162.py": {
    "successful": false,
    "error_type": "AssertionError"
  },
  "164.py": {
    "successful": false,
    "error_type": "AssertionError"
  },
  "171.py": {
    "successful": false,
    "error_type": "NameError",
    "error_message": "name 'is_prime' is not defined"
  },
  "173.py": {
    "successful": false,
    "error_type": "NameError",
    "error_message": "name 'is_prime' is not defined"
  },
  "174.py": {
    "successful": false,
    "error_type": "NameError",
    "error_message": "name 'is_prime' is not defined"
  },
  "175.py": {
    "successful": false,
    "error_type": "NameError",
    "error_message": "name 'is_prime' is not defined"
  },
  "177.py": {
    "successful": false,
    "error_type": "AssertionError"
  },
  "178.py": {
    "successful": false,
    "error_type": "AssertionError"
  },
  "179.py": {
    "successful": false,
    "error_type": "NameError",
    "error_message": "name 'is_prime' is not defined"
  },
  "185.py": {
    "successful": false,
    "error_type": "IndentationError",
    "error_message": "expected an indented block after function definition on line 1"
  },
  "186.py": {
    "successful": false,
    "error_type": "NameError",
    "error_message": "name 'is_prime' is not defined"
  },
  "187.py": {
    "successful": false,
    "error_type": "AssertionError"
  },
  "192.py": {
    "successful": false,
    "error_type": "NameError",
    "error_message": "name 'is_prime' is not defined"
  }
}