{
  "test_complete": true,
  "14.py": {
    "successful": true
  },
  "43.py": {
    "successful": true
  },
  "52.py": {
    "successful": true
  },
  "60.py": {
    "successful": true
  },
  "96.py": {
    "successful": true
  },
  "116.py": {
    "successful": true
  },
  "126.py": {
    "successful": true
  },
  "136.py": {
    "successful": true
  },
  "168.py": {
    "successful": true
  },
  "172.py": {
    "successful": true
  },
  "178.py": {
    "successful": true
  },
  "184.py": {
    "successful": true
  },
  "189.py": {
    "successful": false,
    "error_type": "IndentationError",
    "error_message": "expected an indented block after function definition on line 2"
  },
  "194.py": {
    "successful": true
  },
  "196.py": {
    "successful": false,
    "error_type": "AssertionError"
  }
}