{
  "test_complete": true,
  "6.py": {
    "successful": false,
    "error_type": "AssertionError"
  },
  "16.py": {
    "successful": false,
    "error_type": "AssertionError"
  },
  "21.py": {
    "successful": true
  },
  "40.py": {
    "successful": true
  },
  "44.py": {
    "successful": true
  },
  "47.py": {
    "successful": true
  },
  "53.py": {
    "successful": true
  },
  "57.py": {
    "successful": false,
    "error_type": "AssertionError"
  },
  "59.py": {
    "successful": true
  },
  "67.py": {
    "successful": true
  },
  "73.py": {
    "successful": false,
    "error_type": "AssertionError"
  },
  "77.py": {
    "successful": true
  },
  "82.py": {
    "successful": true
  },
  "94.py": {
    "successful": true
  },
  "111.py": {
    "successful": true
  },
  "112.py": {
    "successful": false,
    "error_type": "AssertionError"
  },
  "117.py": {
    "successful": true
  },
  "118.py": {
    "successful": true
  },
  "119.py": {
    "successful": true
  },
  "131.py": {
    "successful": true
  },
  "136.py": {
    "successful": false,
    "error_type": "AssertionError"
  },
  "139.py": {
    "successful": true
  },
  "149.py": {
    "successful": false,
    "error_type": "NameError",
    "error_message": "name 'sqrt' is not defined"
  },
  "155.py": {
    "successful": true
  },
  "158.py": {
    "successful": true
  },
  "163.py": {
    "successful": true
  },
  "167.py": {
    "successful": true
  },
  "168.py": {
    "successful": true
  },
  "173.py": {
    "successful": false,
    "error_type": "AssertionError"
  },
  "177.py": {
    "successful": true
  },
  "182.py": {
    "successful": false,
    "error_type": "AssertionError"
  },
  "186.py": {
    "successful": true
  },
  "187.py": {
    "successful": true
  },
  "192.py": {
    "successful": true
  },
  "194.py": {
    "successful": true
  },
  "195.py": {
    "successful": false,
    "error_type": "AssertionError"
  },
  "196.py": {
    "successful": true
  }
}