{
  "test_complete": true,
  "0.py": {
    "successful": false,
    "error_type": "NameError",
    "error_message": "name 'all_parens_are_balanced' is not defined"
  },
  "1.py": {
    "successful": false,
    "error_type": "NameError",
    "error_message": "name 'all_parens_balanced' is not defined"
  },
  "2.py": {
    "successful": false,
    "error_type": "NameError",
    "error_message": "name 'all_parens_are_balanced' is not defined"
  },
  "6.py": {
    "successful": false,
    "error_type": "NameError",
    "error_message": "name 'all_parens' is not defined. Did you mean"
  },
  "7.py": {
    "successful": false,
    "error_type": "IndentationError",
    "error_message": "expected an indented block after function definition on line 1"
  },
  "10.py": {
    "successful": false,
    "error_type": "SyntaxError",
    "error_message": "expected 'else' after 'if' expression"
  },
  "11.py": {
    "successful": false,
    "error_type": "IndentationError",
    "error_message": "expected an indented block after function definition on line 4"
  },
  "12.py": {
    "successful": false,
    "error_type": "IndentationError",
    "error_message": "expected an indented block after function definition on line 1"
  },
  "14.py": {
    "successful": false,
    "error_type": "SyntaxError",
    "error_message": "unmatched ')'"
  },
  "15.py": {
    "successful": false,
    "error_type": "IndentationError",
    "error_message": "expected an indented block after function definition on line 4"
  },
  "16.py": {
    "successful": false,
    "error_type": "IndentationError",
    "error_message": "expected an indented block after function definition on line 4"
  },
  "17.py": {
    "successful": false,
    "error_type": "SyntaxError",
    "error_message": "expected 'else' after 'if' expression"
  },
  "18.py": {
    "successful": false,
    "error_type": "NameError",
    "error_message": "name 'all_parens_balanced' is not defined"
  },
  "19.py": {
    "successful": false,
    "error_type": "SyntaxError",
    "error_message": "expected 'else' after 'if' expression"
  },
  "21.py": {
    "successful": false,
    "error_type": "SyntaxError",
    "error_message": "'[' was never closed"
  },
  "22.py": {
    "successful": false,
    "error_type": "AssertionError"
  },
  "23.py": {
    "successful": false,
    "error_type": "SyntaxError",
    "error_message": "expected 'else' after 'if' expression"
  },
  "27.py": {
    "successful": false,
    "error_type": "NameError",
    "error_message": "name 'all_parens' is not defined. Did you mean"
  },
  "28.py": {
    "successful": false,
    "error_type": "NameError",
    "error_message": "name 'all_parens_are_balanced' is not defined"
  },
  "29.py": {
    "successful": false,
    "error_type": "NameError",
    "error_message": "name 'is_parens' is not defined"
  },
  "30.py": {
    "successful": false,
    "error_type": "SyntaxError",
    "error_message": "expected 'else' after 'if' expression"
  },
  "31.py": {
    "successful": false,
    "error_type": "SyntaxError",
    "error_message": "invalid syntax"
  },
  "34.py": {
    "successful": false,
    "error_type": "SyntaxError",
    "error_message": "expected 'else' after 'if' expression"
  },
  "35.py": {
    "successful": false,
    "error_type": "AttributeError",
    "error_message": "'str' object has no attribute 'isbalanced'"
  },
  "36.py": {
    "successful": false,
    "error_type": "IndentationError",
    "error_message": "expected an indented block after function definition on line 6"
  },
  "38.py": {
    "successful": false,
    "error_type": "AssertionError"
  },
  "41.py": {
    "successful": false,
    "error_type": "NameError",
    "error_message": "name 'all_parens_are_balanced' is not defined"
  },
  "42.py": {
    "successful": false,
    "error_type": "SyntaxError",
    "error_message": "expected '('"
  },
  "43.py": {
    "successful": false,
    "error_type": "NameError",
    "error_message": "name 'all_parens_balanced' is not defined"
  },
  "45.py": {
    "successful": false,
    "error_type": "AssertionError"
  },
  "46.py": {
    "successful": false,
    "error_type": "NameError",
    "error_message": "name 'all_parens' is not defined. Did you mean"
  },
  "47.py": {
    "successful": false,
    "error_type": "AssertionError"
  },
  "48.py": {
    "successful": false,
    "error_type": "SyntaxError",
    "error_message": "expected '"
  },
  "49.py": {
    "successful": false,
    "error_type": "IndentationError",
    "error_message": "expected an indented block after function definition on line 4"
  },
  "53.py": {
    "successful": false,
    "error_type": "NameError",
    "error_message": "name 'all_parens_are_balanced' is not defined"
  },
  "55.py": {
    "successful": false,
    "error_type": "SyntaxError",
    "error_message": "expected 'else' after 'if' expression"
  },
  "60.py": {
    "successful": false,
    "error_type": "AttributeError",
    "error_message": "'str' object has no attribute 'isbalanced'"
  },
  "61.py": {
    "successful": false,
    "error_type": "NameError",
    "error_message": "name 'all_parens' is not defined. Did you mean"
  },
  "63.py": {
    "successful": false,
    "error_type": "SyntaxError",
    "error_message": "'(' was never closed"
  },
  "65.py": {
    "successful": false,
    "error_type": "NameError",
    "error_message": "name 'all_parens' is not defined. Did you mean"
  },
  "68.py": {
    "successful": false,
    "error_type": "IndentationError",
    "error_message": "expected an indented block after function definition on line 4"
  },
  "70.py": {
    "successful": false,
    "error_type": "NameError",
    "error_message": "name 'all_parens_balanced' is not defined"
  },
  "71.py": {
    "successful": false,
    "error_type": "IndentationError",
    "error_message": "expected an indented block after function definition on line 3"
  },
  "74.py": {
    "successful": false,
    "error_type": "NameError",
    "error_message": "name 'all_parens' is not defined. Did you mean"
  },
  "75.py": {
    "successful": false,
    "error_type": "SyntaxError",
    "error_message": "'(' was never closed"
  },
  "76.py": {
    "successful": false,
    "error_type": "AssertionError"
  },
  "80.py": {
    "successful": false,
    "error_type": "IndentationError",
    "error_message": "expected an indented block after function definition on line 4"
  },
  "81.py": {
    "successful": false,
    "error_type": "IndentationError",
    "error_message": "expected an indented block after function definition on line 1"
  },
  "84.py": {
    "successful": false,
    "error_type": "AssertionError"
  },
  "85.py": {
    "successful": false,
    "error_type": "AttributeError",
    "error_message": "'str' object has no attribute 'is_balanced'"
  },
  "86.py": {
    "successful": false,
    "error_type": "AttributeError",
    "error_message": "'str' object has no attribute 'isbalanced'"
  },
  "88.py": {
    "successful": false,
    "error_type": "NameError",
    "error_message": "name 'is_paren_balanced' is not defined"
  },
  "89.py": {
    "successful": false,
    "error_type": "IndentationError",
    "error_message": "expected an indented block after function definition on line 4"
  },
  "94.py": {
    "successful": false,
    "error_type": "NameError",
    "error_message": "name 'is_parens' is not defined"
  },
  "97.py": {
    "successful": false,
    "error_type": "SyntaxError",
    "error_message": "expected 'else' after 'if' expression"
  },
  "98.py": {
    "successful": false,
    "error_type": "SyntaxError",
    "error_message": "expected '"
  },
  "105.py": {
    "successful": false,
    "error_type": "AttributeError",
    "error_message": "'str' object has no attribute 'isbalanced'"
  },
  "108.py": {
    "successful": false,
    "error_type": "AssertionError"
  },
  "111.py": {
    "successful": false,
    "error_type": "IndentationError",
    "error_message": "expected an indented block after function definition on line 4"
  },
  "112.py": {
    "successful": false,
    "error_type": "AssertionError"
  },
  "113.py": {
    "successful": false,
    "error_type": "IndentationError",
    "error_message": "expected an indented block after function definition on line 4"
  },
  "116.py": {
    "successful": false,
    "error_type": "NameError",
    "error_message": "name 'is_balanced' is not defined"
  },
  "117.py": {
    "successful": false,
    "error_type": "SyntaxError",
    "error_message": "'(' was never closed"
  },
  "122.py": {
    "successful": false,
    "error_type": "IndentationError",
    "error_message": "expected an indented block after function definition on line 5"
  },
  "124.py": {
    "successful": false,
    "error_type": "SyntaxError",
    "error_message": "expected 'else' after 'if' expression"
  },
  "125.py": {
    "successful": false,
    "error_type": "SyntaxError",
    "error_message": "'[' was never closed"
  },
  "126.py": {
    "successful": false,
    "error_type": "AssertionError"
  },
  "128.py": {
    "successful": false,
    "error_type": "SyntaxError",
    "error_message": "expected 'else' after 'if' expression"
  },
  "133.py": {
    "successful": false,
    "error_type": "AssertionError"
  },
  "136.py": {
    "successful": false,
    "error_type": "NameError",
    "error_message": "name 'all_parens' is not defined. Did you mean"
  },
  "138.py": {
    "successful": false,
    "error_type": "SyntaxError",
    "error_message": "expected 'else' after 'if' expression"
  },
  "140.py": {
    "successful": false,
    "error_type": "SyntaxError",
    "error_message": "expected 'else' after 'if' expression"
  },
  "141.py": {
    "successful": false,
    "error_type": "IndentationError",
    "error_message": "expected an indented block after function definition on line 1"
  },
  "146.py": {
    "successful": false,
    "error_type": "IndentationError",
    "error_message": "expected an indented block after function definition on line 4"
  },
  "149.py": {
    "successful": false,
    "error_type": "SyntaxError",
    "error_message": "'(' was never closed"
  },
  "152.py": {
    "successful": false,
    "error_type": "AssertionError"
  },
  "157.py": {
    "successful": false,
    "error_type": "NameError",
    "error_message": "name 'all_parens_balanced' is not defined"
  },
  "158.py": {
    "successful": false,
    "error_type": "SyntaxError",
    "error_message": "expected 'else' after 'if' expression"
  },
  "159.py": {
    "successful": false,
    "error_type": "NameError",
    "error_message": "name 'is_balanced' is not defined"
  },
  "160.py": {
    "successful": false,
    "error_type": "SyntaxError",
    "error_message": "expected '('"
  },
  "162.py": {
    "successful": false,
    "error_type": "AssertionError"
  },
  "163.py": {
    "successful": false,
    "error_type": "AttributeError",
    "error_message": "'str' object has no attribute 'is_balanced'"
  },
  "167.py": {
    "successful": false,
    "error_type": "IndentationError",
    "error_message": "expected an indented block after function definition on line 4"
  },
  "168.py": {
    "successful": false,
    "error_type": "SyntaxError",
    "error_message": "unterminated string literal (detected at line 24)"
  },
  "169.py": {
    "successful": false,
    "error_type": "ValueError",
    "error_message": "too many values to unpack (expected 2)"
  },
  "170.py": {
    "successful": false,
    "error_type": "AssertionError"
  },
  "173.py": {
    "successful": false,
    "error_type": "NameError",
    "error_message": "name 'S' is not defined"
  },
  "175.py": {
    "successful": false,
    "error_type": "IndentationError",
    "error_message": "expected an indented block after function definition on line 4"
  },
  "177.py": {
    "successful": false,
    "error_type": "NameError",
    "error_message": "name 'all_parens_balanced' is not defined"
  },
  "180.py": {
    "successful": false,
    "error_type": "NameError",
    "error_message": "name 's' is not defined"
  },
  "183.py": {
    "successful": false,
    "error_type": "NameError",
    "error_message": "name 'S' is not defined"
  },
  "185.py": {
    "successful": false,
    "error_type": "SyntaxError",
    "error_message": "'(' was never closed"
  },
  "186.py": {
    "successful": false,
    "error_type": "IndentationError",
    "error_message": "expected an indented block after function definition on line 1"
  },
  "190.py": {
    "successful": false,
    "error_type": "SyntaxError",
    "error_message": "'(' was never closed"
  },
  "196.py": {
    "successful": false,
    "error_type": "AssertionError"
  }
}