{
  "test_complete": true,
  "3.py": {
    "successful": false,
    "error_type": "TypeError",
    "error_message": "type str doesn't define __round__ method"
  },
  "6.py": {
    "successful": false,
    "error_type": "TypeError",
    "error_message": "type str doesn't define __round__ method"
  },
  "10.py": {
    "successful": false,
    "error_type": "TypeError",
    "error_message": "type str doesn't define __round__ method"
  },
  "11.py": {
    "successful": false,
    "error_type": "TypeError",
    "error_message": "type str doesn't define __round__ method"
  },
  "12.py": {
    "successful": false,
    "error_type": "TypeError",
    "error_message": "type str doesn't define __round__ method"
  },
  "16.py": {
    "successful": false,
    "error_type": "TypeError",
    "error_message": "type str doesn't define __round__ method"
  },
  "22.py": {
    "successful": false,
    "error_type": "TypeError",
    "error_message": "type str doesn't define __round__ method"
  },
  "28.py": {
    "successful": false,
    "error_type": "TypeError",
    "error_message": "type str doesn't define __round__ method"
  },
  "35.py": {
    "successful": false,
    "error_type": "SyntaxError",
    "error_message": "unmatched ')'"
  },
  "58.py": {
    "successful": false,
    "error_type": "SyntaxError",
    "error_message": "'(' was never closed"
  },
  "79.py": {
    "successful": false,
    "error_type": "TypeError",
    "error_message": "type str doesn't define __round__ method"
  },
  "192.py": {
    "successful": false,
    "error_type": "TypeError",
    "error_message": "type str doesn't define __round__ method"
  }
}