{
  "test_complete": true,
  "0.py": {
    "successful": false,
    "error_type": "ValueError",
    "error_message": "Lists must have the same length"
  },
  "3.py": {
    "successful": false,
    "error_type": "TypeError",
    "error_message": "'int' object is not subscriptable"
  },
  "6.py": {
    "successful": false,
    "error_type": "ValueError",
    "error_message": "Lists must have the same length"
  },
  "9.py": {
    "successful": false,
    "error_type": "AssertionError"
  },
  "10.py": {
    "successful": false,
    "error_type": "TypeError",
    "error_message": "unsupported operand type(s) for &"
  },
  "12.py": {
    "successful": false,
    "error_type": "AssertionError"
  },
  "14.py": {
    "successful": false,
    "error_type": "AssertionError"
  },
  "15.py": {
    "successful": false,
    "error_type": "AttributeError",
    "error_message": "'list' object has no attribute 'size'"
  },
  "16.py": {
    "successful": false,
    "error_type": "TypeError",
    "error_message": "'int' object is not subscriptable"
  },
  "25.py": {
    "successful": false,
    "error_type": "TypeError",
    "error_message": "'NoneType' object is not iterable"
  },
  "26.py": {
    "successful": false,
    "error_type": "RecursionError",
    "error_message": "maximum recursion depth exceeded"
  },
  "28.py": {
    "successful": false,
    "error_type": "RecursionError",
    "error_message": "maximum recursion depth exceeded"
  },
  "29.py": {
    "successful": false,
    "error_type": "ValueError",
    "error_message": "Lists must have the same length"
  },
  "33.py": {
    "successful": false,
    "error_type": "ValueError",
    "error_message": "Lists must have the same length"
  },
  "35.py": {
    "successful": false,
    "error_type": "ValueError",
    "error_message": "Lists must have the same length"
  },
  "40.py": {
    "successful": false,
    "error_type": "TypeError",
    "error_message": "'NoneType' object is not iterable"
  },
  "41.py": {
    "successful": false,
    "error_type": "ValueError",
    "error_message": "Lists must have the same length"
  },
  "43.py": {
    "successful": false,
    "error_type": "TypeError",
    "error_message": "'int' object is not subscriptable"
  },
  "52.py": {
    "successful": false,
    "error_type": "TypeError",
    "error_message": "'int' object is not subscriptable"
  },
  "54.py": {
    "successful": false,
    "error_type": "TypeError",
    "error_message": "'NoneType' object is not iterable"
  },
  "57.py": {
    "successful": false,
    "error_type": "TypeError",
    "error_message": "'int' object is not subscriptable"
  },
  "68.py": {
    "successful": false,
    "error_type": "TypeError",
    "error_message": "'int' object is not subscriptable"
  },
  "76.py": {
    "successful": false,
    "error_type": "TypeError",
    "error_message": "'int' object is not subscriptable"
  },
  "77.py": {
    "successful": false,
    "error_type": "ValueError",
    "error_message": "Lists must have the same length"
  },
  "81.py": {
    "successful": false,
    "error_type": "SyntaxError",
    "error_message": "unterminated string literal (detected at line 39)"
  },
  "82.py": {
    "successful": false,
    "error_type": "UnboundLocalError",
    "error_message": "cannot access local variable 'common' where it is not associated with a value"
  },
  "88.py": {
    "successful": false,
    "error_type": "ValueError",
    "error_message": "Lists must have the same length"
  },
  "92.py": {
    "successful": false,
    "error_type": "AssertionError"
  },
  "117.py": {
    "successful": false,
    "error_type": "TypeError",
    "error_message": "'int' object is not subscriptable"
  },
  "118.py": {
    "successful": false,
    "error_type": "AttributeError",
    "error_message": "'list' object has no attribute 'size'"
  },
  "123.py": {
    "successful": false,
    "error_type": "AssertionError"
  },
  "129.py": {
    "successful": false,
    "error_type": "ValueError",
    "error_message": "Lists must have the same length"
  },
  "132.py": {
    "successful": false,
    "error_type": "TypeError",
    "error_message": "'int' object is not subscriptable"
  },
  "137.py": {
    "successful": false,
    "error_type": "TypeError",
    "error_message": "'int' object is not subscriptable"
  },
  "139.py": {
    "successful": false,
    "error_type": "ValueError",
    "error_message": "Lists must have the same length"
  },
  "140.py": {
    "successful": false,
    "error_type": "ValueError",
    "error_message": "Lengths must be the same"
  },
  "141.py": {
    "successful": false,
    "error_type": "AssertionError"
  },
  "146.py": {
    "successful": false,
    "error_type": "AssertionError"
  },
  "151.py": {
    "successful": false,
    "error_type": "RecursionError",
    "error_message": "maximum recursion depth exceeded"
  },
  "152.py": {
    "successful": false,
    "error_type": "ValueError",
    "error_message": "Elements must be equal"
  },
  "153.py": {
    "successful": false,
    "error_type": "ValueError",
    "error_message": "Lists must have the same length"
  },
  "154.py": {
    "successful": false,
    "error_type": "TypeError",
    "error_message": "'int' object is not subscriptable"
  },
  "159.py": {
    "successful": false,
    "error_type": "RecursionError",
    "error_message": "maximum recursion depth exceeded"
  },
  "160.py": {
    "successful": false,
    "error_type": "ValueError",
    "error_message": "Lists must have the same length"
  },
  "161.py": {
    "successful": false,
    "error_type": "TypeError",
    "error_message": "'int' object is not subscriptable"
  },
  "163.py": {
    "successful": false,
    "error_type": "ValueError",
    "error_message": "Lists must have the same length"
  },
  "165.py": {
    "successful": false,
    "error_type": "AssertionError"
  },
  "166.py": {
    "successful": false,
    "error_type": "SyntaxError",
    "error_message": "unterminated string literal (detected at line 33)"
  },
  "168.py": {
    "successful": false,
    "error_type": "RecursionError",
    "error_message": "maximum recursion depth exceeded"
  },
  "171.py": {
    "successful": false,
    "error_type": "AssertionError"
  },
  "175.py": {
    "successful": false,
    "error_type": "AttributeError",
    "error_message": "'list' object has no attribute 'size'"
  },
  "176.py": {
    "successful": false,
    "error_type": "AssertionError"
  },
  "180.py": {
    "successful": false,
    "error_type": "AssertionError"
  },
  "196.py": {
    "successful": false,
    "error_type": "AttributeError",
    "error_message": "'list' object has no attribute 'size'"
  }
}