{
  "test_complete": true,
  "1.py": {
    "successful": false,
    "error_type": "NameError",
    "error_message": "name 'min_' is not defined. Did you mean"
  },
  "2.py": {
    "successful": false,
    "error_type": "AssertionError"
  },
  "3.py": {
    "successful": false,
    "error_type": "AssertionError"
  },
  "9.py": {
    "successful": true
  },
  "10.py": {
    "successful": false,
    "error_type": "AssertionError"
  },
  "13.py": {
    "successful": false,
    "error_type": "AssertionError"
  },
  "14.py": {
    "successful": false,
    "error_type": "AssertionError"
  },
  "18.py": {
    "successful": false,
    "error_type": "AssertionError"
  },
  "20.py": {
    "successful": false,
    "error_type": "NameError",
    "error_message": "name 'min_' is not defined. Did you mean"
  },
  "22.py": {
    "successful": false,
    "error_type": "NameError",
    "error_message": "name 'min_' is not defined. Did you mean"
  },
  "24.py": {
    "successful": false,
    "error_type": "AssertionError"
  },
  "25.py": {
    "successful": false,
    "error_type": "NameError",
    "error_message": "name 'min_' is not defined. Did you mean"
  },
  "26.py": {
    "successful": false,
    "error_type": "AssertionError"
  },
  "27.py": {
    "successful": false,
    "error_type": "AssertionError"
  },
  "28.py": {
    "successful": false,
    "error_type": "TimeOut"
  },
  "29.py": {
    "successful": false,
    "error_type": "AssertionError"
  },
  "32.py": {
    "successful": false,
    "error_type": "AssertionError"
  },
  "34.py": {
    "successful": false,
    "error_type": "AssertionError"
  },
  "35.py": {
    "successful": false,
    "error_type": "AssertionError"
  },
  "36.py": {
    "successful": false,
    "error_type": "SyntaxError",
    "error_message": "invalid syntax"
  },
  "37.py": {
    "successful": false,
    "error_type": "AssertionError"
  },
  "39.py": {
    "successful": false,
    "error_type": "AssertionError"
  },
  "40.py": {
    "successful": false,
    "error_type": "NameError",
    "error_message": "name 'min_' is not defined. Did you mean"
  },
  "42.py": {
    "successful": false,
    "error_type": "AssertionError"
  },
  "43.py": {
    "successful": false,
    "error_type": "AssertionError"
  },
  "44.py": {
    "successful": false,
    "error_type": "AssertionError"
  },
  "46.py": {
    "successful": false,
    "error_type": "AssertionError"
  },
  "48.py": {
    "successful": false,
    "error_type": "AssertionError"
  },
  "49.py": {
    "successful": false,
    "error_type": "AssertionError"
  },
  "50.py": {
    "successful": false,
    "error_type": "AssertionError"
  },
  "51.py": {
    "successful": false,
    "error_type": "AssertionError"
  },
  "52.py": {
    "successful": false,
    "error_type": "AssertionError"
  },
  "58.py": {
    "successful": false,
    "error_type": "AssertionError"
  },
  "59.py": {
    "successful": false,
    "error_type": "NameError",
    "error_message": "name 'min_' is not defined. Did you mean"
  },
  "60.py": {
    "successful": false,
    "error_type": "AssertionError"
  },
  "63.py": {
    "successful": false,
    "error_type": "AssertionError"
  },
  "65.py": {
    "successful": false,
    "error_type": "NameError",
    "error_message": "name 'min_' is not defined. Did you mean"
  },
  "66.py": {
    "successful": false,
    "error_type": "AssertionError"
  },
  "72.py": {
    "successful": false,
    "error_type": "AssertionError"
  },
  "74.py": {
    "successful": false,
    "error_type": "AssertionError"
  },
  "75.py": {
    "successful": false,
    "error_type": "NameError",
    "error_message": "name 'min_' is not defined. Did you mean"
  },
  "79.py": {
    "successful": false,
    "error_type": "NameError",
    "error_message": "name 'min_' is not defined. Did you mean"
  },
  "80.py": {
    "successful": false,
    "error_type": "AssertionError"
  },
  "82.py": {
    "successful": false,
    "error_type": "AssertionError"
  },
  "85.py": {
    "successful": false,
    "error_type": "AssertionError"
  },
  "91.py": {
    "successful": false,
    "error_type": "NameError",
    "error_message": "name 'min_' is not defined. Did you mean"
  },
  "92.py": {
    "successful": false,
    "error_type": "NameError",
    "error_message": "name 'min_' is not defined. Did you mean"
  },
  "93.py": {
    "successful": false,
    "error_type": "AssertionError"
  },
  "94.py": {
    "successful": false,
    "error_type": "NameError",
    "error_message": "name 'min_' is not defined. Did you mean"
  },
  "95.py": {
    "successful": false,
    "error_type": "AssertionError"
  },
  "96.py": {
    "successful": false,
    "error_type": "AssertionError"
  },
  "98.py": {
    "successful": false,
    "error_type": "AssertionError"
  },
  "103.py": {
    "successful": false,
    "error_type": "AssertionError"
  },
  "104.py": {
    "successful": false,
    "error_type": "NameError",
    "error_message": "name 'min_' is not defined. Did you mean"
  },
  "106.py": {
    "successful": false,
    "error_type": "AssertionError"
  },
  "107.py": {
    "successful": false,
    "error_type": "NameError",
    "error_message": "name 'min_' is not defined. Did you mean"
  },
  "109.py": {
    "successful": false,
    "error_type": "SyntaxError",
    "error_message": "invalid syntax"
  },
  "110.py": {
    "successful": false,
    "error_type": "AssertionError"
  },
  "112.py": {
    "successful": false,
    "error_type": "AssertionError"
  },
  "115.py": {
    "successful": false,
    "error_type": "NameError",
    "error_message": "name 'min_' is not defined. Did you mean"
  },
  "116.py": {
    "successful": false,
    "error_type": "AssertionError"
  },
  "118.py": {
    "successful": false,
    "error_type": "AssertionError"
  },
  "119.py": {
    "successful": true
  },
  "120.py": {
    "successful": false,
    "error_type": "AssertionError"
  },
  "121.py": {
    "successful": false,
    "error_type": "AssertionError"
  },
  "122.py": {
    "successful": false,
    "error_type": "AssertionError"
  },
  "126.py": {
    "successful": false,
    "error_type": "UnboundLocalError",
    "error_message": "cannot access local variable 'minSum' where it is not associated with a value"
  },
  "129.py": {
    "successful": false,
    "error_type": "AssertionError"
  },
  "130.py": {
    "successful": false,
    "error_type": "AssertionError"
  },
  "131.py": {
    "successful": false,
    "error_type": "AssertionError"
  },
  "133.py": {
    "successful": false,
    "error_type": "NameError",
    "error_message": "name 'min_' is not defined. Did you mean"
  },
  "134.py": {
    "successful": false,
    "error_type": "AssertionError"
  },
  "136.py": {
    "successful": false,
    "error_type": "AssertionError"
  },
  "137.py": {
    "successful": false,
    "error_type": "AssertionError"
  },
  "143.py": {
    "successful": false,
    "error_type": "AssertionError"
  },
  "144.py": {
    "successful": false,
    "error_type": "NameError",
    "error_message": "name 'min_' is not defined. Did you mean"
  },
  "146.py": {
    "successful": false,
    "error_type": "AssertionError"
  },
  "154.py": {
    "successful": false,
    "error_type": "AssertionError"
  },
  "157.py": {
    "successful": false,
    "error_type": "AssertionError"
  },
  "159.py": {
    "successful": false,
    "error_type": "NameError",
    "error_message": "name 'min_' is not defined. Did you mean"
  },
  "160.py": {
    "successful": false,
    "error_type": "NameError",
    "error_message": "name 'min_' is not defined. Did you mean"
  },
  "161.py": {
    "successful": false,
    "error_type": "AssertionError"
  },
  "162.py": {
    "successful": false,
    "error_type": "AssertionError"
  },
  "163.py": {
    "successful": false,
    "error_type": "AssertionError"
  },
  "164.py": {
    "successful": false,
    "error_type": "AssertionError"
  },
  "165.py": {
    "successful": false,
    "error_type": "NameError",
    "error_message": "name 'min_' is not defined. Did you mean"
  },
  "166.py": {
    "successful": false,
    "error_type": "AssertionError"
  },
  "167.py": {
    "successful": false,
    "error_type": "AssertionError"
  },
  "171.py": {
    "successful": false,
    "error_type": "AssertionError"
  },
  "172.py": {
    "successful": false,
    "error_type": "AssertionError"
  },
  "173.py": {
    "successful": false,
    "error_type": "AssertionError"
  },
  "177.py": {
    "successful": false,
    "error_type": "NameError",
    "error_message": "name 'min_' is not defined. Did you mean"
  },
  "178.py": {
    "successful": false,
    "error_type": "AssertionError"
  },
  "179.py": {
    "successful": false,
    "error_type": "NameError",
    "error_message": "name 'min_' is not defined. Did you mean"
  },
  "180.py": {
    "successful": false,
    "error_type": "AssertionError"
  },
  "184.py": {
    "successful": false,
    "error_type": "AssertionError"
  },
  "185.py": {
    "successful": false,
    "error_type": "AssertionError"
  },
  "187.py": {
    "successful": true
  },
  "188.py": {
    "successful": false,
    "error_type": "NameError",
    "error_message": "name 'min_' is not defined. Did you mean"
  },
  "189.py": {
    "successful": false,
    "error_type": "AssertionError"
  },
  "190.py": {
    "successful": false,
    "error_type": "AssertionError"
  },
  "192.py": {
    "successful": false,
    "error_type": "NameError",
    "error_message": "name 'min_' is not defined. Did you mean"
  },
  "193.py": {
    "successful": false,
    "error_type": "AssertionError"
  },
  "195.py": {
    "successful": false,
    "error_type": "AssertionError"
  }
}