{
  "test_complete": true,
  "33.py": {
    "successful": false,
    "error_type": "NameError",
    "error_message": "name 'max_' is not defined. Did you mean"
  },
  "47.py": {
    "successful": false,
    "error_type": "NameError",
    "error_message": "name 'max_' is not defined. Did you mean"
  },
  "66.py": {
    "successful": false,
    "error_type": "NameError",
    "error_message": "name 'max_' is not defined. Did you mean"
  },
  "79.py": {
    "successful": false,
    "error_type": "NameError",
    "error_message": "name 'max_' is not defined. Did you mean"
  },
  "92.py": {
    "successful": false,
    "error_type": "NameError",
    "error_message": "name 'max_' is not defined. Did you mean"
  },
  "123.py": {
    "successful": true
  }
}