{
  "test_complete": true,
  "4.py": {
    "successful": false,
    "error_type": "NameError",
    "error_message": "name 'a' is not defined"
  },
  "5.py": {
    "successful": false,
    "error_type": "AssertionError"
  },
  "9.py": {
    "successful": false,
    "error_type": "NameError",
    "error_message": "name 'a' is not defined"
  },
  "11.py": {
    "successful": false,
    "error_type": "AssertionError"
  },
  "13.py": {
    "successful": false,
    "error_type": "NameError",
    "error_message": "name 'a' is not defined"
  },
  "14.py": {
    "successful": false,
    "error_type": "AssertionError"
  },
  "16.py": {
    "successful": false,
    "error_type": "IndexError",
    "error_message": "list index out of range"
  },
  "18.py": {
    "successful": false,
    "error_type": "IndexError",
    "error_message": "list index out of range"
  },
  "19.py": {
    "successful": false,
    "error_type": "NameError",
    "error_message": "name 'a' is not defined"
  },
  "27.py": {
    "successful": false,
    "error_type": "NameError",
    "error_message": "name 'a' is not defined"
  },
  "29.py": {
    "successful": false,
    "error_type": "IndexError",
    "error_message": "list index out of range"
  },
  "30.py": {
    "successful": false,
    "error_type": "NameError",
    "error_message": "name 'a' is not defined"
  },
  "34.py": {
    "successful": false,
    "error_type": "IndexError",
    "error_message": "list index out of range"
  },
  "48.py": {
    "successful": false,
    "error_type": "NameError",
    "error_message": "name 'a' is not defined"
  },
  "55.py": {
    "successful": false,
    "error_type": "UnboundLocalError",
    "error_message": "cannot access local variable 'j' where it is not associated with a value"
  },
  "68.py": {
    "successful": false,
    "error_type": "AssertionError"
  },
  "70.py": {
    "successful": false,
    "error_type": "NameError",
    "error_message": "name 'a' is not defined"
  },
  "77.py": {
    "successful": false,
    "error_type": "NameError",
    "error_message": "name 'a' is not defined"
  },
  "94.py": {
    "successful": false,
    "error_type": "AssertionError"
  },
  "96.py": {
    "successful": false,
    "error_type": "AssertionError"
  },
  "101.py": {
    "successful": false,
    "error_type": "NameError",
    "error_message": "name 'a' is not defined"
  },
  "118.py": {
    "successful": false,
    "error_type": "NameError",
    "error_message": "name 'a' is not defined"
  },
  "142.py": {
    "successful": false,
    "error_type": "NameError",
    "error_message": "name 'a' is not defined"
  },
  "164.py": {
    "successful": false,
    "error_type": "AssertionError"
  },
  "168.py": {
    "successful": false,
    "error_type": "NameError",
    "error_message": "name 'a' is not defined"
  },
  "180.py": {
    "successful": false,
    "error_type": "NameError",
    "error_message": "name 'a' is not defined"
  },
  "189.py": {
    "successful": false,
    "error_type": "NameError",
    "error_message": "name 'a' is not defined"
  }
}