{
  "test_complete": true,
  "4.py": {
    "successful": true
  },
  "9.py": {
    "successful": true
  },
  "19.py": {
    "successful": true
  },
  "25.py": {
    "successful": true
  },
  "42.py": {
    "successful": true
  },
  "43.py": {
    "successful": true
  },
  "44.py": {
    "successful": true
  },
  "53.py": {
    "successful": true
  },
  "58.py": {
    "successful": true
  },
  "66.py": {
    "successful": true
  },
  "67.py": {
    "successful": true
  },
  "68.py": {
    "successful": true
  },
  "69.py": {
    "successful": true
  },
  "70.py": {
    "successful": true
  },
  "71.py": {
    "successful": false,
    "error_type": "AssertionError"
  },
  "76.py": {
    "successful": true
  },
  "79.py": {
    "successful": true
  },
  "82.py": {
    "successful": true
  },
  "130.py": {
    "successful": true
  },
  "134.py": {
    "successful": true
  },
  "145.py": {
    "successful": true
  },
  "146.py": {
    "successful": false,
    "error_type": "AssertionError"
  },
  "175.py": {
    "successful": true
  },
  "198.py": {
    "successful": true
  }
}