{
  "test_complete": true,
  "15.py": {
    "successful": true
  },
  "16.py": {
    "successful": true
  },
  "52.py": {
    "successful": true
  },
  "65.py": {
    "successful": true
  },
  "84.py": {
    "successful": true
  },
  "86.py": {
    "successful": true
  },
  "107.py": {
    "successful": true
  },
  "113.py": {
    "successful": true
  },
  "125.py": {
    "successful": true
  },
  "190.py": {
    "successful": true
  }
}