{
  "test_complete": true,
  "9.py": {
    "successful": true
  },
  "19.py": {
    "successful": true
  },
  "39.py": {
    "successful": true
  },
  "46.py": {
    "successful": true
  },
  "47.py": {
    "successful": true
  },
  "63.py": {
    "successful": true
  },
  "67.py": {
    "successful": true
  },
  "68.py": {
    "successful": true
  },
  "70.py": {
    "successful": true
  },
  "81.py": {
    "successful": true
  },
  "83.py": {
    "successful": true
  },
  "93.py": {
    "successful": true
  },
  "98.py": {
    "successful": true
  },
  "106.py": {
    "successful": true
  },
  "120.py": {
    "successful": true
  },
  "123.py": {
    "successful": true
  },
  "124.py": {
    "successful": true
  },
  "125.py": {
    "successful": true
  },
  "126.py": {
    "successful": true
  },
  "127.py": {
    "successful": true
  },
  "141.py": {
    "successful": true
  },
  "149.py": {
    "successful": true
  },
  "150.py": {
    "successful": true
  },
  "152.py": {
    "successful": true
  },
  "153.py": {
    "successful": true
  },
  "156.py": {
    "successful": true
  },
  "163.py": {
    "successful": true
  },
  "171.py": {
    "successful": true
  },
  "175.py": {
    "successful": true
  },
  "179.py": {
    "successful": true
  },
  "180.py": {
    "successful": true
  },
  "181.py": {
    "successful": true
  },
  "188.py": {
    "successful": true
  },
  "193.py": {
    "successful": true
  },
  "194.py": {
    "successful": true
  },
  "195.py": {
    "successful": true
  }
}