{
  "test_complete": true,
  "6.py": {
    "successful": true
  },
  "13.py": {
    "successful": true
  },
  "16.py": {
    "successful": true
  },
  "19.py": {
    "successful": true
  },
  "35.py": {
    "successful": true
  },
  "42.py": {
    "successful": true
  },
  "52.py": {
    "successful": true
  },
  "56.py": {
    "successful": false,
    "error_type": "AssertionError"
  },
  "62.py": {
    "successful": true
  },
  "63.py": {
    "successful": false,
    "error_type": "AssertionError"
  },
  "65.py": {
    "successful": true
  },
  "67.py": {
    "successful": false,
    "error_type": "AssertionError"
  },
  "68.py": {
    "successful": true
  },
  "85.py": {
    "successful": true
  },
  "89.py": {
    "successful": true
  },
  "94.py": {
    "successful": true
  },
  "100.py": {
    "successful": true
  },
  "101.py": {
    "successful": true
  },
  "110.py": {
    "successful": true
  },
  "115.py": {
    "successful": true
  },
  "116.py": {
    "successful": true
  },
  "117.py": {
    "successful": true
  },
  "118.py": {
    "successful": true
  },
  "123.py": {
    "successful": true
  },
  "126.py": {
    "successful": true
  },
  "136.py": {
    "successful": true
  },
  "137.py": {
    "successful": false,
    "error_type": "AssertionError"
  },
  "138.py": {
    "successful": false,
    "error_type": "AssertionError"
  },
  "143.py": {
    "successful": true
  },
  "144.py": {
    "successful": false,
    "error_type": "AssertionError"
  },
  "149.py": {
    "successful": false,
    "error_type": "AssertionError"
  },
  "157.py": {
    "successful": true
  },
  "169.py": {
    "successful": false,
    "error_type": "AssertionError"
  },
  "171.py": {
    "successful": false,
    "error_type": "AssertionError"
  },
  "176.py": {
    "successful": false,
    "error_type": "IndexError",
    "error_message": "list index out of range"
  },
  "181.py": {
    "successful": true
  },
  "183.py": {
    "successful": true
  },
  "185.py": {
    "successful": true
  },
  "193.py": {
    "successful": true
  },
  "198.py": {
    "successful": true
  }
}