{
  "test_complete": true,
  "1.py": {
    "successful": false,
    "error_type": "AssertionError"
  },
  "2.py": {
    "successful": false,
    "error_type": "AssertionError"
  },
  "3.py": {
    "successful": false,
    "error_type": "AssertionError"
  },
  "4.py": {
    "successful": false,
    "error_type": "AssertionError"
  },
  "5.py": {
    "successful": false,
    "error_type": "AssertionError"
  },
  "6.py": {
    "successful": false,
    "error_type": "AssertionError"
  },
  "8.py": {
    "successful": false,
    "error_type": "NameError",
    "error_message": "name 'count_consonants' is not defined"
  },
  "9.py": {
    "successful": false,
    "error_type": "AssertionError"
  },
  "10.py": {
    "successful": false,
    "error_type": "AssertionError"
  },
  "11.py": {
    "successful": false,
    "error_type": "NameError",
    "error_message": "name 're' is not defined"
  },
  "13.py": {
    "successful": false,
    "error_type": "AssertionError"
  },
  "14.py": {
    "successful": false,
    "error_type": "NameError",
    "error_message": "name 'get_vowels' is not defined"
  },
  "15.py": {
    "successful": false,
    "error_type": "NameError",
    "error_message": "name 're' is not defined"
  },
  "16.py": {
    "successful": false,
    "error_type": "NameError",
    "error_message": "name 'count_consonants' is not defined"
  },
  "18.py": {
    "successful": false,
    "error_type": "NameError",
    "error_message": "name 're' is not defined"
  },
  "19.py": {
    "successful": false,
    "error_type": "AssertionError"
  },
  "21.py": {
    "successful": true
  },
  "22.py": {
    "successful": false,
    "error_type": "NameError",
    "error_message": "name 'Counter' is not defined"
  },
  "24.py": {
    "successful": false,
    "error_type": "NameError",
    "error_message": "name 'count_consonants' is not defined"
  },
  "25.py": {
    "successful": false,
    "error_type": "AssertionError"
  },
  "26.py": {
    "successful": false,
    "error_type": "NameError",
    "error_message": "name 'count_consonants' is not defined"
  },
  "27.py": {
    "successful": false,
    "error_type": "NameError",
    "error_message": "name 're' is not defined"
  },
  "29.py": {
    "successful": false,
    "error_type": "NameError",
    "error_message": "name 'is_consonant' is not defined"
  },
  "31.py": {
    "successful": false,
    "error_type": "NameError",
    "error_message": "name 'contains_n_consonants' is not defined"
  },
  "32.py": {
    "successful": false,
    "error_type": "NameError",
    "error_message": "name 'select_consonants' is not defined"
  },
  "33.py": {
    "successful": false,
    "error_type": "NameError",
    "error_message": "name 're' is not defined"
  },
  "34.py": {
    "successful": false,
    "error_type": "AssertionError"
  },
  "35.py": {
    "successful": false,
    "error_type": "AssertionError"
  },
  "36.py": {
    "successful": false,
    "error_type": "NameError",
    "error_message": "name 'check_consonants' is not defined"
  },
  "37.py": {
    "successful": false,
    "error_type": "AssertionError"
  },
  "38.py": {
    "successful": false,
    "error_type": "AssertionError"
  },
  "39.py": {
    "successful": false,
    "error_type": "AssertionError"
  },
  "41.py": {
    "successful": false,
    "error_type": "NameError",
    "error_message": "name 're' is not defined"
  },
  "42.py": {
    "successful": false,
    "error_type": "NameError",
    "error_message": "name 'select_consonants' is not defined"
  },
  "43.py": {
    "successful": false,
    "error_type": "AssertionError"
  },
  "46.py": {
    "successful": false,
    "error_type": "AssertionError"
  },
  "47.py": {
    "successful": false,
    "error_type": "NameError",
    "error_message": "name 'stopwords' is not defined"
  },
  "51.py": {
    "successful": false,
    "error_type": "AssertionError"
  },
  "52.py": {
    "successful": false,
    "error_type": "AssertionError"
  },
  "53.py": {
    "successful": false,
    "error_type": "NameError",
    "error_message": "name 'consonants' is not defined"
  },
  "56.py": {
    "successful": false,
    "error_type": "AssertionError"
  },
  "57.py": {
    "successful": false,
    "error_type": "AssertionError"
  },
  "58.py": {
    "successful": false,
    "error_type": "AssertionError"
  },
  "59.py": {
    "successful": true
  },
  "60.py": {
    "successful": false,
    "error_type": "AssertionError"
  },
  "61.py": {
    "successful": false,
    "error_type": "AssertionError"
  },
  "62.py": {
    "successful": false,
    "error_type": "AssertionError"
  },
  "63.py": {
    "successful": false,
    "error_type": "AssertionError"
  },
  "64.py": {
    "successful": false,
    "error_type": "AssertionError"
  },
  "65.py": {
    "successful": false,
    "error_type": "AssertionError"
  },
  "66.py": {
    "successful": false,
    "error_type": "NameError",
    "error_message": "name 'count_consonants' is not defined"
  },
  "67.py": {
    "successful": false,
    "error_type": "NameError",
    "error_message": "name 're' is not defined"
  },
  "68.py": {
    "successful": false,
    "error_type": "NameError",
    "error_message": "name 'count_consonants' is not defined"
  },
  "69.py": {
    "successful": false,
    "error_type": "AssertionError"
  },
  "70.py": {
    "successful": false,
    "error_type": "AssertionError"
  },
  "71.py": {
    "successful": false,
    "error_type": "NameError",
    "error_message": "name 'count_consonants' is not defined"
  },
  "73.py": {
    "successful": false,
    "error_type": "AssertionError"
  },
  "74.py": {
    "successful": false,
    "error_type": "NameError",
    "error_message": "name 'word_count' is not defined"
  },
  "75.py": {
    "successful": false,
    "error_type": "NameError",
    "error_message": "name 'is_consonant' is not defined"
  },
  "76.py": {
    "successful": false,
    "error_type": "AssertionError"
  },
  "77.py": {
    "successful": false,
    "error_type": "NameError",
    "error_message": "name 'has_consonants' is not defined"
  },
  "78.py": {
    "successful": false,
    "error_type": "NameError",
    "error_message": "name 're' is not defined"
  },
  "79.py": {
    "successful": false,
    "error_type": "NameError",
    "error_message": "name 'consonants' is not defined"
  },
  "80.py": {
    "successful": false,
    "error_type": "AssertionError"
  },
  "81.py": {
    "successful": false,
    "error_type": "NameError",
    "error_message": "name 'contains_n_consonants' is not defined"
  },
  "82.py": {
    "successful": false,
    "error_type": "AssertionError"
  },
  "83.py": {
    "successful": false,
    "error_type": "NameError",
    "error_message": "name 'count_consonants' is not defined"
  },
  "84.py": {
    "successful": false,
    "error_type": "NameError",
    "error_message": "name 'count_consonants' is not defined"
  },
  "85.py": {
    "successful": true
  },
  "86.py": {
    "successful": false,
    "error_type": "AssertionError"
  },
  "90.py": {
    "successful": false,
    "error_type": "NameError",
    "error_message": "name 'is_consonant' is not defined"
  },
  "91.py": {
    "successful": false,
    "error_type": "NameError",
    "error_message": "name 'count_consonants' is not defined"
  },
  "92.py": {
    "successful": false,
    "error_type": "NameError",
    "error_message": "name 're' is not defined"
  },
  "94.py": {
    "successful": false,
    "error_type": "AssertionError"
  },
  "95.py": {
    "successful": false,
    "error_type": "NameError",
    "error_message": "name 're' is not defined"
  },
  "99.py": {
    "successful": false,
    "error_type": "AssertionError"
  },
  "100.py": {
    "successful": false,
    "error_type": "NameError",
    "error_message": "name 'count_consonants' is not defined"
  },
  "101.py": {
    "successful": false,
    "error_type": "AssertionError"
  },
  "102.py": {
    "successful": false,
    "error_type": "AssertionError"
  },
  "106.py": {
    "successful": false,
    "error_type": "NameError",
    "error_message": "name 're' is not defined"
  },
  "107.py": {
    "successful": false,
    "error_type": "NameError",
    "error_message": "name 'consoants' is not defined"
  },
  "110.py": {
    "successful": false,
    "error_type": "AssertionError"
  },
  "113.py": {
    "successful": false,
    "error_type": "NameError",
    "error_message": "name 're' is not defined"
  },
  "114.py": {
    "successful": false,
    "error_type": "AssertionError"
  },
  "115.py": {
    "successful": false,
    "error_type": "NameError",
    "error_message": "name 'is_consonant' is not defined"
  },
  "116.py": {
    "successful": false,
    "error_type": "NameError",
    "error_message": "name 're' is not defined"
  },
  "117.py": {
    "successful": false,
    "error_type": "AssertionError"
  },
  "120.py": {
    "successful": false,
    "error_type": "AssertionError"
  },
  "122.py": {
    "successful": false,
    "error_type": "NameError",
    "error_message": "name 'count_consonants' is not defined"
  },
  "123.py": {
    "successful": false,
    "error_type": "NameError",
    "error_message": "name 'C' is not defined"
  },
  "125.py": {
    "successful": false,
    "error_type": "AssertionError"
  },
  "126.py": {
    "successful": false,
    "error_type": "SyntaxError",
    "error_message": "unterminated string literal (detected at line 31)"
  },
  "127.py": {
    "successful": false,
    "error_type": "AssertionError"
  },
  "129.py": {
    "successful": false,
    "error_type": "AssertionError"
  },
  "131.py": {
    "successful": false,
    "error_type": "NameError",
    "error_message": "name 'is_consonant' is not defined"
  },
  "133.py": {
    "successful": false,
    "error_type": "AssertionError"
  },
  "134.py": {
    "successful": false,
    "error_type": "AssertionError"
  },
  "135.py": {
    "successful": false,
    "error_type": "AssertionError"
  },
  "136.py": {
    "successful": false,
    "error_type": "AssertionError"
  },
  "137.py": {
    "successful": false,
    "error_type": "NameError",
    "error_message": "name 're' is not defined"
  },
  "138.py": {
    "successful": false,
    "error_type": "AssertionError"
  },
  "140.py": {
    "successful": false,
    "error_type": "AssertionError"
  },
  "142.py": {
    "successful": false,
    "error_type": "NameError",
    "error_message": "name 'count_consonants' is not defined"
  },
  "143.py": {
    "successful": true
  },
  "144.py": {
    "successful": false,
    "error_type": "NameError",
    "error_message": "name 'count_consonants' is not defined"
  },
  "145.py": {
    "successful": false,
    "error_type": "AssertionError"
  },
  "146.py": {
    "successful": false,
    "error_type": "AssertionError"
  },
  "147.py": {
    "successful": false,
    "error_type": "NameError",
    "error_message": "name 're' is not defined"
  },
  "148.py": {
    "successful": false,
    "error_type": "AssertionError"
  },
  "151.py": {
    "successful": false,
    "error_type": "AssertionError"
  },
  "152.py": {
    "successful": false,
    "error_type": "NameError",
    "error_message": "name 'count_consonants' is not defined"
  },
  "155.py": {
    "successful": false,
    "error_type": "NameError",
    "error_message": "name 're' is not defined"
  },
  "156.py": {
    "successful": false,
    "error_type": "NameError",
    "error_message": "name 'count_consonants' is not defined"
  },
  "157.py": {
    "successful": false,
    "error_type": "AssertionError"
  },
  "158.py": {
    "successful": false,
    "error_type": "AssertionError"
  },
  "160.py": {
    "successful": false,
    "error_type": "AssertionError"
  },
  "161.py": {
    "successful": false,
    "error_type": "NameError",
    "error_message": "name 're' is not defined"
  },
  "162.py": {
    "successful": false,
    "error_type": "AssertionError"
  },
  "163.py": {
    "successful": false,
    "error_type": "NameError",
    "error_message": "name 're' is not defined"
  },
  "164.py": {
    "successful": false,
    "error_type": "AssertionError"
  },
  "165.py": {
    "successful": false,
    "error_type": "AssertionError"
  },
  "166.py": {
    "successful": false,
    "error_type": "AssertionError"
  },
  "167.py": {
    "successful": false,
    "error_type": "AssertionError"
  },
  "168.py": {
    "successful": false,
    "error_type": "AssertionError"
  },
  "169.py": {
    "successful": false,
    "error_type": "NameError",
    "error_message": "name 'count_consonants' is not defined"
  },
  "170.py": {
    "successful": false,
    "error_type": "AssertionError"
  },
  "171.py": {
    "successful": false,
    "error_type": "AssertionError"
  },
  "173.py": {
    "successful": false,
    "error_type": "AssertionError"
  },
  "174.py": {
    "successful": false,
    "error_type": "AssertionError"
  },
  "175.py": {
    "successful": false,
    "error_type": "NameError",
    "error_message": "name 're' is not defined"
  },
  "176.py": {
    "successful": false,
    "error_type": "NameError",
    "error_message": "name 're' is not defined"
  },
  "177.py": {
    "successful": false,
    "error_type": "AssertionError"
  },
  "179.py": {
    "successful": false,
    "error_type": "NameError",
    "error_message": "name 'count_consonants' is not defined"
  },
  "180.py": {
    "successful": false,
    "error_type": "NameError",
    "error_message": "name 'vowels' is not defined"
  },
  "181.py": {
    "successful": false,
    "error_type": "NameError",
    "error_message": "name 'word_count' is not defined"
  },
  "182.py": {
    "successful": false,
    "error_type": "NameError",
    "error_message": "name 're' is not defined"
  },
  "183.py": {
    "successful": false,
    "error_type": "NameError",
    "error_message": "name 'consonants' is not defined"
  },
  "184.py": {
    "successful": false,
    "error_type": "AssertionError"
  },
  "186.py": {
    "successful": false,
    "error_type": "AssertionError"
  },
  "187.py": {
    "successful": false,
    "error_type": "NameError",
    "error_message": "name 'consonants' is not defined"
  },
  "190.py": {
    "successful": false,
    "error_type": "NameError",
    "error_message": "name 'is_consonant' is not defined"
  },
  "191.py": {
    "successful": false,
    "error_type": "AssertionError"
  },
  "192.py": {
    "successful": false,
    "error_type": "NameError",
    "error_message": "name 'count_consonants' is not defined"
  },
  "194.py": {
    "successful": false,
    "error_type": "AssertionError"
  },
  "196.py": {
    "successful": false,
    "error_type": "AssertionError"
  }
}