{
  "test_complete": true,
  "1.py": {
    "successful": true
  },
  "2.py": {
    "successful": true
  },
  "4.py": {
    "successful": true
  },
  "6.py": {
    "successful": true
  },
  "8.py": {
    "successful": true
  },
  "14.py": {
    "successful": true
  },
  "22.py": {
    "successful": true
  },
  "25.py": {
    "successful": true
  },
  "30.py": {
    "successful": true
  },
  "40.py": {
    "successful": true
  },
  "41.py": {
    "successful": true
  },
  "42.py": {
    "successful": true
  },
  "43.py": {
    "successful": true
  },
  "44.py": {
    "successful": true
  },
  "48.py": {
    "successful": true
  },
  "49.py": {
    "successful": true
  },
  "53.py": {
    "successful": true
  },
  "55.py": {
    "successful": true
  },
  "57.py": {
    "successful": true
  },
  "60.py": {
    "successful": true
  },
  "61.py": {
    "successful": true
  },
  "62.py": {
    "successful": true
  },
  "63.py": {
    "successful": true
  },
  "68.py": {
    "successful": true
  },
  "72.py": {
    "successful": true
  },
  "75.py": {
    "successful": true
  },
  "80.py": {
    "successful": true
  },
  "98.py": {
    "successful": true
  },
  "99.py": {
    "successful": true
  },
  "100.py": {
    "successful": true
  },
  "101.py": {
    "successful": true
  },
  "102.py": {
    "successful": true
  },
  "105.py": {
    "successful": true
  },
  "106.py": {
    "successful": true
  },
  "110.py": {
    "successful": true
  },
  "120.py": {
    "successful": true
  },
  "123.py": {
    "successful": true
  },
  "126.py": {
    "successful": true
  },
  "129.py": {
    "successful": true
  },
  "130.py": {
    "successful": true
  },
  "157.py": {
    "successful": true
  },
  "161.py": {
    "successful": true
  },
  "168.py": {
    "successful": true
  },
  "172.py": {
    "successful": true
  },
  "174.py": {
    "successful": true
  },
  "175.py": {
    "successful": true
  },
  "176.py": {
    "successful": true
  },
  "184.py": {
    "successful": true
  },
  "194.py": {
    "successful": true
  },
  "198.py": {
    "successful": true
  }
}