{
  "test_complete": true,
  "0.py": {
    "successful": true
  },
  "1.py": {
    "successful": true
  },
  "2.py": {
    "successful": true
  },
  "5.py": {
    "successful": true
  },
  "7.py": {
    "successful": true
  },
  "9.py": {
    "successful": true
  },
  "13.py": {
    "successful": true
  },
  "17.py": {
    "successful": true
  },
  "18.py": {
    "successful": true
  },
  "19.py": {
    "successful": true
  },
  "25.py": {
    "successful": true
  },
  "29.py": {
    "successful": true
  },
  "40.py": {
    "successful": true
  },
  "41.py": {
    "successful": true
  },
  "67.py": {
    "successful": true
  },
  "81.py": {
    "successful": true
  },
  "88.py": {
    "successful": true
  },
  "110.py": {
    "successful": true
  },
  "113.py": {
    "successful": true
  },
  "124.py": {
    "successful": true
  },
  "129.py": {
    "successful": true
  },
  "134.py": {
    "successful": true
  },
  "139.py": {
    "successful": true
  },
  "150.py": {
    "successful": true
  },
  "154.py": {
    "successful": true
  },
  "161.py": {
    "successful": true
  },
  "166.py": {
    "successful": true
  }
}