{
  "test_complete": true,
  "0.py": {
    "successful": false,
    "error_type": "NameError",
    "error_message": "name 'car_distance_left' is not defined"
  },
  "1.py": {
    "successful": false,
    "error_type": "NameError",
    "error_message": "name 'car_race_collision_helper' is not defined. Did you mean"
  },
  "2.py": {
    "successful": false,
    "error_type": "NameError",
    "error_message": "name 'random' is not defined"
  },
  "3.py": {
    "successful": false,
    "error_type": "AssertionError"
  },
  "4.py": {
    "successful": false,
    "error_type": "NameError",
    "error_message": "name 'math' is not defined"
  },
  "5.py": {
    "successful": false,
    "error_type": "AssertionError"
  },
  "6.py": {
    "successful": false,
    "error_type": "NameError",
    "error_message": "name 'car_collision' is not defined. Did you mean"
  },
  "7.py": {
    "successful": false,
    "error_type": "NameError",
    "error_message": "name 'car_collides' is not defined"
  },
  "8.py": {
    "successful": false,
    "error_type": "NameError",
    "error_message": "name 'random' is not defined"
  },
  "9.py": {
    "successful": false,
    "error_type": "NameError",
    "error_message": "name 'car_' is not defined"
  },
  "10.py": {
    "successful": false,
    "error_type": "AssertionError"
  },
  "11.py": {
    "successful": false,
    "error_type": "NameError",
    "error_message": "name 'car_distance' is not defined"
  },
  "12.py": {
    "successful": false,
    "error_type": "NameError",
    "error_message": "name 'Car' is not defined. Did you mean"
  },
  "13.py": {
    "successful": false,
    "error_type": "NameError",
    "error_message": "name 'car_locations' is not defined"
  },
  "14.py": {
    "successful": false,
    "error_type": "NameError",
    "error_message": "name 'CAR_RADIUS' is not defined"
  },
  "15.py": {
    "successful": false,
    "error_type": "NameError",
    "error_message": "name 'car_collision' is not defined. Did you mean"
  },
  "16.py": {
    "successful": false,
    "error_type": "NameError",
    "error_message": "name 'car_collision' is not defined. Did you mean"
  },
  "18.py": {
    "successful": false,
    "error_type": "NameError",
    "error_message": "name 'car_race_collision_helper' is not defined. Did you mean"
  },
  "19.py": {
    "successful": false,
    "error_type": "NameError",
    "error_message": "name 'get_distance' is not defined"
  },
  "20.py": {
    "successful": false,
    "error_type": "NameError",
    "error_message": "name 'car_collision' is not defined. Did you mean"
  },
  "21.py": {
    "successful": false,
    "error_type": "RecursionError",
    "error_message": "maximum recursion depth exceeded in comparison"
  },
  "22.py": {
    "successful": false,
    "error_type": "AssertionError"
  },
  "23.py": {
    "successful": false,
    "error_type": "NameError",
    "error_message": "name 'car_x_position' is not defined"
  },
  "24.py": {
    "successful": false,
    "error_type": "AssertionError"
  },
  "25.py": {
    "successful": false,
    "error_type": "NameError",
    "error_message": "name 'car_collision' is not defined. Did you mean"
  },
  "26.py": {
    "successful": false,
    "error_type": "NameError",
    "error_message": "name 'car_speed' is not defined"
  },
  "28.py": {
    "successful": false,
    "error_type": "AssertionError"
  },
  "29.py": {
    "successful": false,
    "error_type": "RecursionError",
    "error_message": "maximum recursion depth exceeded"
  },
  "30.py": {
    "successful": false,
    "error_type": "AssertionError"
  },
  "31.py": {
    "successful": false,
    "error_type": "AssertionError"
  },
  "32.py": {
    "successful": false,
    "error_type": "AssertionError"
  },
  "33.py": {
    "successful": false,
    "error_type": "NameError",
    "error_message": "name 'Car' is not defined. Did you mean"
  },
  "34.py": {
    "successful": false,
    "error_type": "NameError",
    "error_message": "name 'car_collision' is not defined. Did you mean"
  },
  "35.py": {
    "successful": false,
    "error_type": "AssertionError"
  },
  "36.py": {
    "successful": false,
    "error_type": "NameError",
    "error_message": "name 'car_pos_x' is not defined"
  },
  "37.py": {
    "successful": false,
    "error_type": "NameError",
    "error_message": "name 'car_collision' is not defined. Did you mean"
  },
  "38.py": {
    "successful": false,
    "error_type": "NameError",
    "error_message": "name 'car_collision' is not defined. Did you mean"
  },
  "39.py": {
    "successful": false,
    "error_type": "NameError",
    "error_message": "name 'collision_count' is not defined"
  },
  "40.py": {
    "successful": false,
    "error_type": "NameError",
    "error_message": "name 'car_race' is not defined"
  },
  "41.py": {
    "successful": false,
    "error_type": "NameError",
    "error_message": "name 'car_race_collision_helper' is not defined. Did you mean"
  },
  "42.py": {
    "successful": false,
    "error_type": "AssertionError"
  },
  "43.py": {
    "successful": false,
    "error_type": "NameError",
    "error_message": "name 'car_position_at_index' is not defined"
  },
  "44.py": {
    "successful": false,
    "error_type": "NameError",
    "error_message": "name 'car_collision' is not defined. Did you mean"
  },
  "45.py": {
    "successful": false,
    "error_type": "NameError",
    "error_message": "name 'car_collide' is not defined"
  },
  "46.py": {
    "successful": false,
    "error_type": "NameError",
    "error_message": "name 'car_speed' is not defined"
  },
  "47.py": {
    "successful": false,
    "error_type": "NameError",
    "error_message": "name 'defaultdict' is not defined"
  },
  "48.py": {
    "successful": false,
    "error_type": "AssertionError"
  },
  "50.py": {
    "successful": false,
    "error_type": "UnboundLocalError",
    "error_message": "cannot access local variable 'car_speed' where it is not associated with a value"
  },
  "51.py": {
    "successful": false,
    "error_type": "NameError",
    "error_message": "name 'car_race_collision_helper' is not defined. Did you mean"
  },
  "53.py": {
    "successful": false,
    "error_type": "AssertionError"
  },
  "54.py": {
    "successful": false,
    "error_type": "NameError",
    "error_message": "name 'car_positions' is not defined"
  },
  "55.py": {
    "successful": false,
    "error_type": "AssertionError"
  },
  "56.py": {
    "successful": false,
    "error_type": "AssertionError"
  },
  "58.py": {
    "successful": false,
    "error_type": "NameError",
    "error_message": "name 'car_position' is not defined. Did you mean"
  },
  "59.py": {
    "successful": false,
    "error_type": "TimeOut"
  },
  "60.py": {
    "successful": false,
    "error_type": "AssertionError"
  },
  "61.py": {
    "successful": false,
    "error_type": "AssertionError"
  },
  "62.py": {
    "successful": false,
    "error_type": "AssertionError"
  },
  "63.py": {
    "successful": false,
    "error_type": "NameError",
    "error_message": "name 'car_collision' is not defined. Did you mean"
  },
  "64.py": {
    "successful": false,
    "error_type": "UnboundLocalError",
    "error_message": "cannot access local variable 'speed' where it is not associated with a value"
  },
  "65.py": {
    "successful": false,
    "error_type": "SyntaxError",
    "error_message": "expected '"
  },
  "66.py": {
    "successful": false,
    "error_type": "NameError",
    "error_message": "name 'collides_last_time_time_time_time_time_time_time_time_time_' is not defined. Did you mean"
  },
  "67.py": {
    "successful": false,
    "error_type": "AssertionError"
  },
  "68.py": {
    "successful": false,
    "error_type": "AssertionError"
  },
  "69.py": {
    "successful": false,
    "error_type": "AssertionError"
  },
  "71.py": {
    "successful": false,
    "error_type": "NameError",
    "error_message": "name 'car_collision' is not defined. Did you mean"
  },
  "72.py": {
    "successful": false,
    "error_type": "NameError",
    "error_message": "name 'car_race_collision_helper' is not defined. Did you mean"
  },
  "73.py": {
    "successful": false,
    "error_type": "AssertionError"
  },
  "74.py": {
    "successful": false,
    "error_type": "NameError",
    "error_message": "name 'Car' is not defined. Did you mean"
  },
  "75.py": {
    "successful": false,
    "error_type": "AssertionError"
  },
  "76.py": {
    "successful": false,
    "error_type": "AssertionError"
  },
  "77.py": {
    "successful": false,
    "error_type": "AssertionError"
  },
  "78.py": {
    "successful": false,
    "error_type": "AssertionError"
  },
  "79.py": {
    "successful": false,
    "error_type": "NameError",
    "error_message": "name 'car_collision' is not defined. Did you mean"
  },
  "80.py": {
    "successful": false,
    "error_type": "AssertionError"
  },
  "81.py": {
    "successful": false,
    "error_type": "NameError",
    "error_message": "name 'Car' is not defined. Did you mean"
  },
  "82.py": {
    "successful": false,
    "error_type": "NameError",
    "error_message": "name 'car_race_collision_helper' is not defined. Did you mean"
  },
  "83.py": {
    "successful": false,
    "error_type": "NameError",
    "error_message": "name 'car_collision' is not defined. Did you mean"
  },
  "85.py": {
    "successful": false,
    "error_type": "NameError",
    "error_message": "name 'cars_collide' is not defined"
  },
  "86.py": {
    "successful": false,
    "error_type": "NameError",
    "error_message": "name 'Car' is not defined. Did you mean"
  },
  "87.py": {
    "successful": false,
    "error_type": "AssertionError"
  },
  "88.py": {
    "successful": false,
    "error_type": "NameError",
    "error_message": "name 'random' is not defined"
  },
  "91.py": {
    "successful": false,
    "error_type": "NameError",
    "error_message": "name 'car_race_collision_test' is not defined. Did you mean"
  },
  "92.py": {
    "successful": false,
    "error_type": "NameError",
    "error_message": "name 'car_left_to_right' is not defined"
  },
  "94.py": {
    "successful": false,
    "error_type": "AssertionError"
  },
  "95.py": {
    "successful": false,
    "error_type": "NameError",
    "error_message": "name 'car_race_collision_problem' is not defined"
  },
  "96.py": {
    "successful": false,
    "error_type": "AssertionError"
  },
  "98.py": {
    "successful": false,
    "error_type": "NameError",
    "error_message": "name 'car_locations' is not defined"
  },
  "99.py": {
    "successful": false,
    "error_type": "NameError",
    "error_message": "name 'car_lengths' is not defined. Did you mean"
  },
  "100.py": {
    "successful": false,
    "error_type": "AssertionError"
  },
  "101.py": {
    "successful": false,
    "error_type": "NameError",
    "error_message": "name 'car_collision' is not defined. Did you mean"
  },
  "102.py": {
    "successful": false,
    "error_type": "SyntaxError",
    "error_message": "'[' was never closed"
  },
  "103.py": {
    "successful": false,
    "error_type": "NameError",
    "error_message": "name 'car_collision' is not defined. Did you mean"
  },
  "104.py": {
    "successful": false,
    "error_type": "IndexError",
    "error_message": "list index out of range"
  },
  "105.py": {
    "successful": false,
    "error_type": "AssertionError"
  },
  "106.py": {
    "successful": false,
    "error_type": "AssertionError"
  },
  "107.py": {
    "successful": false,
    "error_type": "NameError",
    "error_message": "name 'car_distance' is not defined. Did you mean"
  },
  "108.py": {
    "successful": false,
    "error_type": "NameError",
    "error_message": "name 'car_lengths' is not defined. Did you mean"
  },
  "109.py": {
    "successful": false,
    "error_type": "SyntaxError",
    "error_message": "expected '"
  },
  "111.py": {
    "successful": false,
    "error_type": "NameError",
    "error_message": "name 'car_collision' is not defined. Did you mean"
  },
  "113.py": {
    "successful": false,
    "error_type": "AssertionError"
  },
  "114.py": {
    "successful": false,
    "error_type": "IndentationError",
    "error_message": "expected an indented block after 'for' statement on line 4"
  },
  "115.py": {
    "successful": false,
    "error_type": "NameError",
    "error_message": "name 'car_collision' is not defined. Did you mean"
  },
  "116.py": {
    "successful": false,
    "error_type": "AssertionError"
  },
  "117.py": {
    "successful": false,
    "error_type": "SyntaxError",
    "error_message": "'(' was never closed"
  },
  "118.py": {
    "successful": false,
    "error_type": "SyntaxError",
    "error_message": "'(' was never closed"
  },
  "119.py": {
    "successful": false,
    "error_type": "NameError",
    "error_message": "name 'random' is not defined"
  },
  "120.py": {
    "successful": false,
    "error_type": "AssertionError"
  },
  "121.py": {
    "successful": false,
    "error_type": "AssertionError"
  },
  "122.py": {
    "successful": false,
    "error_type": "NameError",
    "error_message": "name 'car_race_collision_problem' is not defined"
  },
  "123.py": {
    "successful": false,
    "error_type": "RecursionError",
    "error_message": "maximum recursion depth exceeded in comparison"
  },
  "125.py": {
    "successful": false,
    "error_type": "AssertionError"
  },
  "126.py": {
    "successful": false,
    "error_type": "SyntaxError",
    "error_message": "unterminated string literal (detected at line 11)"
  },
  "128.py": {
    "successful": false,
    "error_type": "AssertionError"
  },
  "129.py": {
    "successful": false,
    "error_type": "AssertionError"
  },
  "130.py": {
    "successful": false,
    "error_type": "AssertionError"
  },
  "131.py": {
    "successful": false,
    "error_type": "NameError",
    "error_message": "name 'Car' is not defined. Did you mean"
  },
  "132.py": {
    "successful": false,
    "error_type": "NameError",
    "error_message": "name 'car_race_collision_helper' is not defined. Did you mean"
  },
  "133.py": {
    "successful": false,
    "error_type": "NameError",
    "error_message": "name 'car_collision' is not defined. Did you mean"
  },
  "134.py": {
    "successful": false,
    "error_type": "TypeError",
    "error_message": "car_race_collision() takes 1 positional argument but 2 were given"
  },
  "135.py": {
    "successful": false,
    "error_type": "NameError",
    "error_message": "name 'car_collision' is not defined. Did you mean"
  },
  "136.py": {
    "successful": false,
    "error_type": "AssertionError"
  },
  "137.py": {
    "successful": false,
    "error_type": "NameError",
    "error_message": "name 'cars_collide' is not defined"
  },
  "138.py": {
    "successful": false,
    "error_type": "TypeError",
    "error_message": "'int' object is not iterable"
  },
  "139.py": {
    "successful": false,
    "error_type": "RuntimeError",
    "error_message": "Set changed size during iteration"
  },
  "140.py": {
    "successful": false,
    "error_type": "NameError",
    "error_message": "name 'car_collision' is not defined. Did you mean"
  },
  "142.py": {
    "successful": false,
    "error_type": "TypeError",
    "error_message": "argument of type 'int' is not iterable"
  },
  "143.py": {
    "successful": false,
    "error_type": "TypeError",
    "error_message": "'int' object is not subscriptable"
  },
  "144.py": {
    "successful": false,
    "error_type": "NameError",
    "error_message": "name 'random' is not defined"
  },
  "145.py": {
    "successful": false,
    "error_type": "AssertionError"
  },
  "146.py": {
    "successful": false,
    "error_type": "NameError",
    "error_message": "name 'cars_collide' is not defined"
  },
  "147.py": {
    "successful": false,
    "error_type": "NameError",
    "error_message": "name 'Car' is not defined. Did you mean"
  },
  "148.py": {
    "successful": false,
    "error_type": "TypeError",
    "error_message": "car_race_collision() takes 1 positional argument but 2 were given"
  },
  "149.py": {
    "successful": false,
    "error_type": "NameError",
    "error_message": "name 'car_collision' is not defined. Did you mean"
  },
  "150.py": {
    "successful": false,
    "error_type": "NameError",
    "error_message": "name 'car_collision' is not defined. Did you mean"
  },
  "151.py": {
    "successful": false,
    "error_type": "NameError",
    "error_message": "name 'generate_car_positions' is not defined"
  },
  "152.py": {
    "successful": false,
    "error_type": "NameError",
    "error_message": "name 'car_collides' is not defined"
  },
  "154.py": {
    "successful": false,
    "error_type": "NameError",
    "error_message": "name 'car_race_collision_one' is not defined. Did you mean"
  },
  "156.py": {
    "successful": false,
    "error_type": "AssertionError"
  },
  "157.py": {
    "successful": false,
    "error_type": "SyntaxError",
    "error_message": "'(' was never closed"
  },
  "158.py": {
    "successful": false,
    "error_type": "NameError",
    "error_message": "name 'race_car_collision' is not defined. Did you mean"
  },
  "159.py": {
    "successful": false,
    "error_type": "AssertionError"
  },
  "160.py": {
    "successful": false,
    "error_type": "AssertionError"
  },
  "161.py": {
    "successful": false,
    "error_type": "AssertionError"
  },
  "162.py": {
    "successful": false,
    "error_type": "NameError",
    "error_message": "name 'car_collision' is not defined. Did you mean"
  },
  "163.py": {
    "successful": false,
    "error_type": "AssertionError"
  },
  "164.py": {
    "successful": false,
    "error_type": "SyntaxError",
    "error_message": "invalid syntax"
  },
  "165.py": {
    "successful": false,
    "error_type": "NameError",
    "error_message": "name 'car_collision' is not defined. Did you mean"
  },
  "166.py": {
    "successful": false,
    "error_type": "NameError",
    "error_message": "name 'car_collision' is not defined. Did you mean"
  },
  "167.py": {
    "successful": false,
    "error_type": "IndexError",
    "error_message": "list assignment index out of range"
  },
  "169.py": {
    "successful": false,
    "error_type": "AssertionError"
  },
  "170.py": {
    "successful": false,
    "error_type": "AssertionError"
  },
  "171.py": {
    "successful": false,
    "error_type": "AssertionError"
  },
  "172.py": {
    "successful": false,
    "error_type": "AssertionError"
  },
  "173.py": {
    "successful": false,
    "error_type": "NameError",
    "error_message": "name 'car_race' is not defined"
  },
  "174.py": {
    "successful": false,
    "error_type": "NameError",
    "error_message": "name 'car_collision' is not defined. Did you mean"
  },
  "175.py": {
    "successful": false,
    "error_type": "TypeError",
    "error_message": "car_race_collision() takes 1 positional argument but 3 were given"
  },
  "176.py": {
    "successful": false,
    "error_type": "NameError",
    "error_message": "name 'cars' is not defined. Did you mean"
  },
  "177.py": {
    "successful": false,
    "error_type": "NameError",
    "error_message": "name 'Car' is not defined. Did you mean"
  },
  "178.py": {
    "successful": false,
    "error_type": "NameError",
    "error_message": "name 'car_race_collision_test' is not defined. Did you mean"
  },
  "179.py": {
    "successful": false,
    "error_type": "AssertionError"
  },
  "180.py": {
    "successful": false,
    "error_type": "NameError",
    "error_message": "name 'car_collision' is not defined. Did you mean"
  },
  "181.py": {
    "successful": false,
    "error_type": "NameError",
    "error_message": "name 'car_distance' is not defined"
  },
  "182.py": {
    "successful": false,
    "error_type": "NameError",
    "error_message": "name 'Car' is not defined. Did you mean"
  },
  "183.py": {
    "successful": false,
    "error_type": "AssertionError"
  },
  "184.py": {
    "successful": false,
    "error_type": "NameError",
    "error_message": "name 'random' is not defined"
  },
  "185.py": {
    "successful": false,
    "error_type": "NameError",
    "error_message": "name 'Car' is not defined. Did you mean"
  },
  "188.py": {
    "successful": false,
    "error_type": "AssertionError"
  },
  "189.py": {
    "successful": false,
    "error_type": "NameError",
    "error_message": "name 'car_collision' is not defined. Did you mean"
  },
  "190.py": {
    "successful": false,
    "error_type": "NameError",
    "error_message": "name 'random' is not defined"
  },
  "191.py": {
    "successful": false,
    "error_type": "NameError",
    "error_message": "name 'car_speed' is not defined"
  },
  "192.py": {
    "successful": false,
    "error_type": "NameError",
    "error_message": "name 'cars' is not defined. Did you mean"
  },
  "193.py": {
    "successful": false,
    "error_type": "SyntaxError",
    "error_message": "'(' was never closed"
  },
  "194.py": {
    "successful": false,
    "error_type": "RecursionError",
    "error_message": "maximum recursion depth exceeded in comparison"
  },
  "195.py": {
    "successful": false,
    "error_type": "NameError",
    "error_message": "name 'car_speed' is not defined"
  },
  "196.py": {
    "successful": false,
    "error_type": "NameError",
    "error_message": "name 'random' is not defined"
  },
  "198.py": {
    "successful": false,
    "error_type": "NameError",
    "error_message": "name 'generate_cars' is not defined"
  },
  "199.py": {
    "successful": false,
    "error_type": "AssertionError"
  }
}