{
  "test_complete": true,
  "10.py": {
    "successful": true
  },
  "18.py": {
    "successful": true
  },
  "26.py": {
    "successful": false,
    "error_type": "AssertionError"
  },
  "27.py": {
    "successful": false,
    "error_type": "SyntaxError",
    "error_message": "'(' was never closed"
  },
  "30.py": {
    "successful": true
  },
  "35.py": {
    "successful": true
  },
  "47.py": {
    "successful": true
  },
  "50.py": {
    "successful": true
  },
  "58.py": {
    "successful": true
  },
  "78.py": {
    "successful": true
  },
  "79.py": {
    "successful": false,
    "error_type": "IndexError",
    "error_message": "list index out of range"
  },
  "100.py": {
    "successful": true
  },
  "108.py": {
    "successful": true
  },
  "112.py": {
    "successful": true
  },
  "117.py": {
    "successful": true
  },
  "127.py": {
    "successful": true
  }
}