{
  "test_complete": true,
  "0.py": {
    "successful": false,
    "error_type": "AssertionError"
  },
  "1.py": {
    "successful": false,
    "error_type": "AssertionError"
  },
  "2.py": {
    "successful": false,
    "error_type": "ZeroDivisionError",
    "error_message": "integer modulo by zero"
  },
  "3.py": {
    "successful": false,
    "error_type": "AssertionError"
  },
  "4.py": {
    "successful": false,
    "error_type": "AssertionError"
  },
  "6.py": {
    "successful": false,
    "error_type": "ZeroDivisionError",
    "error_message": "integer modulo by zero"
  },
  "7.py": {
    "successful": false,
    "error_type": "AssertionError"
  },
  "9.py": {
    "successful": false,
    "error_type": "TypeError",
    "error_message": "'bool' object is not iterable"
  },
  "12.py": {
    "successful": false,
    "error_type": "AssertionError"
  },
  "14.py": {
    "successful": false,
    "error_type": "AssertionError"
  },
  "18.py": {
    "successful": false,
    "error_type": "AssertionError"
  },
  "20.py": {
    "successful": false,
    "error_type": "TypeError",
    "error_message": "'bool' object is not iterable"
  },
  "21.py": {
    "successful": false,
    "error_type": "AssertionError"
  },
  "23.py": {
    "successful": false,
    "error_type": "TypeError",
    "error_message": "'bool' object is not iterable"
  },
  "32.py": {
    "successful": false,
    "error_type": "AssertionError"
  },
  "33.py": {
    "successful": false,
    "error_type": "ZeroDivisionError",
    "error_message": "integer modulo by zero"
  },
  "36.py": {
    "successful": false,
    "error_type": "AssertionError"
  },
  "37.py": {
    "successful": false,
    "error_type": "AssertionError"
  },
  "38.py": {
    "successful": false,
    "error_type": "TypeError",
    "error_message": "'bool' object is not iterable"
  },
  "39.py": {
    "successful": false,
    "error_type": "AssertionError"
  },
  "46.py": {
    "successful": false,
    "error_type": "TypeError",
    "error_message": "'bool' object is not iterable"
  },
  "54.py": {
    "successful": false,
    "error_type": "TypeError",
    "error_message": "'bool' object is not iterable"
  },
  "58.py": {
    "successful": false,
    "error_type": "AssertionError"
  },
  "65.py": {
    "successful": false,
    "error_type": "AssertionError"
  },
  "71.py": {
    "successful": false,
    "error_type": "AssertionError"
  },
  "74.py": {
    "successful": false,
    "error_type": "AssertionError"
  },
  "75.py": {
    "successful": false,
    "error_type": "AssertionError"
  },
  "93.py": {
    "successful": false,
    "error_type": "AssertionError"
  },
  "140.py": {
    "successful": false,
    "error_type": "ZeroDivisionError",
    "error_message": "integer modulo by zero"
  },
  "149.py": {
    "successful": false,
    "error_type": "AssertionError"
  },
  "150.py": {
    "successful": false,
    "error_type": "ZeroDivisionError",
    "error_message": "integer modulo by zero"
  },
  "159.py": {
    "successful": false,
    "error_type": "AssertionError"
  },
  "171.py": {
    "successful": false,
    "error_type": "AssertionError"
  }
}