{
  "test_complete": true,
  "0.py": {
    "successful": false,
    "error_type": "AssertionError"
  },
  "7.py": {
    "successful": false,
    "error_type": "AssertionError"
  },
  "10.py": {
    "successful": false,
    "error_type": "AssertionError"
  },
  "11.py": {
    "successful": true
  },
  "17.py": {
    "successful": true
  },
  "20.py": {
    "successful": false,
    "error_type": "AssertionError"
  },
  "32.py": {
    "successful": false,
    "error_type": "AssertionError"
  },
  "33.py": {
    "successful": false,
    "error_type": "AssertionError"
  },
  "38.py": {
    "successful": true
  },
  "52.py": {
    "successful": true
  },
  "53.py": {
    "successful": true
  },
  "55.py": {
    "successful": true
  },
  "56.py": {
    "successful": false,
    "error_type": "AssertionError"
  },
  "61.py": {
    "successful": false,
    "error_type": "AssertionError"
  },
  "73.py": {
    "successful": false,
    "error_type": "AssertionError"
  },
  "76.py": {
    "successful": true
  },
  "84.py": {
    "successful": false,
    "error_type": "AssertionError"
  },
  "98.py": {
    "successful": false,
    "error_type": "AssertionError"
  },
  "102.py": {
    "successful": true
  },
  "105.py": {
    "successful": true
  },
  "109.py": {
    "successful": true
  },
  "124.py": {
    "successful": false,
    "error_type": "AssertionError"
  },
  "133.py": {
    "successful": false,
    "error_type": "AssertionError"
  },
  "147.py": {
    "successful": false,
    "error_type": "AssertionError"
  },
  "150.py": {
    "successful": true
  },
  "152.py": {
    "successful": false,
    "error_type": "AssertionError"
  },
  "154.py": {
    "successful": true
  },
  "171.py": {
    "successful": true
  },
  "179.py": {
    "successful": true
  },
  "182.py": {
    "successful": false,
    "error_type": "AssertionError"
  }
}