{
  "test_complete": true,
  "6.py": {
    "successful": true
  },
  "12.py": {
    "successful": false,
    "error_type": "AssertionError"
  },
  "13.py": {
    "successful": false,
    "error_type": "AssertionError"
  },
  "17.py": {
    "successful": false,
    "error_type": "IndentationError",
    "error_message": "expected an indented block after function definition on line 1"
  },
  "19.py": {
    "successful": true
  },
  "20.py": {
    "successful": false,
    "error_type": "AssertionError"
  },
  "25.py": {
    "successful": false,
    "error_type": "AssertionError"
  },
  "35.py": {
    "successful": false,
    "error_type": "AssertionError"
  },
  "36.py": {
    "successful": false,
    "error_type": "TypeError",
    "error_message": "'str' object cannot be interpreted as an integer"
  },
  "38.py": {
    "successful": true
  },
  "43.py": {
    "successful": false,
    "error_type": "AssertionError"
  },
  "46.py": {
    "successful": false,
    "error_type": "AssertionError"
  },
  "52.py": {
    "successful": true
  },
  "56.py": {
    "successful": false,
    "error_type": "NameError",
    "error_message": "name 'count_ones' is not defined"
  },
  "57.py": {
    "successful": true
  },
  "59.py": {
    "successful": true
  },
  "63.py": {
    "successful": false,
    "error_type": "IndentationError",
    "error_message": "expected an indented block after function definition on line 1"
  },
  "64.py": {
    "successful": false,
    "error_type": "AssertionError"
  },
  "67.py": {
    "successful": false,
    "error_type": "AssertionError"
  },
  "69.py": {
    "successful": true
  },
  "71.py": {
    "successful": true
  },
  "73.py": {
    "successful": false,
    "error_type": "TimeOut"
  },
  "77.py": {
    "successful": true
  },
  "79.py": {
    "successful": false,
    "error_type": "ValueError",
    "error_message": "invalid literal for int() with base 2"
  },
  "82.py": {
    "successful": true
  },
  "92.py": {
    "successful": true
  },
  "93.py": {
    "successful": false,
    "error_type": "AssertionError"
  },
  "96.py": {
    "successful": false,
    "error_type": "IndentationError",
    "error_message": "expected an indented block after function definition on line 1"
  },
  "100.py": {
    "successful": false,
    "error_type": "IndentationError",
    "error_message": "expected an indented block after function definition on line 1"
  },
  "102.py": {
    "successful": false,
    "error_type": "AssertionError"
  },
  "104.py": {
    "successful": false,
    "error_type": "AssertionError"
  },
  "106.py": {
    "successful": true
  },
  "108.py": {
    "successful": false,
    "error_type": "NameError",
    "error_message": "name 'count_ones' is not defined"
  },
  "114.py": {
    "successful": false,
    "error_type": "NameError",
    "error_message": "name 'count_ones' is not defined"
  },
  "118.py": {
    "successful": false,
    "error_type": "AssertionError"
  },
  "121.py": {
    "successful": false,
    "error_type": "IndentationError",
    "error_message": "expected an indented block after function definition on line 1"
  },
  "125.py": {
    "successful": true
  },
  "130.py": {
    "successful": false,
    "error_type": "IndentationError",
    "error_message": "expected an indented block after function definition on line 1"
  },
  "132.py": {
    "successful": true
  },
  "133.py": {
    "successful": false,
    "error_type": "AssertionError"
  },
  "135.py": {
    "successful": true
  },
  "137.py": {
    "successful": false,
    "error_type": "IndexError",
    "error_message": "list index out of range"
  },
  "139.py": {
    "successful": false,
    "error_type": "AssertionError"
  },
  "146.py": {
    "successful": true
  },
  "147.py": {
    "successful": true
  },
  "152.py": {
    "successful": true
  },
  "153.py": {
    "successful": false,
    "error_type": "IndentationError",
    "error_message": "expected an indented block after 'for' statement on line 3"
  },
  "170.py": {
    "successful": true
  },
  "179.py": {
    "successful": false,
    "error_type": "AssertionError"
  },
  "182.py": {
    "successful": false,
    "error_type": "TypeError",
    "error_message": "int() can't convert non-string with explicit base"
  },
  "186.py": {
    "successful": false,
    "error_type": "AssertionError"
  },
  "188.py": {
    "successful": true
  },
  "189.py": {
    "successful": true
  },
  "193.py": {
    "successful": false,
    "error_type": "AssertionError"
  },
  "198.py": {
    "successful": true
  }
}