{
  "test_complete": true,
  "3.py": {
    "successful": true
  },
  "4.py": {
    "successful": true
  },
  "9.py": {
    "successful": true
  },
  "10.py": {
    "successful": false,
    "error_type": "AssertionError"
  },
  "11.py": {
    "successful": false,
    "error_type": "AssertionError"
  },
  "14.py": {
    "successful": true
  },
  "20.py": {
    "successful": true
  },
  "22.py": {
    "successful": true
  },
  "23.py": {
    "successful": true
  },
  "25.py": {
    "successful": true
  },
  "29.py": {
    "successful": true
  },
  "34.py": {
    "successful": true
  },
  "46.py": {
    "successful": true
  },
  "56.py": {
    "successful": true
  },
  "66.py": {
    "successful": true
  },
  "67.py": {
    "successful": true
  },
  "68.py": {
    "successful": true
  },
  "69.py": {
    "successful": true
  },
  "72.py": {
    "successful": true
  },
  "74.py": {
    "successful": false,
    "error_type": "AssertionError"
  },
  "75.py": {
    "successful": true
  },
  "89.py": {
    "successful": false,
    "error_type": "AssertionError"
  },
  "103.py": {
    "successful": true
  },
  "104.py": {
    "successful": true
  },
  "108.py": {
    "successful": true
  },
  "114.py": {
    "successful": true
  },
  "117.py": {
    "successful": false,
    "error_type": "AssertionError"
  },
  "119.py": {
    "successful": true
  },
  "123.py": {
    "successful": true
  },
  "128.py": {
    "successful": true
  },
  "130.py": {
    "successful": true
  },
  "132.py": {
    "successful": true
  },
  "135.py": {
    "successful": true
  },
  "141.py": {
    "successful": true
  },
  "145.py": {
    "successful": true
  },
  "152.py": {
    "successful": true
  },
  "160.py": {
    "successful": true
  },
  "179.py": {
    "successful": false,
    "error_type": "AssertionError"
  },
  "198.py": {
    "successful": true
  }
}