{
  "test_complete": true,
  "4.py": {
    "successful": true
  },
  "25.py": {
    "successful": false,
    "error_type": "IndexError",
    "error_message": "list index out of range"
  },
  "29.py": {
    "successful": false,
    "error_type": "NameError",
    "error_message": "name 'max_e' is not defined"
  },
  "68.py": {
    "successful": false,
    "error_type": "AssertionError"
  },
  "110.py": {
    "successful": true
  },
  "118.py": {
    "successful": false,
    "error_type": "NameError",
    "error_message": "name 'max_' is not defined. Did you mean"
  },
  "172.py": {
    "successful": true
  },
  "175.py": {
    "successful": true
  },
  "185.py": {
    "successful": false,
    "error_type": "SyntaxError",
    "error_message": "'(' was never closed"
  }
}