{
  "test_complete": true,
  "2.py": {
    "successful": true
  },
  "4.py": {
    "successful": true
  },
  "6.py": {
    "successful": true
  },
  "8.py": {
    "successful": true
  },
  "10.py": {
    "successful": false,
    "error_type": "AssertionError"
  },
  "15.py": {
    "successful": true
  },
  "16.py": {
    "successful": true
  },
  "18.py": {
    "successful": true
  },
  "21.py": {
    "successful": false,
    "error_type": "AssertionError"
  },
  "22.py": {
    "successful": true
  },
  "24.py": {
    "successful": true
  },
  "25.py": {
    "successful": false,
    "error_type": "AssertionError"
  },
  "28.py": {
    "successful": true
  },
  "29.py": {
    "successful": false,
    "error_type": "AssertionError"
  },
  "41.py": {
    "successful": true
  },
  "44.py": {
    "successful": true
  },
  "46.py": {
    "successful": true
  },
  "50.py": {
    "successful": true
  },
  "52.py": {
    "successful": true
  },
  "55.py": {
    "successful": true
  },
  "56.py": {
    "successful": true
  },
  "59.py": {
    "successful": true
  },
  "60.py": {
    "successful": true
  },
  "65.py": {
    "successful": true
  },
  "66.py": {
    "successful": true
  },
  "69.py": {
    "successful": true
  },
  "78.py": {
    "successful": true
  },
  "82.py": {
    "successful": true
  },
  "83.py": {
    "successful": true
  },
  "90.py": {
    "successful": true
  },
  "96.py": {
    "successful": true
  },
  "97.py": {
    "successful": true
  },
  "104.py": {
    "successful": true
  },
  "115.py": {
    "successful": true
  },
  "118.py": {
    "successful": true
  },
  "121.py": {
    "successful": true
  },
  "123.py": {
    "successful": true
  },
  "128.py": {
    "successful": true
  },
  "129.py": {
    "successful": true
  },
  "131.py": {
    "successful": true
  },
  "133.py": {
    "successful": true
  },
  "134.py": {
    "successful": true
  },
  "135.py": {
    "successful": true
  },
  "142.py": {
    "successful": true
  },
  "146.py": {
    "successful": true
  },
  "147.py": {
    "successful": true
  },
  "148.py": {
    "successful": true
  },
  "151.py": {
    "successful": true
  },
  "153.py": {
    "successful": true
  },
  "160.py": {
    "successful": true
  },
  "166.py": {
    "successful": true
  },
  "167.py": {
    "successful": true
  },
  "170.py": {
    "successful": true
  },
  "173.py": {
    "successful": true
  },
  "174.py": {
    "successful": false,
    "error_type": "AssertionError"
  },
  "179.py": {
    "successful": true
  },
  "180.py": {
    "successful": true
  },
  "186.py": {
    "successful": false,
    "error_type": "AssertionError"
  },
  "197.py": {
    "successful": true
  },
  "198.py": {
    "successful": true
  }
}