{
  "test_complete": true,
  "0.py": {
    "successful": false,
    "error_type": "NameError",
    "error_message": "name 'fact' is not defined"
  },
  "1.py": {
    "successful": false,
    "error_type": "AssertionError"
  },
  "3.py": {
    "successful": false,
    "error_type": "AssertionError"
  },
  "6.py": {
    "successful": false,
    "error_type": "AssertionError"
  },
  "7.py": {
    "successful": false,
    "error_type": "AssertionError"
  },
  "8.py": {
    "successful": false,
    "error_type": "NameError",
    "error_message": "name 'factorial' is not defined"
  },
  "9.py": {
    "successful": false,
    "error_type": "AssertionError"
  },
  "10.py": {
    "successful": true
  },
  "13.py": {
    "successful": false,
    "error_type": "AssertionError"
  },
  "14.py": {
    "successful": false,
    "error_type": "AssertionError"
  },
  "17.py": {
    "successful": false,
    "error_type": "AssertionError"
  },
  "18.py": {
    "successful": false,
    "error_type": "NameError",
    "error_message": "name 'factorial' is not defined"
  },
  "19.py": {
    "successful": false,
    "error_type": "AssertionError"
  },
  "20.py": {
    "successful": false,
    "error_type": "NameError",
    "error_message": "name 'fact_sum' is not defined"
  },
  "22.py": {
    "successful": false,
    "error_type": "NameError",
    "error_message": "name 'reduce' is not defined"
  },
  "24.py": {
    "successful": false,
    "error_type": "AssertionError"
  },
  "25.py": {
    "successful": false,
    "error_type": "AssertionError"
  },
  "26.py": {
    "successful": false,
    "error_type": "NameError",
    "error_message": "name 'math' is not defined"
  },
  "29.py": {
    "successful": false,
    "error_type": "NameError",
    "error_message": "name 'factorial' is not defined"
  },
  "30.py": {
    "successful": false,
    "error_type": "NameError",
    "error_message": "name 'sum_from_one' is not defined"
  },
  "31.py": {
    "successful": false,
    "error_type": "AssertionError"
  },
  "35.py": {
    "successful": false,
    "error_type": "AssertionError"
  },
  "36.py": {
    "successful": false,
    "error_type": "NameError",
    "error_message": "name 'sum_of_numbers' is not defined"
  },
  "37.py": {
    "successful": false,
    "error_type": "AssertionError"
  },
  "38.py": {
    "successful": false,
    "error_type": "NameError",
    "error_message": "name 'reduce' is not defined"
  },
  "39.py": {
    "successful": false,
    "error_type": "NameError",
    "error_message": "name 'sum_to_i' is not defined"
  },
  "40.py": {
    "successful": true
  },
  "42.py": {
    "successful": false,
    "error_type": "NameError",
    "error_message": "name 'factorial' is not defined"
  },
  "43.py": {
    "successful": false,
    "error_type": "AssertionError"
  },
  "44.py": {
    "successful": true
  },
  "46.py": {
    "successful": false,
    "error_type": "NameError",
    "error_message": "name 'sum_numbers' is not defined"
  },
  "48.py": {
    "successful": false,
    "error_type": "AssertionError"
  },
  "49.py": {
    "successful": false,
    "error_type": "AssertionError"
  },
  "52.py": {
    "successful": false,
    "error_type": "NameError",
    "error_message": "name 'math' is not defined"
  },
  "53.py": {
    "successful": false,
    "error_type": "AssertionError"
  },
  "54.py": {
    "successful": false,
    "error_type": "NameError",
    "error_message": "name 'factorial' is not defined"
  },
  "58.py": {
    "successful": false,
    "error_type": "NameError",
    "error_message": "name 'factorial' is not defined"
  },
  "63.py": {
    "successful": false,
    "error_type": "AssertionError"
  },
  "65.py": {
    "successful": false,
    "error_type": "AssertionError"
  },
  "66.py": {
    "successful": false,
    "error_type": "NameError",
    "error_message": "name 'factorial' is not defined"
  },
  "67.py": {
    "successful": false,
    "error_type": "NameError",
    "error_message": "name 'factorial' is not defined"
  },
  "71.py": {
    "successful": false,
    "error_type": "NameError",
    "error_message": "name 'math' is not defined"
  },
  "72.py": {
    "successful": false,
    "error_type": "AssertionError"
  },
  "73.py": {
    "successful": false,
    "error_type": "AssertionError"
  },
  "74.py": {
    "successful": true
  },
  "75.py": {
    "successful": false,
    "error_type": "NameError",
    "error_message": "name 'factorial' is not defined"
  },
  "76.py": {
    "successful": false,
    "error_type": "AssertionError"
  },
  "77.py": {
    "successful": false,
    "error_type": "NameError",
    "error_message": "name 'sum_of_numbers' is not defined"
  },
  "78.py": {
    "successful": false,
    "error_type": "NameError",
    "error_message": "name 'fact' is not defined"
  },
  "79.py": {
    "successful": false,
    "error_type": "NameError",
    "error_message": "name 'factorial' is not defined"
  },
  "85.py": {
    "successful": false,
    "error_type": "AssertionError"
  },
  "88.py": {
    "successful": false,
    "error_type": "NameError",
    "error_message": "name 'factorial' is not defined"
  },
  "92.py": {
    "successful": false,
    "error_type": "NameError",
    "error_message": "name 'factorial' is not defined"
  },
  "93.py": {
    "successful": false,
    "error_type": "NameError",
    "error_message": "name 'factorial' is not defined"
  },
  "94.py": {
    "successful": false,
    "error_type": "AssertionError"
  },
  "98.py": {
    "successful": false,
    "error_type": "NameError",
    "error_message": "name 'get_sum_of_numbers' is not defined"
  },
  "99.py": {
    "successful": false,
    "error_type": "NameError",
    "error_message": "name 'reduce' is not defined"
  },
  "100.py": {
    "successful": false,
    "error_type": "NameError",
    "error_message": "name 'factorial' is not defined"
  },
  "104.py": {
    "successful": false,
    "error_type": "NameError",
    "error_message": "name 'factorial' is not defined"
  },
  "106.py": {
    "successful": false,
    "error_type": "AssertionError"
  },
  "108.py": {
    "successful": false,
    "error_type": "AssertionError"
  },
  "109.py": {
    "successful": false,
    "error_type": "IndexError",
    "error_message": "list index out of range"
  },
  "110.py": {
    "successful": false,
    "error_type": "AssertionError"
  },
  "111.py": {
    "successful": false,
    "error_type": "IndexError",
    "error_message": "list index out of range"
  },
  "115.py": {
    "successful": false,
    "error_type": "AssertionError"
  },
  "116.py": {
    "successful": false,
    "error_type": "AssertionError"
  },
  "117.py": {
    "successful": false,
    "error_type": "AssertionError"
  },
  "118.py": {
    "successful": false,
    "error_type": "AssertionError"
  },
  "120.py": {
    "successful": false,
    "error_type": "AssertionError"
  },
  "122.py": {
    "successful": false,
    "error_type": "NameError",
    "error_message": "name 'sum_of_numbers' is not defined"
  },
  "123.py": {
    "successful": false,
    "error_type": "NameError",
    "error_message": "name 'factorial' is not defined"
  },
  "124.py": {
    "successful": false,
    "error_type": "NameError",
    "error_message": "name 'factorial' is not defined"
  },
  "125.py": {
    "successful": false,
    "error_type": "AssertionError"
  },
  "126.py": {
    "successful": false,
    "error_type": "TimeOut"
  },
  "127.py": {
    "successful": false,
    "error_type": "NameError",
    "error_message": "name 'factorial' is not defined"
  },
  "130.py": {
    "successful": false,
    "error_type": "AssertionError"
  },
  "131.py": {
    "successful": false,
    "error_type": "NameError",
    "error_message": "name 'factorial' is not defined"
  },
  "134.py": {
    "successful": false,
    "error_type": "NameError",
    "error_message": "name 'sum_of_1_to_n' is not defined"
  },
  "135.py": {
    "successful": false,
    "error_type": "NameError",
    "error_message": "name 'get_sum_of_numbers' is not defined"
  },
  "137.py": {
    "successful": false,
    "error_type": "NameError",
    "error_message": "name 'sum_of_nums' is not defined"
  },
  "138.py": {
    "successful": false,
    "error_type": "AssertionError"
  },
  "140.py": {
    "successful": false,
    "error_type": "AssertionError"
  },
  "141.py": {
    "successful": false,
    "error_type": "AssertionError"
  },
  "142.py": {
    "successful": false,
    "error_type": "NameError",
    "error_message": "name 'sum_of_numbers' is not defined"
  },
  "143.py": {
    "successful": false,
    "error_type": "NameError",
    "error_message": "name 'fact' is not defined"
  },
  "145.py": {
    "successful": false,
    "error_type": "NameError",
    "error_message": "name 'sum_from_1_to' is not defined"
  },
  "146.py": {
    "successful": false,
    "error_type": "AssertionError"
  },
  "147.py": {
    "successful": false,
    "error_type": "AssertionError"
  },
  "149.py": {
    "successful": false,
    "error_type": "AssertionError"
  },
  "151.py": {
    "successful": false,
    "error_type": "NameError",
    "error_message": "name 'sum_to_n' is not defined"
  },
  "152.py": {
    "successful": false,
    "error_type": "NameError",
    "error_message": "name 'fact' is not defined"
  },
  "153.py": {
    "successful": false,
    "error_type": "AssertionError"
  },
  "154.py": {
    "successful": false,
    "error_type": "AssertionError"
  },
  "155.py": {
    "successful": false,
    "error_type": "AssertionError"
  },
  "157.py": {
    "successful": false,
    "error_type": "AssertionError"
  },
  "159.py": {
    "successful": false,
    "error_type": "AssertionError"
  },
  "160.py": {
    "successful": false,
    "error_type": "NameError",
    "error_message": "name 'sum_numbers' is not defined"
  },
  "162.py": {
    "successful": false,
    "error_type": "NameError",
    "error_message": "name 'math' is not defined"
  },
  "165.py": {
    "successful": false,
    "error_type": "AssertionError"
  },
  "169.py": {
    "successful": false,
    "error_type": "AssertionError"
  },
  "170.py": {
    "successful": false,
    "error_type": "NameError",
    "error_message": "name 'sum_of_nums' is not defined"
  },
  "171.py": {
    "successful": false,
    "error_type": "AssertionError"
  },
  "172.py": {
    "successful": false,
    "error_type": "AssertionError"
  },
  "180.py": {
    "successful": true
  },
  "181.py": {
    "successful": false,
    "error_type": "AssertionError"
  },
  "187.py": {
    "successful": false,
    "error_type": "AssertionError"
  },
  "188.py": {
    "successful": false,
    "error_type": "NameError",
    "error_message": "name 'factorial' is not defined"
  },
  "190.py": {
    "successful": false,
    "error_type": "AssertionError"
  },
  "192.py": {
    "successful": false,
    "error_type": "IndexError",
    "error_message": "list index out of range"
  },
  "193.py": {
    "successful": false,
    "error_type": "AssertionError"
  },
  "195.py": {
    "successful": false,
    "error_type": "NameError",
    "error_message": "name 'reduce' is not defined"
  },
  "196.py": {
    "successful": false,
    "error_type": "NameError",
    "error_message": "name 'factorial' is not defined"
  },
  "197.py": {
    "successful": false,
    "error_type": "AssertionError"
  }
}