{
  "test_complete": true,
  "1.py": {
    "successful": true
  },
  "2.py": {
    "successful": true
  },
  "4.py": {
    "successful": true
  },
  "5.py": {
    "successful": false,
    "error_type": "NameError",
    "error_message": "name 'hashlib' is not defined"
  },
  "7.py": {
    "successful": true
  },
  "8.py": {
    "successful": true
  },
  "9.py": {
    "successful": true
  },
  "11.py": {
    "successful": true
  },
  "14.py": {
    "successful": false,
    "error_type": "AssertionError"
  },
  "20.py": {
    "successful": true
  },
  "22.py": {
    "successful": false,
    "error_type": "AssertionError"
  },
  "24.py": {
    "successful": true
  },
  "25.py": {
    "successful": true
  },
  "26.py": {
    "successful": false,
    "error_type": "AssertionError"
  },
  "27.py": {
    "successful": true
  },
  "29.py": {
    "successful": true
  },
  "30.py": {
    "successful": true
  },
  "31.py": {
    "successful": true
  },
  "32.py": {
    "successful": false,
    "error_type": "AssertionError"
  },
  "33.py": {
    "successful": true
  },
  "34.py": {
    "successful": false,
    "error_type": "NameError",
    "error_message": "name 'hashlib' is not defined"
  },
  "36.py": {
    "successful": false,
    "error_type": "AssertionError"
  },
  "38.py": {
    "successful": true
  },
  "40.py": {
    "successful": true
  },
  "41.py": {
    "successful": true
  },
  "43.py": {
    "successful": true
  },
  "44.py": {
    "successful": true
  },
  "45.py": {
    "successful": true
  },
  "47.py": {
    "successful": true
  },
  "48.py": {
    "successful": true
  },
  "50.py": {
    "successful": true
  },
  "52.py": {
    "successful": true
  },
  "57.py": {
    "successful": true
  },
  "59.py": {
    "successful": true
  },
  "60.py": {
    "successful": true
  },
  "61.py": {
    "successful": true
  },
  "63.py": {
    "successful": true
  },
  "68.py": {
    "successful": true
  },
  "69.py": {
    "successful": true
  },
  "70.py": {
    "successful": true
  },
  "72.py": {
    "successful": true
  },
  "73.py": {
    "successful": true
  },
  "74.py": {
    "successful": true
  },
  "75.py": {
    "successful": false,
    "error_type": "NameError",
    "error_message": "name 'hashlib' is not defined"
  },
  "76.py": {
    "successful": true
  },
  "78.py": {
    "successful": true
  },
  "79.py": {
    "successful": true
  },
  "80.py": {
    "successful": false,
    "error_type": "NameError",
    "error_message": "name 'hashlib' is not defined"
  },
  "81.py": {
    "successful": true
  },
  "83.py": {
    "successful": true
  },
  "84.py": {
    "successful": false,
    "error_type": "NameError",
    "error_message": "name 'hashlib' is not defined"
  },
  "85.py": {
    "successful": true
  },
  "86.py": {
    "successful": true
  },
  "89.py": {
    "successful": true
  },
  "90.py": {
    "successful": true
  },
  "91.py": {
    "successful": true
  },
  "93.py": {
    "successful": false,
    "error_type": "TypeError",
    "error_message": "Strings must be encoded before hashing"
  },
  "94.py": {
    "successful": true
  },
  "96.py": {
    "successful": true
  },
  "98.py": {
    "successful": true
  },
  "102.py": {
    "successful": true
  },
  "103.py": {
    "successful": true
  },
  "104.py": {
    "successful": true
  },
  "105.py": {
    "successful": true
  },
  "106.py": {
    "successful": true
  },
  "107.py": {
    "successful": true
  },
  "109.py": {
    "successful": false,
    "error_type": "NameError",
    "error_message": "name 'hashlib' is not defined"
  },
  "110.py": {
    "successful": true
  },
  "111.py": {
    "successful": false,
    "error_type": "AssertionError"
  },
  "114.py": {
    "successful": true
  },
  "116.py": {
    "successful": true
  },
  "117.py": {
    "successful": true
  },
  "121.py": {
    "successful": true
  },
  "122.py": {
    "successful": true
  },
  "123.py": {
    "successful": true
  },
  "124.py": {
    "successful": true
  },
  "125.py": {
    "successful": true
  },
  "126.py": {
    "successful": true
  },
  "128.py": {
    "successful": true
  },
  "130.py": {
    "successful": false,
    "error_type": "AssertionError"
  },
  "133.py": {
    "successful": false,
    "error_type": "AssertionError"
  },
  "134.py": {
    "successful": true
  },
  "136.py": {
    "successful": true
  },
  "138.py": {
    "successful": true
  },
  "139.py": {
    "successful": false,
    "error_type": "AssertionError"
  },
  "140.py": {
    "successful": true
  },
  "141.py": {
    "successful": true
  },
  "142.py": {
    "successful": true
  },
  "143.py": {
    "successful": true
  },
  "145.py": {
    "successful": true
  },
  "147.py": {
    "successful": true
  },
  "149.py": {
    "successful": true
  },
  "151.py": {
    "successful": true
  },
  "163.py": {
    "successful": true
  },
  "164.py": {
    "successful": true
  },
  "167.py": {
    "successful": true
  },
  "169.py": {
    "successful": true
  },
  "172.py": {
    "successful": true
  },
  "174.py": {
    "successful": true
  },
  "176.py": {
    "successful": false,
    "error_type": "AssertionError"
  },
  "179.py": {
    "successful": true
  },
  "180.py": {
    "successful": false,
    "error_type": "NameError",
    "error_message": "name 'hashlib' is not defined"
  },
  "183.py": {
    "successful": true
  },
  "185.py": {
    "successful": true
  },
  "188.py": {
    "successful": false,
    "error_type": "AssertionError"
  },
  "189.py": {
    "successful": true
  },
  "190.py": {
    "successful": true
  },
  "191.py": {
    "successful": true
  },
  "197.py": {
    "successful": true
  },
  "198.py": {
    "successful": true
  },
  "199.py": {
    "successful": false,
    "error_type": "AssertionError"
  }
}