{
  "test_complete": true,
  "3.py": {
    "successful": true
  },
  "9.py": {
    "successful": false,
    "error_type": "AssertionError"
  },
  "16.py": {
    "successful": true
  },
  "17.py": {
    "successful": false,
    "error_type": "AssertionError"
  },
  "20.py": {
    "successful": false,
    "error_type": "AssertionError"
  },
  "24.py": {
    "successful": true
  },
  "28.py": {
    "successful": false,
    "error_type": "AssertionError"
  },
  "52.py": {
    "successful": true
  },
  "56.py": {
    "successful": false,
    "error_type": "AssertionError"
  },
  "62.py": {
    "successful": true
  },
  "65.py": {
    "successful": false,
    "error_type": "AssertionError"
  },
  "70.py": {
    "successful": false,
    "error_type": "AssertionError"
  },
  "71.py": {
    "successful": false,
    "error_type": "AssertionError"
  },
  "79.py": {
    "successful": true
  },
  "87.py": {
    "successful": true
  },
  "91.py": {
    "successful": false,
    "error_type": "AssertionError"
  },
  "98.py": {
    "successful": false,
    "error_type": "AssertionError"
  },
  "99.py": {
    "successful": true
  },
  "102.py": {
    "successful": true
  },
  "103.py": {
    "successful": true
  },
  "112.py": {
    "successful": false,
    "error_type": "AssertionError"
  },
  "126.py": {
    "successful": true
  },
  "129.py": {
    "successful": true
  },
  "138.py": {
    "successful": false,
    "error_type": "AssertionError"
  },
  "140.py": {
    "successful": false,
    "error_type": "AssertionError"
  },
  "147.py": {
    "successful": true
  },
  "150.py": {
    "successful": true
  },
  "159.py": {
    "successful": false,
    "error_type": "AssertionError"
  },
  "174.py": {
    "successful": false,
    "error_type": "AssertionError"
  },
  "179.py": {
    "successful": true
  },
  "184.py": {
    "successful": false,
    "error_type": "AssertionError"
  },
  "185.py": {
    "successful": false,
    "error_type": "AssertionError"
  },
  "191.py": {
    "successful": false,
    "error_type": "AssertionError"
  },
  "198.py": {
    "successful": true
  }
}