{
  "test_complete": true,
  "0.py": {
    "successful": false,
    "error_type": "TypeError",
    "error_message": "must be real number, not NoneType"
  },
  "1.py": {
    "successful": false,
    "error_type": "ValueError",
    "error_message": "largest coefficient should be non-zero"
  },
  "2.py": {
    "successful": false,
    "error_type": "NameError",
    "error_message": "name 'np' is not defined"
  },
  "3.py": {
    "successful": false,
    "error_type": "ValueError",
    "error_message": "largest coefficient must be non-zero"
  },
  "4.py": {
    "successful": false,
    "error_type": "NameError",
    "error_message": "name 'random' is not defined"
  },
  "5.py": {
    "successful": false,
    "error_type": "AssertionError"
  },
  "6.py": {
    "successful": false,
    "error_type": "NameError",
    "error_message": "name 'polynomial_roots' is not defined"
  },
  "7.py": {
    "successful": false,
    "error_type": "TypeError",
    "error_message": "poly() takes 2 positional arguments but 3 were given"
  },
  "8.py": {
    "successful": false,
    "error_type": "AttributeError",
    "error_message": "'list' object has no attribute 'values'"
  },
  "9.py": {
    "successful": false,
    "error_type": "NameError",
    "error_message": "name 'random' is not defined"
  },
  "10.py": {
    "successful": false,
    "error_type": "AssertionError"
  },
  "11.py": {
    "successful": false,
    "error_type": "TypeError",
    "error_message": "'float' object is not iterable"
  },
  "12.py": {
    "successful": false,
    "error_type": "TypeError",
    "error_message": "'float' object is not iterable"
  },
  "13.py": {
    "successful": false,
    "error_type": "TypeError",
    "error_message": "'float' object is not iterable"
  },
  "14.py": {
    "successful": false,
    "error_type": "TypeError",
    "error_message": "must be real number, not NoneType"
  },
  "15.py": {
    "successful": false,
    "error_type": "TypeError",
    "error_message": "'float' object is not iterable"
  },
  "16.py": {
    "successful": false,
    "error_type": "TypeError",
    "error_message": "must be real number, not NoneType"
  },
  "17.py": {
    "successful": false,
    "error_type": "TypeError",
    "error_message": "'float' object is not iterable"
  },
  "18.py": {
    "successful": false,
    "error_type": "TypeError",
    "error_message": "'float' object is not iterable"
  },
  "19.py": {
    "successful": false,
    "error_type": "AssertionError"
  },
  "20.py": {
    "successful": false,
    "error_type": "NameError",
    "error_message": "name 'x' is not defined. Did you mean"
  },
  "21.py": {
    "successful": false,
    "error_type": "TypeError",
    "error_message": "must be real number, not NoneType"
  },
  "22.py": {
    "successful": false,
    "error_type": "TypeError",
    "error_message": "must be real number, not NoneType"
  },
  "23.py": {
    "successful": false,
    "error_type": "ValueError",
    "error_message": "List xs should have largest non-zero coefficient as 0"
  },
  "24.py": {
    "successful": false,
    "error_type": "AttributeError",
    "error_message": "module 'math' has no attribute 'lambd'"
  },
  "25.py": {
    "successful": false,
    "error_type": "ValueError",
    "error_message": "math domain error"
  },
  "26.py": {
    "successful": false,
    "error_type": "ValueError",
    "error_message": "largest nonzero coefficient should be 0"
  },
  "27.py": {
    "successful": false,
    "error_type": "AssertionError"
  },
  "28.py": {
    "successful": false,
    "error_type": "ValueError",
    "error_message": "math domain error"
  },
  "29.py": {
    "successful": false,
    "error_type": "NameError",
    "error_message": "cannot access free variable 'x' where it is not associated with a value in enclosing scope"
  },
  "30.py": {
    "successful": false,
    "error_type": "TypeError",
    "error_message": "must be real number, not NoneType"
  },
  "31.py": {
    "successful": false,
    "error_type": "AssertionError"
  },
  "32.py": {
    "successful": false,
    "error_type": "AssertionError"
  },
  "33.py": {
    "successful": false,
    "error_type": "IndexError",
    "error_message": "list index out of range"
  },
  "34.py": {
    "successful": false,
    "error_type": "TimeOut"
  },
  "35.py": {
    "successful": false,
    "error_type": "UnboundLocalError",
    "error_message": "cannot access local variable 'x' where it is not associated with a value"
  },
  "36.py": {
    "successful": false,
    "error_type": "ValueError",
    "error_message": "No root found"
  },
  "37.py": {
    "successful": false,
    "error_type": "TypeError",
    "error_message": "'float' object is not iterable"
  },
  "38.py": {
    "successful": false,
    "error_type": "TypeError",
    "error_message": "must be real number, not NoneType"
  },
  "39.py": {
    "successful": false,
    "error_type": "AssertionError"
  },
  "40.py": {
    "successful": false,
    "error_type": "TypeError",
    "error_message": "'float' object is not iterable"
  },
  "41.py": {
    "successful": false,
    "error_type": "AssertionError"
  },
  "42.py": {
    "successful": false,
    "error_type": "TimeOut"
  },
  "43.py": {
    "successful": false,
    "error_type": "TypeError",
    "error_message": "poly() takes 2 positional arguments but 3 were given"
  },
  "44.py": {
    "successful": false,
    "error_type": "AttributeError",
    "error_message": "module 'math' has no attribute 'lambd'"
  },
  "45.py": {
    "successful": false,
    "error_type": "AttributeError",
    "error_message": "'list' object has no attribute 'values'"
  },
  "46.py": {
    "successful": false,
    "error_type": "TypeError",
    "error_message": "'map' object cannot be interpreted as an integer"
  },
  "47.py": {
    "successful": false,
    "error_type": "AssertionError"
  },
  "48.py": {
    "successful": false,
    "error_type": "TypeError",
    "error_message": "'float' object is not iterable"
  },
  "49.py": {
    "successful": false,
    "error_type": "AssertionError"
  },
  "50.py": {
    "successful": false,
    "error_type": "AssertionError"
  },
  "51.py": {
    "successful": false,
    "error_type": "ValueError",
    "error_message": "List xs must have a largest nonzero coefficient."
  },
  "52.py": {
    "successful": false,
    "error_type": "ValueError",
    "error_message": "List xs must have largest non-zero coefficient"
  },
  "53.py": {
    "successful": false,
    "error_type": "TypeError",
    "error_message": "must be real number, not NoneType"
  },
  "54.py": {
    "successful": false,
    "error_type": "TypeError",
    "error_message": "must be real number, not NoneType"
  },
  "55.py": {
    "successful": false,
    "error_type": "AssertionError"
  },
  "56.py": {
    "successful": false,
    "error_type": "TypeError",
    "error_message": "'float' object is not iterable"
  },
  "57.py": {
    "successful": false,
    "error_type": "TypeError",
    "error_message": "'float' object is not iterable"
  },
  "58.py": {
    "successful": false,
    "error_type": "TypeError",
    "error_message": "'int' object is not iterable"
  },
  "59.py": {
    "successful": false,
    "error_type": "TypeError",
    "error_message": "must be real number, not NoneType"
  },
  "60.py": {
    "successful": false,
    "error_type": "AssertionError"
  },
  "61.py": {
    "successful": false,
    "error_type": "ZeroDivisionError",
    "error_message": "float floor division by zero"
  },
  "62.py": {
    "successful": false,
    "error_type": "NameError",
    "error_message": "name 'x' is not defined. Did you mean"
  },
  "63.py": {
    "successful": false,
    "error_type": "AssertionError"
  },
  "64.py": {
    "successful": false,
    "error_type": "ZeroDivisionError",
    "error_message": "division by zero"
  },
  "65.py": {
    "successful": false,
    "error_type": "TypeError",
    "error_message": "poly() takes 2 positional arguments but 3 were given"
  },
  "66.py": {
    "successful": false,
    "error_type": "AttributeError",
    "error_message": "'int' object has no attribute 'q'"
  },
  "67.py": {
    "successful": false,
    "error_type": "TypeError",
    "error_message": "'float' object is not iterable"
  },
  "68.py": {
    "successful": false,
    "error_type": "TypeError",
    "error_message": "must be real number, not NoneType"
  },
  "69.py": {
    "successful": false,
    "error_type": "TypeError",
    "error_message": "'float' object is not iterable"
  },
  "70.py": {
    "successful": false,
    "error_type": "AssertionError"
  },
  "71.py": {
    "successful": false,
    "error_type": "AssertionError"
  },
  "72.py": {
    "successful": false,
    "error_type": "AssertionError"
  },
  "73.py": {
    "successful": false,
    "error_type": "AttributeError",
    "error_message": "module 'math' has no attribute 'lambd'"
  },
  "74.py": {
    "successful": false,
    "error_type": "TypeError",
    "error_message": "'float' object is not iterable"
  },
  "75.py": {
    "successful": false,
    "error_type": "AssertionError"
  },
  "76.py": {
    "successful": false,
    "error_type": "TypeError",
    "error_message": "'float' object is not iterable"
  },
  "77.py": {
    "successful": false,
    "error_type": "TypeError",
    "error_message": "'int' object is not iterable"
  },
  "78.py": {
    "successful": false,
    "error_type": "TypeError",
    "error_message": "'int' object is not iterable"
  },
  "79.py": {
    "successful": false,
    "error_type": "TypeError",
    "error_message": "'float' object is not iterable"
  },
  "80.py": {
    "successful": false,
    "error_type": "AttributeError",
    "error_message": "'float' object has no attribute 'is_positive'"
  },
  "81.py": {
    "successful": false,
    "error_type": "NameError",
    "error_message": "name 'symbols' is not defined"
  },
  "82.py": {
    "successful": false,
    "error_type": "ValueError",
    "error_message": "Expected largest non-zero coefficient"
  },
  "83.py": {
    "successful": false,
    "error_type": "TypeError",
    "error_message": "poly() missing 1 required positional argument"
  },
  "84.py": {
    "successful": false,
    "error_type": "ValueError",
    "error_message": "List xs must not have a non-zero last coefficient"
  },
  "85.py": {
    "successful": false,
    "error_type": "TypeError",
    "error_message": "must be real number, not NoneType"
  },
  "86.py": {
    "successful": false,
    "error_type": "NameError",
    "error_message": "name 'xrange' is not defined. Did you mean"
  },
  "87.py": {
    "successful": false,
    "error_type": "TypeError",
    "error_message": "must be real number, not NoneType"
  },
  "88.py": {
    "successful": false,
    "error_type": "TypeError",
    "error_message": "'int' object is not iterable"
  },
  "89.py": {
    "successful": false,
    "error_type": "AssertionError"
  },
  "90.py": {
    "successful": false,
    "error_type": "TypeError",
    "error_message": "must be real number, not NoneType"
  },
  "91.py": {
    "successful": false,
    "error_type": "TypeError",
    "error_message": "'float' object is not iterable"
  },
  "92.py": {
    "successful": false,
    "error_type": "TypeError",
    "error_message": "'float' object is not iterable"
  },
  "93.py": {
    "successful": false,
    "error_type": "TypeError",
    "error_message": "must be real number, not NoneType"
  },
  "94.py": {
    "successful": false,
    "error_type": "TypeError",
    "error_message": "'int' object is not iterable"
  },
  "95.py": {
    "successful": false,
    "error_type": "NameError",
    "error_message": "name 'polynomial_zero' is not defined"
  },
  "96.py": {
    "successful": false,
    "error_type": "AssertionError"
  },
  "97.py": {
    "successful": false,
    "error_type": "NameError",
    "error_message": "name 'Symbol' is not defined"
  },
  "98.py": {
    "successful": false,
    "error_type": "ValueError",
    "error_message": "List xs should have largest non-zero coefficient equal to 1"
  },
  "99.py": {
    "successful": false,
    "error_type": "ValueError",
    "error_message": "List xs must not have a non-zero last coefficient"
  },
  "100.py": {
    "successful": false,
    "error_type": "TypeError",
    "error_message": "must be real number, not NoneType"
  },
  "101.py": {
    "successful": false,
    "error_type": "TypeError",
    "error_message": "poly() takes 2 positional arguments but 3 were given"
  },
  "102.py": {
    "successful": false,
    "error_type": "TypeError",
    "error_message": "must be real number, not NoneType"
  },
  "103.py": {
    "successful": false,
    "error_type": "ValueError",
    "error_message": "largest non-zero coefficient must be 0"
  },
  "104.py": {
    "successful": false,
    "error_type": "TypeError",
    "error_message": "'float' object is not iterable"
  },
  "105.py": {
    "successful": false,
    "error_type": "TypeError",
    "error_message": "must be real number, not NoneType"
  },
  "106.py": {
    "successful": false,
    "error_type": "AssertionError"
  },
  "107.py": {
    "successful": false,
    "error_type": "TypeError",
    "error_message": "'float' object is not iterable"
  },
  "108.py": {
    "successful": false,
    "error_type": "TypeError",
    "error_message": "'int' object is not iterable"
  },
  "109.py": {
    "successful": false,
    "error_type": "AssertionError"
  },
  "110.py": {
    "successful": false,
    "error_type": "TypeError",
    "error_message": "'map' object is not subscriptable"
  },
  "111.py": {
    "successful": false,
    "error_type": "AssertionError"
  },
  "112.py": {
    "successful": false,
    "error_type": "TypeError",
    "error_message": "must be real number, not NoneType"
  },
  "113.py": {
    "successful": false,
    "error_type": "AttributeError",
    "error_message": "'float' object has no attribute 'evalf'"
  },
  "114.py": {
    "successful": false,
    "error_type": "NameError",
    "error_message": "name 'x' is not defined. Did you mean"
  },
  "115.py": {
    "successful": false,
    "error_type": "TypeError",
    "error_message": "'float' object is not iterable"
  },
  "116.py": {
    "successful": false,
    "error_type": "TypeError",
    "error_message": "'int' object is not iterable"
  },
  "117.py": {
    "successful": false,
    "error_type": "TypeError",
    "error_message": "'float' object is not iterable"
  },
  "118.py": {
    "successful": false,
    "error_type": "AttributeError",
    "error_message": "module 'math' has no attribute 'random'"
  },
  "119.py": {
    "successful": false,
    "error_type": "TypeError",
    "error_message": "poly() takes 2 positional arguments but 3 were given"
  },
  "120.py": {
    "successful": false,
    "error_type": "TypeError",
    "error_message": "'float' object is not iterable"
  },
  "121.py": {
    "successful": false,
    "error_type": "TypeError",
    "error_message": "must be real number, not NoneType"
  },
  "122.py": {
    "successful": false,
    "error_type": "AssertionError"
  },
  "123.py": {
    "successful": false,
    "error_type": "SyntaxError",
    "error_message": "invalid syntax"
  },
  "124.py": {
    "successful": false,
    "error_type": "AttributeError",
    "error_message": "module 'math' has no attribute 'roots'"
  },
  "125.py": {
    "successful": false,
    "error_type": "TypeError",
    "error_message": "poly() takes 2 positional arguments but 3 were given"
  },
  "126.py": {
    "successful": false,
    "error_type": "TypeError",
    "error_message": "'float' object is not iterable"
  },
  "127.py": {
    "successful": false,
    "error_type": "NameError",
    "error_message": "name 'np' is not defined"
  },
  "128.py": {
    "successful": false,
    "error_type": "TypeError",
    "error_message": "must be real number, not NoneType"
  },
  "129.py": {
    "successful": false,
    "error_type": "AttributeError",
    "error_message": "module 'math' has no attribute 'im'"
  },
  "130.py": {
    "successful": false,
    "error_type": "AssertionError"
  },
  "131.py": {
    "successful": false,
    "error_type": "NameError",
    "error_message": "name 'np' is not defined"
  },
  "132.py": {
    "successful": false,
    "error_type": "ValueError",
    "error_message": "Expected largest non-zero coefficient"
  },
  "133.py": {
    "successful": false,
    "error_type": "TypeError",
    "error_message": "must be real number, not NoneType"
  },
  "134.py": {
    "successful": false,
    "error_type": "NameError",
    "error_message": "name 'xrange' is not defined. Did you mean"
  },
  "135.py": {
    "successful": false,
    "error_type": "TypeError",
    "error_message": "'float' object is not iterable"
  },
  "136.py": {
    "successful": false,
    "error_type": "TypeError",
    "error_message": "poly() takes 2 positional arguments but 3 were given"
  },
  "137.py": {
    "successful": false,
    "error_type": "ValueError",
    "error_message": "math domain error"
  },
  "138.py": {
    "successful": false,
    "error_type": "ValueError",
    "error_message": "math domain error"
  },
  "139.py": {
    "successful": false,
    "error_type": "TypeError",
    "error_message": "'float' object is not iterable"
  },
  "140.py": {
    "successful": false,
    "error_type": "AssertionError"
  },
  "141.py": {
    "successful": false,
    "error_type": "TypeError",
    "error_message": "'float' object is not iterable"
  },
  "142.py": {
    "successful": false,
    "error_type": "NameError",
    "error_message": "name 'Symbol' is not defined"
  },
  "143.py": {
    "successful": false,
    "error_type": "TypeError",
    "error_message": "'int' object is not iterable"
  },
  "144.py": {
    "successful": false,
    "error_type": "TypeError",
    "error_message": "'float' object is not iterable"
  },
  "145.py": {
    "successful": false,
    "error_type": "ValueError",
    "error_message": "List xs must have largest coefficient non-zero"
  },
  "146.py": {
    "successful": false,
    "error_type": "TypeError",
    "error_message": "'float' object is not iterable"
  },
  "147.py": {
    "successful": false,
    "error_type": "TypeError",
    "error_message": "must be real number, not NoneType"
  },
  "148.py": {
    "successful": false,
    "error_type": "TypeError",
    "error_message": "'int' object is not iterable"
  },
  "149.py": {
    "successful": false,
    "error_type": "TypeError",
    "error_message": "must be real number, not NoneType"
  },
  "150.py": {
    "successful": false,
    "error_type": "NameError",
    "error_message": "name 'x' is not defined. Did you mean"
  },
  "151.py": {
    "successful": false,
    "error_type": "TypeError",
    "error_message": "'float' object is not iterable"
  },
  "152.py": {
    "successful": false,
    "error_type": "TypeError",
    "error_message": "poly() missing 1 required positional argument"
  },
  "153.py": {
    "successful": false,
    "error_type": "TypeError",
    "error_message": "poly() takes 2 positional arguments but 3 were given"
  },
  "154.py": {
    "successful": false,
    "error_type": "TypeError",
    "error_message": "must be real number, not NoneType"
  },
  "155.py": {
    "successful": false,
    "error_type": "TypeError",
    "error_message": "must be real number, not NoneType"
  },
  "156.py": {
    "successful": false,
    "error_type": "TypeError",
    "error_message": "must be real number, not NoneType"
  },
  "157.py": {
    "successful": false,
    "error_type": "TypeError",
    "error_message": "must be real number, not NoneType"
  },
  "158.py": {
    "successful": false,
    "error_type": "NameError",
    "error_message": "name 'Symbol' is not defined"
  },
  "159.py": {
    "successful": false,
    "error_type": "TypeError",
    "error_message": "'float' object is not iterable"
  },
  "160.py": {
    "successful": false,
    "error_type": "AttributeError",
    "error_message": "module 'math' has no attribute 'roots'"
  },
  "161.py": {
    "successful": false,
    "error_type": "AttributeError",
    "error_message": "module 'math' has no attribute 'lambd'"
  },
  "162.py": {
    "successful": false,
    "error_type": "ValueError",
    "error_message": "List xs must have largest nonzero coefficient"
  },
  "163.py": {
    "successful": false,
    "error_type": "TypeError",
    "error_message": "'int' object is not iterable"
  },
  "164.py": {
    "successful": false,
    "error_type": "NameError",
    "error_message": "name 'x' is not defined"
  },
  "165.py": {
    "successful": false,
    "error_type": "ValueError",
    "error_message": "largest coefficient must be nonzero"
  },
  "166.py": {
    "successful": false,
    "error_type": "TypeError",
    "error_message": "'float' object is not iterable"
  },
  "167.py": {
    "successful": false,
    "error_type": "TypeError",
    "error_message": "'float' object is not iterable"
  },
  "168.py": {
    "successful": false,
    "error_type": "TypeError",
    "error_message": "must be real number, not NoneType"
  },
  "169.py": {
    "successful": false,
    "error_type": "TypeError",
    "error_message": "must be real number, not NoneType"
  },
  "170.py": {
    "successful": false,
    "error_type": "TypeError",
    "error_message": "'int' object is not iterable"
  },
  "171.py": {
    "successful": false,
    "error_type": "AssertionError"
  },
  "172.py": {
    "successful": false,
    "error_type": "NameError",
    "error_message": "name 'np' is not defined"
  },
  "173.py": {
    "successful": false,
    "error_type": "TypeError",
    "error_message": "poly() takes 2 positional arguments but 3 were given"
  },
  "174.py": {
    "successful": false,
    "error_type": "NameError",
    "error_message": "name 'symbols' is not defined"
  },
  "175.py": {
    "successful": false,
    "error_type": "TimeOut"
  },
  "176.py": {
    "successful": false,
    "error_type": "TypeError",
    "error_message": "must be real number, not NoneType"
  },
  "177.py": {
    "successful": false,
    "error_type": "TypeError",
    "error_message": "'float' object is not iterable"
  },
  "178.py": {
    "successful": false,
    "error_type": "TypeError",
    "error_message": "'float' object is not iterable"
  },
  "179.py": {
    "successful": false,
    "error_type": "TypeError",
    "error_message": "can only concatenate list (not \"int\") to list"
  },
  "180.py": {
    "successful": false,
    "error_type": "UnboundLocalError",
    "error_message": "cannot access local variable 'x' where it is not associated with a value"
  },
  "181.py": {
    "successful": false,
    "error_type": "TypeError",
    "error_message": "must be real number, not NoneType"
  },
  "182.py": {
    "successful": false,
    "error_type": "TypeError",
    "error_message": "'float' object is not iterable"
  },
  "183.py": {
    "successful": false,
    "error_type": "TypeError",
    "error_message": "must be real number, not NoneType"
  },
  "184.py": {
    "successful": false,
    "error_type": "NameError",
    "error_message": "name 'np' is not defined. Did you mean"
  },
  "185.py": {
    "successful": false,
    "error_type": "TypeError",
    "error_message": "must be real number, not NoneType"
  },
  "186.py": {
    "successful": false,
    "error_type": "NameError",
    "error_message": "name 'numpy' is not defined"
  },
  "187.py": {
    "successful": false,
    "error_type": "TypeError",
    "error_message": "'float' object is not iterable"
  },
  "188.py": {
    "successful": false,
    "error_type": "ValueError",
    "error_message": "largest non-zero coefficient must be present"
  },
  "189.py": {
    "successful": false,
    "error_type": "TypeError",
    "error_message": "must be real number, not NoneType"
  },
  "190.py": {
    "successful": false,
    "error_type": "ValueError",
    "error_message": "Input list xs must have largest non-zero coefficient equal to 1"
  },
  "191.py": {
    "successful": false,
    "error_type": "ValueError",
    "error_message": "Invalid coefficients"
  },
  "192.py": {
    "successful": false,
    "error_type": "AssertionError"
  },
  "193.py": {
    "successful": false,
    "error_type": "AttributeError",
    "error_message": "'list' object has no attribute 'tolist'"
  },
  "194.py": {
    "successful": false,
    "error_type": "TypeError",
    "error_message": "'float' object is not iterable"
  },
  "195.py": {
    "successful": false,
    "error_type": "TypeError",
    "error_message": "'float' object is not iterable"
  },
  "196.py": {
    "successful": false,
    "error_type": "NameError",
    "error_message": "name 'numpy' is not defined"
  },
  "197.py": {
    "successful": false,
    "error_type": "TypeError",
    "error_message": "'float' object is not iterable"
  },
  "198.py": {
    "successful": false,
    "error_type": "TypeError",
    "error_message": "must be real number, not NoneType"
  },
  "199.py": {
    "successful": false,
    "error_type": "AssertionError"
  }
}