{
  "test_complete": true,
  "0.py": {
    "successful": false,
    "error_type": "NameError",
    "error_message": "name 'is_palindrome' is not defined. Did you mean"
  },
  "1.py": {
    "successful": false,
    "error_type": "AssertionError"
  },
  "2.py": {
    "successful": false,
    "error_type": "NameError",
    "error_message": "name 'is_odd_palindrome' is not defined. Did you mean"
  },
  "5.py": {
    "successful": false,
    "error_type": "AssertionError"
  },
  "10.py": {
    "successful": false,
    "error_type": "SyntaxError",
    "error_message": "invalid syntax"
  },
  "11.py": {
    "successful": false,
    "error_type": "AssertionError"
  },
  "14.py": {
    "successful": false,
    "error_type": "NameError",
    "error_message": "name 'is_palindrome' is not defined. Did you mean"
  },
  "18.py": {
    "successful": false,
    "error_type": "AssertionError"
  },
  "22.py": {
    "successful": false,
    "error_type": "NameError",
    "error_message": "name 'is_palindrome' is not defined. Did you mean"
  },
  "26.py": {
    "successful": true
  },
  "38.py": {
    "successful": false,
    "error_type": "NameError",
    "error_message": "name 'is_odd_palindrome' is not defined. Did you mean"
  },
  "43.py": {
    "successful": true
  },
  "47.py": {
    "successful": false,
    "error_type": "AssertionError"
  },
  "51.py": {
    "successful": false,
    "error_type": "AssertionError"
  },
  "68.py": {
    "successful": false,
    "error_type": "AssertionError"
  },
  "82.py": {
    "successful": false,
    "error_type": "NameError",
    "error_message": "name 'is_palindrome' is not defined. Did you mean"
  },
  "96.py": {
    "successful": false,
    "error_type": "AssertionError"
  },
  "98.py": {
    "successful": false,
    "error_type": "SyntaxError",
    "error_message": "'(' was never closed"
  },
  "106.py": {
    "successful": false,
    "error_type": "AssertionError"
  },
  "139.py": {
    "successful": false,
    "error_type": "AssertionError"
  },
  "167.py": {
    "successful": false,
    "error_type": "NameError",
    "error_message": "name 'is_palindrome' is not defined. Did you mean"
  },
  "172.py": {
    "successful": false,
    "error_type": "AssertionError"
  },
  "193.py": {
    "successful": false,
    "error_type": "NameError",
    "error_message": "name 'odd_even' is not defined"
  }
}