{
  "test_complete": true,
  "0.py": {
    "successful": true
  },
  "5.py": {
    "successful": true
  },
  "17.py": {
    "successful": true
  },
  "22.py": {
    "successful": true
  },
  "26.py": {
    "successful": true
  },
  "35.py": {
    "successful": true
  },
  "44.py": {
    "successful": true
  },
  "59.py": {
    "successful": true
  },
  "64.py": {
    "successful": true
  },
  "69.py": {
    "successful": true
  },
  "74.py": {
    "successful": true
  },
  "83.py": {
    "successful": true
  },
  "92.py": {
    "successful": true
  },
  "98.py": {
    "successful": true
  },
  "140.py": {
    "successful": true
  },
  "144.py": {
    "successful": true
  },
  "191.py": {
    "successful": true
  }
}