{
  "test_complete": true,
  "2.py": {
    "successful": true
  },
  "7.py": {
    "successful": true
  },
  "9.py": {
    "successful": true
  },
  "11.py": {
    "successful": true
  },
  "19.py": {
    "successful": true
  },
  "74.py": {
    "successful": true
  },
  "141.py": {
    "successful": true
  }
}