{
  "test_complete": true,
  "1.py": {
    "successful": true
  },
  "2.py": {
    "successful": false,
    "error_type": "AssertionError"
  },
  "7.py": {
    "successful": false,
    "error_type": "AssertionError"
  },
  "12.py": {
    "successful": true
  },
  "24.py": {
    "successful": false,
    "error_type": "AttributeError",
    "error_message": "'int' object has no attribute 'is_integer'"
  },
  "27.py": {
    "successful": true
  },
  "28.py": {
    "successful": true
  },
  "29.py": {
    "successful": false,
    "error_type": "AssertionError"
  },
  "30.py": {
    "successful": true
  },
  "42.py": {
    "successful": false,
    "error_type": "NameError",
    "error_message": "name 'is_int' is not defined"
  },
  "45.py": {
    "successful": true
  },
  "46.py": {
    "successful": false,
    "error_type": "TypeError",
    "error_message": "int() argument must be a string, a bytes-like object or a real number, not 'dict'"
  },
  "67.py": {
    "successful": false,
    "error_type": "AssertionError"
  },
  "74.py": {
    "successful": true
  },
  "75.py": {
    "successful": false,
    "error_type": "AssertionError"
  },
  "82.py": {
    "successful": true
  },
  "83.py": {
    "successful": true
  },
  "85.py": {
    "successful": true
  },
  "91.py": {
    "successful": true
  },
  "102.py": {
    "successful": false,
    "error_type": "AssertionError"
  },
  "103.py": {
    "successful": false,
    "error_type": "AssertionError"
  },
  "110.py": {
    "successful": true
  },
  "111.py": {
    "successful": true
  },
  "113.py": {
    "successful": true
  },
  "120.py": {
    "successful": true
  },
  "124.py": {
    "successful": true
  },
  "127.py": {
    "successful": false,
    "error_type": "AssertionError"
  },
  "130.py": {
    "successful": true
  },
  "136.py": {
    "successful": true
  },
  "146.py": {
    "successful": true
  },
  "148.py": {
    "successful": false,
    "error_type": "NameError",
    "error_message": "name 'is_number' is not defined"
  },
  "150.py": {
    "successful": true
  },
  "158.py": {
    "successful": false,
    "error_type": "AssertionError"
  },
  "163.py": {
    "successful": true
  },
  "164.py": {
    "successful": true
  },
  "167.py": {
    "successful": false,
    "error_type": "NameError",
    "error_message": "name 'is_integer' is not defined"
  },
  "172.py": {
    "successful": false,
    "error_type": "AssertionError"
  },
  "176.py": {
    "successful": true
  },
  "177.py": {
    "successful": true
  },
  "183.py": {
    "successful": true
  },
  "189.py": {
    "successful": true
  },
  "190.py": {
    "successful": false,
    "error_type": "AssertionError"
  },
  "197.py": {
    "successful": false,
    "error_type": "NameError",
    "error_message": "name 'is_integer' is not defined"
  }
}