{
  "test_complete": true,
  "13.py": {
    "successful": true
  },
  "18.py": {
    "successful": true
  },
  "19.py": {
    "successful": false,
    "error_type": "NameError",
    "error_message": "name 'count' is not defined. Did you mean"
  },
  "38.py": {
    "successful": true
  },
  "40.py": {
    "successful": true
  },
  "41.py": {
    "successful": true
  },
  "44.py": {
    "successful": false,
    "error_type": "NameError",
    "error_message": "name '_strlen' is not defined. Did you mean"
  },
  "81.py": {
    "successful": false,
    "error_type": "AssertionError"
  },
  "95.py": {
    "successful": true
  },
  "99.py": {
    "successful": true
  },
  "126.py": {
    "successful": true
  },
  "130.py": {
    "successful": true
  },
  "137.py": {
    "successful": true
  },
  "146.py": {
    "successful": true
  },
  "167.py": {
    "successful": false,
    "error_type": "NameError",
    "error_message": "name 'input_string' is not defined"
  },
  "186.py": {
    "successful": true
  }
}