{
  "test_complete": true,
  "0.py": {
    "successful": false,
    "error_type": "AssertionError"
  },
  "1.py": {
    "successful": false,
    "error_type": "IndexError",
    "error_message": "list index out of range"
  },
  "2.py": {
    "successful": false,
    "error_type": "AssertionError"
  },
  "3.py": {
    "successful": false,
    "error_type": "AssertionError"
  },
  "4.py": {
    "successful": false,
    "error_type": "AssertionError"
  },
  "5.py": {
    "successful": false,
    "error_type": "TypeError",
    "error_message": "must be real number, not NoneType"
  },
  "6.py": {
    "successful": false,
    "error_type": "AssertionError"
  },
  "7.py": {
    "successful": false,
    "error_type": "TypeError",
    "error_message": "must be real number, not NoneType"
  },
  "8.py": {
    "successful": false,
    "error_type": "AssertionError"
  },
  "9.py": {
    "successful": false,
    "error_type": "SyntaxError",
    "error_message": "'(' was never closed"
  },
  "10.py": {
    "successful": false,
    "error_type": "AssertionError"
  },
  "11.py": {
    "successful": false,
    "error_type": "IndexError",
    "error_message": "list index out of range"
  },
  "12.py": {
    "successful": false,
    "error_type": "AssertionError"
  },
  "13.py": {
    "successful": false,
    "error_type": "AssertionError"
  },
  "14.py": {
    "successful": false,
    "error_type": "TypeError",
    "error_message": "must be real number, not NoneType"
  },
  "15.py": {
    "successful": false,
    "error_type": "SyntaxError",
    "error_message": "invalid syntax"
  },
  "16.py": {
    "successful": false,
    "error_type": "TypeError",
    "error_message": "must be real number, not NoneType"
  },
  "17.py": {
    "successful": false,
    "error_type": "AssertionError"
  },
  "18.py": {
    "successful": false,
    "error_type": "AssertionError"
  },
  "19.py": {
    "successful": false,
    "error_type": "ValueError",
    "error_message": "math domain error"
  },
  "20.py": {
    "successful": false,
    "error_type": "AssertionError"
  },
  "21.py": {
    "successful": false,
    "error_type": "NameError",
    "error_message": "cannot access free variable 'x' where it is not associated with a value in enclosing scope"
  },
  "22.py": {
    "successful": false,
    "error_type": "NameError",
    "error_message": "name 'x' is not defined. Did you mean"
  },
  "23.py": {
    "successful": false,
    "error_type": "AssertionError"
  },
  "24.py": {
    "successful": false,
    "error_type": "AssertionError"
  },
  "25.py": {
    "successful": false,
    "error_type": "IndexError",
    "error_message": "pop from empty list"
  },
  "26.py": {
    "successful": false,
    "error_type": "AssertionError"
  },
  "27.py": {
    "successful": false,
    "error_type": "ZeroDivisionError",
    "error_message": "division by zero"
  },
  "28.py": {
    "successful": false,
    "error_type": "AssertionError"
  },
  "29.py": {
    "successful": false,
    "error_type": "AssertionError"
  },
  "30.py": {
    "successful": false,
    "error_type": "AssertionError"
  },
  "31.py": {
    "successful": false,
    "error_type": "AssertionError"
  },
  "32.py": {
    "successful": false,
    "error_type": "ValueError",
    "error_message": "This function is not defined for polynomials having odd number of coeffs."
  },
  "33.py": {
    "successful": false,
    "error_type": "AssertionError"
  },
  "34.py": {
    "successful": false,
    "error_type": "TypeError",
    "error_message": "must be real number, not NoneType"
  },
  "35.py": {
    "successful": false,
    "error_type": "AssertionError"
  },
  "36.py": {
    "successful": false,
    "error_type": "TypeError",
    "error_message": "must be real number, not NoneType"
  },
  "37.py": {
    "successful": false,
    "error_type": "ValueError",
    "error_message": "List should have all positive coefficients."
  },
  "38.py": {
    "successful": false,
    "error_type": "NameError",
    "error_message": "name 'reduce' is not defined"
  },
  "39.py": {
    "successful": false,
    "error_type": "UnboundLocalError",
    "error_message": "cannot access local variable 'mid_point' where it is not associated with a value"
  },
  "40.py": {
    "successful": false,
    "error_type": "AssertionError"
  },
  "41.py": {
    "successful": false,
    "error_type": "NameError",
    "error_message": "name 'find_polynomial_zeros' is not defined"
  },
  "42.py": {
    "successful": false,
    "error_type": "AssertionError"
  },
  "43.py": {
    "successful": false,
    "error_type": "TypeError",
    "error_message": "must be real number, not NoneType"
  },
  "44.py": {
    "successful": false,
    "error_type": "AssertionError"
  },
  "45.py": {
    "successful": false,
    "error_type": "AssertionError"
  },
  "46.py": {
    "successful": false,
    "error_type": "NameError",
    "error_message": "name 'x' is not defined"
  },
  "47.py": {
    "successful": false,
    "error_type": "AssertionError"
  },
  "48.py": {
    "successful": false,
    "error_type": "TypeError",
    "error_message": "must be real number, not NoneType"
  },
  "49.py": {
    "successful": false,
    "error_type": "AssertionError"
  },
  "50.py": {
    "successful": false,
    "error_type": "AssertionError"
  },
  "51.py": {
    "successful": false,
    "error_type": "AssertionError"
  },
  "52.py": {
    "successful": false,
    "error_type": "AssertionError"
  },
  "53.py": {
    "successful": false,
    "error_type": "AssertionError"
  },
  "54.py": {
    "successful": false,
    "error_type": "IndexError",
    "error_message": "list index out of range"
  },
  "55.py": {
    "successful": false,
    "error_type": "AssertionError"
  },
  "56.py": {
    "successful": false,
    "error_type": "ValueError",
    "error_message": "math domain error"
  },
  "57.py": {
    "successful": false,
    "error_type": "Exception",
    "error_message": "Polynomial must have even number of coefficients and all must be non zero"
  },
  "58.py": {
    "successful": false,
    "error_type": "IndexError",
    "error_message": "list index out of range"
  },
  "59.py": {
    "successful": false,
    "error_type": "AssertionError"
  },
  "60.py": {
    "successful": false,
    "error_type": "AssertionError"
  },
  "61.py": {
    "successful": false,
    "error_type": "TypeError",
    "error_message": "'float' object cannot be interpreted as an integer"
  },
  "62.py": {
    "successful": false,
    "error_type": "TypeError",
    "error_message": "must be real number, not tuple"
  },
  "63.py": {
    "successful": false,
    "error_type": "ZeroDivisionError",
    "error_message": "float division by zero"
  },
  "64.py": {
    "successful": false,
    "error_type": "AssertionError"
  },
  "65.py": {
    "successful": false,
    "error_type": "AssertionError"
  },
  "66.py": {
    "successful": false,
    "error_type": "ValueError",
    "error_message": "list xs needs to have odd number of elements"
  },
  "67.py": {
    "successful": false,
    "error_type": "AssertionError"
  },
  "68.py": {
    "successful": false,
    "error_type": "AssertionError"
  },
  "69.py": {
    "successful": false,
    "error_type": "ValueError",
    "error_message": "List xs must have even number of elements."
  },
  "70.py": {
    "successful": false,
    "error_type": "NameError",
    "error_message": "name 'x' is not defined. Did you mean"
  },
  "71.py": {
    "successful": false,
    "error_type": "Exception",
    "error_message": "no non-zero coefficient"
  },
  "72.py": {
    "successful": false,
    "error_type": "AssertionError"
  },
  "73.py": {
    "successful": false,
    "error_type": "AssertionError"
  },
  "74.py": {
    "successful": false,
    "error_type": "TypeError",
    "error_message": "must be real number, not NoneType"
  },
  "75.py": {
    "successful": false,
    "error_type": "AssertionError"
  },
  "76.py": {
    "successful": false,
    "error_type": "AssertionError"
  },
  "77.py": {
    "successful": false,
    "error_type": "AssertionError"
  },
  "78.py": {
    "successful": false,
    "error_type": "AssertionError"
  },
  "79.py": {
    "successful": false,
    "error_type": "TypeError",
    "error_message": "must be real number, not NoneType"
  },
  "80.py": {
    "successful": false,
    "error_type": "AssertionError"
  },
  "81.py": {
    "successful": false,
    "error_type": "TypeError",
    "error_message": "must be real number, not list"
  },
  "82.py": {
    "successful": false,
    "error_type": "AssertionError"
  },
  "83.py": {
    "successful": false,
    "error_type": "AssertionError"
  },
  "84.py": {
    "successful": false,
    "error_type": "AssertionError"
  },
  "85.py": {
    "successful": false,
    "error_type": "AssertionError"
  },
  "86.py": {
    "successful": false,
    "error_type": "AssertionError"
  },
  "87.py": {
    "successful": false,
    "error_type": "ValueError",
    "error_message": "-10 is not in list"
  },
  "88.py": {
    "successful": false,
    "error_type": "AssertionError"
  },
  "89.py": {
    "successful": false,
    "error_type": "NameError",
    "error_message": "name '_first_non_zero_index' is not defined"
  },
  "90.py": {
    "successful": false,
    "error_type": "AssertionError"
  },
  "91.py": {
    "successful": false,
    "error_type": "AssertionError"
  },
  "92.py": {
    "successful": false,
    "error_type": "AssertionError"
  },
  "93.py": {
    "successful": false,
    "error_type": "TypeError",
    "error_message": "must be real number, not NoneType"
  },
  "94.py": {
    "successful": false,
    "error_type": "NameError",
    "error_message": "name 'is_polynomial_increasing' is not defined"
  },
  "95.py": {
    "successful": false,
    "error_type": "TypeError",
    "error_message": "'float' object cannot be interpreted as an integer"
  },
  "96.py": {
    "successful": false,
    "error_type": "IndexError",
    "error_message": "list index out of range"
  },
  "97.py": {
    "successful": false,
    "error_type": "AssertionError"
  },
  "98.py": {
    "successful": false,
    "error_type": "SyntaxError",
    "error_message": "'[' was never closed"
  },
  "99.py": {
    "successful": false,
    "error_type": "TypeError",
    "error_message": "'float' object cannot be interpreted as an integer"
  },
  "100.py": {
    "successful": false,
    "error_type": "AssertionError"
  },
  "101.py": {
    "successful": false,
    "error_type": "AssertionError"
  },
  "102.py": {
    "successful": false,
    "error_type": "AssertionError"
  },
  "103.py": {
    "successful": false,
    "error_type": "AssertionError"
  },
  "104.py": {
    "successful": false,
    "error_type": "AssertionError"
  },
  "105.py": {
    "successful": false,
    "error_type": "TypeError",
    "error_message": "must be real number, not NoneType"
  },
  "106.py": {
    "successful": false,
    "error_type": "UnboundLocalError",
    "error_message": "cannot access local variable 'zero' where it is not associated with a value"
  },
  "107.py": {
    "successful": false,
    "error_type": "TypeError",
    "error_message": "must be real number, not NoneType"
  },
  "108.py": {
    "successful": false,
    "error_type": "ValueError",
    "error_message": "Expect even number of coefficients."
  },
  "109.py": {
    "successful": false,
    "error_type": "ValueError",
    "error_message": "not enough values to unpack (expected 8, got 2)"
  },
  "110.py": {
    "successful": false,
    "error_type": "TypeError",
    "error_message": "must be real number, not list"
  },
  "111.py": {
    "successful": false,
    "error_type": "AssertionError"
  },
  "112.py": {
    "successful": false,
    "error_type": "AssertionError"
  },
  "113.py": {
    "successful": false,
    "error_type": "NameError",
    "error_message": "name 'coeffiecients' is not defined. Did you mean"
  },
  "114.py": {
    "successful": false,
    "error_type": "TypeError",
    "error_message": "must be real number, not NoneType"
  },
  "115.py": {
    "successful": false,
    "error_type": "AssertionError"
  },
  "116.py": {
    "successful": false,
    "error_type": "IndexError",
    "error_message": "list index out of range"
  },
  "117.py": {
    "successful": false,
    "error_type": "ZeroDivisionError",
    "error_message": "division by zero"
  },
  "118.py": {
    "successful": false,
    "error_type": "AssertionError"
  },
  "119.py": {
    "successful": false,
    "error_type": "AssertionError"
  },
  "120.py": {
    "successful": false,
    "error_type": "AssertionError"
  },
  "121.py": {
    "successful": false,
    "error_type": "UnboundLocalError",
    "error_message": "cannot access local variable 'i' where it is not associated with a value"
  },
  "122.py": {
    "successful": false,
    "error_type": "TypeError",
    "error_message": "must be real number, not NoneType"
  },
  "123.py": {
    "successful": false,
    "error_type": "AssertionError"
  },
  "124.py": {
    "successful": false,
    "error_type": "TimeOut"
  },
  "125.py": {
    "successful": false,
    "error_type": "AssertionError"
  },
  "126.py": {
    "successful": false,
    "error_type": "Exception",
    "error_message": "Coefficients need to be positive"
  },
  "127.py": {
    "successful": false,
    "error_type": "AssertionError"
  },
  "128.py": {
    "successful": false,
    "error_type": "AssertionError"
  },
  "129.py": {
    "successful": false,
    "error_type": "AssertionError"
  },
  "130.py": {
    "successful": false,
    "error_type": "TypeError",
    "error_message": "must be real number, not NoneType"
  },
  "131.py": {
    "successful": false,
    "error_type": "NameError",
    "error_message": "name 'find_zero_of_monoid' is not defined"
  },
  "133.py": {
    "successful": false,
    "error_type": "AssertionError"
  },
  "134.py": {
    "successful": false,
    "error_type": "IndentationError",
    "error_message": "expected an indented block after 'else' statement on line 45"
  },
  "135.py": {
    "successful": false,
    "error_type": "ValueError",
    "error_message": "Polynomial must have a non zero coefficient."
  },
  "136.py": {
    "successful": false,
    "error_type": "AssertionError"
  },
  "137.py": {
    "successful": false,
    "error_type": "AssertionError"
  },
  "138.py": {
    "successful": false,
    "error_type": "TypeError",
    "error_message": "must be real number, not NoneType"
  },
  "139.py": {
    "successful": false,
    "error_type": "TypeError",
    "error_message": "must be real number, not list"
  },
  "140.py": {
    "successful": false,
    "error_type": "TypeError",
    "error_message": "unsupported operand type(s) for //"
  },
  "141.py": {
    "successful": false,
    "error_type": "AssertionError"
  },
  "142.py": {
    "successful": false,
    "error_type": "AssertionError"
  },
  "143.py": {
    "successful": false,
    "error_type": "AssertionError"
  },
  "144.py": {
    "successful": false,
    "error_type": "AssertionError"
  },
  "145.py": {
    "successful": false,
    "error_type": "TypeError",
    "error_message": "must be real number, not NoneType"
  },
  "146.py": {
    "successful": false,
    "error_type": "AssertionError"
  },
  "147.py": {
    "successful": false,
    "error_type": "AssertionError"
  },
  "148.py": {
    "successful": false,
    "error_type": "AssertionError"
  },
  "149.py": {
    "successful": false,
    "error_type": "TypeError",
    "error_message": "must be real number, not NoneType"
  },
  "150.py": {
    "successful": false,
    "error_type": "AssertionError"
  },
  "151.py": {
    "successful": false,
    "error_type": "AssertionError"
  },
  "152.py": {
    "successful": false,
    "error_type": "TypeError",
    "error_message": "must be real number, not NoneType"
  },
  "153.py": {
    "successful": false,
    "error_type": "IndexError",
    "error_message": "list index out of range"
  },
  "154.py": {
    "successful": false,
    "error_type": "AssertionError"
  },
  "155.py": {
    "successful": false,
    "error_type": "AssertionError"
  },
  "156.py": {
    "successful": false,
    "error_type": "AssertionError"
  },
  "157.py": {
    "successful": false,
    "error_type": "IndexError",
    "error_message": "list index out of range"
  },
  "158.py": {
    "successful": false,
    "error_type": "TypeError",
    "error_message": "must be real number, not NoneType"
  },
  "159.py": {
    "successful": false,
    "error_type": "AssertionError"
  },
  "160.py": {
    "successful": false,
    "error_type": "Exception",
    "error_message": "xs cannot have negative coefficients"
  },
  "161.py": {
    "successful": false,
    "error_type": "RecursionError",
    "error_message": "maximum recursion depth exceeded"
  },
  "162.py": {
    "successful": false,
    "error_type": "AssertionError"
  },
  "163.py": {
    "successful": false,
    "error_type": "AssertionError"
  },
  "164.py": {
    "successful": false,
    "error_type": "AssertionError"
  },
  "165.py": {
    "successful": false,
    "error_type": "SyntaxError",
    "error_message": "unterminated string literal (detected at line 28)"
  },
  "166.py": {
    "successful": false,
    "error_type": "AssertionError"
  },
  "167.py": {
    "successful": false,
    "error_type": "AssertionError"
  },
  "168.py": {
    "successful": false,
    "error_type": "AssertionError"
  },
  "169.py": {
    "successful": false,
    "error_type": "TypeError",
    "error_message": "must be real number, not NoneType"
  },
  "170.py": {
    "successful": false,
    "error_type": "AssertionError"
  },
  "171.py": {
    "successful": false,
    "error_type": "TypeError",
    "error_message": "must be real number, not list"
  },
  "172.py": {
    "successful": false,
    "error_type": "TypeError",
    "error_message": "must be real number, not NoneType"
  },
  "173.py": {
    "successful": false,
    "error_type": "ValueError",
    "error_message": "no zero point has been found"
  },
  "174.py": {
    "successful": false,
    "error_type": "AssertionError"
  },
  "175.py": {
    "successful": false,
    "error_type": "AssertionError"
  },
  "176.py": {
    "successful": false,
    "error_type": "TypeError",
    "error_message": "sequence item 0"
  },
  "177.py": {
    "successful": false,
    "error_type": "TypeError",
    "error_message": "must be real number, not NoneType"
  },
  "178.py": {
    "successful": false,
    "error_type": "TypeError",
    "error_message": "'float' object cannot be interpreted as an integer"
  },
  "179.py": {
    "successful": false,
    "error_type": "AssertionError"
  },
  "180.py": {
    "successful": false,
    "error_type": "AssertionError"
  },
  "181.py": {
    "successful": false,
    "error_type": "AssertionError"
  },
  "182.py": {
    "successful": false,
    "error_type": "ValueError",
    "error_message": "Couldn't find a solution."
  },
  "183.py": {
    "successful": false,
    "error_type": "ValueError",
    "error_message": "No zero/nonsymmetric point found."
  },
  "184.py": {
    "successful": false,
    "error_type": "AssertionError"
  },
  "185.py": {
    "successful": false,
    "error_type": "AssertionError"
  },
  "186.py": {
    "successful": false,
    "error_type": "AssertionError"
  },
  "187.py": {
    "successful": false,
    "error_type": "AssertionError"
  },
  "188.py": {
    "successful": false,
    "error_type": "AssertionError"
  },
  "189.py": {
    "successful": false,
    "error_type": "IndexError",
    "error_message": "list index out of range"
  },
  "190.py": {
    "successful": false,
    "error_type": "AssertionError"
  },
  "191.py": {
    "successful": false,
    "error_type": "Exception",
    "error_message": "even number of coefficients are needed"
  },
  "192.py": {
    "successful": false,
    "error_type": "AssertionError"
  },
  "193.py": {
    "successful": false,
    "error_type": "AssertionError"
  },
  "194.py": {
    "successful": false,
    "error_type": "AssertionError"
  },
  "195.py": {
    "successful": false,
    "error_type": "AssertionError"
  },
  "196.py": {
    "successful": false,
    "error_type": "ValueError",
    "error_message": "find_zero only takes list xs of even number of coefficients. list xs with non zero coefficent do not work."
  },
  "197.py": {
    "successful": false,
    "error_type": "AssertionError"
  },
  "198.py": {
    "successful": false,
    "error_type": "IndexError",
    "error_message": "list index out of range"
  },
  "199.py": {
    "successful": false,
    "error_type": "AssertionError"
  }
}