{
  "test_complete": true,
  "0.py": {
    "successful": false,
    "error_type": "AssertionError"
  },
  "1.py": {
    "successful": false,
    "error_type": "AssertionError"
  },
  "3.py": {
    "successful": false,
    "error_type": "ModuleNotFoundError",
    "error_message": "No module named 'pytest'"
  },
  "5.py": {
    "successful": false,
    "error_type": "AssertionError"
  },
  "6.py": {
    "successful": false,
    "error_type": "NameError",
    "error_message": "name 'is_palindrome' is not defined"
  },
  "7.py": {
    "successful": false,
    "error_type": "NameError",
    "error_message": "name 'is_palindrome' is not defined"
  },
  "8.py": {
    "successful": false,
    "error_type": "TypeError",
    "error_message": "slice indices must be integers or None or have an __index__ method"
  },
  "9.py": {
    "successful": false,
    "error_type": "AssertionError"
  },
  "10.py": {
    "successful": false,
    "error_type": "TypeError",
    "error_message": "'int' object is not iterable"
  },
  "12.py": {
    "successful": false,
    "error_type": "AssertionError"
  },
  "14.py": {
    "successful": false,
    "error_type": "NameError",
    "error_message": "name 'is_palindrome' is not defined"
  },
  "15.py": {
    "successful": true
  },
  "16.py": {
    "successful": true
  },
  "17.py": {
    "successful": true
  },
  "18.py": {
    "successful": false,
    "error_type": "AssertionError"
  },
  "19.py": {
    "successful": false,
    "error_type": "NameError",
    "error_message": "name 'is_balanced' is not defined"
  },
  "21.py": {
    "successful": false,
    "error_type": "AssertionError"
  },
  "22.py": {
    "successful": true
  },
  "23.py": {
    "successful": true
  },
  "24.py": {
    "successful": false,
    "error_type": "NameError",
    "error_message": "name 'can_it_fly' is not defined. Did you mean"
  },
  "25.py": {
    "successful": true
  },
  "27.py": {
    "successful": false,
    "error_type": "ModuleNotFoundError",
    "error_message": "No module named 'codewars_test'"
  },
  "28.py": {
    "successful": false,
    "error_type": "NameError",
    "error_message": "name 'balanced' is not defined"
  },
  "30.py": {
    "successful": true
  },
  "31.py": {
    "successful": false,
    "error_type": "NameError",
    "error_message": "name 'is_balanced' is not defined"
  },
  "32.py": {
    "successful": false,
    "error_type": "TypeError",
    "error_message": "'int' object is not subscriptable"
  },
  "33.py": {
    "successful": false,
    "error_type": "AssertionError"
  },
  "34.py": {
    "successful": false,
    "error_type": "AssertionError"
  },
  "35.py": {
    "successful": false,
    "error_type": "AssertionError"
  },
  "37.py": {
    "successful": false,
    "error_type": "NameError",
    "error_message": "name 'is_balanced' is not defined"
  },
  "38.py": {
    "successful": false,
    "error_type": "NameError",
    "error_message": "name 'is_palindrome' is not defined"
  },
  "39.py": {
    "successful": false,
    "error_type": "AssertionError"
  },
  "40.py": {
    "successful": false,
    "error_type": "NameError",
    "error_message": "name 'is_it_palindromic' is not defined"
  },
  "41.py": {
    "successful": false,
    "error_type": "NameError",
    "error_message": "name 'is_palindrome' is not defined"
  },
  "42.py": {
    "successful": false,
    "error_type": "AssertionError"
  },
  "43.py": {
    "successful": false,
    "error_type": "AssertionError"
  },
  "45.py": {
    "successful": false,
    "error_type": "AssertionError"
  },
  "46.py": {
    "successful": true
  },
  "47.py": {
    "successful": true
  },
  "48.py": {
    "successful": false,
    "error_type": "AssertionError"
  },
  "49.py": {
    "successful": false,
    "error_type": "AssertionError"
  },
  "50.py": {
    "successful": false,
    "error_type": "ModuleNotFoundError",
    "error_message": "No module named 'pytest'"
  },
  "52.py": {
    "successful": false,
    "error_type": "NameError",
    "error_message": "name 'balanced' is not defined"
  },
  "53.py": {
    "successful": true
  },
  "55.py": {
    "successful": false,
    "error_type": "AssertionError"
  },
  "56.py": {
    "successful": false,
    "error_type": "TypeError",
    "error_message": "int() argument must be a string, a bytes-like object or a real number, not 'list'"
  },
  "57.py": {
    "successful": false,
    "error_type": "NameError",
    "error_message": "name 'is_palindrome' is not defined"
  },
  "59.py": {
    "successful": false,
    "error_type": "AssertionError"
  },
  "60.py": {
    "successful": true
  },
  "61.py": {
    "successful": false,
    "error_type": "NameError",
    "error_message": "name 'is_it_a_palindrome' is not defined"
  },
  "62.py": {
    "successful": true
  },
  "63.py": {
    "successful": false,
    "error_type": "AssertionError"
  },
  "64.py": {
    "successful": false,
    "error_type": "NameError",
    "error_message": "name 'is_palindromic' is not defined"
  },
  "65.py": {
    "successful": false,
    "error_type": "AssertionError"
  },
  "70.py": {
    "successful": false,
    "error_type": "TypeError",
    "error_message": "'int' object is not subscriptable"
  },
  "71.py": {
    "successful": true
  },
  "73.py": {
    "successful": false,
    "error_type": "NameError",
    "error_message": "name 'is_palindrome' is not defined"
  },
  "75.py": {
    "successful": false,
    "error_type": "NameError",
    "error_message": "name 'is_balanced' is not defined"
  },
  "76.py": {
    "successful": false,
    "error_type": "NameError",
    "error_message": "name 'is_palindrome' is not defined"
  },
  "77.py": {
    "successful": true
  },
  "78.py": {
    "successful": false,
    "error_type": "NameError",
    "error_message": "name 'lst' is not defined. Did you mean"
  },
  "79.py": {
    "successful": false,
    "error_type": "NameError",
    "error_message": "name 'is_palindromic' is not defined"
  },
  "81.py": {
    "successful": false,
    "error_type": "NameError",
    "error_message": "name 'is_palindromic' is not defined"
  },
  "82.py": {
    "successful": false,
    "error_type": "AssertionError"
  },
  "83.py": {
    "successful": false,
    "error_type": "NameError",
    "error_message": "name 'is_palindromic' is not defined"
  },
  "84.py": {
    "successful": false,
    "error_type": "NameError",
    "error_message": "name 'is_it_palindrome' is not defined"
  },
  "88.py": {
    "successful": false,
    "error_type": "NameError",
    "error_message": "name 'balanced' is not defined"
  },
  "89.py": {
    "successful": false,
    "error_type": "SyntaxError",
    "error_message": "invalid character '\u279e' (U+279E)"
  },
  "90.py": {
    "successful": false,
    "error_type": "NameError",
    "error_message": "name 'is_palindrome' is not defined"
  },
  "92.py": {
    "successful": false,
    "error_type": "TypeError",
    "error_message": "slice indices must be integers or None or have an __index__ method"
  },
  "94.py": {
    "successful": false,
    "error_type": "TypeError",
    "error_message": "add expected 2 arguments, got 3"
  },
  "97.py": {
    "successful": false,
    "error_type": "NameError",
    "error_message": "name 'is_Palindromic' is not defined"
  },
  "98.py": {
    "successful": false,
    "error_type": "AssertionError"
  },
  "100.py": {
    "successful": false,
    "error_type": "AssertionError"
  },
  "101.py": {
    "successful": true
  },
  "104.py": {
    "successful": false,
    "error_type": "TypeError",
    "error_message": "'float' object cannot be interpreted as an integer"
  },
  "105.py": {
    "successful": false,
    "error_type": "NameError",
    "error_message": "name 'is_it_palindrome' is not defined"
  },
  "109.py": {
    "successful": true
  },
  "110.py": {
    "successful": true
  },
  "111.py": {
    "successful": false,
    "error_type": "NameError",
    "error_message": "name 'is_palindromic' is not defined"
  },
  "112.py": {
    "successful": false,
    "error_type": "AssertionError"
  },
  "113.py": {
    "successful": false,
    "error_type": "AssertionError"
  },
  "114.py": {
    "successful": false,
    "error_type": "TypeError",
    "error_message": "'bool' object is not iterable"
  },
  "115.py": {
    "successful": false,
    "error_type": "NameError",
    "error_message": "name 'palindrome' is not defined"
  },
  "117.py": {
    "successful": false,
    "error_type": "NameError",
    "error_message": "name 'palindrome' is not defined"
  },
  "118.py": {
    "successful": false,
    "error_type": "AssertionError"
  },
  "119.py": {
    "successful": false,
    "error_type": "TypeError",
    "error_message": "unsupported operand type(s) for +"
  },
  "121.py": {
    "successful": false,
    "error_type": "NameError",
    "error_message": "name 'santize_list' is not defined"
  },
  "123.py": {
    "successful": false,
    "error_type": "NameError",
    "error_message": "name 'balanced_list' is not defined"
  },
  "124.py": {
    "successful": false,
    "error_type": "NameError",
    "error_message": "name 'is_palindrome' is not defined"
  },
  "125.py": {
    "successful": false,
    "error_type": "ModuleNotFoundError",
    "error_message": "No module named 'nose'"
  },
  "126.py": {
    "successful": false,
    "error_type": "AssertionError"
  },
  "128.py": {
    "successful": false,
    "error_type": "AssertionError"
  },
  "129.py": {
    "successful": false,
    "error_type": "AssertionError"
  },
  "130.py": {
    "successful": false,
    "error_type": "NameError",
    "error_message": "name 'is_palindrome' is not defined"
  },
  "131.py": {
    "successful": false,
    "error_type": "AssertionError"
  },
  "132.py": {
    "successful": false,
    "error_type": "AssertionError"
  },
  "133.py": {
    "successful": false,
    "error_type": "NameError",
    "error_message": "name 'palindrome' is not defined"
  },
  "134.py": {
    "successful": false,
    "error_type": "NameError",
    "error_message": "name 'is_palindrome' is not defined"
  },
  "135.py": {
    "successful": false,
    "error_type": "AssertionError"
  },
  "136.py": {
    "successful": false,
    "error_type": "NameError",
    "error_message": "name 'is_palindrome' is not defined"
  },
  "137.py": {
    "successful": true
  },
  "138.py": {
    "successful": false,
    "error_type": "NameError",
    "error_message": "name 'is_palindromic' is not defined"
  },
  "139.py": {
    "successful": false,
    "error_type": "NameError",
    "error_message": "name 'is_balanced' is not defined"
  },
  "140.py": {
    "successful": false,
    "error_type": "NameError",
    "error_message": "name 'is_palindrome' is not defined"
  },
  "141.py": {
    "successful": false,
    "error_type": "IndexError",
    "error_message": "list index out of range"
  },
  "143.py": {
    "successful": false,
    "error_type": "ValueError",
    "error_message": "invalid literal for int() with base 10"
  },
  "145.py": {
    "successful": false,
    "error_type": "AssertionError"
  },
  "146.py": {
    "successful": false,
    "error_type": "NameError",
    "error_message": "name 'is_palindromic' is not defined"
  },
  "147.py": {
    "successful": false,
    "error_type": "NameError",
    "error_message": "name 'is_palindromic' is not defined"
  },
  "148.py": {
    "successful": false,
    "error_type": "ModuleNotFoundError",
    "error_message": "No module named 'pytest'"
  },
  "149.py": {
    "successful": false,
    "error_type": "AssertionError"
  },
  "151.py": {
    "successful": false,
    "error_type": "NameError",
    "error_message": "name 'is_palindrome' is not defined"
  },
  "152.py": {
    "successful": false,
    "error_type": "TypeError",
    "error_message": "object of type 'int' has no len()"
  },
  "153.py": {
    "successful": false,
    "error_type": "AssertionError"
  },
  "154.py": {
    "successful": false,
    "error_type": "AssertionError"
  },
  "156.py": {
    "successful": false,
    "error_type": "NameError",
    "error_message": "name 'is_palindrom' is not defined"
  },
  "157.py": {
    "successful": true
  },
  "158.py": {
    "successful": false,
    "error_type": "AssertionError"
  },
  "159.py": {
    "successful": false,
    "error_type": "NameError",
    "error_message": "name 'is_palindrome' is not defined"
  },
  "160.py": {
    "successful": false,
    "error_type": "NameError",
    "error_message": "name 'is_palindromic' is not defined"
  },
  "161.py": {
    "successful": true
  },
  "162.py": {
    "successful": false,
    "error_type": "NameError",
    "error_message": "name 'obj' is not defined"
  },
  "164.py": {
    "successful": false,
    "error_type": "AssertionError"
  },
  "165.py": {
    "successful": false,
    "error_type": "AssertionError"
  },
  "166.py": {
    "successful": false,
    "error_type": "NameError",
    "error_message": "name 'is_palindrome' is not defined"
  },
  "168.py": {
    "successful": false,
    "error_type": "AssertionError"
  },
  "169.py": {
    "successful": false,
    "error_type": "NameError",
    "error_message": "name 'balanced' is not defined"
  },
  "170.py": {
    "successful": false,
    "error_type": "NameError",
    "error_message": "name 'q_is_balanced' is not defined"
  },
  "172.py": {
    "successful": false,
    "error_type": "NameError",
    "error_message": "name 'is_balanced' is not defined"
  },
  "173.py": {
    "successful": false,
    "error_type": "NameError",
    "error_message": "name 'is_it_palindromic' is not defined"
  },
  "176.py": {
    "successful": true
  },
  "177.py": {
    "successful": false,
    "error_type": "AssertionError"
  },
  "178.py": {
    "successful": false,
    "error_type": "ModuleNotFoundError",
    "error_message": "No module named 'pytest'"
  },
  "179.py": {
    "successful": true
  },
  "181.py": {
    "successful": false,
    "error_type": "NameError",
    "error_message": "name 'lp' is not defined"
  },
  "183.py": {
    "successful": false,
    "error_type": "ModuleNotFoundError",
    "error_message": "No module named 'pytest'"
  },
  "184.py": {
    "successful": false,
    "error_type": "NameError",
    "error_message": "name 'is_palindrome' is not defined"
  },
  "185.py": {
    "successful": false,
    "error_type": "NameError",
    "error_message": "name 'will_it_fly_helper' is not defined"
  },
  "186.py": {
    "successful": false,
    "error_type": "ModuleNotFoundError",
    "error_message": "No module named 'hypothesis'"
  },
  "187.py": {
    "successful": false,
    "error_type": "TypeError",
    "error_message": "object of type 'int' has no len()"
  },
  "189.py": {
    "successful": false,
    "error_type": "NameError",
    "error_message": "name 'is_palindrome' is not defined"
  },
  "190.py": {
    "successful": false,
    "error_type": "AssertionError"
  },
  "194.py": {
    "successful": false,
    "error_type": "ModuleNotFoundError",
    "error_message": "No module named 'pytest'"
  },
  "195.py": {
    "successful": false,
    "error_type": "AssertionError"
  },
  "196.py": {
    "successful": true
  },
  "198.py": {
    "successful": false,
    "error_type": "NameError",
    "error_message": "name 'is_palindrome' is not defined"
  },
  "199.py": {
    "successful": false,
    "error_type": "AssertionError"
  }
}