{
  "test_complete": true,
  "0.py": {
    "successful": false,
    "error_type": "AssertionError"
  },
  "1.py": {
    "successful": false,
    "error_type": "AssertionError"
  },
  "2.py": {
    "successful": false,
    "error_type": "AssertionError"
  },
  "4.py": {
    "successful": false,
    "error_type": "AssertionError"
  },
  "5.py": {
    "successful": false,
    "error_type": "NameError",
    "error_message": "name 'xrange' is not defined. Did you mean"
  },
  "7.py": {
    "successful": false,
    "error_type": "NameError",
    "error_message": "name 'sort_numbers' is not defined"
  },
  "8.py": {
    "successful": false,
    "error_type": "AssertionError"
  },
  "11.py": {
    "successful": true
  },
  "12.py": {
    "successful": false,
    "error_type": "TypeError",
    "error_message": "not all arguments converted during string formatting"
  },
  "16.py": {
    "successful": false,
    "error_type": "AssertionError"
  },
  "17.py": {
    "successful": false,
    "error_type": "AssertionError"
  },
  "18.py": {
    "successful": false,
    "error_type": "AssertionError"
  },
  "19.py": {
    "successful": false,
    "error_type": "AssertionError"
  },
  "21.py": {
    "successful": false,
    "error_type": "AssertionError"
  },
  "22.py": {
    "successful": false,
    "error_type": "IndexError",
    "error_message": "string index out of range"
  },
  "23.py": {
    "successful": false,
    "error_type": "AssertionError"
  },
  "24.py": {
    "successful": false,
    "error_type": "TypeError",
    "error_message": "'int' object is not iterable"
  },
  "25.py": {
    "successful": false,
    "error_type": "AssertionError"
  },
  "26.py": {
    "successful": false,
    "error_type": "SyntaxError",
    "error_message": "expected '('"
  },
  "28.py": {
    "successful": false,
    "error_type": "AssertionError"
  },
  "29.py": {
    "successful": false,
    "error_type": "AssertionError"
  },
  "30.py": {
    "successful": false,
    "error_type": "AssertionError"
  },
  "31.py": {
    "successful": false,
    "error_type": "AssertionError"
  },
  "33.py": {
    "successful": false,
    "error_type": "TypeError",
    "error_message": "not all arguments converted during string formatting"
  },
  "34.py": {
    "successful": false,
    "error_type": "AssertionError"
  },
  "35.py": {
    "successful": false,
    "error_type": "ValueError",
    "error_message": "invalid literal for int() with base 10"
  },
  "36.py": {
    "successful": false,
    "error_type": "AssertionError"
  },
  "38.py": {
    "successful": true
  },
  "40.py": {
    "successful": false,
    "error_type": "AssertionError"
  },
  "41.py": {
    "successful": false,
    "error_type": "AssertionError"
  },
  "42.py": {
    "successful": false,
    "error_type": "AssertionError"
  },
  "43.py": {
    "successful": false,
    "error_type": "AssertionError"
  },
  "44.py": {
    "successful": false,
    "error_type": "AssertionError"
  },
  "45.py": {
    "successful": false,
    "error_type": "AssertionError"
  },
  "46.py": {
    "successful": false,
    "error_type": "AssertionError"
  },
  "47.py": {
    "successful": false,
    "error_type": "AssertionError"
  },
  "48.py": {
    "successful": false,
    "error_type": "AssertionError"
  },
  "49.py": {
    "successful": false,
    "error_type": "AssertionError"
  },
  "53.py": {
    "successful": false,
    "error_type": "AssertionError"
  },
  "54.py": {
    "successful": true
  },
  "55.py": {
    "successful": false,
    "error_type": "AssertionError"
  },
  "56.py": {
    "successful": false,
    "error_type": "ValueError",
    "error_message": "invalid literal for int() with base 10"
  },
  "57.py": {
    "successful": false,
    "error_type": "AssertionError"
  },
  "58.py": {
    "successful": false,
    "error_type": "AssertionError"
  },
  "60.py": {
    "successful": false,
    "error_type": "ValueError",
    "error_message": "invalid literal for int() with base 10"
  },
  "62.py": {
    "successful": false,
    "error_type": "AssertionError"
  },
  "63.py": {
    "successful": false,
    "error_type": "AssertionError"
  },
  "66.py": {
    "successful": false,
    "error_type": "AssertionError"
  },
  "67.py": {
    "successful": false,
    "error_type": "AssertionError"
  },
  "69.py": {
    "successful": false,
    "error_type": "TypeError",
    "error_message": "not all arguments converted during string formatting"
  },
  "70.py": {
    "successful": false,
    "error_type": "TypeError",
    "error_message": "not all arguments converted during string formatting"
  },
  "71.py": {
    "successful": false,
    "error_type": "AssertionError"
  },
  "72.py": {
    "successful": false,
    "error_type": "AssertionError"
  },
  "74.py": {
    "successful": false,
    "error_type": "TypeError",
    "error_message": "not all arguments converted during string formatting"
  },
  "76.py": {
    "successful": false,
    "error_type": "ValueError",
    "error_message": "invalid literal for int() with base 10"
  },
  "77.py": {
    "successful": false,
    "error_type": "IndentationError",
    "error_message": "expected an indented block after function definition on line 1"
  },
  "78.py": {
    "successful": false,
    "error_type": "TypeError",
    "error_message": "'int' object is not iterable"
  },
  "79.py": {
    "successful": false,
    "error_type": "AssertionError"
  },
  "80.py": {
    "successful": false,
    "error_type": "IndexError",
    "error_message": "list index out of range"
  },
  "83.py": {
    "successful": true
  },
  "84.py": {
    "successful": false,
    "error_type": "TypeError",
    "error_message": "unsupported operand type(s) for +"
  },
  "85.py": {
    "successful": false,
    "error_type": "AssertionError"
  },
  "87.py": {
    "successful": false,
    "error_type": "AssertionError"
  },
  "88.py": {
    "successful": false,
    "error_type": "AssertionError"
  },
  "90.py": {
    "successful": false,
    "error_type": "TypeError",
    "error_message": "not all arguments converted during string formatting"
  },
  "93.py": {
    "successful": false,
    "error_type": "AssertionError"
  },
  "94.py": {
    "successful": false,
    "error_type": "AssertionError"
  },
  "95.py": {
    "successful": false,
    "error_type": "AssertionError"
  },
  "97.py": {
    "successful": false,
    "error_type": "AssertionError"
  },
  "98.py": {
    "successful": false,
    "error_type": "RuntimeError",
    "error_message": "Set changed size during iteration"
  },
  "99.py": {
    "successful": false,
    "error_type": "AssertionError"
  },
  "101.py": {
    "successful": false,
    "error_type": "AssertionError"
  },
  "105.py": {
    "successful": false,
    "error_type": "AssertionError"
  },
  "106.py": {
    "successful": false,
    "error_type": "AssertionError"
  },
  "107.py": {
    "successful": false,
    "error_type": "AssertionError"
  },
  "108.py": {
    "successful": true
  },
  "109.py": {
    "successful": false,
    "error_type": "AssertionError"
  },
  "110.py": {
    "successful": false,
    "error_type": "TypeError",
    "error_message": "not all arguments converted during string formatting"
  },
  "111.py": {
    "successful": false,
    "error_type": "ValueError",
    "error_message": "invalid literal for int() with base 10"
  },
  "112.py": {
    "successful": false,
    "error_type": "NameError",
    "error_message": "name 'xrange' is not defined. Did you mean"
  },
  "114.py": {
    "successful": false,
    "error_type": "AssertionError"
  },
  "115.py": {
    "successful": false,
    "error_type": "AssertionError"
  },
  "116.py": {
    "successful": true
  },
  "117.py": {
    "successful": false,
    "error_type": "AssertionError"
  },
  "118.py": {
    "successful": false,
    "error_type": "AssertionError"
  },
  "119.py": {
    "successful": false,
    "error_type": "TypeError",
    "error_message": "'in <string>' requires string as left operand, not int"
  },
  "120.py": {
    "successful": false,
    "error_type": "AssertionError"
  },
  "122.py": {
    "successful": false,
    "error_type": "TypeError",
    "error_message": "unsupported operand type(s) for %"
  },
  "123.py": {
    "successful": false,
    "error_type": "AssertionError"
  },
  "124.py": {
    "successful": false,
    "error_type": "AssertionError"
  },
  "125.py": {
    "successful": false,
    "error_type": "SyntaxError",
    "error_message": "closing parenthesis ')' does not match opening parenthesis '['"
  },
  "126.py": {
    "successful": false,
    "error_type": "TypeError",
    "error_message": "not all arguments converted during string formatting"
  },
  "127.py": {
    "successful": false,
    "error_type": "AssertionError"
  },
  "128.py": {
    "successful": false,
    "error_type": "AssertionError"
  },
  "129.py": {
    "successful": false,
    "error_type": "NameError",
    "error_message": "name 'test' is not defined"
  },
  "130.py": {
    "successful": false,
    "error_type": "AssertionError"
  },
  "131.py": {
    "successful": false,
    "error_type": "AssertionError"
  },
  "132.py": {
    "successful": false,
    "error_type": "AssertionError"
  },
  "133.py": {
    "successful": false,
    "error_type": "AttributeError",
    "error_message": "'dict' object has no attribute 'iteritems'"
  },
  "134.py": {
    "successful": false,
    "error_type": "AssertionError"
  },
  "138.py": {
    "successful": false,
    "error_type": "ValueError",
    "error_message": "invalid literal for int() with base 10"
  },
  "139.py": {
    "successful": false,
    "error_type": "AssertionError"
  },
  "140.py": {
    "successful": false,
    "error_type": "NameError",
    "error_message": "name 'is_digit' is not defined"
  },
  "141.py": {
    "successful": false,
    "error_type": "ValueError",
    "error_message": "invalid literal for int() with base 10"
  },
  "142.py": {
    "successful": false,
    "error_type": "AssertionError"
  },
  "143.py": {
    "successful": false,
    "error_type": "AssertionError"
  },
  "144.py": {
    "successful": false,
    "error_type": "TypeError",
    "error_message": "not all arguments converted during string formatting"
  },
  "145.py": {
    "successful": false,
    "error_type": "AssertionError"
  },
  "147.py": {
    "successful": true
  },
  "148.py": {
    "successful": false,
    "error_type": "NameError",
    "error_message": "name 'xrange' is not defined. Did you mean"
  },
  "149.py": {
    "successful": true
  },
  "150.py": {
    "successful": false,
    "error_type": "NameError",
    "error_message": "name 'xrange' is not defined. Did you mean"
  },
  "152.py": {
    "successful": false,
    "error_type": "AssertionError"
  },
  "153.py": {
    "successful": false,
    "error_type": "AssertionError"
  },
  "154.py": {
    "successful": false,
    "error_type": "ValueError",
    "error_message": "invalid literal for int() with base 10"
  },
  "155.py": {
    "successful": false,
    "error_type": "AssertionError"
  },
  "157.py": {
    "successful": false,
    "error_type": "AssertionError"
  },
  "159.py": {
    "successful": false,
    "error_type": "AssertionError"
  },
  "160.py": {
    "successful": false,
    "error_type": "AssertionError"
  },
  "161.py": {
    "successful": false,
    "error_type": "AssertionError"
  },
  "162.py": {
    "successful": false,
    "error_type": "ValueError",
    "error_message": "invalid literal for int() with base 10"
  },
  "163.py": {
    "successful": false,
    "error_type": "AssertionError"
  },
  "164.py": {
    "successful": false,
    "error_type": "NameError",
    "error_message": "name 're' is not defined. Did you mean"
  },
  "165.py": {
    "successful": false,
    "error_type": "AssertionError"
  },
  "166.py": {
    "successful": false,
    "error_type": "AssertionError"
  },
  "167.py": {
    "successful": false,
    "error_type": "SyntaxError",
    "error_message": "unmatched ')'"
  },
  "168.py": {
    "successful": false,
    "error_type": "AssertionError"
  },
  "170.py": {
    "successful": false,
    "error_type": "AssertionError"
  },
  "171.py": {
    "successful": false,
    "error_type": "AssertionError"
  },
  "172.py": {
    "successful": false,
    "error_type": "TypeError",
    "error_message": "not all arguments converted during string formatting"
  },
  "173.py": {
    "successful": false,
    "error_type": "AssertionError"
  },
  "174.py": {
    "successful": false,
    "error_type": "AssertionError"
  },
  "175.py": {
    "successful": false,
    "error_type": "AssertionError"
  },
  "177.py": {
    "successful": false,
    "error_type": "ModuleNotFoundError",
    "error_message": "No module named 'mypyc'"
  },
  "178.py": {
    "successful": false,
    "error_type": "AssertionError"
  },
  "179.py": {
    "successful": false,
    "error_type": "AssertionError"
  },
  "181.py": {
    "successful": false,
    "error_type": "ValueError",
    "error_message": "invalid literal for int() with base 10"
  },
  "184.py": {
    "successful": false,
    "error_type": "AssertionError"
  },
  "185.py": {
    "successful": false,
    "error_type": "NameError",
    "error_message": "name 'xrange' is not defined. Did you mean"
  },
  "186.py": {
    "successful": false,
    "error_type": "AssertionError"
  },
  "187.py": {
    "successful": false,
    "error_type": "AssertionError"
  },
  "189.py": {
    "successful": false,
    "error_type": "AssertionError"
  },
  "190.py": {
    "successful": false,
    "error_type": "AssertionError"
  },
  "191.py": {
    "successful": false,
    "error_type": "AssertionError"
  },
  "192.py": {
    "successful": false,
    "error_type": "AssertionError"
  },
  "193.py": {
    "successful": false,
    "error_type": "ValueError",
    "error_message": "invalid literal for int() with base 10"
  },
  "194.py": {
    "successful": false,
    "error_type": "AssertionError"
  },
  "195.py": {
    "successful": false,
    "error_type": "AssertionError"
  },
  "196.py": {
    "successful": false,
    "error_type": "AssertionError"
  },
  "197.py": {
    "successful": false,
    "error_type": "AssertionError"
  },
  "198.py": {
    "successful": true
  },
  "199.py": {
    "successful": false,
    "error_type": "AssertionError"
  }
}