{
  "test_complete": true,
  "5.py": {
    "successful": true
  },
  "14.py": {
    "successful": true
  },
  "19.py": {
    "successful": true
  },
  "20.py": {
    "successful": true
  },
  "24.py": {
    "successful": true
  },
  "26.py": {
    "successful": true
  },
  "30.py": {
    "successful": true
  },
  "31.py": {
    "successful": true
  },
  "39.py": {
    "successful": true
  },
  "41.py": {
    "successful": true
  },
  "61.py": {
    "successful": true
  },
  "91.py": {
    "successful": true
  },
  "97.py": {
    "successful": true
  },
  "109.py": {
    "successful": true
  },
  "110.py": {
    "successful": true
  },
  "112.py": {
    "successful": true
  },
  "114.py": {
    "successful": true
  },
  "123.py": {
    "successful": true
  },
  "124.py": {
    "successful": true
  },
  "138.py": {
    "successful": true
  },
  "152.py": {
    "successful": true
  },
  "161.py": {
    "successful": true
  },
  "164.py": {
    "successful": true
  },
  "184.py": {
    "successful": true
  },
  "187.py": {
    "successful": true
  }
}