{
  "test_complete": true,
  "10.py": {
    "successful": true
  },
  "14.py": {
    "successful": true
  },
  "25.py": {
    "successful": true
  },
  "42.py": {
    "successful": true
  },
  "106.py": {
    "successful": true
  },
  "142.py": {
    "successful": true
  },
  "174.py": {
    "successful": true
  }
}