{
  "test_complete": true,
  "0.py": {
    "successful": true
  },
  "2.py": {
    "successful": true
  },
  "6.py": {
    "successful": true
  },
  "23.py": {
    "successful": true
  },
  "25.py": {
    "successful": true
  },
  "31.py": {
    "successful": true
  },
  "33.py": {
    "successful": true
  },
  "34.py": {
    "successful": true
  },
  "56.py": {
    "successful": true
  },
  "70.py": {
    "successful": true
  },
  "98.py": {
    "successful": true
  },
  "105.py": {
    "successful": true
  },
  "109.py": {
    "successful": true
  },
  "111.py": {
    "successful": true
  },
  "131.py": {
    "successful": true
  },
  "198.py": {
    "successful": true
  }
}