{
  "test_complete": true,
  "3.py": {
    "successful": true
  },
  "4.py": {
    "successful": true
  },
  "7.py": {
    "successful": true
  },
  "10.py": {
    "successful": true
  },
  "11.py": {
    "successful": true
  },
  "16.py": {
    "successful": true
  },
  "21.py": {
    "successful": true
  },
  "25.py": {
    "successful": true
  },
  "28.py": {
    "successful": true
  },
  "32.py": {
    "successful": true
  },
  "33.py": {
    "successful": true
  },
  "47.py": {
    "successful": true
  },
  "50.py": {
    "successful": true
  },
  "54.py": {
    "successful": true
  },
  "66.py": {
    "successful": true
  },
  "71.py": {
    "successful": true
  },
  "73.py": {
    "successful": true
  },
  "85.py": {
    "successful": true
  },
  "88.py": {
    "successful": true
  },
  "103.py": {
    "successful": true
  },
  "110.py": {
    "successful": true
  },
  "112.py": {
    "successful": true
  },
  "126.py": {
    "successful": true
  },
  "136.py": {
    "successful": true
  },
  "140.py": {
    "successful": true
  },
  "157.py": {
    "successful": true
  },
  "168.py": {
    "successful": true
  },
  "186.py": {
    "successful": true
  },
  "193.py": {
    "successful": true
  },
  "194.py": {
    "successful": true
  }
}