{
  "test_complete": true,
  "3.py": {
    "successful": false,
    "error_type": "AssertionError"
  },
  "6.py": {
    "successful": false,
    "error_type": "AssertionError"
  },
  "7.py": {
    "successful": false,
    "error_type": "AssertionError"
  },
  "11.py": {
    "successful": false,
    "error_type": "AssertionError"
  },
  "36.py": {
    "successful": true
  },
  "42.py": {
    "successful": true
  },
  "43.py": {
    "successful": true
  },
  "49.py": {
    "successful": true
  },
  "53.py": {
    "successful": true
  },
  "67.py": {
    "successful": false,
    "error_type": "AssertionError"
  },
  "68.py": {
    "successful": true
  },
  "74.py": {
    "successful": false,
    "error_type": "AssertionError"
  },
  "86.py": {
    "successful": false,
    "error_type": "AssertionError"
  },
  "91.py": {
    "successful": true
  },
  "102.py": {
    "successful": true
  },
  "104.py": {
    "successful": false,
    "error_type": "AssertionError"
  },
  "106.py": {
    "successful": true
  },
  "107.py": {
    "successful": false,
    "error_type": "AssertionError"
  },
  "108.py": {
    "successful": true
  },
  "136.py": {
    "successful": true
  },
  "138.py": {
    "successful": true
  },
  "145.py": {
    "successful": false,
    "error_type": "AssertionError"
  },
  "156.py": {
    "successful": true
  },
  "159.py": {
    "successful": true
  },
  "177.py": {
    "successful": false,
    "error_type": "AssertionError"
  },
  "178.py": {
    "successful": false,
    "error_type": "AssertionError"
  },
  "184.py": {
    "successful": true
  }
}