{
  "test_complete": true,
  "4.py": {
    "successful": true
  },
  "8.py": {
    "successful": true
  },
  "14.py": {
    "successful": true
  },
  "16.py": {
    "successful": true
  },
  "17.py": {
    "successful": true
  },
  "28.py": {
    "successful": true
  },
  "30.py": {
    "successful": true
  },
  "38.py": {
    "successful": false,
    "error_type": "AssertionError"
  },
  "43.py": {
    "successful": true
  },
  "50.py": {
    "successful": false,
    "error_type": "AssertionError"
  },
  "51.py": {
    "successful": true
  },
  "58.py": {
    "successful": true
  },
  "64.py": {
    "successful": false,
    "error_type": "AssertionError"
  },
  "66.py": {
    "successful": true
  },
  "70.py": {
    "successful": true
  },
  "71.py": {
    "successful": false,
    "error_type": "AssertionError"
  },
  "74.py": {
    "successful": true
  },
  "80.py": {
    "successful": true
  },
  "81.py": {
    "successful": false,
    "error_type": "AssertionError"
  },
  "95.py": {
    "successful": true
  },
  "106.py": {
    "successful": true
  },
  "127.py": {
    "successful": true
  },
  "130.py": {
    "successful": true
  },
  "134.py": {
    "successful": true
  },
  "139.py": {
    "successful": true
  },
  "141.py": {
    "successful": true
  },
  "147.py": {
    "successful": true
  },
  "161.py": {
    "successful": true
  },
  "168.py": {
    "successful": true
  },
  "173.py": {
    "successful": true
  },
  "176.py": {
    "successful": true
  },
  "185.py": {
    "successful": true
  },
  "189.py": {
    "successful": true
  },
  "197.py": {
    "successful": true
  }
}