{
  "test_complete": true,
  "4.py": {
    "successful": false,
    "error_type": "TypeError",
    "error_message": "sequence item 0"
  },
  "5.py": {
    "successful": false,
    "error_type": "TypeError",
    "error_message": "sequence item 0"
  },
  "7.py": {
    "successful": false,
    "error_type": "AssertionError"
  },
  "11.py": {
    "successful": false,
    "error_type": "NameError",
    "error_message": "name 'string' is not defined"
  },
  "14.py": {
    "successful": false,
    "error_type": "NameError",
    "error_message": "name 'string' is not defined. Did you mean"
  },
  "19.py": {
    "successful": false,
    "error_type": "NameError",
    "error_message": "name 'string' is not defined. Did you mean"
  },
  "20.py": {
    "successful": false,
    "error_type": "AttributeError",
    "error_message": "'str' object has no attribute 'ascii_lowercase'"
  },
  "22.py": {
    "successful": false,
    "error_type": "TypeError",
    "error_message": "sequence item 0"
  },
  "23.py": {
    "successful": false,
    "error_type": "SyntaxError",
    "error_message": "invalid syntax"
  },
  "34.py": {
    "successful": false,
    "error_type": "NameError",
    "error_message": "name 'string' is not defined"
  },
  "40.py": {
    "successful": true
  },
  "42.py": {
    "successful": true
  },
  "46.py": {
    "successful": false,
    "error_type": "NameError",
    "error_message": "name 'string' is not defined. Did you mean"
  },
  "48.py": {
    "successful": false,
    "error_type": "TypeError",
    "error_message": "unbound method str.split() needs an argument"
  },
  "50.py": {
    "successful": false,
    "error_type": "AttributeError",
    "error_message": "'list' object has no attribute 'split'"
  },
  "53.py": {
    "successful": false,
    "error_type": "NameError",
    "error_message": "name 'string' is not defined. Did you mean"
  },
  "55.py": {
    "successful": false,
    "error_type": "AssertionError"
  },
  "58.py": {
    "successful": false,
    "error_type": "AssertionError"
  },
  "59.py": {
    "successful": false,
    "error_type": "NameError",
    "error_message": "name 'string' is not defined. Did you mean"
  },
  "62.py": {
    "successful": false,
    "error_type": "TypeError",
    "error_message": "sequence item 0"
  },
  "67.py": {
    "successful": false,
    "error_type": "NameError",
    "error_message": "name 'x' is not defined"
  },
  "70.py": {
    "successful": false,
    "error_type": "NameError",
    "error_message": "name 'string' is not defined. Did you mean"
  },
  "73.py": {
    "successful": false,
    "error_type": "NameError",
    "error_message": "name 'string' is not defined. Did you mean"
  },
  "85.py": {
    "successful": false,
    "error_type": "NameError",
    "error_message": "name 'string' is not defined. Did you mean"
  },
  "92.py": {
    "successful": false,
    "error_type": "AssertionError"
  },
  "97.py": {
    "successful": false,
    "error_type": "NameError",
    "error_message": "name 'string' is not defined. Did you mean"
  },
  "100.py": {
    "successful": false,
    "error_type": "TypeError",
    "error_message": "unbound method str.split() needs an argument"
  },
  "104.py": {
    "successful": false,
    "error_type": "IndexError",
    "error_message": "list index out of range"
  },
  "107.py": {
    "successful": false,
    "error_type": "AssertionError"
  },
  "109.py": {
    "successful": false,
    "error_type": "AssertionError"
  },
  "115.py": {
    "successful": false,
    "error_type": "NameError",
    "error_message": "name 'string' is not defined. Did you mean"
  },
  "117.py": {
    "successful": false,
    "error_type": "NameError",
    "error_message": "name 'string_list' is not defined"
  },
  "118.py": {
    "successful": false,
    "error_type": "NameError",
    "error_message": "name 'string' is not defined. Did you mean"
  },
  "122.py": {
    "successful": false,
    "error_type": "NameError",
    "error_message": "name 'string' is not defined. Did you mean"
  },
  "123.py": {
    "successful": false,
    "error_type": "AssertionError"
  },
  "124.py": {
    "successful": false,
    "error_type": "NameError",
    "error_message": "name 'string' is not defined. Did you mean"
  },
  "125.py": {
    "successful": false,
    "error_type": "IndexError",
    "error_message": "list index out of range"
  },
  "126.py": {
    "successful": false,
    "error_type": "IndexError",
    "error_message": "string index out of range"
  },
  "132.py": {
    "successful": false,
    "error_type": "SyntaxError",
    "error_message": "expected 'else' after 'if' expression"
  },
  "142.py": {
    "successful": false,
    "error_type": "NameError",
    "error_message": "name 'string' is not defined. Did you mean"
  },
  "143.py": {
    "successful": false,
    "error_type": "NameError",
    "error_message": "name 'string' is not defined"
  },
  "144.py": {
    "successful": true
  },
  "147.py": {
    "successful": false,
    "error_type": "AssertionError"
  },
  "148.py": {
    "successful": false,
    "error_type": "AssertionError"
  },
  "149.py": {
    "successful": false,
    "error_type": "SyntaxError",
    "error_message": "unmatched ')'"
  },
  "150.py": {
    "successful": false,
    "error_type": "NameError",
    "error_message": "name 'string' is not defined. Did you mean"
  },
  "157.py": {
    "successful": false,
    "error_type": "NameError",
    "error_message": "name 'string' is not defined. Did you mean"
  },
  "163.py": {
    "successful": true
  },
  "164.py": {
    "successful": false,
    "error_type": "AssertionError"
  },
  "171.py": {
    "successful": false,
    "error_type": "AssertionError"
  },
  "174.py": {
    "successful": false,
    "error_type": "AssertionError"
  },
  "175.py": {
    "successful": false,
    "error_type": "AssertionError"
  },
  "176.py": {
    "successful": false,
    "error_type": "TypeError",
    "error_message": "sequence item 0"
  },
  "178.py": {
    "successful": false,
    "error_type": "AssertionError"
  },
  "179.py": {
    "successful": false,
    "error_type": "NameError",
    "error_message": "name 'string' is not defined. Did you mean"
  },
  "180.py": {
    "successful": false,
    "error_type": "NameError",
    "error_message": "name 'string' is not defined. Did you mean"
  },
  "182.py": {
    "successful": false,
    "error_type": "AssertionError"
  },
  "187.py": {
    "successful": false,
    "error_type": "AssertionError"
  },
  "188.py": {
    "successful": false,
    "error_type": "NameError",
    "error_message": "name 'string' is not defined"
  },
  "191.py": {
    "successful": false,
    "error_type": "AssertionError"
  },
  "193.py": {
    "successful": true
  },
  "197.py": {
    "successful": true
  }
}