{
  "test_complete": true,
  "0.py": {
    "successful": false,
    "error_type": "AssertionError"
  },
  "1.py": {
    "successful": false,
    "error_type": "NameError",
    "error_message": "name 'xrange' is not defined. Did you mean"
  },
  "2.py": {
    "successful": false,
    "error_type": "NameError",
    "error_message": "name 'xrange' is not defined. Did you mean"
  },
  "3.py": {
    "successful": false,
    "error_type": "NameError",
    "error_message": "name 'xrange' is not defined. Did you mean"
  },
  "5.py": {
    "successful": false,
    "error_type": "TypeError",
    "error_message": "'int' object is not iterable"
  },
  "6.py": {
    "successful": false,
    "error_type": "AssertionError"
  },
  "7.py": {
    "successful": false,
    "error_type": "TypeError",
    "error_message": "unsupported operand type(s) for %"
  },
  "8.py": {
    "successful": false,
    "error_type": "RecursionError",
    "error_message": "maximum recursion depth exceeded"
  },
  "9.py": {
    "successful": false,
    "error_type": "AttributeError",
    "error_message": "'list' object has no attribute 'split'"
  },
  "10.py": {
    "successful": false,
    "error_type": "NameError",
    "error_message": "name 'xrange' is not defined. Did you mean"
  },
  "11.py": {
    "successful": false,
    "error_type": "AssertionError"
  },
  "12.py": {
    "successful": false,
    "error_type": "AssertionError"
  },
  "13.py": {
    "successful": false,
    "error_type": "TypeError",
    "error_message": "'int' object is not iterable"
  },
  "14.py": {
    "successful": false,
    "error_type": "AssertionError"
  },
  "15.py": {
    "successful": false,
    "error_type": "TypeError",
    "error_message": "'int' object is not iterable"
  },
  "16.py": {
    "successful": false,
    "error_type": "AssertionError"
  },
  "17.py": {
    "successful": false,
    "error_type": "AssertionError"
  },
  "18.py": {
    "successful": false,
    "error_type": "NameError",
    "error_message": "name 'xrange' is not defined. Did you mean"
  },
  "19.py": {
    "successful": false,
    "error_type": "TypeError",
    "error_message": "'int' object is not iterable"
  },
  "20.py": {
    "successful": false,
    "error_type": "IndexError",
    "error_message": "list index out of range"
  },
  "22.py": {
    "successful": false,
    "error_type": "AssertionError"
  },
  "23.py": {
    "successful": false,
    "error_type": "IndexError",
    "error_message": "list index out of range"
  },
  "25.py": {
    "successful": false,
    "error_type": "AssertionError"
  },
  "26.py": {
    "successful": false,
    "error_type": "NameError",
    "error_message": "name 'xrange' is not defined. Did you mean"
  },
  "27.py": {
    "successful": false,
    "error_type": "AssertionError"
  },
  "28.py": {
    "successful": false,
    "error_type": "NameError",
    "error_message": "name 'xrange' is not defined. Did you mean"
  },
  "29.py": {
    "successful": false,
    "error_type": "AssertionError"
  },
  "30.py": {
    "successful": false,
    "error_type": "TypeError",
    "error_message": "unsupported operand type(s) for %"
  },
  "31.py": {
    "successful": false,
    "error_type": "NameError",
    "error_message": "name 'xrange' is not defined. Did you mean"
  },
  "32.py": {
    "successful": false,
    "error_type": "NameError",
    "error_message": "name 'xrange' is not defined. Did you mean"
  },
  "33.py": {
    "successful": false,
    "error_type": "AttributeError",
    "error_message": "'list' object has no attribute 'is_unique'"
  },
  "34.py": {
    "successful": false,
    "error_type": "NameError",
    "error_message": "name 'xrange' is not defined. Did you mean"
  },
  "35.py": {
    "successful": false,
    "error_type": "AssertionError"
  },
  "36.py": {
    "successful": false,
    "error_type": "AssertionError"
  },
  "38.py": {
    "successful": false,
    "error_type": "TypeError",
    "error_message": "'<' not supported between instances of 'list' and 'int'"
  },
  "40.py": {
    "successful": false,
    "error_type": "IndexError",
    "error_message": "list index out of range"
  },
  "41.py": {
    "successful": false,
    "error_type": "AssertionError"
  },
  "42.py": {
    "successful": false,
    "error_type": "SyntaxError",
    "error_message": "expected '('"
  },
  "43.py": {
    "successful": false,
    "error_type": "NameError",
    "error_message": "name 'xrange' is not defined. Did you mean"
  },
  "46.py": {
    "successful": false,
    "error_type": "NameError",
    "error_message": "name 'xrange' is not defined. Did you mean"
  },
  "48.py": {
    "successful": false,
    "error_type": "ZeroDivisionError",
    "error_message": "integer modulo by zero"
  },
  "51.py": {
    "successful": false,
    "error_type": "ValueError",
    "error_message": "unknown number of digits"
  },
  "54.py": {
    "successful": false,
    "error_type": "TypeError",
    "error_message": "'int' object is not subscriptable"
  },
  "55.py": {
    "successful": false,
    "error_type": "AssertionError"
  },
  "57.py": {
    "successful": false,
    "error_type": "TypeError",
    "error_message": "unsupported operand type(s) for -"
  },
  "58.py": {
    "successful": false,
    "error_type": "AssertionError"
  },
  "60.py": {
    "successful": false,
    "error_type": "SyntaxError",
    "error_message": "'[' was never closed"
  },
  "61.py": {
    "successful": false,
    "error_type": "NameError",
    "error_message": "name 'xrange' is not defined. Did you mean"
  },
  "62.py": {
    "successful": false,
    "error_type": "AttributeError",
    "error_message": "'list' object has no attribute 'split'"
  },
  "63.py": {
    "successful": false,
    "error_type": "AssertionError"
  },
  "64.py": {
    "successful": false,
    "error_type": "AssertionError"
  },
  "65.py": {
    "successful": false,
    "error_type": "NameError",
    "error_message": "name 'xrange' is not defined. Did you mean"
  },
  "67.py": {
    "successful": false,
    "error_type": "AssertionError"
  },
  "68.py": {
    "successful": false,
    "error_type": "AssertionError"
  },
  "69.py": {
    "successful": false,
    "error_type": "AssertionError"
  },
  "70.py": {
    "successful": false,
    "error_type": "AssertionError"
  },
  "74.py": {
    "successful": false,
    "error_type": "AssertionError"
  },
  "75.py": {
    "successful": false,
    "error_type": "AssertionError"
  },
  "77.py": {
    "successful": false,
    "error_type": "NameError",
    "error_message": "name 'xrange' is not defined. Did you mean"
  },
  "78.py": {
    "successful": false,
    "error_type": "IndentationError",
    "error_message": "expected an indented block after 'if' statement on line 7"
  },
  "81.py": {
    "successful": false,
    "error_type": "TypeError",
    "error_message": "unsupported operand type(s) for +"
  },
  "82.py": {
    "successful": false,
    "error_type": "TypeError",
    "error_message": "unsupported operand type(s) for %"
  },
  "83.py": {
    "successful": false,
    "error_type": "AssertionError"
  },
  "84.py": {
    "successful": false,
    "error_type": "TypeError",
    "error_message": "unsupported operand type(s) for %"
  },
  "85.py": {
    "successful": false,
    "error_type": "AssertionError"
  },
  "86.py": {
    "successful": false,
    "error_type": "TypeError",
    "error_message": "'<' not supported between instances of 'list' and 'int'"
  },
  "87.py": {
    "successful": false,
    "error_type": "NameError",
    "error_message": "name 'xrange' is not defined. Did you mean"
  },
  "88.py": {
    "successful": false,
    "error_type": "TypeError",
    "error_message": "'int' object is not subscriptable"
  },
  "89.py": {
    "successful": false,
    "error_type": "TypeError",
    "error_message": "unsupported operand type(s) for -"
  },
  "91.py": {
    "successful": false,
    "error_type": "TypeError",
    "error_message": "'int' object is not subscriptable"
  },
  "92.py": {
    "successful": false,
    "error_type": "AssertionError"
  },
  "93.py": {
    "successful": false,
    "error_type": "AssertionError"
  },
  "94.py": {
    "successful": false,
    "error_type": "AssertionError"
  },
  "95.py": {
    "successful": false,
    "error_type": "AssertionError"
  },
  "96.py": {
    "successful": false,
    "error_type": "AssertionError"
  },
  "98.py": {
    "successful": false,
    "error_type": "NameError",
    "error_message": "name 'xrange' is not defined. Did you mean"
  },
  "99.py": {
    "successful": false,
    "error_type": "AttributeError",
    "error_message": "'int' object has no attribute 'count'"
  },
  "100.py": {
    "successful": false,
    "error_type": "NameError",
    "error_message": "name 'xrange' is not defined. Did you mean"
  },
  "101.py": {
    "successful": false,
    "error_type": "TypeError",
    "error_message": "unsupported operand type(s) for -"
  },
  "103.py": {
    "successful": false,
    "error_type": "AssertionError"
  },
  "104.py": {
    "successful": false,
    "error_type": "RecursionError",
    "error_message": "maximum recursion depth exceeded"
  },
  "105.py": {
    "successful": false,
    "error_type": "AssertionError"
  },
  "108.py": {
    "successful": false,
    "error_type": "NameError",
    "error_message": "name 'xrange' is not defined. Did you mean"
  },
  "110.py": {
    "successful": false,
    "error_type": "AssertionError"
  },
  "112.py": {
    "successful": false,
    "error_type": "AssertionError"
  },
  "113.py": {
    "successful": false,
    "error_type": "AssertionError"
  },
  "115.py": {
    "successful": false,
    "error_type": "AssertionError"
  },
  "116.py": {
    "successful": false,
    "error_type": "TimeOut"
  },
  "117.py": {
    "successful": false,
    "error_type": "NameError",
    "error_message": "name 'xrange' is not defined. Did you mean"
  },
  "118.py": {
    "successful": false,
    "error_type": "IndexError",
    "error_message": "list index out of range"
  },
  "119.py": {
    "successful": false,
    "error_type": "IndexError",
    "error_message": "list index out of range"
  },
  "120.py": {
    "successful": false,
    "error_type": "AssertionError"
  },
  "122.py": {
    "successful": false,
    "error_type": "NameError",
    "error_message": "name 'xrange' is not defined. Did you mean"
  },
  "123.py": {
    "successful": false,
    "error_type": "AssertionError"
  },
  "124.py": {
    "successful": false,
    "error_type": "AssertionError"
  },
  "125.py": {
    "successful": false,
    "error_type": "AssertionError"
  },
  "126.py": {
    "successful": false,
    "error_type": "NameError",
    "error_message": "name 'xrange' is not defined. Did you mean"
  },
  "127.py": {
    "successful": false,
    "error_type": "NameError",
    "error_message": "name 'y' is not defined"
  },
  "128.py": {
    "successful": false,
    "error_type": "NameError",
    "error_message": "name 'xrange' is not defined. Did you mean"
  },
  "129.py": {
    "successful": false,
    "error_type": "AssertionError"
  },
  "131.py": {
    "successful": false,
    "error_type": "NameError",
    "error_message": "name 'y' is not defined"
  },
  "133.py": {
    "successful": false,
    "error_type": "NameError",
    "error_message": "name 'xrange' is not defined. Did you mean"
  },
  "134.py": {
    "successful": false,
    "error_type": "NameError",
    "error_message": "name 'xrange' is not defined. Did you mean"
  },
  "135.py": {
    "successful": false,
    "error_type": "AssertionError"
  },
  "136.py": {
    "successful": false,
    "error_type": "TypeError",
    "error_message": "unsupported operand type(s) for %"
  },
  "137.py": {
    "successful": false,
    "error_type": "AssertionError"
  },
  "139.py": {
    "successful": false,
    "error_type": "NameError",
    "error_message": "name 'xrange' is not defined. Did you mean"
  },
  "140.py": {
    "successful": false,
    "error_type": "NameError",
    "error_message": "name 'xrange' is not defined. Did you mean"
  },
  "143.py": {
    "successful": false,
    "error_type": "AssertionError"
  },
  "145.py": {
    "successful": false,
    "error_type": "AssertionError"
  },
  "147.py": {
    "successful": false,
    "error_type": "NameError",
    "error_message": "name 'operator' is not defined"
  },
  "149.py": {
    "successful": false,
    "error_type": "AssertionError"
  },
  "150.py": {
    "successful": false,
    "error_type": "AssertionError"
  },
  "153.py": {
    "successful": false,
    "error_type": "TypeError",
    "error_message": "'int' object is not subscriptable"
  },
  "155.py": {
    "successful": false,
    "error_type": "AssertionError"
  },
  "156.py": {
    "successful": false,
    "error_type": "AssertionError"
  },
  "157.py": {
    "successful": false,
    "error_type": "NameError",
    "error_message": "name 'y' is not defined"
  },
  "158.py": {
    "successful": false,
    "error_type": "AttributeError",
    "error_message": "'list' object has no attribute 'split'"
  },
  "159.py": {
    "successful": false,
    "error_type": "TypeError",
    "error_message": "'list' object cannot be interpreted as an integer"
  },
  "160.py": {
    "successful": false,
    "error_type": "NameError",
    "error_message": "name '_unique_digits' is not defined. Did you mean"
  },
  "161.py": {
    "successful": false,
    "error_type": "IndexError",
    "error_message": "list index out of range"
  },
  "162.py": {
    "successful": false,
    "error_type": "TypeError",
    "error_message": "unhashable type"
  },
  "163.py": {
    "successful": false,
    "error_type": "TypeError",
    "error_message": "unsupported operand type(s) for %"
  },
  "166.py": {
    "successful": false,
    "error_type": "NameError",
    "error_message": "name 'xrange' is not defined. Did you mean"
  },
  "167.py": {
    "successful": false,
    "error_type": "TypeError",
    "error_message": "object of type 'int' has no len()"
  },
  "169.py": {
    "successful": false,
    "error_type": "AssertionError"
  },
  "170.py": {
    "successful": false,
    "error_type": "SyntaxError",
    "error_message": "unmatched ')'"
  },
  "176.py": {
    "successful": false,
    "error_type": "AssertionError"
  },
  "178.py": {
    "successful": false,
    "error_type": "AssertionError"
  },
  "179.py": {
    "successful": false,
    "error_type": "RecursionError",
    "error_message": "maximum recursion depth exceeded"
  },
  "180.py": {
    "successful": false,
    "error_type": "SyntaxError",
    "error_message": "unmatched ')'"
  },
  "181.py": {
    "successful": false,
    "error_type": "AssertionError"
  },
  "182.py": {
    "successful": false,
    "error_type": "TypeError",
    "error_message": "can only concatenate list (not \"int\") to list"
  },
  "185.py": {
    "successful": false,
    "error_type": "TypeError",
    "error_message": "unsupported operand type(s) for %"
  },
  "186.py": {
    "successful": false,
    "error_type": "AssertionError"
  },
  "187.py": {
    "successful": false,
    "error_type": "AssertionError"
  },
  "190.py": {
    "successful": false,
    "error_type": "TypeError",
    "error_message": "'<' not supported between instances of 'list' and 'int'"
  },
  "192.py": {
    "successful": false,
    "error_type": "AssertionError"
  },
  "193.py": {
    "successful": false,
    "error_type": "ValueError",
    "error_message": "Not a two-digit number"
  },
  "195.py": {
    "successful": false,
    "error_type": "AssertionError"
  },
  "196.py": {
    "successful": false,
    "error_type": "AssertionError"
  },
  "197.py": {
    "successful": false,
    "error_type": "TypeError",
    "error_message": "unsupported operand type(s) for %"
  }
}