{
  "test_complete": true,
  "3.py": {
    "successful": true
  },
  "29.py": {
    "successful": true
  },
  "48.py": {
    "successful": true
  },
  "88.py": {
    "successful": true
  },
  "101.py": {
    "successful": true
  },
  "143.py": {
    "successful": true
  }
}