{
  "test_complete": true,
  "0.py": {
    "successful": false,
    "error_type": "AssertionError"
  },
  "1.py": {
    "successful": false,
    "error_type": "NameError",
    "error_message": "name 'sum_digits' is not defined"
  },
  "11.py": {
    "successful": false,
    "error_type": "AssertionError"
  },
  "15.py": {
    "successful": false,
    "error_type": "AssertionError"
  },
  "16.py": {
    "successful": false,
    "error_type": "NameError",
    "error_message": "name 'digit_sum' is not defined"
  },
  "19.py": {
    "successful": false,
    "error_type": "AssertionError"
  },
  "22.py": {
    "successful": false,
    "error_type": "AssertionError"
  },
  "24.py": {
    "successful": false,
    "error_type": "AssertionError"
  },
  "25.py": {
    "successful": false,
    "error_type": "AssertionError"
  },
  "26.py": {
    "successful": false,
    "error_type": "SyntaxError",
    "error_message": "unmatched ')'"
  },
  "29.py": {
    "successful": false,
    "error_type": "AssertionError"
  },
  "30.py": {
    "successful": false,
    "error_type": "NameError",
    "error_message": "name 'sum_of_digits' is not defined"
  },
  "32.py": {
    "successful": false,
    "error_type": "NameError",
    "error_message": "name 'sum_digits' is not defined"
  },
  "33.py": {
    "successful": false,
    "error_type": "NameError",
    "error_message": "name 'sum_digits' is not defined"
  },
  "36.py": {
    "successful": false,
    "error_type": "AssertionError"
  },
  "43.py": {
    "successful": false,
    "error_type": "AssertionError"
  },
  "45.py": {
    "successful": false,
    "error_type": "AssertionError"
  },
  "46.py": {
    "successful": false,
    "error_type": "AssertionError"
  },
  "49.py": {
    "successful": false,
    "error_type": "AssertionError"
  },
  "51.py": {
    "successful": false,
    "error_type": "AssertionError"
  },
  "52.py": {
    "successful": false,
    "error_type": "AssertionError"
  },
  "53.py": {
    "successful": false,
    "error_type": "NameError",
    "error_message": "name 'str_to_list' is not defined"
  },
  "54.py": {
    "successful": false,
    "error_type": "AssertionError"
  },
  "55.py": {
    "successful": false,
    "error_type": "TypeError",
    "error_message": "unsupported operand type(s) for +"
  },
  "57.py": {
    "successful": false,
    "error_type": "NameError",
    "error_message": "name 'get_digits' is not defined"
  },
  "59.py": {
    "successful": false,
    "error_type": "NameError",
    "error_message": "name 'sum_digits' is not defined"
  },
  "60.py": {
    "successful": false,
    "error_type": "NameError",
    "error_message": "name 'get_digits' is not defined"
  },
  "62.py": {
    "successful": false,
    "error_type": "NameError",
    "error_message": "name 'sum_digits' is not defined"
  },
  "63.py": {
    "successful": false,
    "error_type": "TypeError",
    "error_message": "unsupported operand type(s) for +"
  },
  "66.py": {
    "successful": false,
    "error_type": "AssertionError"
  },
  "67.py": {
    "successful": false,
    "error_type": "AssertionError"
  },
  "68.py": {
    "successful": false,
    "error_type": "TypeError",
    "error_message": "unsupported operand type(s) for +"
  },
  "69.py": {
    "successful": false,
    "error_type": "AssertionError"
  },
  "75.py": {
    "successful": false,
    "error_type": "AssertionError"
  },
  "77.py": {
    "successful": false,
    "error_type": "NameError",
    "error_message": "name 'sum_digits' is not defined"
  },
  "79.py": {
    "successful": false,
    "error_type": "TypeError",
    "error_message": "unsupported operand type(s) for +"
  },
  "82.py": {
    "successful": false,
    "error_type": "AssertionError"
  },
  "86.py": {
    "successful": true
  },
  "87.py": {
    "successful": false,
    "error_type": "NameError",
    "error_message": "name 'get_digits' is not defined"
  },
  "89.py": {
    "successful": false,
    "error_type": "AssertionError"
  },
  "90.py": {
    "successful": false,
    "error_type": "ValueError",
    "error_message": "invalid literal for int() with base 10"
  },
  "91.py": {
    "successful": false,
    "error_type": "AssertionError"
  },
  "94.py": {
    "successful": false,
    "error_type": "ValueError",
    "error_message": "invalid literal for int() with base 10"
  },
  "95.py": {
    "successful": false,
    "error_type": "AssertionError"
  },
  "98.py": {
    "successful": false,
    "error_type": "ValueError",
    "error_message": "invalid literal for int() with base 10"
  },
  "99.py": {
    "successful": false,
    "error_type": "AssertionError"
  },
  "100.py": {
    "successful": false,
    "error_type": "ValueError",
    "error_message": "invalid literal for int() with base 10"
  },
  "101.py": {
    "successful": false,
    "error_type": "AssertionError"
  },
  "102.py": {
    "successful": false,
    "error_type": "AssertionError"
  },
  "103.py": {
    "successful": false,
    "error_type": "AssertionError"
  },
  "108.py": {
    "successful": false,
    "error_type": "AssertionError"
  },
  "114.py": {
    "successful": false,
    "error_type": "ValueError",
    "error_message": "invalid literal for int() with base 10"
  },
  "115.py": {
    "successful": false,
    "error_type": "AssertionError"
  },
  "116.py": {
    "successful": false,
    "error_type": "AssertionError"
  },
  "119.py": {
    "successful": false,
    "error_type": "AssertionError"
  },
  "120.py": {
    "successful": false,
    "error_type": "AssertionError"
  },
  "123.py": {
    "successful": false,
    "error_type": "AssertionError"
  },
  "128.py": {
    "successful": false,
    "error_type": "AssertionError"
  },
  "129.py": {
    "successful": false,
    "error_type": "AssertionError"
  },
  "134.py": {
    "successful": false,
    "error_type": "NameError",
    "error_message": "name 'digits' is not defined"
  },
  "135.py": {
    "successful": false,
    "error_type": "AssertionError"
  },
  "137.py": {
    "successful": false,
    "error_type": "TypeError",
    "error_message": "object of type 'filter' has no len()"
  },
  "138.py": {
    "successful": false,
    "error_type": "NameError",
    "error_message": "name 'str_to_int' is not defined"
  },
  "143.py": {
    "successful": false,
    "error_type": "AssertionError"
  },
  "144.py": {
    "successful": false,
    "error_type": "NameError",
    "error_message": "name 'to_digits' is not defined"
  },
  "145.py": {
    "successful": false,
    "error_type": "NameError",
    "error_message": "name 'str_to_nums' is not defined"
  },
  "146.py": {
    "successful": false,
    "error_type": "AssertionError"
  },
  "148.py": {
    "successful": false,
    "error_type": "AssertionError"
  },
  "150.py": {
    "successful": false,
    "error_type": "AssertionError"
  },
  "151.py": {
    "successful": false,
    "error_type": "AssertionError"
  },
  "152.py": {
    "successful": false,
    "error_type": "NameError",
    "error_message": "name 'str2nums' is not defined"
  },
  "154.py": {
    "successful": false,
    "error_type": "AssertionError"
  },
  "155.py": {
    "successful": false,
    "error_type": "NameError",
    "error_message": "name 'sum_digits' is not defined"
  },
  "156.py": {
    "successful": false,
    "error_type": "AssertionError"
  },
  "164.py": {
    "successful": false,
    "error_type": "AssertionError"
  },
  "165.py": {
    "successful": false,
    "error_type": "AssertionError"
  },
  "166.py": {
    "successful": false,
    "error_type": "AssertionError"
  },
  "167.py": {
    "successful": false,
    "error_type": "NameError",
    "error_message": "name 'str2nums' is not defined"
  },
  "168.py": {
    "successful": false,
    "error_type": "AssertionError"
  },
  "169.py": {
    "successful": false,
    "error_type": "NameError",
    "error_message": "name 'sum_digits' is not defined"
  },
  "170.py": {
    "successful": false,
    "error_type": "AssertionError"
  },
  "171.py": {
    "successful": false,
    "error_type": "ValueError",
    "error_message": "invalid literal for int() with base 10"
  },
  "177.py": {
    "successful": false,
    "error_type": "AssertionError"
  },
  "178.py": {
    "successful": false,
    "error_type": "AssertionError"
  },
  "184.py": {
    "successful": false,
    "error_type": "AssertionError"
  },
  "185.py": {
    "successful": false,
    "error_type": "AssertionError"
  },
  "186.py": {
    "successful": false,
    "error_type": "AssertionError"
  },
  "188.py": {
    "successful": false,
    "error_type": "AssertionError"
  },
  "192.py": {
    "successful": false,
    "error_type": "AssertionError"
  },
  "194.py": {
    "successful": false,
    "error_type": "AssertionError"
  },
  "195.py": {
    "successful": false,
    "error_type": "AssertionError"
  },
  "196.py": {
    "successful": false,
    "error_type": "TypeError",
    "error_message": "object of type 'filter' has no len()"
  },
  "197.py": {
    "successful": false,
    "error_type": "AssertionError"
  }
}