{
  "test_complete": true,
  "3.py": {
    "successful": true
  },
  "15.py": {
    "successful": true
  },
  "21.py": {
    "successful": true
  },
  "33.py": {
    "successful": true
  },
  "34.py": {
    "successful": true
  },
  "39.py": {
    "successful": true
  },
  "63.py": {
    "successful": true
  },
  "70.py": {
    "successful": false,
    "error_type": "AssertionError"
  },
  "74.py": {
    "successful": true
  },
  "79.py": {
    "successful": true
  },
  "80.py": {
    "successful": true
  },
  "87.py": {
    "successful": true
  },
  "102.py": {
    "successful": true
  },
  "128.py": {
    "successful": true
  },
  "132.py": {
    "successful": true
  },
  "141.py": {
    "successful": true
  },
  "148.py": {
    "successful": true
  },
  "175.py": {
    "successful": true
  },
  "176.py": {
    "successful": true
  },
  "187.py": {
    "successful": true
  }
}