{
  "test_complete": true,
  "0.py": {
    "successful": true
  },
  "1.py": {
    "successful": true
  },
  "3.py": {
    "successful": true
  },
  "6.py": {
    "successful": false,
    "error_type": "AssertionError"
  },
  "8.py": {
    "successful": true
  },
  "9.py": {
    "successful": false,
    "error_type": "AssertionError"
  },
  "11.py": {
    "successful": true
  },
  "12.py": {
    "successful": false,
    "error_type": "AssertionError"
  },
  "13.py": {
    "successful": true
  },
  "14.py": {
    "successful": false,
    "error_type": "AssertionError"
  },
  "15.py": {
    "successful": true
  },
  "21.py": {
    "successful": false,
    "error_type": "AssertionError"
  },
  "22.py": {
    "successful": true
  },
  "24.py": {
    "successful": false,
    "error_type": "AssertionError"
  },
  "25.py": {
    "successful": true
  },
  "26.py": {
    "successful": false,
    "error_type": "AssertionError"
  },
  "27.py": {
    "successful": true
  },
  "28.py": {
    "successful": true
  },
  "29.py": {
    "successful": true
  },
  "30.py": {
    "successful": true
  },
  "31.py": {
    "successful": true
  },
  "32.py": {
    "successful": true
  },
  "34.py": {
    "successful": true
  },
  "35.py": {
    "successful": false,
    "error_type": "AssertionError"
  },
  "36.py": {
    "successful": true
  },
  "37.py": {
    "successful": false,
    "error_type": "AssertionError"
  },
  "38.py": {
    "successful": true
  },
  "39.py": {
    "successful": true
  },
  "40.py": {
    "successful": true
  },
  "46.py": {
    "successful": false,
    "error_type": "NameError",
    "error_message": "name 'Stack' is not defined. Did you mean"
  },
  "50.py": {
    "successful": false,
    "error_type": "AssertionError"
  },
  "52.py": {
    "successful": true
  },
  "54.py": {
    "successful": true
  },
  "55.py": {
    "successful": true
  },
  "56.py": {
    "successful": true
  },
  "57.py": {
    "successful": true
  },
  "58.py": {
    "successful": true
  },
  "59.py": {
    "successful": true
  },
  "60.py": {
    "successful": true
  },
  "63.py": {
    "successful": false,
    "error_type": "AssertionError"
  },
  "65.py": {
    "successful": true
  },
  "66.py": {
    "successful": false,
    "error_type": "AssertionError"
  },
  "67.py": {
    "successful": false,
    "error_type": "AssertionError"
  },
  "68.py": {
    "successful": true
  },
  "69.py": {
    "successful": false,
    "error_type": "AssertionError"
  },
  "70.py": {
    "successful": false,
    "error_type": "AssertionError"
  },
  "71.py": {
    "successful": true
  },
  "73.py": {
    "successful": false,
    "error_type": "AssertionError"
  },
  "74.py": {
    "successful": true
  },
  "75.py": {
    "successful": true
  },
  "76.py": {
    "successful": true
  },
  "78.py": {
    "successful": true
  },
  "80.py": {
    "successful": true
  },
  "81.py": {
    "successful": true
  },
  "82.py": {
    "successful": true
  },
  "84.py": {
    "successful": true
  },
  "86.py": {
    "successful": true
  },
  "87.py": {
    "successful": true
  },
  "89.py": {
    "successful": true
  },
  "90.py": {
    "successful": false,
    "error_type": "NameError",
    "error_message": "name 'Stack' is not defined"
  },
  "91.py": {
    "successful": true
  },
  "92.py": {
    "successful": false,
    "error_type": "AssertionError"
  },
  "93.py": {
    "successful": false,
    "error_type": "AssertionError"
  },
  "94.py": {
    "successful": true
  },
  "98.py": {
    "successful": true
  },
  "99.py": {
    "successful": true
  },
  "100.py": {
    "successful": true
  },
  "101.py": {
    "successful": false,
    "error_type": "SyntaxError",
    "error_message": "'[' was never closed"
  },
  "102.py": {
    "successful": true
  },
  "103.py": {
    "successful": false,
    "error_type": "AssertionError"
  },
  "105.py": {
    "successful": true
  },
  "106.py": {
    "successful": true
  },
  "107.py": {
    "successful": true
  },
  "108.py": {
    "successful": true
  },
  "109.py": {
    "successful": false,
    "error_type": "AssertionError"
  },
  "110.py": {
    "successful": true
  },
  "111.py": {
    "successful": false,
    "error_type": "AssertionError"
  },
  "113.py": {
    "successful": true
  },
  "115.py": {
    "successful": false,
    "error_type": "AssertionError"
  },
  "116.py": {
    "successful": true
  },
  "118.py": {
    "successful": false,
    "error_type": "AssertionError"
  },
  "121.py": {
    "successful": true
  },
  "122.py": {
    "successful": true
  },
  "123.py": {
    "successful": true
  },
  "125.py": {
    "successful": true
  },
  "126.py": {
    "successful": true
  },
  "129.py": {
    "successful": false,
    "error_type": "AssertionError"
  },
  "130.py": {
    "successful": true
  },
  "131.py": {
    "successful": true
  },
  "132.py": {
    "successful": true
  },
  "134.py": {
    "successful": true
  },
  "135.py": {
    "successful": false,
    "error_type": "AssertionError"
  },
  "136.py": {
    "successful": true
  },
  "138.py": {
    "successful": true
  },
  "140.py": {
    "successful": true
  },
  "141.py": {
    "successful": true
  },
  "142.py": {
    "successful": true
  },
  "143.py": {
    "successful": true
  },
  "144.py": {
    "successful": true
  },
  "145.py": {
    "successful": true
  },
  "149.py": {
    "successful": true
  },
  "150.py": {
    "successful": true
  },
  "151.py": {
    "successful": true
  },
  "153.py": {
    "successful": true
  },
  "154.py": {
    "successful": true
  },
  "155.py": {
    "successful": true
  },
  "156.py": {
    "successful": true
  },
  "157.py": {
    "successful": false,
    "error_type": "SyntaxError",
    "error_message": "unterminated string literal (detected at line 3)"
  },
  "158.py": {
    "successful": true
  },
  "159.py": {
    "successful": true
  },
  "166.py": {
    "successful": true
  },
  "168.py": {
    "successful": false,
    "error_type": "AssertionError"
  },
  "169.py": {
    "successful": true
  },
  "170.py": {
    "successful": true
  },
  "171.py": {
    "successful": true
  },
  "173.py": {
    "successful": true
  },
  "174.py": {
    "successful": true
  },
  "175.py": {
    "successful": false,
    "error_type": "AssertionError"
  },
  "176.py": {
    "successful": true
  },
  "177.py": {
    "successful": false,
    "error_type": "AssertionError"
  },
  "180.py": {
    "successful": true
  },
  "181.py": {
    "successful": true
  },
  "182.py": {
    "successful": true
  },
  "185.py": {
    "successful": true
  },
  "186.py": {
    "successful": true
  },
  "190.py": {
    "successful": true
  },
  "192.py": {
    "successful": true
  },
  "193.py": {
    "successful": true
  },
  "194.py": {
    "successful": true
  },
  "196.py": {
    "successful": true
  },
  "197.py": {
    "successful": true
  },
  "198.py": {
    "successful": true
  }
}