{
  "test_complete": true,
  "0.py": {
    "successful": true
  },
  "5.py": {
    "successful": false,
    "error_type": "NameError",
    "error_message": "name 'mean' is not defined"
  },
  "6.py": {
    "successful": true
  },
  "8.py": {
    "successful": true
  },
  "9.py": {
    "successful": true
  },
  "10.py": {
    "successful": true
  },
  "15.py": {
    "successful": false,
    "error_type": "NameError",
    "error_message": "name 'number' is not defined. Did you mean"
  },
  "17.py": {
    "successful": true
  },
  "18.py": {
    "successful": true
  },
  "19.py": {
    "successful": true
  },
  "21.py": {
    "successful": true
  },
  "23.py": {
    "successful": true
  },
  "25.py": {
    "successful": false,
    "error_type": "NameError",
    "error_message": "name 'mean' is not defined"
  },
  "26.py": {
    "successful": true
  },
  "29.py": {
    "successful": true
  },
  "30.py": {
    "successful": false,
    "error_type": "NameError",
    "error_message": "name 'mean' is not defined"
  },
  "31.py": {
    "successful": true
  },
  "34.py": {
    "successful": true
  },
  "35.py": {
    "successful": true
  },
  "37.py": {
    "successful": false,
    "error_type": "NameError",
    "error_message": "name 'mean' is not defined"
  },
  "42.py": {
    "successful": true
  },
  "47.py": {
    "successful": true
  },
  "49.py": {
    "successful": false,
    "error_type": "NameError",
    "error_message": "name 'mean' is not defined"
  },
  "50.py": {
    "successful": false,
    "error_type": "NameError",
    "error_message": "name 'mean' is not defined"
  },
  "51.py": {
    "successful": false,
    "error_type": "NameError",
    "error_message": "name 'mean' is not defined"
  },
  "54.py": {
    "successful": true
  },
  "67.py": {
    "successful": true
  },
  "70.py": {
    "successful": true
  },
  "71.py": {
    "successful": true
  },
  "72.py": {
    "successful": false,
    "error_type": "NameError",
    "error_message": "name 'mean' is not defined"
  },
  "73.py": {
    "successful": false,
    "error_type": "NameError",
    "error_message": "name 'number' is not defined. Did you mean"
  },
  "80.py": {
    "successful": false,
    "error_type": "AssertionError"
  },
  "81.py": {
    "successful": true
  },
  "82.py": {
    "successful": true
  },
  "83.py": {
    "successful": true
  },
  "88.py": {
    "successful": true
  },
  "89.py": {
    "successful": false,
    "error_type": "TypeError",
    "error_message": "unsupported operand type(s) for -"
  },
  "90.py": {
    "successful": false,
    "error_type": "IndentationError",
    "error_message": "expected an indented block after function definition on line 2"
  },
  "91.py": {
    "successful": false,
    "error_type": "NameError",
    "error_message": "name 'mean' is not defined"
  },
  "93.py": {
    "successful": false,
    "error_type": "AssertionError"
  },
  "100.py": {
    "successful": false,
    "error_type": "AssertionError"
  },
  "101.py": {
    "successful": false,
    "error_type": "TypeError",
    "error_message": "unsupported operand type(s) for -"
  },
  "103.py": {
    "successful": true
  },
  "104.py": {
    "successful": false,
    "error_type": "AssertionError"
  },
  "115.py": {
    "successful": true
  },
  "120.py": {
    "successful": false,
    "error_type": "NameError",
    "error_message": "name 'mean' is not defined"
  },
  "123.py": {
    "successful": true
  },
  "126.py": {
    "successful": false,
    "error_type": "TypeError",
    "error_message": "unsupported operand type(s) for -"
  },
  "128.py": {
    "successful": false,
    "error_type": "NameError",
    "error_message": "name 'i' is not defined. Did you mean"
  },
  "129.py": {
    "successful": true
  },
  "130.py": {
    "successful": true
  },
  "132.py": {
    "successful": true
  },
  "135.py": {
    "successful": true
  },
  "138.py": {
    "successful": false,
    "error_type": "NameError",
    "error_message": "name 'mean' is not defined"
  },
  "141.py": {
    "successful": true
  },
  "146.py": {
    "successful": true
  },
  "148.py": {
    "successful": false,
    "error_type": "AssertionError"
  },
  "151.py": {
    "successful": true
  },
  "154.py": {
    "successful": true
  },
  "155.py": {
    "successful": false,
    "error_type": "IndentationError",
    "error_message": "expected an indented block after function definition on line 2"
  },
  "156.py": {
    "successful": true
  },
  "157.py": {
    "successful": false,
    "error_type": "NameError",
    "error_message": "name 'mean' is not defined"
  },
  "160.py": {
    "successful": false,
    "error_type": "AssertionError"
  },
  "162.py": {
    "successful": true
  },
  "163.py": {
    "successful": true
  },
  "164.py": {
    "successful": false,
    "error_type": "NameError",
    "error_message": "name 'mean' is not defined"
  },
  "165.py": {
    "successful": false,
    "error_type": "TypeError",
    "error_message": "unsupported operand type(s) for -"
  },
  "168.py": {
    "successful": true
  },
  "173.py": {
    "successful": false,
    "error_type": "NameError",
    "error_message": "name 'mean' is not defined"
  },
  "180.py": {
    "successful": true
  },
  "183.py": {
    "successful": true
  },
  "184.py": {
    "successful": true
  },
  "185.py": {
    "successful": true
  },
  "186.py": {
    "successful": true
  },
  "194.py": {
    "successful": true
  },
  "195.py": {
    "successful": true
  },
  "198.py": {
    "successful": true
  }
}