{
  "test_complete": true,
  "1.py": {
    "successful": false,
    "error_type": "AssertionError"
  },
  "6.py": {
    "successful": false,
    "error_type": "AssertionError"
  },
  "8.py": {
    "successful": false,
    "error_type": "AssertionError"
  },
  "10.py": {
    "successful": true
  },
  "11.py": {
    "successful": false,
    "error_type": "AssertionError"
  },
  "14.py": {
    "successful": false,
    "error_type": "AssertionError"
  },
  "16.py": {
    "successful": false,
    "error_type": "AssertionError"
  },
  "17.py": {
    "successful": false,
    "error_type": "ValueError",
    "error_message": "base should be between 2 and 10"
  },
  "18.py": {
    "successful": true
  },
  "19.py": {
    "successful": false,
    "error_type": "IndentationError",
    "error_message": "expected an indented block after function definition on line 1"
  },
  "21.py": {
    "successful": true
  },
  "22.py": {
    "successful": false,
    "error_type": "AssertionError"
  },
  "25.py": {
    "successful": true
  },
  "27.py": {
    "successful": false,
    "error_type": "AssertionError"
  },
  "30.py": {
    "successful": false,
    "error_type": "AssertionError"
  },
  "33.py": {
    "successful": false,
    "error_type": "ValueError"
  },
  "34.py": {
    "successful": true
  },
  "35.py": {
    "successful": false,
    "error_type": "TypeError",
    "error_message": "int() can't convert non-string with explicit base"
  },
  "36.py": {
    "successful": true
  },
  "39.py": {
    "successful": true
  },
  "41.py": {
    "successful": false,
    "error_type": "AssertionError"
  },
  "42.py": {
    "successful": false,
    "error_type": "AssertionError"
  },
  "44.py": {
    "successful": true
  },
  "45.py": {
    "successful": false,
    "error_type": "AssertionError"
  },
  "46.py": {
    "successful": false,
    "error_type": "AssertionError"
  },
  "47.py": {
    "successful": true
  },
  "50.py": {
    "successful": true
  },
  "51.py": {
    "successful": false,
    "error_type": "AssertionError"
  },
  "52.py": {
    "successful": false,
    "error_type": "AssertionError"
  },
  "53.py": {
    "successful": false,
    "error_type": "NameError",
    "error_message": "name 'base_numbers' is not defined"
  },
  "54.py": {
    "successful": true
  },
  "55.py": {
    "successful": true
  },
  "57.py": {
    "successful": true
  },
  "58.py": {
    "successful": true
  },
  "59.py": {
    "successful": true
  },
  "65.py": {
    "successful": false,
    "error_type": "AssertionError"
  },
  "67.py": {
    "successful": false,
    "error_type": "RecursionError",
    "error_message": "maximum recursion depth exceeded"
  },
  "69.py": {
    "successful": true
  },
  "70.py": {
    "successful": false,
    "error_type": "AssertionError"
  },
  "71.py": {
    "successful": false,
    "error_type": "AssertionError"
  },
  "72.py": {
    "successful": false,
    "error_type": "AssertionError"
  },
  "73.py": {
    "successful": true
  },
  "74.py": {
    "successful": false,
    "error_type": "AssertionError"
  },
  "75.py": {
    "successful": true
  },
  "79.py": {
    "successful": true
  },
  "80.py": {
    "successful": false,
    "error_type": "AssertionError"
  },
  "81.py": {
    "successful": true
  },
  "83.py": {
    "successful": true
  },
  "84.py": {
    "successful": true
  },
  "85.py": {
    "successful": true
  },
  "86.py": {
    "successful": false,
    "error_type": "RecursionError",
    "error_message": "maximum recursion depth exceeded"
  },
  "87.py": {
    "successful": false,
    "error_type": "AssertionError"
  },
  "88.py": {
    "successful": false,
    "error_type": "AssertionError"
  },
  "91.py": {
    "successful": true
  },
  "92.py": {
    "successful": false,
    "error_type": "SyntaxError",
    "error_message": "expected '"
  },
  "94.py": {
    "successful": false,
    "error_type": "RecursionError",
    "error_message": "maximum recursion depth exceeded"
  },
  "95.py": {
    "successful": false,
    "error_type": "AssertionError"
  },
  "96.py": {
    "successful": true
  },
  "97.py": {
    "successful": false,
    "error_type": "AssertionError"
  },
  "99.py": {
    "successful": true
  },
  "100.py": {
    "successful": true
  },
  "101.py": {
    "successful": true
  },
  "102.py": {
    "successful": true
  },
  "103.py": {
    "successful": false,
    "error_type": "AssertionError"
  },
  "104.py": {
    "successful": true
  },
  "105.py": {
    "successful": true
  },
  "106.py": {
    "successful": false,
    "error_type": "AssertionError"
  },
  "113.py": {
    "successful": false,
    "error_type": "AssertionError"
  },
  "116.py": {
    "successful": true
  },
  "118.py": {
    "successful": true
  },
  "119.py": {
    "successful": false,
    "error_type": "AssertionError"
  },
  "122.py": {
    "successful": true
  },
  "123.py": {
    "successful": true
  },
  "124.py": {
    "successful": false,
    "error_type": "AssertionError"
  },
  "126.py": {
    "successful": false,
    "error_type": "AssertionError"
  },
  "127.py": {
    "successful": true
  },
  "128.py": {
    "successful": false,
    "error_type": "AssertionError"
  },
  "129.py": {
    "successful": true
  },
  "130.py": {
    "successful": false,
    "error_type": "AssertionError"
  },
  "131.py": {
    "successful": true
  },
  "132.py": {
    "successful": false,
    "error_type": "AssertionError"
  },
  "133.py": {
    "successful": true
  },
  "134.py": {
    "successful": true
  },
  "135.py": {
    "successful": false,
    "error_type": "AssertionError"
  },
  "136.py": {
    "successful": true
  },
  "137.py": {
    "successful": true
  },
  "139.py": {
    "successful": true
  },
  "140.py": {
    "successful": true
  },
  "141.py": {
    "successful": true
  },
  "143.py": {
    "successful": false,
    "error_type": "NameError",
    "error_message": "name 'convert_base' is not defined"
  },
  "145.py": {
    "successful": true
  },
  "146.py": {
    "successful": true
  },
  "147.py": {
    "successful": true
  },
  "148.py": {
    "successful": true
  },
  "149.py": {
    "successful": true
  },
  "152.py": {
    "successful": false,
    "error_type": "RecursionError",
    "error_message": "maximum recursion depth exceeded"
  },
  "155.py": {
    "successful": true
  },
  "157.py": {
    "successful": false,
    "error_type": "AssertionError"
  },
  "158.py": {
    "successful": false,
    "error_type": "AssertionError"
  },
  "159.py": {
    "successful": true
  },
  "160.py": {
    "successful": false,
    "error_type": "AssertionError"
  },
  "162.py": {
    "successful": false,
    "error_type": "AssertionError"
  },
  "163.py": {
    "successful": false,
    "error_type": "AssertionError"
  },
  "164.py": {
    "successful": false,
    "error_type": "TypeError",
    "error_message": "int() can't convert non-string with explicit base"
  },
  "166.py": {
    "successful": false,
    "error_type": "AssertionError"
  },
  "168.py": {
    "successful": true
  },
  "169.py": {
    "successful": true
  },
  "171.py": {
    "successful": false,
    "error_type": "AssertionError"
  },
  "172.py": {
    "successful": true
  },
  "173.py": {
    "successful": true
  },
  "174.py": {
    "successful": true
  },
  "176.py": {
    "successful": false,
    "error_type": "ValueError",
    "error_message": "invalid literal for int() with base 3"
  },
  "179.py": {
    "successful": true
  },
  "181.py": {
    "successful": false,
    "error_type": "AssertionError"
  },
  "182.py": {
    "successful": false,
    "error_type": "AssertionError"
  },
  "183.py": {
    "successful": true
  },
  "186.py": {
    "successful": true
  },
  "188.py": {
    "successful": true
  },
  "193.py": {
    "successful": true
  },
  "197.py": {
    "successful": true
  },
  "199.py": {
    "successful": false,
    "error_type": "AssertionError"
  }
}