{
  "test_complete": true,
  "20.py": {
    "successful": true
  },
  "24.py": {
    "successful": false,
    "error_type": "ZeroDivisionError",
    "error_message": "integer modulo by zero"
  },
  "25.py": {
    "successful": true
  },
  "53.py": {
    "successful": true
  },
  "63.py": {
    "successful": false,
    "error_type": "AssertionError"
  },
  "106.py": {
    "successful": false,
    "error_type": "NameError",
    "error_message": "name 'gcd' is not defined"
  },
  "159.py": {
    "successful": true
  },
  "189.py": {
    "successful": true
  }
}