{
  "test_complete": true,
  "10.py": {
    "successful": false,
    "error_type": "IndexError",
    "error_message": "pop from empty list"
  },
  "15.py": {
    "successful": false,
    "error_type": "NameError",
    "error_message": "name 'skip_if_no_pyi' is not defined"
  },
  "18.py": {
    "successful": false,
    "error_type": "AssertionError"
  },
  "19.py": {
    "successful": false,
    "error_type": "AssertionError"
  },
  "20.py": {
    "successful": false,
    "error_type": "IndexError",
    "error_message": "list index out of range"
  },
  "21.py": {
    "successful": true
  },
  "23.py": {
    "successful": false,
    "error_type": "IndexError",
    "error_message": "pop from empty list"
  },
  "28.py": {
    "successful": false,
    "error_type": "AssertionError"
  },
  "32.py": {
    "successful": false,
    "error_type": "IndexError",
    "error_message": "list index out of range"
  },
  "34.py": {
    "successful": false,
    "error_type": "IndexError",
    "error_message": "pop from empty list"
  },
  "40.py": {
    "successful": false,
    "error_type": "IndexError",
    "error_message": "list index out of range"
  },
  "47.py": {
    "successful": false,
    "error_type": "AssertionError"
  },
  "48.py": {
    "successful": false,
    "error_type": "NameError",
    "error_message": "name 'py2app' is not defined"
  },
  "49.py": {
    "successful": true
  },
  "52.py": {
    "successful": false,
    "error_type": "AssertionError"
  },
  "55.py": {
    "successful": true
  },
  "56.py": {
    "successful": false,
    "error_type": "NameError",
    "error_message": "name 'pytest' is not defined. Did you mean"
  },
  "59.py": {
    "successful": true
  },
  "65.py": {
    "successful": false,
    "error_type": "NameError",
    "error_message": "name 'copy' is not defined. Did you mean"
  },
  "66.py": {
    "successful": false,
    "error_type": "IndexError",
    "error_message": "list index out of range"
  },
  "67.py": {
    "successful": false,
    "error_type": "AssertionError"
  },
  "79.py": {
    "successful": false,
    "error_type": "AssertionError"
  },
  "80.py": {
    "successful": false,
    "error_type": "IndexError",
    "error_message": "pop from empty list"
  },
  "81.py": {
    "successful": false,
    "error_type": "TypeError",
    "error_message": "descriptor 'index' for 'list' objects doesn't apply to a 'int' object"
  },
  "84.py": {
    "successful": false,
    "error_type": "AssertionError"
  },
  "92.py": {
    "successful": false,
    "error_type": "AssertionError"
  },
  "97.py": {
    "successful": false,
    "error_type": "TypeError",
    "error_message": "unsupported operand type(s) for +"
  },
  "101.py": {
    "successful": true
  },
  "103.py": {
    "successful": false,
    "error_type": "AssertionError"
  },
  "105.py": {
    "successful": false,
    "error_type": "AssertionError"
  },
  "107.py": {
    "successful": false,
    "error_type": "NameError",
    "error_message": "name 'njit' is not defined"
  },
  "115.py": {
    "successful": false,
    "error_type": "TypeError",
    "error_message": "'list' object is not an iterator"
  },
  "120.py": {
    "successful": false,
    "error_type": "IndexError",
    "error_message": "pop from empty list"
  },
  "127.py": {
    "successful": true
  },
  "137.py": {
    "successful": false,
    "error_type": "AssertionError"
  },
  "140.py": {
    "successful": true
  },
  "142.py": {
    "successful": false,
    "error_type": "NameError",
    "error_message": "name 'pytest' is not defined. Did you mean"
  },
  "144.py": {
    "successful": false,
    "error_type": "AssertionError"
  },
  "148.py": {
    "successful": false,
    "error_type": "IndexError",
    "error_message": "list index out of range"
  },
  "149.py": {
    "successful": false,
    "error_type": "AssertionError"
  },
  "150.py": {
    "successful": true
  },
  "151.py": {
    "successful": false,
    "error_type": "AssertionError"
  },
  "156.py": {
    "successful": false,
    "error_type": "AssertionError"
  },
  "157.py": {
    "successful": false,
    "error_type": "NameError",
    "error_message": "name 'pytest' is not defined. Did you mean"
  },
  "158.py": {
    "successful": false,
    "error_type": "IndexError",
    "error_message": "list index out of range"
  },
  "165.py": {
    "successful": true
  },
  "171.py": {
    "successful": false,
    "error_type": "AssertionError"
  },
  "183.py": {
    "successful": false,
    "error_type": "AssertionError"
  },
  "186.py": {
    "successful": true
  },
  "190.py": {
    "successful": true
  },
  "191.py": {
    "successful": true
  },
  "192.py": {
    "successful": true
  },
  "195.py": {
    "successful": false,
    "error_type": "AssertionError"
  },
  "199.py": {
    "successful": true
  }
}