{
  "test_complete": true,
  "3.py": {
    "successful": true
  },
  "7.py": {
    "successful": true
  },
  "22.py": {
    "successful": true
  },
  "48.py": {
    "successful": false,
    "error_type": "AssertionError"
  },
  "63.py": {
    "successful": true
  },
  "73.py": {
    "successful": true
  },
  "75.py": {
    "successful": true
  },
  "78.py": {
    "successful": false,
    "error_type": "IndexError",
    "error_message": "list index out of range"
  },
  "90.py": {
    "successful": false,
    "error_type": "AssertionError"
  },
  "94.py": {
    "successful": true
  },
  "100.py": {
    "successful": false,
    "error_type": "SyntaxError",
    "error_message": "invalid syntax"
  },
  "116.py": {
    "successful": true
  },
  "120.py": {
    "successful": false,
    "error_type": "AssertionError"
  },
  "121.py": {
    "successful": true
  },
  "124.py": {
    "successful": false,
    "error_type": "AssertionError"
  },
  "129.py": {
    "successful": false,
    "error_type": "AssertionError"
  },
  "140.py": {
    "successful": true
  },
  "141.py": {
    "successful": true
  },
  "142.py": {
    "successful": false,
    "error_type": "IndexError",
    "error_message": "list index out of range"
  },
  "167.py": {
    "successful": false,
    "error_type": "NameError",
    "error_message": "name 'itemgetter' is not defined"
  },
  "168.py": {
    "successful": true
  },
  "171.py": {
    "successful": true
  },
  "176.py": {
    "successful": false,
    "error_type": "IndexError",
    "error_message": "list index out of range"
  },
  "185.py": {
    "successful": true
  }
}