{
  "test_complete": true,
  "4.py": {
    "successful": false,
    "error_type": "AssertionError"
  },
  "11.py": {
    "successful": false,
    "error_type": "AssertionError"
  },
  "12.py": {
    "successful": false,
    "error_type": "AssertionError"
  },
  "14.py": {
    "successful": true
  },
  "18.py": {
    "successful": false,
    "error_type": "TypeError",
    "error_message": "is_palindrome() takes 1 positional argument but 2 were given"
  },
  "25.py": {
    "successful": false,
    "error_type": "NameError",
    "error_message": "name 'palindrome_compress' is not defined"
  },
  "30.py": {
    "successful": false,
    "error_type": "SyntaxError",
    "error_message": "invalid syntax"
  },
  "36.py": {
    "successful": false,
    "error_type": "AssertionError"
  },
  "37.py": {
    "successful": true
  },
  "46.py": {
    "successful": false,
    "error_type": "AssertionError"
  },
  "50.py": {
    "successful": true
  },
  "53.py": {
    "successful": false,
    "error_type": "AssertionError"
  },
  "57.py": {
    "successful": false,
    "error_type": "AssertionError"
  },
  "58.py": {
    "successful": false,
    "error_type": "IndentationError",
    "error_message": "expected an indented block after function definition on line 1"
  },
  "70.py": {
    "successful": true
  },
  "72.py": {
    "successful": false,
    "error_type": "AssertionError"
  },
  "75.py": {
    "successful": true
  },
  "78.py": {
    "successful": false,
    "error_type": "NameError",
    "error_message": "name 're' is not defined"
  },
  "82.py": {
    "successful": true
  },
  "85.py": {
    "successful": true
  },
  "91.py": {
    "successful": true
  },
  "97.py": {
    "successful": true
  },
  "110.py": {
    "successful": true
  },
  "116.py": {
    "successful": true
  },
  "119.py": {
    "successful": false,
    "error_type": "IndentationError",
    "error_message": "expected an indented block after function definition on line 1"
  },
  "124.py": {
    "successful": false,
    "error_type": "NameError",
    "error_message": "name 'reverse_string' is not defined"
  },
  "130.py": {
    "successful": false,
    "error_type": "NameError",
    "error_message": "name 're' is not defined"
  },
  "134.py": {
    "successful": false,
    "error_type": "NameError",
    "error_message": "name 're' is not defined"
  },
  "138.py": {
    "successful": true
  },
  "143.py": {
    "successful": true
  },
  "146.py": {
    "successful": true
  },
  "149.py": {
    "successful": false,
    "error_type": "NameError",
    "error_message": "name 're' is not defined"
  },
  "153.py": {
    "successful": true
  },
  "155.py": {
    "successful": false,
    "error_type": "AttributeError",
    "error_message": "'str' object has no attribute 'copy'"
  },
  "159.py": {
    "successful": false,
    "error_type": "AssertionError"
  },
  "166.py": {
    "successful": false,
    "error_type": "AssertionError"
  },
  "167.py": {
    "successful": false,
    "error_type": "NameError",
    "error_message": "name 're' is not defined"
  },
  "168.py": {
    "successful": false,
    "error_type": "NameError",
    "error_message": "name 're' is not defined"
  },
  "170.py": {
    "successful": false,
    "error_type": "AssertionError"
  },
  "181.py": {
    "successful": true
  },
  "184.py": {
    "successful": false,
    "error_type": "NameError",
    "error_message": "name 'palindrome' is not defined. Did you mean"
  },
  "195.py": {
    "successful": false,
    "error_type": "AssertionError"
  }
}