{
  "test_complete": true,
  "35.py": {
    "successful": false,
    "error_type": "AssertionError"
  },
  "39.py": {
    "successful": true
  },
  "87.py": {
    "successful": true
  },
  "198.py": {
    "successful": false,
    "error_type": "AssertionError"
  }
}