{
  "test_complete": true,
  "0.py": {
    "successful": true
  },
  "5.py": {
    "successful": false,
    "error_type": "NameError",
    "error_message": "name 'statistics' is not defined"
  },
  "6.py": {
    "successful": true
  },
  "7.py": {
    "successful": false,
    "error_type": "TypeError",
    "error_message": "unsupported operand type(s) for -"
  },
  "8.py": {
    "successful": true
  },
  "9.py": {
    "successful": true
  },
  "11.py": {
    "successful": true
  },
  "17.py": {
    "successful": false,
    "error_type": "TypeError",
    "error_message": "unsupported operand type(s) for -"
  },
  "22.py": {
    "successful": true
  },
  "28.py": {
    "successful": true
  },
  "29.py": {
    "successful": false,
    "error_type": "NotImplementedError",
    "error_message": "TODO Implement me"
  },
  "35.py": {
    "successful": true
  },
  "38.py": {
    "successful": true
  },
  "39.py": {
    "successful": true
  },
  "41.py": {
    "successful": true
  },
  "42.py": {
    "successful": true
  },
  "44.py": {
    "successful": true
  },
  "46.py": {
    "successful": false,
    "error_type": "NameError",
    "error_message": "name 'statistics' is not defined"
  },
  "47.py": {
    "successful": true
  },
  "50.py": {
    "successful": false,
    "error_type": "NameError",
    "error_message": "name 'mean' is not defined"
  },
  "53.py": {
    "successful": false,
    "error_type": "NameError",
    "error_message": "name 'statistics' is not defined"
  },
  "55.py": {
    "successful": true
  },
  "56.py": {
    "successful": true
  },
  "60.py": {
    "successful": false,
    "error_type": "AssertionError"
  },
  "64.py": {
    "successful": false,
    "error_type": "NotImplementedError"
  },
  "70.py": {
    "successful": true
  },
  "73.py": {
    "successful": true
  },
  "74.py": {
    "successful": true
  },
  "78.py": {
    "successful": true
  },
  "80.py": {
    "successful": true
  },
  "82.py": {
    "successful": false,
    "error_type": "NameError",
    "error_message": "name 'statistics' is not defined"
  },
  "84.py": {
    "successful": false,
    "error_type": "NameError",
    "error_message": "name 'mean' is not defined"
  },
  "85.py": {
    "successful": true
  },
  "89.py": {
    "successful": true
  },
  "90.py": {
    "successful": false,
    "error_type": "NotImplementedError"
  },
  "92.py": {
    "successful": true
  },
  "95.py": {
    "successful": false,
    "error_type": "NameError",
    "error_message": "name 'statistics' is not defined"
  },
  "96.py": {
    "successful": false,
    "error_type": "TypeError",
    "error_message": "unsupported operand type(s) for -"
  },
  "99.py": {
    "successful": true
  },
  "102.py": {
    "successful": true
  },
  "108.py": {
    "successful": true
  },
  "114.py": {
    "successful": true
  },
  "118.py": {
    "successful": true
  },
  "120.py": {
    "successful": false,
    "error_type": "NameError",
    "error_message": "name 'mean' is not defined"
  },
  "124.py": {
    "successful": true
  },
  "131.py": {
    "successful": true
  },
  "132.py": {
    "successful": false,
    "error_type": "NameError",
    "error_message": "name 'statistics' is not defined"
  },
  "133.py": {
    "successful": false,
    "error_type": "NameError",
    "error_message": "name 'statistics' is not defined"
  },
  "144.py": {
    "successful": false,
    "error_type": "TypeError",
    "error_message": "unsupported operand type(s) for -"
  },
  "146.py": {
    "successful": true
  },
  "149.py": {
    "successful": true
  },
  "152.py": {
    "successful": false,
    "error_type": "AssertionError"
  },
  "157.py": {
    "successful": true
  },
  "160.py": {
    "successful": true
  },
  "165.py": {
    "successful": true
  },
  "166.py": {
    "successful": true
  },
  "168.py": {
    "successful": false,
    "error_type": "AssertionError"
  },
  "169.py": {
    "successful": false,
    "error_type": "NameError",
    "error_message": "name 'mean_value' is not defined"
  },
  "171.py": {
    "successful": false,
    "error_type": "NameError",
    "error_message": "name 'mean' is not defined"
  },
  "172.py": {
    "successful": true
  },
  "173.py": {
    "successful": true
  },
  "176.py": {
    "successful": true
  },
  "179.py": {
    "successful": false,
    "error_type": "NameError",
    "error_message": "name 'statistics' is not defined"
  },
  "183.py": {
    "successful": false,
    "error_type": "NameError",
    "error_message": "name 'statistics' is not defined"
  },
  "185.py": {
    "successful": false,
    "error_type": "NameError",
    "error_message": "name 'mean' is not defined"
  },
  "186.py": {
    "successful": false,
    "error_type": "TypeError",
    "error_message": "unsupported operand type(s) for -"
  },
  "187.py": {
    "successful": true
  },
  "189.py": {
    "successful": true
  },
  "191.py": {
    "successful": false,
    "error_type": "NameError",
    "error_message": "name 'mean' is not defined"
  },
  "196.py": {
    "successful": true
  },
  "198.py": {
    "successful": true
  }
}