{
  "test_complete": true,
  "3.py": {
    "successful": false,
    "error_type": "AssertionError"
  },
  "8.py": {
    "successful": true
  },
  "11.py": {
    "successful": false,
    "error_type": "NameError",
    "error_message": "name 'palindrome' is not defined"
  },
  "14.py": {
    "successful": false,
    "error_type": "NameError",
    "error_message": "name 'is_palindrome' is not defined"
  },
  "16.py": {
    "successful": true
  },
  "18.py": {
    "successful": false,
    "error_type": "AssertionError"
  },
  "19.py": {
    "successful": false,
    "error_type": "AssertionError"
  },
  "20.py": {
    "successful": true
  },
  "22.py": {
    "successful": true
  },
  "24.py": {
    "successful": true
  },
  "27.py": {
    "successful": false,
    "error_type": "NameError",
    "error_message": "name 'is_palindrome' is not defined"
  },
  "29.py": {
    "successful": true
  },
  "31.py": {
    "successful": false,
    "error_type": "AssertionError"
  },
  "33.py": {
    "successful": false,
    "error_type": "NameError",
    "error_message": "name 'is_palindrome' is not defined"
  },
  "38.py": {
    "successful": false,
    "error_type": "SyntaxError",
    "error_message": "invalid syntax"
  },
  "51.py": {
    "successful": false,
    "error_type": "AssertionError"
  },
  "52.py": {
    "successful": false,
    "error_type": "NameError",
    "error_message": "name 'is_palindrome' is not defined"
  },
  "57.py": {
    "successful": true
  },
  "58.py": {
    "successful": false,
    "error_type": "AssertionError"
  },
  "61.py": {
    "successful": true
  },
  "63.py": {
    "successful": false,
    "error_type": "AssertionError"
  },
  "64.py": {
    "successful": true
  },
  "66.py": {
    "successful": true
  },
  "68.py": {
    "successful": true
  },
  "69.py": {
    "successful": true
  },
  "76.py": {
    "successful": false,
    "error_type": "AssertionError"
  },
  "77.py": {
    "successful": true
  },
  "80.py": {
    "successful": true
  },
  "86.py": {
    "successful": false,
    "error_type": "AssertionError"
  },
  "87.py": {
    "successful": false,
    "error_type": "AssertionError"
  },
  "91.py": {
    "successful": true
  },
  "92.py": {
    "successful": false,
    "error_type": "NameError",
    "error_message": "name 'is_palindromic' is not defined"
  },
  "94.py": {
    "successful": false,
    "error_type": "NameError",
    "error_message": "name 'is_palindromic' is not defined"
  },
  "98.py": {
    "successful": true
  },
  "100.py": {
    "successful": true
  },
  "101.py": {
    "successful": false,
    "error_type": "NameError",
    "error_message": "name 'is_palindrome' is not defined"
  },
  "102.py": {
    "successful": false,
    "error_type": "AssertionError"
  },
  "103.py": {
    "successful": false,
    "error_type": "NameError",
    "error_message": "name 'is_palindromic' is not defined"
  },
  "105.py": {
    "successful": false,
    "error_type": "AssertionError"
  },
  "106.py": {
    "successful": true
  },
  "110.py": {
    "successful": false,
    "error_type": "NameError",
    "error_message": "name 'is_palindrome' is not defined"
  },
  "114.py": {
    "successful": false,
    "error_type": "AssertionError"
  },
  "115.py": {
    "successful": true
  },
  "116.py": {
    "successful": true
  },
  "117.py": {
    "successful": false,
    "error_type": "AssertionError"
  },
  "122.py": {
    "successful": false,
    "error_type": "NameError",
    "error_message": "name 'is_palindrome' is not defined"
  },
  "123.py": {
    "successful": false,
    "error_type": "AssertionError"
  },
  "126.py": {
    "successful": false,
    "error_type": "AssertionError"
  },
  "127.py": {
    "successful": false,
    "error_type": "AssertionError"
  },
  "130.py": {
    "successful": false,
    "error_type": "NameError",
    "error_message": "name 'is_palindrome' is not defined"
  },
  "134.py": {
    "successful": true
  },
  "139.py": {
    "successful": true
  },
  "141.py": {
    "successful": false,
    "error_type": "NameError",
    "error_message": "name 'is_balanced' is not defined"
  },
  "142.py": {
    "successful": false,
    "error_type": "NameError",
    "error_message": "name 'is_palindrome' is not defined"
  },
  "146.py": {
    "successful": false,
    "error_type": "NameError",
    "error_message": "name 'is_palindrome' is not defined"
  },
  "149.py": {
    "successful": false,
    "error_type": "AssertionError"
  },
  "150.py": {
    "successful": false,
    "error_type": "AssertionError"
  },
  "153.py": {
    "successful": true
  },
  "157.py": {
    "successful": true
  },
  "160.py": {
    "successful": true
  },
  "163.py": {
    "successful": true
  },
  "166.py": {
    "successful": false,
    "error_type": "AssertionError"
  },
  "167.py": {
    "successful": false,
    "error_type": "AssertionError"
  },
  "170.py": {
    "successful": true
  },
  "173.py": {
    "successful": false,
    "error_type": "AssertionError"
  },
  "175.py": {
    "successful": false,
    "error_type": "AssertionError"
  },
  "177.py": {
    "successful": false,
    "error_type": "NameError",
    "error_message": "name 'is_palindrome' is not defined"
  },
  "180.py": {
    "successful": true
  },
  "188.py": {
    "successful": false,
    "error_type": "AssertionError"
  },
  "191.py": {
    "successful": false,
    "error_type": "AssertionError"
  },
  "192.py": {
    "successful": false,
    "error_type": "AssertionError"
  },
  "196.py": {
    "successful": true
  }
}