{
  "test_complete": true,
  "1.py": {
    "successful": true
  },
  "3.py": {
    "successful": false,
    "error_type": "AssertionError"
  },
  "21.py": {
    "successful": true
  },
  "32.py": {
    "successful": true
  },
  "33.py": {
    "successful": true
  },
  "44.py": {
    "successful": true
  },
  "61.py": {
    "successful": true
  },
  "65.py": {
    "successful": true
  },
  "69.py": {
    "successful": true
  },
  "79.py": {
    "successful": true
  },
  "90.py": {
    "successful": true
  },
  "137.py": {
    "successful": true
  },
  "138.py": {
    "successful": true
  },
  "142.py": {
    "successful": true
  },
  "149.py": {
    "successful": true
  },
  "157.py": {
    "successful": true
  },
  "170.py": {
    "successful": false,
    "error_type": "IndentationError",
    "error_message": "expected an indented block after function definition on line 1"
  }
}