{
  "test_complete": true,
  "0.py": {
    "successful": false,
    "error_type": "AssertionError"
  },
  "1.py": {
    "successful": false,
    "error_type": "NameError",
    "error_message": "name 'Strongest_Extension_Name' is not defined. Did you mean"
  },
  "2.py": {
    "successful": false,
    "error_type": "AttributeError",
    "error_message": "'list' object has no attribute 'split'"
  },
  "3.py": {
    "successful": false,
    "error_type": "IndexError",
    "error_message": "list index out of range"
  },
  "4.py": {
    "successful": false,
    "error_type": "AssertionError"
  },
  "5.py": {
    "successful": false,
    "error_type": "AssertionError"
  },
  "6.py": {
    "successful": false,
    "error_type": "AssertionError"
  },
  "7.py": {
    "successful": false,
    "error_type": "AssertionError"
  },
  "8.py": {
    "successful": false,
    "error_type": "NameError",
    "error_message": "name 'extension_dict' is not defined. Did you mean"
  },
  "9.py": {
    "successful": false,
    "error_type": "Exception",
    "error_message": "Strongest_Extension called with invalid class_name"
  },
  "10.py": {
    "successful": false,
    "error_type": "AssertionError"
  },
  "11.py": {
    "successful": false,
    "error_type": "AssertionError"
  },
  "12.py": {
    "successful": false,
    "error_type": "AttributeError",
    "error_message": "'list' object has no attribute 'split'"
  },
  "13.py": {
    "successful": false,
    "error_type": "AttributeError",
    "error_message": "'list' object has no attribute 'split'"
  },
  "14.py": {
    "successful": false,
    "error_type": "Exception",
    "error_message": "The extension 'tEN' is not recognized"
  },
  "15.py": {
    "successful": false,
    "error_type": "ValueError",
    "error_message": "Please provide a strongest extension."
  },
  "16.py": {
    "successful": false,
    "error_type": "NameError",
    "error_message": "name 'class_name_to_strongest_extension' is not defined"
  },
  "17.py": {
    "successful": false,
    "error_type": "NameError",
    "error_message": "name 'unicode' is not defined"
  },
  "18.py": {
    "successful": false,
    "error_type": "AssertionError"
  },
  "19.py": {
    "successful": false,
    "error_type": "AttributeError",
    "error_message": "'list' object has no attribute 'split'"
  },
  "20.py": {
    "successful": false,
    "error_type": "IndexError",
    "error_message": "list index out of range"
  },
  "21.py": {
    "successful": false,
    "error_type": "NameError",
    "error_message": "name 'Strongest_Extension_Strength' is not defined"
  },
  "22.py": {
    "successful": false,
    "error_type": "ValueError",
    "error_message": "extension 'niNE' not found in class_name"
  },
  "23.py": {
    "successful": false,
    "error_type": "ValueError",
    "error_message": "not enough values to unpack (expected 2, got 1)"
  },
  "24.py": {
    "successful": false,
    "error_type": "ValueError",
    "error_message": "Too many extensions"
  },
  "25.py": {
    "successful": false,
    "error_type": "AssertionError"
  },
  "26.py": {
    "successful": false,
    "error_type": "AssertionError"
  },
  "27.py": {
    "successful": false,
    "error_type": "AssertionError"
  },
  "28.py": {
    "successful": false,
    "error_type": "AssertionError"
  },
  "29.py": {
    "successful": false,
    "error_type": "AssertionError"
  },
  "30.py": {
    "successful": false,
    "error_type": "AssertionError"
  },
  "31.py": {
    "successful": false,
    "error_type": "SyntaxError",
    "error_message": "invalid syntax"
  },
  "32.py": {
    "successful": false,
    "error_type": "AssertionError"
  },
  "33.py": {
    "successful": false,
    "error_type": "AssertionError"
  },
  "34.py": {
    "successful": false,
    "error_type": "RecursionError",
    "error_message": "maximum recursion depth exceeded"
  },
  "35.py": {
    "successful": false,
    "error_type": "AssertionError"
  },
  "36.py": {
    "successful": false,
    "error_type": "NameError",
    "error_message": "name 'Strongest_Extension_Name' is not defined. Did you mean"
  },
  "37.py": {
    "successful": false,
    "error_type": "AttributeError",
    "error_message": "'list' object has no attribute 'split'"
  },
  "38.py": {
    "successful": false,
    "error_type": "AssertionError"
  },
  "39.py": {
    "successful": false,
    "error_type": "AttributeError",
    "error_message": "'list' object has no attribute 'split'"
  },
  "40.py": {
    "successful": false,
    "error_type": "AttributeError",
    "error_message": "'list' object has no attribute 'strip'"
  },
  "41.py": {
    "successful": false,
    "error_type": "AttributeError",
    "error_message": "'str' object has no attribute 'strength'"
  },
  "42.py": {
    "successful": false,
    "error_type": "NameError",
    "error_message": "name 'Strongest_Extension_Strongest' is not defined"
  },
  "43.py": {
    "successful": false,
    "error_type": "ValueError",
    "error_message": "invalid literal for int() with base 10"
  },
  "44.py": {
    "successful": false,
    "error_type": "AssertionError"
  },
  "45.py": {
    "successful": false,
    "error_type": "TypeError",
    "error_message": "can only concatenate str (not \"list\") to str"
  },
  "46.py": {
    "successful": false,
    "error_type": "AssertionError"
  },
  "47.py": {
    "successful": false,
    "error_type": "IndexError",
    "error_message": "list index out of range"
  },
  "48.py": {
    "successful": false,
    "error_type": "SyntaxError",
    "error_message": "'(' was never closed"
  },
  "49.py": {
    "successful": false,
    "error_type": "AssertionError"
  },
  "50.py": {
    "successful": false,
    "error_type": "ValueError",
    "error_message": "Class name not in extensions"
  },
  "51.py": {
    "successful": false,
    "error_type": "AttributeError",
    "error_message": "'list' object has no attribute 'split'"
  },
  "52.py": {
    "successful": false,
    "error_type": "AttributeError",
    "error_message": "'list' object has no attribute 'split'"
  },
  "53.py": {
    "successful": false,
    "error_type": "AssertionError"
  },
  "54.py": {
    "successful": false,
    "error_type": "AttributeError",
    "error_message": "'list' object has no attribute 'lower'"
  },
  "55.py": {
    "successful": false,
    "error_type": "AttributeError",
    "error_message": "'list' object has no attribute 'split'"
  },
  "56.py": {
    "successful": false,
    "error_type": "NameError",
    "error_message": "name 'classes' is not defined"
  },
  "57.py": {
    "successful": false,
    "error_type": "AssertionError"
  },
  "58.py": {
    "successful": false,
    "error_type": "AssertionError"
  },
  "59.py": {
    "successful": false,
    "error_type": "SyntaxError",
    "error_message": "unmatched ']'"
  },
  "60.py": {
    "successful": false,
    "error_type": "TypeError",
    "error_message": "unsupported operand type(s) for -"
  },
  "61.py": {
    "successful": false,
    "error_type": "AttributeError",
    "error_message": "'list' object has no attribute 'split'"
  },
  "62.py": {
    "successful": false,
    "error_type": "IndentationError",
    "error_message": "expected an indented block after function definition on line 1"
  },
  "63.py": {
    "successful": false,
    "error_type": "NameError",
    "error_message": "name '_Strongest_Extension' is not defined. Did you mean"
  },
  "64.py": {
    "successful": false,
    "error_type": "AssertionError"
  },
  "65.py": {
    "successful": false,
    "error_type": "AttributeError",
    "error_message": "'list' object has no attribute 'lower'"
  },
  "66.py": {
    "successful": false,
    "error_type": "AssertionError"
  },
  "67.py": {
    "successful": false,
    "error_type": "AssertionError"
  },
  "68.py": {
    "successful": false,
    "error_type": "NameError",
    "error_message": "name 'extension_by_name' is not defined"
  },
  "69.py": {
    "successful": false,
    "error_type": "AttributeError",
    "error_message": "'list' object has no attribute 'split'"
  },
  "70.py": {
    "successful": false,
    "error_type": "AssertionError"
  },
  "71.py": {
    "successful": false,
    "error_type": "AssertionError"
  },
  "72.py": {
    "successful": false,
    "error_type": "AssertionError"
  },
  "73.py": {
    "successful": false,
    "error_type": "AssertionError"
  },
  "74.py": {
    "successful": false,
    "error_type": "RecursionError",
    "error_message": "maximum recursion depth exceeded"
  },
  "75.py": {
    "successful": false,
    "error_type": "AssertionError"
  },
  "76.py": {
    "successful": false,
    "error_type": "ValueError",
    "error_message": "extensions must be a list of strings"
  },
  "77.py": {
    "successful": false,
    "error_type": "AttributeError",
    "error_message": "'list' object has no attribute 'lower'"
  },
  "78.py": {
    "successful": false,
    "error_type": "ValueError",
    "error_message": "No extension with the specified name."
  },
  "79.py": {
    "successful": false,
    "error_type": "AssertionError"
  },
  "80.py": {
    "successful": false,
    "error_type": "AttributeError",
    "error_message": "'list' object has no attribute 'lower'"
  },
  "81.py": {
    "successful": false,
    "error_type": "ValueError",
    "error_message": "More than one extension given"
  },
  "82.py": {
    "successful": false,
    "error_type": "AttributeError",
    "error_message": "'list' object has no attribute 'split'"
  },
  "83.py": {
    "successful": false,
    "error_type": "AssertionError"
  },
  "84.py": {
    "successful": false,
    "error_type": "RecursionError",
    "error_message": "maximum recursion depth exceeded while calling a Python object"
  },
  "85.py": {
    "successful": false,
    "error_type": "AssertionError"
  },
  "86.py": {
    "successful": false,
    "error_type": "AssertionError"
  },
  "87.py": {
    "successful": false,
    "error_type": "IndexError",
    "error_message": "list index out of range"
  },
  "88.py": {
    "successful": false,
    "error_type": "NameError",
    "error_message": "name 'class_name_to_extension_map' is not defined"
  },
  "89.py": {
    "successful": false,
    "error_type": "AttributeError",
    "error_message": "'list' object has no attribute 'split'"
  },
  "90.py": {
    "successful": false,
    "error_type": "AssertionError"
  },
  "91.py": {
    "successful": false,
    "error_type": "AssertionError"
  },
  "92.py": {
    "successful": false,
    "error_type": "TypeError",
    "error_message": "list indices must be integers or slices, not str"
  },
  "93.py": {
    "successful": false,
    "error_type": "AssertionError"
  },
  "94.py": {
    "successful": false,
    "error_type": "AttributeError",
    "error_message": "'list' object has no attribute 'strip'"
  },
  "95.py": {
    "successful": false,
    "error_type": "RecursionError",
    "error_message": "maximum recursion depth exceeded while calling a Python object"
  },
  "96.py": {
    "successful": false,
    "error_type": "IndexError",
    "error_message": "list index out of range"
  },
  "97.py": {
    "successful": false,
    "error_type": "ValueError",
    "error_message": "not enough values to unpack (expected 2, got 1)"
  },
  "98.py": {
    "successful": false,
    "error_type": "AssertionError"
  },
  "99.py": {
    "successful": false,
    "error_type": "ValueError",
    "error_message": "too many values to unpack (expected 2)"
  },
  "100.py": {
    "successful": false,
    "error_type": "AssertionError"
  },
  "101.py": {
    "successful": false,
    "error_type": "AssertionError"
  },
  "102.py": {
    "successful": false,
    "error_type": "TypeError",
    "error_message": "You need to provide at most one extension."
  },
  "103.py": {
    "successful": false,
    "error_type": "AttributeError",
    "error_message": "'list' object has no attribute 'get'"
  },
  "104.py": {
    "successful": false,
    "error_type": "AssertionError"
  },
  "105.py": {
    "successful": false,
    "error_type": "AssertionError"
  },
  "106.py": {
    "successful": false,
    "error_type": "AssertionError"
  },
  "107.py": {
    "successful": false,
    "error_type": "AssertionError"
  },
  "108.py": {
    "successful": false,
    "error_type": "IndexError",
    "error_message": "list index out of range"
  },
  "109.py": {
    "successful": false,
    "error_type": "AssertionError"
  },
  "110.py": {
    "successful": false,
    "error_type": "SyntaxError",
    "error_message": "invalid syntax"
  },
  "111.py": {
    "successful": false,
    "error_type": "AttributeError",
    "error_message": "'list' object has no attribute 'split'"
  },
  "112.py": {
    "successful": false,
    "error_type": "AssertionError"
  },
  "113.py": {
    "successful": false,
    "error_type": "AssertionError"
  },
  "114.py": {
    "successful": false,
    "error_type": "RecursionError",
    "error_message": "maximum recursion depth exceeded while calling a Python object"
  },
  "115.py": {
    "successful": false,
    "error_type": "TypeError",
    "error_message": "issubclass() arg 1 must be a class"
  },
  "116.py": {
    "successful": false,
    "error_type": "AssertionError"
  },
  "117.py": {
    "successful": false,
    "error_type": "ValueError",
    "error_message": "There can be only one extension in the list"
  },
  "118.py": {
    "successful": false,
    "error_type": "AssertionError"
  },
  "119.py": {
    "successful": false,
    "error_type": "IndexError",
    "error_message": "string index out of range"
  },
  "120.py": {
    "successful": false,
    "error_type": "AttributeError",
    "error_message": "'list' object has no attribute 'strip'"
  },
  "121.py": {
    "successful": false,
    "error_type": "ValueError",
    "error_message": "Extension not found"
  },
  "122.py": {
    "successful": false,
    "error_type": "AttributeError",
    "error_message": "'list' object has no attribute 'upper'"
  },
  "123.py": {
    "successful": false,
    "error_type": "AttributeError",
    "error_message": "'list' object has no attribute 'split'"
  },
  "124.py": {
    "successful": false,
    "error_type": "NameError",
    "error_message": "name 'isupper' is not defined. Did you mean"
  },
  "125.py": {
    "successful": false,
    "error_type": "AssertionError"
  },
  "126.py": {
    "successful": false,
    "error_type": "RecursionError",
    "error_message": "maximum recursion depth exceeded"
  },
  "127.py": {
    "successful": false,
    "error_type": "AssertionError"
  },
  "128.py": {
    "successful": false,
    "error_type": "Exception",
    "error_message": "no strongest extension found for class 'Watashi'"
  },
  "129.py": {
    "successful": false,
    "error_type": "AssertionError"
  },
  "130.py": {
    "successful": false,
    "error_type": "AssertionError"
  },
  "131.py": {
    "successful": false,
    "error_type": "AttributeError",
    "error_message": "'list' object has no attribute 'split'"
  },
  "132.py": {
    "successful": false,
    "error_type": "AssertionError"
  },
  "133.py": {
    "successful": false,
    "error_type": "AssertionError"
  },
  "134.py": {
    "successful": false,
    "error_type": "AssertionError"
  },
  "135.py": {
    "successful": false,
    "error_type": "IndentationError",
    "error_message": "expected an indented block after 'if' statement on line 18"
  },
  "136.py": {
    "successful": false,
    "error_type": "SyntaxError",
    "error_message": "closing parenthesis ']' does not match opening parenthesis '('"
  },
  "137.py": {
    "successful": false,
    "error_type": "IndentationError",
    "error_message": "expected an indented block after function definition on line 1"
  },
  "138.py": {
    "successful": false,
    "error_type": "AttributeError",
    "error_message": "'list' object has no attribute 'split'"
  },
  "139.py": {
    "successful": false,
    "error_type": "AssertionError"
  },
  "140.py": {
    "successful": false,
    "error_type": "TypeError",
    "error_message": "can only concatenate str (not \"int\") to str"
  },
  "141.py": {
    "successful": false,
    "error_type": "AttributeError",
    "error_message": "'list' object has no attribute 'split'"
  },
  "142.py": {
    "successful": false,
    "error_type": "AttributeError",
    "error_message": "'list' object has no attribute 'get'"
  },
  "143.py": {
    "successful": false,
    "error_type": "SyntaxError",
    "error_message": "unterminated string literal (detected at line 30)"
  },
  "144.py": {
    "successful": false,
    "error_type": "IndexError",
    "error_message": "list index out of range"
  },
  "145.py": {
    "successful": false,
    "error_type": "KeyError",
    "error_message": "'Watashi'"
  },
  "146.py": {
    "successful": false,
    "error_type": "AssertionError"
  },
  "147.py": {
    "successful": false,
    "error_type": "AttributeError",
    "error_message": "'list' object has no attribute 'split'"
  },
  "148.py": {
    "successful": false,
    "error_type": "AttributeError",
    "error_message": "'list' object has no attribute 'lower'"
  },
  "149.py": {
    "successful": false,
    "error_type": "AssertionError"
  },
  "150.py": {
    "successful": false,
    "error_type": "AssertionError"
  },
  "151.py": {
    "successful": false,
    "error_type": "SyntaxError",
    "error_message": "unterminated string literal (detected at line 28)"
  },
  "152.py": {
    "successful": false,
    "error_type": "SyntaxError",
    "error_message": "'{' was never closed"
  },
  "153.py": {
    "successful": false,
    "error_type": "AttributeError",
    "error_message": "'list' object has no attribute 'split'"
  },
  "154.py": {
    "successful": false,
    "error_type": "TypeError",
    "error_message": "can only concatenate str (not \"int\") to str"
  },
  "155.py": {
    "successful": false,
    "error_type": "AssertionError"
  },
  "156.py": {
    "successful": false,
    "error_type": "ValueError",
    "error_message": "The extensions is not a list."
  },
  "157.py": {
    "successful": false,
    "error_type": "AssertionError"
  },
  "158.py": {
    "successful": false,
    "error_type": "ValueError",
    "error_message": "There are more than two extensions with the same strength."
  },
  "159.py": {
    "successful": false,
    "error_type": "AssertionError"
  },
  "160.py": {
    "successful": false,
    "error_type": "ValueError",
    "error_message": "Extension not found"
  },
  "161.py": {
    "successful": false,
    "error_type": "AssertionError"
  },
  "162.py": {
    "successful": false,
    "error_type": "AssertionError"
  },
  "163.py": {
    "successful": false,
    "error_type": "AssertionError"
  },
  "164.py": {
    "successful": false,
    "error_type": "AttributeError",
    "error_message": "'list' object has no attribute 'split'"
  },
  "165.py": {
    "successful": false,
    "error_type": "Exception",
    "error_message": "Strongest_Extension() can only handle up to 2 extensions"
  },
  "166.py": {
    "successful": false,
    "error_type": "AssertionError"
  },
  "167.py": {
    "successful": false,
    "error_type": "AssertionError"
  },
  "168.py": {
    "successful": false,
    "error_type": "NameError",
    "error_message": "name 'strongest' is not defined"
  },
  "169.py": {
    "successful": false,
    "error_type": "AssertionError"
  },
  "170.py": {
    "successful": false,
    "error_type": "AssertionError"
  },
  "171.py": {
    "successful": false,
    "error_type": "AssertionError"
  },
  "172.py": {
    "successful": false,
    "error_type": "AssertionError"
  },
  "173.py": {
    "successful": false,
    "error_type": "AssertionError"
  },
  "174.py": {
    "successful": false,
    "error_type": "AssertionError"
  },
  "175.py": {
    "successful": false,
    "error_type": "AssertionError"
  },
  "176.py": {
    "successful": false,
    "error_type": "AssertionError"
  },
  "177.py": {
    "successful": false,
    "error_type": "ValueError",
    "error_message": "extensions must contain at most one element"
  },
  "178.py": {
    "successful": false,
    "error_type": "AssertionError"
  },
  "179.py": {
    "successful": false,
    "error_type": "AttributeError",
    "error_message": "'list' object has no attribute 'lower'"
  },
  "180.py": {
    "successful": false,
    "error_type": "TypeError",
    "error_message": "'int' object is not subscriptable"
  },
  "181.py": {
    "successful": false,
    "error_type": "AssertionError"
  },
  "182.py": {
    "successful": false,
    "error_type": "TypeError",
    "error_message": "metaclass conflict"
  },
  "183.py": {
    "successful": false,
    "error_type": "AssertionError"
  },
  "184.py": {
    "successful": false,
    "error_type": "AssertionError"
  },
  "185.py": {
    "successful": false,
    "error_type": "AssertionError"
  },
  "186.py": {
    "successful": false,
    "error_type": "AssertionError"
  },
  "187.py": {
    "successful": false,
    "error_type": "IndentationError",
    "error_message": "expected an indented block after 'if' statement on line 35"
  },
  "188.py": {
    "successful": false,
    "error_type": "AttributeError",
    "error_message": "'list' object has no attribute 'split'"
  },
  "189.py": {
    "successful": false,
    "error_type": "TypeError",
    "error_message": "unsupported operand type(s) for -"
  },
  "190.py": {
    "successful": false,
    "error_type": "AttributeError",
    "error_message": "'list' object has no attribute 'split'"
  },
  "191.py": {
    "successful": false,
    "error_type": "AttributeError",
    "error_message": "'list' object has no attribute 'lower'"
  },
  "192.py": {
    "successful": false,
    "error_type": "ValueError",
    "error_message": "invalid literal for int() with base 10"
  },
  "193.py": {
    "successful": false,
    "error_type": "AssertionError"
  },
  "194.py": {
    "successful": false,
    "error_type": "AssertionError"
  },
  "195.py": {
    "successful": false,
    "error_type": "AssertionError"
  },
  "196.py": {
    "successful": false,
    "error_type": "AssertionError"
  },
  "197.py": {
    "successful": false,
    "error_type": "SyntaxError",
    "error_message": "invalid syntax"
  },
  "198.py": {
    "successful": false,
    "error_type": "IndentationError",
    "error_message": "expected an indented block after 'if' statement on line 33"
  },
  "199.py": {
    "successful": false,
    "error_type": "IndexError",
    "error_message": "list index out of range"
  }
}