{
  "test_complete": true,
  "11.py": {
    "successful": true
  },
  "36.py": {
    "successful": false,
    "error_type": "AssertionError"
  },
  "38.py": {
    "successful": true
  },
  "60.py": {
    "successful": true
  },
  "64.py": {
    "successful": true
  },
  "66.py": {
    "successful": true
  },
  "69.py": {
    "successful": true
  },
  "75.py": {
    "successful": true
  },
  "84.py": {
    "successful": true
  },
  "88.py": {
    "successful": true
  },
  "90.py": {
    "successful": true
  },
  "91.py": {
    "successful": true
  },
  "100.py": {
    "successful": true
  },
  "104.py": {
    "successful": true
  },
  "106.py": {
    "successful": true
  },
  "117.py": {
    "successful": true
  },
  "118.py": {
    "successful": true
  },
  "129.py": {
    "successful": true
  },
  "153.py": {
    "successful": true
  },
  "154.py": {
    "successful": true
  },
  "156.py": {
    "successful": true
  },
  "158.py": {
    "successful": true
  },
  "161.py": {
    "successful": true
  },
  "171.py": {
    "successful": true
  },
  "172.py": {
    "successful": true
  }
}