{
  "test_complete": true,
  "0.py": {
    "successful": true
  },
  "3.py": {
    "successful": true
  },
  "5.py": {
    "successful": false,
    "error_type": "AssertionError"
  },
  "7.py": {
    "successful": false,
    "error_type": "AssertionError"
  },
  "8.py": {
    "successful": true
  },
  "11.py": {
    "successful": false,
    "error_type": "AssertionError"
  },
  "13.py": {
    "successful": false,
    "error_type": "AssertionError"
  },
  "14.py": {
    "successful": true
  },
  "15.py": {
    "successful": true
  },
  "16.py": {
    "successful": true
  },
  "21.py": {
    "successful": false,
    "error_type": "ValueError",
    "error_message": "max() arg is an empty sequence"
  },
  "22.py": {
    "successful": false,
    "error_type": "ValueError",
    "error_message": "max() arg is an empty sequence"
  },
  "23.py": {
    "successful": true
  },
  "25.py": {
    "successful": true
  },
  "26.py": {
    "successful": true
  },
  "32.py": {
    "successful": false,
    "error_type": "IndentationError",
    "error_message": "expected an indented block after function definition on line 1"
  },
  "34.py": {
    "successful": false,
    "error_type": "AssertionError"
  },
  "35.py": {
    "successful": true
  },
  "36.py": {
    "successful": true
  },
  "37.py": {
    "successful": false,
    "error_type": "AssertionError"
  },
  "39.py": {
    "successful": true
  },
  "40.py": {
    "successful": true
  },
  "42.py": {
    "successful": false,
    "error_type": "AssertionError"
  },
  "45.py": {
    "successful": true
  },
  "47.py": {
    "successful": true
  },
  "48.py": {
    "successful": true
  },
  "49.py": {
    "successful": true
  },
  "50.py": {
    "successful": false,
    "error_type": "ValueError",
    "error_message": "max() arg is an empty sequence"
  },
  "56.py": {
    "successful": true
  },
  "57.py": {
    "successful": true
  },
  "61.py": {
    "successful": true
  },
  "63.py": {
    "successful": false,
    "error_type": "AssertionError"
  },
  "65.py": {
    "successful": true
  },
  "67.py": {
    "successful": true
  },
  "68.py": {
    "successful": false,
    "error_type": "AssertionError"
  },
  "72.py": {
    "successful": true
  },
  "73.py": {
    "successful": false,
    "error_type": "AssertionError"
  },
  "75.py": {
    "successful": false,
    "error_type": "AssertionError"
  },
  "79.py": {
    "successful": false,
    "error_type": "AssertionError"
  },
  "82.py": {
    "successful": true
  },
  "83.py": {
    "successful": true
  },
  "84.py": {
    "successful": false,
    "error_type": "AssertionError"
  },
  "88.py": {
    "successful": true
  },
  "89.py": {
    "successful": true
  },
  "93.py": {
    "successful": false,
    "error_type": "IndentationError",
    "error_message": "expected an indented block after function definition on line 1"
  },
  "98.py": {
    "successful": true
  },
  "99.py": {
    "successful": true
  },
  "102.py": {
    "successful": true
  },
  "103.py": {
    "successful": true
  },
  "104.py": {
    "successful": true
  },
  "109.py": {
    "successful": true
  },
  "113.py": {
    "successful": true
  },
  "114.py": {
    "successful": true
  },
  "116.py": {
    "successful": true
  },
  "118.py": {
    "successful": true
  },
  "121.py": {
    "successful": true
  },
  "123.py": {
    "successful": true
  },
  "124.py": {
    "successful": true
  },
  "125.py": {
    "successful": true
  },
  "127.py": {
    "successful": true
  },
  "128.py": {
    "successful": true
  },
  "132.py": {
    "successful": true
  },
  "134.py": {
    "successful": true
  },
  "135.py": {
    "successful": false,
    "error_type": "AssertionError"
  },
  "136.py": {
    "successful": true
  },
  "137.py": {
    "successful": false,
    "error_type": "AssertionError"
  },
  "139.py": {
    "successful": true
  },
  "142.py": {
    "successful": true
  },
  "143.py": {
    "successful": true
  },
  "144.py": {
    "successful": true
  },
  "147.py": {
    "successful": true
  },
  "150.py": {
    "successful": false,
    "error_type": "AssertionError"
  },
  "152.py": {
    "successful": false,
    "error_type": "IndentationError",
    "error_message": "expected an indented block after function definition on line 1"
  },
  "157.py": {
    "successful": true
  },
  "161.py": {
    "successful": true
  },
  "162.py": {
    "successful": true
  },
  "164.py": {
    "successful": true
  },
  "166.py": {
    "successful": true
  },
  "169.py": {
    "successful": true
  },
  "170.py": {
    "successful": true
  },
  "172.py": {
    "successful": false,
    "error_type": "AssertionError"
  },
  "180.py": {
    "successful": false,
    "error_type": "AssertionError"
  },
  "182.py": {
    "successful": false,
    "error_type": "AssertionError"
  },
  "183.py": {
    "successful": true
  },
  "184.py": {
    "successful": true
  },
  "185.py": {
    "successful": true
  },
  "188.py": {
    "successful": true
  },
  "189.py": {
    "successful": true
  },
  "190.py": {
    "successful": true
  },
  "197.py": {
    "successful": false,
    "error_type": "IndentationError",
    "error_message": "expected an indented block after function definition on line 1"
  },
  "198.py": {
    "successful": true
  }
}