{
  "test_complete": true,
  "4.py": {
    "successful": false,
    "error_type": "TypeError",
    "error_message": "type complex doesn't define __round__ method"
  },
  "6.py": {
    "successful": false,
    "error_type": "IndentationError",
    "error_message": "expected an indented block after function definition on line 1"
  },
  "7.py": {
    "successful": false,
    "error_type": "TypeError",
    "error_message": "int() argument must be a string, a bytes-like object or a real number, not 'complex'"
  },
  "8.py": {
    "successful": false,
    "error_type": "ValueError",
    "error_message": "math domain error"
  },
  "11.py": {
    "successful": false,
    "error_type": "TypeError",
    "error_message": "type complex doesn't define __round__ method"
  },
  "20.py": {
    "successful": false,
    "error_type": "TypeError",
    "error_message": "type complex doesn't define __round__ method"
  },
  "22.py": {
    "successful": true
  },
  "25.py": {
    "successful": false,
    "error_type": "TypeError",
    "error_message": "type complex doesn't define __round__ method"
  },
  "29.py": {
    "successful": true
  },
  "30.py": {
    "successful": false,
    "error_type": "TypeError",
    "error_message": "type complex doesn't define __round__ method"
  },
  "33.py": {
    "successful": false,
    "error_type": "TypeError",
    "error_message": "type complex doesn't define __round__ method"
  },
  "34.py": {
    "successful": false,
    "error_type": "TypeError",
    "error_message": "type complex doesn't define __round__ method"
  },
  "37.py": {
    "successful": false,
    "error_type": "IndentationError",
    "error_message": "expected an indented block after function definition on line 1"
  },
  "40.py": {
    "successful": false,
    "error_type": "TypeError",
    "error_message": "type complex doesn't define __round__ method"
  },
  "41.py": {
    "successful": false,
    "error_type": "TypeError",
    "error_message": "type complex doesn't define __round__ method"
  },
  "42.py": {
    "successful": false,
    "error_type": "ValueError",
    "error_message": "math domain error"
  },
  "44.py": {
    "successful": false,
    "error_type": "TypeError",
    "error_message": "type complex doesn't define __round__ method"
  },
  "53.py": {
    "successful": false,
    "error_type": "TypeError",
    "error_message": "type complex doesn't define __round__ method"
  },
  "54.py": {
    "successful": false,
    "error_type": "TypeError",
    "error_message": "type complex doesn't define __round__ method"
  },
  "59.py": {
    "successful": false,
    "error_type": "TypeError",
    "error_message": "type complex doesn't define __round__ method"
  },
  "63.py": {
    "successful": false,
    "error_type": "TypeError",
    "error_message": "type complex doesn't define __round__ method"
  },
  "65.py": {
    "successful": false,
    "error_type": "TypeError",
    "error_message": "type complex doesn't define __round__ method"
  },
  "67.py": {
    "successful": true
  },
  "71.py": {
    "successful": false,
    "error_type": "ValueError",
    "error_message": "math domain error"
  },
  "77.py": {
    "successful": false,
    "error_type": "TypeError",
    "error_message": "type complex doesn't define __round__ method"
  },
  "81.py": {
    "successful": false,
    "error_type": "ValueError",
    "error_message": "math domain error"
  },
  "82.py": {
    "successful": false,
    "error_type": "TypeError",
    "error_message": "type complex doesn't define __round__ method"
  },
  "83.py": {
    "successful": false,
    "error_type": "TypeError",
    "error_message": "type complex doesn't define __round__ method"
  },
  "86.py": {
    "successful": false,
    "error_type": "TypeError",
    "error_message": "type complex doesn't define __round__ method"
  },
  "90.py": {
    "successful": false,
    "error_type": "TypeError",
    "error_message": "type complex doesn't define __round__ method"
  },
  "101.py": {
    "successful": false,
    "error_type": "TypeError",
    "error_message": "type complex doesn't define __round__ method"
  },
  "102.py": {
    "successful": false,
    "error_type": "TypeError",
    "error_message": "type complex doesn't define __round__ method"
  },
  "106.py": {
    "successful": false,
    "error_type": "TypeError",
    "error_message": "type complex doesn't define __round__ method"
  },
  "110.py": {
    "successful": false,
    "error_type": "TypeError",
    "error_message": "type complex doesn't define __round__ method"
  },
  "115.py": {
    "successful": false,
    "error_type": "TypeError",
    "error_message": "type complex doesn't define __round__ method"
  },
  "118.py": {
    "successful": false,
    "error_type": "TypeError",
    "error_message": "type complex doesn't define __round__ method"
  },
  "119.py": {
    "successful": false,
    "error_type": "AssertionError"
  },
  "121.py": {
    "successful": false,
    "error_type": "TypeError",
    "error_message": "type complex doesn't define __round__ method"
  },
  "122.py": {
    "successful": true
  },
  "125.py": {
    "successful": false,
    "error_type": "TypeError",
    "error_message": "type complex doesn't define __round__ method"
  },
  "126.py": {
    "successful": true
  },
  "128.py": {
    "successful": false,
    "error_type": "TypeError",
    "error_message": "type complex doesn't define __round__ method"
  },
  "129.py": {
    "successful": false,
    "error_type": "TypeError",
    "error_message": "type complex doesn't define __round__ method"
  },
  "134.py": {
    "successful": false,
    "error_type": "TypeError",
    "error_message": "type complex doesn't define __round__ method"
  },
  "137.py": {
    "successful": false,
    "error_type": "TypeError",
    "error_message": "type complex doesn't define __round__ method"
  },
  "138.py": {
    "successful": false,
    "error_type": "AssertionError"
  },
  "139.py": {
    "successful": false,
    "error_type": "TypeError",
    "error_message": "type complex doesn't define __round__ method"
  },
  "141.py": {
    "successful": false,
    "error_type": "IndentationError",
    "error_message": "expected an indented block after function definition on line 1"
  },
  "144.py": {
    "successful": false,
    "error_type": "TypeError",
    "error_message": "type complex doesn't define __round__ method"
  },
  "150.py": {
    "successful": false,
    "error_type": "TypeError",
    "error_message": "type complex doesn't define __round__ method"
  },
  "161.py": {
    "successful": false,
    "error_type": "TypeError",
    "error_message": "type complex doesn't define __round__ method"
  },
  "172.py": {
    "successful": false,
    "error_type": "TypeError",
    "error_message": "type complex doesn't define __round__ method"
  },
  "176.py": {
    "successful": false,
    "error_type": "TypeError",
    "error_message": "type complex doesn't define __round__ method"
  },
  "178.py": {
    "successful": false,
    "error_type": "ValueError",
    "error_message": "math domain error"
  },
  "179.py": {
    "successful": true
  },
  "186.py": {
    "successful": false,
    "error_type": "TypeError",
    "error_message": "type complex doesn't define __round__ method"
  },
  "196.py": {
    "successful": true
  },
  "197.py": {
    "successful": false,
    "error_type": "TypeError",
    "error_message": "type complex doesn't define __round__ method"
  }
}