{
  "test_complete": true,
  "0.py": {
    "successful": false,
    "error_type": "IndexError",
    "error_message": "list index out of range"
  },
  "1.py": {
    "successful": true
  },
  "2.py": {
    "successful": true
  },
  "3.py": {
    "successful": false,
    "error_type": "IndexError",
    "error_message": "list index out of range"
  },
  "4.py": {
    "successful": true
  },
  "6.py": {
    "successful": true
  },
  "8.py": {
    "successful": true
  },
  "10.py": {
    "successful": false,
    "error_type": "IndexError",
    "error_message": "list index out of range"
  },
  "11.py": {
    "successful": true
  },
  "13.py": {
    "successful": true
  },
  "14.py": {
    "successful": true
  },
  "16.py": {
    "successful": false,
    "error_type": "IndexError",
    "error_message": "list index out of range"
  },
  "17.py": {
    "successful": true
  },
  "18.py": {
    "successful": true
  },
  "19.py": {
    "successful": false,
    "error_type": "IndexError",
    "error_message": "list index out of range"
  },
  "21.py": {
    "successful": true
  },
  "23.py": {
    "successful": true
  },
  "25.py": {
    "successful": true
  },
  "27.py": {
    "successful": true
  },
  "28.py": {
    "successful": false,
    "error_type": "IndexError",
    "error_message": "list index out of range"
  },
  "30.py": {
    "successful": true
  },
  "32.py": {
    "successful": true
  },
  "33.py": {
    "successful": true
  },
  "41.py": {
    "successful": true
  },
  "42.py": {
    "successful": true
  },
  "43.py": {
    "successful": true
  },
  "44.py": {
    "successful": false,
    "error_type": "IndexError",
    "error_message": "list index out of range"
  },
  "45.py": {
    "successful": true
  },
  "46.py": {
    "successful": true
  },
  "47.py": {
    "successful": false,
    "error_type": "IndexError",
    "error_message": "list index out of range"
  },
  "50.py": {
    "successful": false,
    "error_type": "IndexError",
    "error_message": "list index out of range"
  },
  "53.py": {
    "successful": false,
    "error_type": "IndexError",
    "error_message": "list index out of range"
  },
  "56.py": {
    "successful": true
  },
  "57.py": {
    "successful": true
  },
  "62.py": {
    "successful": true
  },
  "63.py": {
    "successful": true
  },
  "65.py": {
    "successful": true
  },
  "66.py": {
    "successful": false,
    "error_type": "IndexError",
    "error_message": "list index out of range"
  },
  "68.py": {
    "successful": true
  },
  "69.py": {
    "successful": false,
    "error_type": "IndexError",
    "error_message": "list index out of range"
  },
  "70.py": {
    "successful": true
  },
  "72.py": {
    "successful": true
  },
  "77.py": {
    "successful": true
  },
  "78.py": {
    "successful": false,
    "error_type": "IndexError",
    "error_message": "list index out of range"
  },
  "79.py": {
    "successful": true
  },
  "80.py": {
    "successful": true
  },
  "82.py": {
    "successful": true
  },
  "83.py": {
    "successful": true
  },
  "85.py": {
    "successful": true
  },
  "86.py": {
    "successful": false,
    "error_type": "IndexError",
    "error_message": "list index out of range"
  },
  "87.py": {
    "successful": true
  },
  "88.py": {
    "successful": false,
    "error_type": "IndexError",
    "error_message": "list index out of range"
  },
  "92.py": {
    "successful": true
  },
  "94.py": {
    "successful": true
  },
  "95.py": {
    "successful": false,
    "error_type": "IndexError",
    "error_message": "list index out of range"
  },
  "97.py": {
    "successful": true
  },
  "99.py": {
    "successful": true
  },
  "101.py": {
    "successful": true
  },
  "104.py": {
    "successful": true
  },
  "106.py": {
    "successful": false,
    "error_type": "IndexError",
    "error_message": "list index out of range"
  },
  "109.py": {
    "successful": false,
    "error_type": "IndexError",
    "error_message": "list index out of range"
  },
  "110.py": {
    "successful": false,
    "error_type": "IndexError",
    "error_message": "list index out of range"
  },
  "111.py": {
    "successful": false,
    "error_type": "IndexError",
    "error_message": "list index out of range"
  },
  "113.py": {
    "successful": true
  },
  "115.py": {
    "successful": true
  },
  "116.py": {
    "successful": false,
    "error_type": "IndexError",
    "error_message": "list index out of range"
  },
  "117.py": {
    "successful": false,
    "error_type": "IndexError",
    "error_message": "list index out of range"
  },
  "118.py": {
    "successful": true
  },
  "119.py": {
    "successful": true
  },
  "124.py": {
    "successful": false,
    "error_type": "IndexError",
    "error_message": "list index out of range"
  },
  "125.py": {
    "successful": true
  },
  "126.py": {
    "successful": false,
    "error_type": "IndexError",
    "error_message": "list index out of range"
  },
  "128.py": {
    "successful": false,
    "error_type": "IndexError",
    "error_message": "list index out of range"
  },
  "130.py": {
    "successful": true
  },
  "131.py": {
    "successful": true
  },
  "133.py": {
    "successful": false,
    "error_type": "IndexError",
    "error_message": "list index out of range"
  },
  "134.py": {
    "successful": false,
    "error_type": "IndexError",
    "error_message": "list index out of range"
  },
  "140.py": {
    "successful": true
  },
  "141.py": {
    "successful": true
  },
  "142.py": {
    "successful": false,
    "error_type": "IndexError",
    "error_message": "list index out of range"
  },
  "145.py": {
    "successful": true
  },
  "147.py": {
    "successful": true
  },
  "150.py": {
    "successful": true
  },
  "151.py": {
    "successful": true
  },
  "152.py": {
    "successful": true
  },
  "154.py": {
    "successful": false,
    "error_type": "IndexError",
    "error_message": "list index out of range"
  },
  "155.py": {
    "successful": true
  },
  "157.py": {
    "successful": true
  },
  "160.py": {
    "successful": true
  },
  "161.py": {
    "successful": true
  },
  "164.py": {
    "successful": false,
    "error_type": "IndexError",
    "error_message": "list index out of range"
  },
  "167.py": {
    "successful": true
  },
  "168.py": {
    "successful": false,
    "error_type": "IndexError",
    "error_message": "list index out of range"
  },
  "170.py": {
    "successful": true
  },
  "171.py": {
    "successful": true
  },
  "175.py": {
    "successful": true
  },
  "176.py": {
    "successful": true
  },
  "178.py": {
    "successful": true
  },
  "179.py": {
    "successful": true
  },
  "180.py": {
    "successful": true
  },
  "181.py": {
    "successful": false,
    "error_type": "IndexError",
    "error_message": "list index out of range"
  },
  "184.py": {
    "successful": true
  },
  "186.py": {
    "successful": false,
    "error_type": "IndexError",
    "error_message": "list index out of range"
  },
  "187.py": {
    "successful": true
  },
  "188.py": {
    "successful": true
  },
  "189.py": {
    "successful": false,
    "error_type": "IndexError",
    "error_message": "list index out of range"
  },
  "195.py": {
    "successful": true
  },
  "197.py": {
    "successful": true
  },
  "199.py": {
    "successful": true
  }
}