{
  "test_complete": true,
  "4.py": {
    "successful": true
  },
  "14.py": {
    "successful": true
  },
  "17.py": {
    "successful": true
  },
  "28.py": {
    "successful": true
  },
  "39.py": {
    "successful": true
  },
  "61.py": {
    "successful": true
  },
  "62.py": {
    "successful": true
  },
  "66.py": {
    "successful": true
  },
  "73.py": {
    "successful": true
  },
  "84.py": {
    "successful": true
  },
  "91.py": {
    "successful": true
  },
  "97.py": {
    "successful": true
  },
  "121.py": {
    "successful": true
  },
  "129.py": {
    "successful": true
  },
  "138.py": {
    "successful": true
  },
  "139.py": {
    "successful": true
  },
  "155.py": {
    "successful": true
  },
  "166.py": {
    "successful": true
  },
  "175.py": {
    "successful": true
  },
  "189.py": {
    "successful": true
  },
  "198.py": {
    "successful": true
  }
}