{
  "test_complete": true,
  "18.py": {
    "successful": false,
    "error_type": "AssertionError"
  },
  "27.py": {
    "successful": true
  },
  "36.py": {
    "successful": false,
    "error_type": "AssertionError"
  },
  "46.py": {
    "successful": true
  },
  "68.py": {
    "successful": true
  },
  "95.py": {
    "successful": true
  },
  "106.py": {
    "successful": true
  },
  "109.py": {
    "successful": false,
    "error_type": "AssertionError"
  },
  "189.py": {
    "successful": true
  },
  "196.py": {
    "successful": false,
    "error_type": "AssertionError"
  }
}