{
  "test_complete": true,
  "4.py": {
    "successful": true
  },
  "17.py": {
    "successful": true
  },
  "27.py": {
    "successful": true
  },
  "47.py": {
    "successful": true
  },
  "56.py": {
    "successful": true
  },
  "58.py": {
    "successful": true
  },
  "60.py": {
    "successful": true
  },
  "89.py": {
    "successful": true
  },
  "132.py": {
    "successful": true
  },
  "147.py": {
    "successful": true
  },
  "191.py": {
    "successful": true
  }
}