{
  "test_complete": true,
  "0.py": {
    "successful": true
  },
  "16.py": {
    "successful": true
  },
  "30.py": {
    "successful": true
  },
  "48.py": {
    "successful": true
  },
  "49.py": {
    "successful": true
  },
  "57.py": {
    "successful": true
  },
  "72.py": {
    "successful": true
  },
  "77.py": {
    "successful": true
  },
  "81.py": {
    "successful": true
  },
  "82.py": {
    "successful": false,
    "error_type": "AssertionError"
  },
  "85.py": {
    "successful": false,
    "error_type": "AssertionError"
  },
  "90.py": {
    "successful": true
  },
  "113.py": {
    "successful": true
  },
  "114.py": {
    "successful": true
  },
  "125.py": {
    "successful": true
  },
  "128.py": {
    "successful": true
  },
  "131.py": {
    "successful": true
  },
  "135.py": {
    "successful": true
  },
  "143.py": {
    "successful": true
  },
  "193.py": {
    "successful": true
  }
}