{
  "test_complete": true,
  "1.py": {
    "successful": false,
    "error_type": "AssertionError"
  },
  "31.py": {
    "successful": false,
    "error_type": "AssertionError"
  },
  "34.py": {
    "successful": false,
    "error_type": "AssertionError"
  },
  "62.py": {
    "successful": true
  },
  "81.py": {
    "successful": true
  },
  "108.py": {
    "successful": true
  },
  "144.py": {
    "successful": true
  },
  "158.py": {
    "successful": true
  },
  "172.py": {
    "successful": true
  },
  "184.py": {
    "successful": true
  },
  "191.py": {
    "successful": true
  }
}