model&temp,script,pass,score
chatgpt_temp_0.0,0.py,True,1.0
chatgpt_temp_0.8,0.py,True,1.0
chatgpt_temp_0.8,1.py,True,0.7331765459202478
chatgpt_temp_0.8,2.py,True,0.7331765459202478
chatgpt_temp_0.8,11.py,True,0.7331765459202478
chatgpt_temp_0.8,13.py,True,1.0
chatgpt_temp_0.8,14.py,True,1.0
chatgpt_temp_0.8,22.py,True,0.4192565023565104
chatgpt_temp_0.8,24.py,True,0.7331765459202478
chatgpt_temp_0.8,26.py,False,0.9351334836242398
chatgpt_temp_0.8,42.py,True,0.7331765459202478
chatgpt_temp_0.8,54.py,True,1.0
chatgpt_temp_0.8,61.py,True,1.0
chatgpt_temp_0.8,66.py,True,0.7331765459202478
chatgpt_temp_0.8,72.py,True,1.0
chatgpt_temp_0.8,85.py,True,1.0
chatgpt_temp_0.8,163.py,True,0.7331765459202478
chatgpt_temp_0.8,171.py,True,0.7331765459202478
chatgpt_temp_0.8,193.py,True,1.0
chatgpt_temp_0.8,198.py,True,0.7331765459202478
code-llama-13b_temp_0.0,0.py,True,1.0
code-llama-13b_temp_0.6,13.py,True,1.0
code-llama-13b_temp_0.8,8.py,True,1.0
code-llama-13b_temp_0.8,11.py,True,1.0
code-llama-13b_temp_0.8,30.py,True,1.0
code-llama-13b_temp_0.8,55.py,True,1.0
code-llama-13b_temp_0.8,147.py,True,1.0
code-llama-34b_temp_0.8,186.py,True,1.0
codegen-16b_temp_0.6,78.py,True,1.0
codegen-16b_temp_0.6,100.py,True,1.0
codegen-16b_temp_0.8,0.py,False,0.2080377075087677
codegen-16b_temp_0.8,5.py,True,0.9351334836242398
codegen-16b_temp_0.8,7.py,True,0.7062594378058554
codegen-16b_temp_0.8,19.py,True,0.5906871848918501
codegen-16b_temp_0.8,79.py,True,0.7778111223054219
codegen-16b_temp_0.8,107.py,True,0.7062594378058554
codegen-16b_temp_0.8,127.py,True,0.7062594378058554
codegen-16b_temp_0.8,130.py,True,1.0
codegen-16b_temp_0.8,143.py,True,0.782878563712303
codegen-16b_temp_0.8,144.py,True,0.3713354961020269
codegen-16b_temp_0.8,155.py,True,0.5026147453550859
codegen-16b_temp_0.8,171.py,True,0.6733187455351302
codegen-16b_temp_0.8,185.py,True,0.3484819264527523
codegen-16b_temp_0.8,186.py,False,0.5460241725418133
codegen-6b_temp_0.8,12.py,True,0.6733187455351302
codegen-6b_temp_0.8,20.py,False,0.7165313105737893
codegen-6b_temp_0.8,27.py,False,0.7165313105737893
codegen-6b_temp_0.8,36.py,True,0.782878563712303
codegen-6b_temp_0.8,38.py,True,0.6733187455351302
codegen-6b_temp_0.8,53.py,False,0.3642077792766302
codegen-6b_temp_0.8,65.py,False,0.7241907707454057
codegen-6b_temp_0.8,108.py,True,0.5460241725418133
codegen-6b_temp_0.8,134.py,False,0.9306048591020996
codegen-6b_temp_0.8,139.py,True,1.0
codegen-6b_temp_0.8,160.py,True,0.6733187455351302
codegen-6b_temp_0.8,162.py,True,0.833878585505777
codegen-6b_temp_0.8,163.py,True,0.2559217907702331
codegen2-1b_temp_0.8,1.py,True,1.0
codegen2-1b_temp_0.8,9.py,False,0.5798442808829941
codegen2-1b_temp_0.8,11.py,True,1.0
codegen2-1b_temp_0.8,18.py,True,0.6859238121837058
codegen2-1b_temp_0.8,24.py,True,0.7105477917053864
codegen2-1b_temp_0.8,26.py,True,0.6859238121837058
codegen2-1b_temp_0.8,32.py,True,0.7105477917053864
codegen2-1b_temp_0.8,45.py,False,0.605478327168454
codegen2-1b_temp_0.8,58.py,True,0.4360446047976986
codegen2-1b_temp_0.8,75.py,True,0.6859238121837058
codegen2-1b_temp_0.8,118.py,False,0.7160350546947922
codegen2-1b_temp_0.8,155.py,True,0.6859238121837058
codegen2-1b_temp_0.8,186.py,False,0.5100323429521268
codegen2-1b_temp_0.8,188.py,False,0.4428500142691474
codegen2-1b_temp_0.8,190.py,True,0.2819590655538421
codegen2-7b_temp_0.8,2.py,False,0.9355069850316178
codegen2-7b_temp_0.8,75.py,False,0.9355069850316178
codet5p-16b_temp_0.0,0.py,True,1.0
codet5p-16b_temp_0.4,0.py,True,1.0
gpt-4-1106-preview_temp_0.0,0.py,True,0.7331765459202478
gpt-4_temp_0.0,0.py,True,0.7331765459202478
gpt-j_temp_0.8,11.py,True,0.4256995349694282
gpt-j_temp_0.8,22.py,True,0.4953515593229917
gpt-j_temp_0.8,31.py,True,0.4360446047976986
gpt-j_temp_0.8,32.py,True,0.782878563712303
gpt-j_temp_0.8,39.py,False,0.5798442808829941
gpt-j_temp_0.8,47.py,True,0.3756584633463828
gpt-j_temp_0.8,51.py,True,0.3835959588228489
gpt-j_temp_0.8,70.py,True,0.5342748476760113
gpt-j_temp_0.8,72.py,True,0.5342748476760113
gpt-j_temp_0.8,74.py,True,1.0
gpt-j_temp_0.8,75.py,False,0.5460241725418133
gpt-j_temp_0.8,103.py,True,0.2241693350192229
gpt-j_temp_0.8,107.py,True,0.4836136252028828
gpt-j_temp_0.8,110.py,False,0.5460241725418133
gpt-j_temp_0.8,121.py,True,1.0
gpt-j_temp_0.8,136.py,True,0.6859238121837058
gpt-j_temp_0.8,155.py,False,0.8196501312471536
gpt-j_temp_0.8,169.py,False,0.3942132195534496
gpt-j_temp_0.8,171.py,False,0.4741053287044894
gptneo-2b_temp_0.6,23.py,True,0.698750369758044
gptneo-2b_temp_0.8,0.py,True,0.5342748476760113
gptneo-2b_temp_0.8,5.py,False,0.659109604993135
gptneo-2b_temp_0.8,14.py,False,0.7160350546947922
gptneo-2b_temp_0.8,15.py,True,0.3713354961020269
gptneo-2b_temp_0.8,16.py,False,0.7803835321211376
gptneo-2b_temp_0.8,39.py,False,0.4626955906904871
gptneo-2b_temp_0.8,55.py,True,0.3242905573839702
gptneo-2b_temp_0.8,59.py,True,0.6255340042200862
gptneo-2b_temp_0.8,65.py,False,0.7297627709554282
gptneo-2b_temp_0.8,69.py,False,0.3998597655764616
gptneo-2b_temp_0.8,75.py,False,0.5140768318620904
gptneo-2b_temp_0.8,80.py,False,0.3538995029906511
gptneo-2b_temp_0.8,102.py,False,0.5020344159181033
gptneo-2b_temp_0.8,113.py,True,0.5963584321358336
gptneo-2b_temp_0.8,117.py,False,0.5198707241967666
gptneo-2b_temp_0.8,142.py,False,0.5342748476760113
gptneo-2b_temp_0.8,145.py,False,0.693395566222006
gptneo-2b_temp_0.8,155.py,False,0.4091782270522585
gptneo-2b_temp_0.8,172.py,False,0.2497938451712243
gptneo-2b_temp_0.8,175.py,False,0.5053483543335474
gptneo-2b_temp_0.8,179.py,False,0.3998597655764616
incoder-1b_temp_0.8,6.py,False,0.4200970045853849
incoder-1b_temp_0.8,20.py,True,0.6565037059458352
incoder-1b_temp_0.8,22.py,True,0.6067337731525329
incoder-1b_temp_0.8,44.py,False,0.6577160909911662
incoder-1b_temp_0.8,61.py,False,0.6109455387717302
incoder-1b_temp_0.8,68.py,True,0.4836136252028828
incoder-1b_temp_0.8,71.py,False,0.8668778997501817
incoder-1b_temp_0.8,73.py,True,0.4836136252028828
incoder-1b_temp_0.8,93.py,False,0.6067337731525329
incoder-1b_temp_0.8,105.py,True,0.3086504522042826
incoder-1b_temp_0.8,133.py,False,0.4067434794181572
incoder-1b_temp_0.8,134.py,True,1.0
incoder-1b_temp_0.8,140.py,False,0.5561266550108377
incoder-1b_temp_0.8,154.py,False,0.2819443057280202
incoder-1b_temp_0.8,182.py,True,0.6859238121837058
incoder-1b_temp_0.8,185.py,False,0.6067337731525329
incoder-1b_temp_0.8,187.py,True,1.0
incoder-1b_temp_0.8,195.py,False,0.4617182865873415
mistral-7b_temp_0.8,108.py,False,0.7165313105737893
mistral-7b_temp_0.8,138.py,False,0.7165313105737893
polycoder_temp_0.8,9.py,False,0.5342748476760113
polycoder_temp_0.8,14.py,False,0.4343577468569327
polycoder_temp_0.8,50.py,False,0.5342748476760113
polycoder_temp_0.8,60.py,True,0.6093228271290612
polycoder_temp_0.8,63.py,False,0.878187983790713
polycoder_temp_0.8,69.py,True,0.4836136252028828
polycoder_temp_0.8,90.py,True,0.3942132195534496
polycoder_temp_0.8,92.py,False,0.782878563712303
polycoder_temp_0.8,113.py,False,0.7331765459202478
polycoder_temp_0.8,124.py,False,0.6792310722877624
polycoder_temp_0.8,126.py,False,0.6093228271290612
polycoder_temp_0.8,162.py,False,0.4465592488247401
polycoder_temp_0.8,194.py,True,0.2878289323247867
polycoder_temp_0.8,196.py,False,0.878187983790713
polycoder_temp_0.8,198.py,True,0.5914164297184887
polycoder_temp_0.8,199.py,True,0.5342748476760113
stablelm-7b_temp_0.0,0.py,False,0.5342748476760113
stablelm-7b_temp_0.4,16.py,False,0.4465592488247401
stablelm-7b_temp_0.4,23.py,False,0.4323645744929752
stablelm-7b_temp_0.4,29.py,False,0.3947262141631854
stablelm-7b_temp_0.4,37.py,False,0.4626955906904871
stablelm-7b_temp_0.4,78.py,False,0.3947262141631854
stablelm-7b_temp_0.4,96.py,False,0.4953515593229917
stablelm-7b_temp_0.4,100.py,False,0.4261082723917018
stablelm-7b_temp_0.4,103.py,False,0.4953515593229917
stablelm-7b_temp_0.4,119.py,False,0.4953515593229917
stablelm-7b_temp_0.4,122.py,False,0.2227735965324149
stablelm-7b_temp_0.4,146.py,False,0.4261082723917018
stablelm-7b_temp_0.4,151.py,False,0.5798442808829941
stablelm-7b_temp_0.4,163.py,False,0.4617182865873415
stablelm-7b_temp_0.4,166.py,False,0.4617182865873415
stablelm-7b_temp_0.4,198.py,False,0.4953515593229917
stablelm-7b_temp_0.6,1.py,False,0.3570747620758009
stablelm-7b_temp_0.6,3.py,False,0.2852238776841739
stablelm-7b_temp_0.6,4.py,False,0.4986062231144941
stablelm-7b_temp_0.6,5.py,False,0.3271808701737276
stablelm-7b_temp_0.6,7.py,False,0.4953515593229917
stablelm-7b_temp_0.6,8.py,False,0.3947262141631854
stablelm-7b_temp_0.6,9.py,False,0.3203673508333546
stablelm-7b_temp_0.6,12.py,False,0.3361997478838093
stablelm-7b_temp_0.6,13.py,True,0.1158022633847297
stablelm-7b_temp_0.6,17.py,False,0.3876449106584299
stablelm-7b_temp_0.6,18.py,True,0.3730764652497342
stablelm-7b_temp_0.6,21.py,False,0.5342748476760113
stablelm-7b_temp_0.6,24.py,True,0.5798442808829941
stablelm-7b_temp_0.6,27.py,False,0.4953515593229917
stablelm-7b_temp_0.6,30.py,False,0.3447178773608901
stablelm-7b_temp_0.6,33.py,True,0.5342748476760113
stablelm-7b_temp_0.6,35.py,False,0.4626955906904871
stablelm-7b_temp_0.6,37.py,False,0.4953515593229917
stablelm-7b_temp_0.6,42.py,False,0.3242905573839702
stablelm-7b_temp_0.6,46.py,False,0.2199206296386663
stablelm-7b_temp_0.6,50.py,False,0.5140768318620904
stablelm-7b_temp_0.6,51.py,False,0.2307557242093713
stablelm-7b_temp_0.6,59.py,False,0.2047041125857163
stablelm-7b_temp_0.6,60.py,False,0.5963584321358336
stablelm-7b_temp_0.6,61.py,True,0.3947262141631854
stablelm-7b_temp_0.6,64.py,False,0.2855064177806205
stablelm-7b_temp_0.6,67.py,False,0.4065220433860868
stablelm-7b_temp_0.6,71.py,False,0.4617182865873415
stablelm-7b_temp_0.6,73.py,True,0.5342748476760113
stablelm-7b_temp_0.6,76.py,False,0.2287950093921992
stablelm-7b_temp_0.6,77.py,False,0.4953515593229917
stablelm-7b_temp_0.6,79.py,False,0.5561266550108377
stablelm-7b_temp_0.6,85.py,False,0.306626405659493
stablelm-7b_temp_0.6,88.py,False,0.3014264556355863
stablelm-7b_temp_0.6,89.py,False,0.2814991553857761
stablelm-7b_temp_0.6,92.py,False,0.1168586941850472
stablelm-7b_temp_0.6,96.py,False,0.3493604523235958
stablelm-7b_temp_0.6,98.py,False,0.4428500142691474
stablelm-7b_temp_0.6,103.py,False,0.693395566222006
stablelm-7b_temp_0.6,104.py,False,0.3947262141631854
stablelm-7b_temp_0.6,105.py,False,0.4617182865873415
stablelm-7b_temp_0.6,111.py,False,0.5489938756679379
stablelm-7b_temp_0.6,115.py,False,0.4465592488247401
stablelm-7b_temp_0.6,118.py,False,0.3730764652497342
stablelm-7b_temp_0.6,123.py,False,0.3947262141631854
stablelm-7b_temp_0.6,124.py,False,0.2086671382825756
stablelm-7b_temp_0.6,125.py,False,0.5430321466633391
stablelm-7b_temp_0.6,128.py,False,0.3827092940888806
stablelm-7b_temp_0.6,129.py,False,0.3014264556355863
stablelm-7b_temp_0.6,133.py,False,0.4343577468569327
stablelm-7b_temp_0.6,139.py,False,0.3536790538050789
stablelm-7b_temp_0.6,140.py,False,0.5798442808829941
stablelm-7b_temp_0.6,143.py,False,0.2680102298488869
stablelm-7b_temp_0.6,148.py,False,0.352058416770711
stablelm-7b_temp_0.6,149.py,True,0.4792365811426396
stablelm-7b_temp_0.6,150.py,False,0.3536790538050789
stablelm-7b_temp_0.6,154.py,False,0.6268331472593015
stablelm-7b_temp_0.6,165.py,False,0.4323645744929752
stablelm-7b_temp_0.6,168.py,False,0.4617182865873415
stablelm-7b_temp_0.6,179.py,False,0.1264638664613451
stablelm-7b_temp_0.6,180.py,False,0.1538077466415729
stablelm-7b_temp_0.6,185.py,True,0.5561266550108377
stablelm-7b_temp_0.6,187.py,False,0.3369582032493923
stablelm-7b_temp_0.6,190.py,True,0.7778111223054219
stablelm-7b_temp_0.6,194.py,False,0.4026017631538908
stablelm-7b_temp_0.8,1.py,False,0.3730764652497342
stablelm-7b_temp_0.8,2.py,False,0.7331765459202478
stablelm-7b_temp_0.8,4.py,False,0.2239575545891495
stablelm-7b_temp_0.8,5.py,False,0.5254468608840783
stablelm-7b_temp_0.8,6.py,False,0.3361997478838093
stablelm-7b_temp_0.8,9.py,False,0.5254468608840783
stablelm-7b_temp_0.8,13.py,False,0.4190450235995212
stablelm-7b_temp_0.8,15.py,False,0.169675251556125
stablelm-7b_temp_0.8,16.py,False,0.46668988322914
stablelm-7b_temp_0.8,20.py,False,0.6334323002440795
stablelm-7b_temp_0.8,21.py,False,0.3538995029906511
stablelm-7b_temp_0.8,26.py,False,0.2284901884273813
stablelm-7b_temp_0.8,28.py,True,0.3608647983367211
stablelm-7b_temp_0.8,29.py,False,0.3536790538050789
stablelm-7b_temp_0.8,31.py,False,0.4138199322322275
stablelm-7b_temp_0.8,33.py,False,0.5342748476760113
stablelm-7b_temp_0.8,34.py,False,0.4172656642691109
stablelm-7b_temp_0.8,35.py,False,0.1566019333653339
stablelm-7b_temp_0.8,36.py,True,0.3608647983367211
stablelm-7b_temp_0.8,37.py,False,0.1856568848392135
stablelm-7b_temp_0.8,39.py,False,0.3437688808607277
stablelm-7b_temp_0.8,40.py,False,0.086357362322635
stablelm-7b_temp_0.8,43.py,False,0.2594376606068111
stablelm-7b_temp_0.8,47.py,False,0.782878563712303
stablelm-7b_temp_0.8,48.py,False,0.5342748476760113
stablelm-7b_temp_0.8,50.py,False,0.1722664628441056
stablelm-7b_temp_0.8,53.py,True,0.588934620997652
stablelm-7b_temp_0.8,55.py,False,0.2678550030116159
stablelm-7b_temp_0.8,56.py,False,0.2563978474693527
stablelm-7b_temp_0.8,58.py,False,0.4139625550113643
stablelm-7b_temp_0.8,59.py,False,0.4702796340820487
stablelm-7b_temp_0.8,62.py,False,0.1079660770480511
stablelm-7b_temp_0.8,63.py,False,0.0392117591274362
stablelm-7b_temp_0.8,64.py,False,0.878187983790713
stablelm-7b_temp_0.8,65.py,False,0.4953515593229917
stablelm-7b_temp_0.8,66.py,True,0.4450866059065562
stablelm-7b_temp_0.8,67.py,False,0.3961580557600541
stablelm-7b_temp_0.8,69.py,False,0.4003714233927703
stablelm-7b_temp_0.8,70.py,False,0.0244298780886354
stablelm-7b_temp_0.8,72.py,False,0.2311814197523937
stablelm-7b_temp_0.8,73.py,False,0.3369582032493923
stablelm-7b_temp_0.8,74.py,False,0.3230936964603721
stablelm-7b_temp_0.8,75.py,False,0.2535654579431708
stablelm-7b_temp_0.8,76.py,True,0.6859238121837058
stablelm-7b_temp_0.8,77.py,False,0.3033902497478249
stablelm-7b_temp_0.8,79.py,False,0.2160266902218421
stablelm-7b_temp_0.8,80.py,True,0.7331765459202478
stablelm-7b_temp_0.8,81.py,False,0.5140768318620904
stablelm-7b_temp_0.8,82.py,False,0.3835959588228489
stablelm-7b_temp_0.8,85.py,True,0.588934620997652
stablelm-7b_temp_0.8,86.py,True,0.5460241725418133
stablelm-7b_temp_0.8,87.py,False,0.2807117068307642
stablelm-7b_temp_0.8,88.py,False,0.1723836350163942
stablelm-7b_temp_0.8,90.py,False,0.3824323271187023
stablelm-7b_temp_0.8,91.py,False,0.5342748476760113
stablelm-7b_temp_0.8,95.py,False,0.4500531895417844
stablelm-7b_temp_0.8,96.py,False,0.3631187817327406
stablelm-7b_temp_0.8,97.py,False,0.1496767867940268
stablelm-7b_temp_0.8,103.py,False,0.2686716404407622
stablelm-7b_temp_0.8,104.py,False,0.1687246525234507
stablelm-7b_temp_0.8,105.py,False,0.3827092940888806
stablelm-7b_temp_0.8,107.py,False,0.2685618216397966
stablelm-7b_temp_0.8,109.py,False,0.3577848216493281
stablelm-7b_temp_0.8,111.py,True,0.3059595055571489
stablelm-7b_temp_0.8,114.py,False,0.4884391791679525
stablelm-7b_temp_0.8,115.py,False,0.4172656642691109
stablelm-7b_temp_0.8,116.py,False,0.5342748476760113
stablelm-7b_temp_0.8,117.py,False,0.3424389956607098
stablelm-7b_temp_0.8,118.py,False,0.3967954802761624
stablelm-7b_temp_0.8,122.py,False,0.5489938756679379
stablelm-7b_temp_0.8,124.py,False,0.5342748476760113
stablelm-7b_temp_0.8,125.py,False,0.3730764652497342
stablelm-7b_temp_0.8,126.py,False,0.2941578243382457
stablelm-7b_temp_0.8,127.py,False,0.0838986317492926
stablelm-7b_temp_0.8,128.py,False,0.2143781048776546
stablelm-7b_temp_0.8,129.py,False,0.5511532346688224
stablelm-7b_temp_0.8,130.py,False,0.7160350546947922
stablelm-7b_temp_0.8,131.py,False,0.4139112108175073
stablelm-7b_temp_0.8,133.py,False,0.4428500142691474
stablelm-7b_temp_0.8,135.py,False,0.3203673508333546
stablelm-7b_temp_0.8,137.py,False,0.693395566222006
stablelm-7b_temp_0.8,138.py,False,0.2465905497185689
stablelm-7b_temp_0.8,139.py,False,0.2872316105853658
stablelm-7b_temp_0.8,142.py,False,0.6577160909911662
stablelm-7b_temp_0.8,143.py,False,0.2719495566455774
stablelm-7b_temp_0.8,144.py,False,0.2497938451712243
stablelm-7b_temp_0.8,146.py,False,0.2326589608220075
stablelm-7b_temp_0.8,151.py,False,0.726943590190925
stablelm-7b_temp_0.8,152.py,False,0.364475284252601
stablelm-7b_temp_0.8,154.py,False,0.347403173905042
stablelm-7b_temp_0.8,155.py,False,0.1582377476656128
stablelm-7b_temp_0.8,159.py,False,0.579508625587
stablelm-7b_temp_0.8,160.py,True,0.5140768318620904
stablelm-7b_temp_0.8,161.py,False,0.4256995349694282
stablelm-7b_temp_0.8,162.py,False,0.4139625550113643
stablelm-7b_temp_0.8,168.py,False,0.4428500142691474
stablelm-7b_temp_0.8,171.py,False,0.3713354961020269
stablelm-7b_temp_0.8,173.py,False,0.1167829310646041
stablelm-7b_temp_0.8,174.py,True,0.5798442808829941
stablelm-7b_temp_0.8,175.py,False,0.0370092846387597
stablelm-7b_temp_0.8,178.py,False,0.0671659471980178
stablelm-7b_temp_0.8,180.py,True,0.5342748476760113
stablelm-7b_temp_0.8,181.py,False,0.2409480569169478
stablelm-7b_temp_0.8,183.py,False,0.1766326399090238
stablelm-7b_temp_0.8,184.py,False,0.3824323271187023
stablelm-7b_temp_0.8,187.py,False,0.4953515593229917
stablelm-7b_temp_0.8,191.py,False,0.2414419237406667
stablelm-7b_temp_0.8,194.py,False,0.0778066371431777
stablelm-7b_temp_0.8,195.py,False,0.2750378379067708
stablelm-7b_temp_0.8,196.py,False,0.364475284252601
stablelm-7b_temp_0.8,197.py,False,0.674945488826271
stablelm-7b_temp_0.8,198.py,False,0.1855086990397448
stablelm-7b_temp_0.8,199.py,False,0.4323645744929752
starcoder_temp_0.6,42.py,False,0.7165313105737893
vicuna-13b_temp_0.8,48.py,False,0.7165313105737893
vicuna-7b_temp_0.6,132.py,False,0.5674773954614979
vicuna-7b_temp_0.6,173.py,False,0.6433175422776263
vicuna-7b_temp_0.8,5.py,False,0.782878563712303
vicuna-7b_temp_0.8,11.py,False,0.782878563712303
vicuna-7b_temp_0.8,24.py,False,0.6158787442830632
vicuna-7b_temp_0.8,107.py,True,0.385684823826491
vicuna-7b_temp_0.8,116.py,True,0.6158787442830632
vicuna-7b_temp_0.8,117.py,False,0.5906871848918501
vicuna-7b_temp_0.8,124.py,False,0.782878563712303
vicuna-7b_temp_0.8,132.py,True,0.6733187455351302
vicuna-7b_temp_0.8,147.py,False,0.4904118018080797
vicuna-7b_temp_0.8,160.py,False,0.5906871848918501
vicuna-7b_temp_0.8,177.py,True,1.0
vicuna-7b_temp_0.8,195.py,True,0.7425946367830887
