{
  "test_complete": true,
  "46.py": {
    "successful": true
  },
  "53.py": {
    "successful": false,
    "error_type": "AssertionError"
  },
  "68.py": {
    "successful": true
  },
  "117.py": {
    "successful": true
  },
  "158.py": {
    "successful": true
  }
}