{
  "test_complete": true,
  "4.py": {
    "successful": false,
    "error_type": "TypeError",
    "error_message": "'int' object is not iterable"
  },
  "10.py": {
    "successful": false,
    "error_type": "TypeError",
    "error_message": "'int' object is not iterable"
  },
  "13.py": {
    "successful": false,
    "error_type": "TypeError",
    "error_message": "object of type 'filter' has no len()"
  },
  "14.py": {
    "successful": false,
    "error_type": "AssertionError"
  },
  "15.py": {
    "successful": false,
    "error_type": "TypeError",
    "error_message": "'int' object is not iterable"
  },
  "16.py": {
    "successful": false,
    "error_type": "TypeError",
    "error_message": "'int' object is not iterable"
  },
  "21.py": {
    "successful": false,
    "error_type": "TypeError",
    "error_message": "bad operand type for abs()"
  },
  "22.py": {
    "successful": false,
    "error_type": "AssertionError"
  },
  "23.py": {
    "successful": false,
    "error_type": "TypeError",
    "error_message": "'int' object is not iterable"
  },
  "26.py": {
    "successful": false,
    "error_type": "NameError",
    "error_message": "name 'sum_digits' is not defined"
  },
  "28.py": {
    "successful": false,
    "error_type": "AssertionError"
  },
  "35.py": {
    "successful": false,
    "error_type": "TypeError",
    "error_message": "bad operand type for abs()"
  },
  "36.py": {
    "successful": false,
    "error_type": "TypeError",
    "error_message": "'int' object is not iterable"
  },
  "37.py": {
    "successful": false,
    "error_type": "AssertionError"
  },
  "42.py": {
    "successful": false,
    "error_type": "AssertionError"
  },
  "45.py": {
    "successful": false,
    "error_type": "ValueError",
    "error_message": "invalid literal for int() with base 10"
  },
  "53.py": {
    "successful": false,
    "error_type": "AssertionError"
  },
  "57.py": {
    "successful": false,
    "error_type": "AssertionError"
  },
  "58.py": {
    "successful": false,
    "error_type": "TypeError",
    "error_message": "'bool' object is not iterable"
  },
  "64.py": {
    "successful": false,
    "error_type": "ValueError",
    "error_message": "invalid literal for int() with base 10"
  },
  "76.py": {
    "successful": false,
    "error_type": "TypeError",
    "error_message": "'int' object is not iterable"
  },
  "77.py": {
    "successful": false,
    "error_type": "TypeError",
    "error_message": "bad operand type for abs()"
  },
  "79.py": {
    "successful": false,
    "error_type": "AssertionError"
  },
  "81.py": {
    "successful": false,
    "error_type": "TypeError",
    "error_message": "'int' object is not iterable"
  },
  "82.py": {
    "successful": false,
    "error_type": "AssertionError"
  },
  "84.py": {
    "successful": false,
    "error_type": "AssertionError"
  },
  "85.py": {
    "successful": false,
    "error_type": "AssertionError"
  },
  "86.py": {
    "successful": false,
    "error_type": "TypeError",
    "error_message": "'int' object is not iterable"
  },
  "107.py": {
    "successful": false,
    "error_type": "AssertionError"
  },
  "108.py": {
    "successful": false,
    "error_type": "ValueError",
    "error_message": "invalid literal for int() with base 10"
  },
  "118.py": {
    "successful": false,
    "error_type": "AssertionError"
  },
  "135.py": {
    "successful": false,
    "error_type": "AssertionError"
  },
  "142.py": {
    "successful": false,
    "error_type": "TypeError",
    "error_message": "'int' object is not iterable"
  },
  "145.py": {
    "successful": false,
    "error_type": "AssertionError"
  },
  "150.py": {
    "successful": false,
    "error_type": "TypeError",
    "error_message": "'int' object is not iterable"
  },
  "154.py": {
    "successful": false,
    "error_type": "AssertionError"
  },
  "156.py": {
    "successful": false,
    "error_type": "TypeError",
    "error_message": "unsupported operand type(s) for +"
  },
  "167.py": {
    "successful": false,
    "error_type": "TypeError",
    "error_message": "bad operand type for abs()"
  },
  "176.py": {
    "successful": false,
    "error_type": "TypeError",
    "error_message": "'int' object is not iterable"
  },
  "178.py": {
    "successful": false,
    "error_type": "AssertionError"
  },
  "182.py": {
    "successful": false,
    "error_type": "AssertionError"
  },
  "188.py": {
    "successful": false,
    "error_type": "TypeError",
    "error_message": "'int' object is not iterable"
  }
}