{
  "test_complete": true,
  "18.py": {
    "successful": false,
    "error_type": "ValueError",
    "error_message": "empty separator"
  },
  "45.py": {
    "successful": false,
    "error_type": "AssertionError"
  }
}