{
  "test_complete": true,
  "0.py": {
    "successful": false,
    "error_type": "ValueError",
    "error_message": "empty separator"
  },
  "3.py": {
    "successful": false,
    "error_type": "ValueError",
    "error_message": "empty separator"
  },
  "4.py": {
    "successful": false,
    "error_type": "AssertionError"
  },
  "5.py": {
    "successful": false,
    "error_type": "ValueError",
    "error_message": "empty separator"
  },
  "6.py": {
    "successful": false,
    "error_type": "ValueError",
    "error_message": "empty separator"
  },
  "7.py": {
    "successful": false,
    "error_type": "ValueError",
    "error_message": "empty separator"
  },
  "8.py": {
    "successful": false,
    "error_type": "SyntaxError",
    "error_message": "invalid syntax. Perhaps you forgot a comma?"
  },
  "9.py": {
    "successful": false,
    "error_type": "ValueError",
    "error_message": "empty separator"
  },
  "10.py": {
    "successful": false,
    "error_type": "ValueError",
    "error_message": "empty separator"
  },
  "11.py": {
    "successful": false,
    "error_type": "ValueError",
    "error_message": "empty separator"
  },
  "13.py": {
    "successful": false,
    "error_type": "ValueError",
    "error_message": "empty separator"
  },
  "14.py": {
    "successful": false,
    "error_type": "ValueError",
    "error_message": "empty separator"
  },
  "15.py": {
    "successful": false,
    "error_type": "IndexError",
    "error_message": "string index out of range"
  },
  "17.py": {
    "successful": false,
    "error_type": "AssertionError"
  },
  "18.py": {
    "successful": false,
    "error_type": "ValueError",
    "error_message": "empty separator"
  },
  "19.py": {
    "successful": false,
    "error_type": "AssertionError"
  },
  "20.py": {
    "successful": false,
    "error_type": "AssertionError"
  },
  "21.py": {
    "successful": false,
    "error_type": "AssertionError"
  },
  "23.py": {
    "successful": false,
    "error_type": "ValueError",
    "error_message": "empty separator"
  },
  "25.py": {
    "successful": false,
    "error_type": "ValueError",
    "error_message": "empty separator"
  },
  "26.py": {
    "successful": false,
    "error_type": "ValueError",
    "error_message": "empty separator"
  },
  "27.py": {
    "successful": false,
    "error_type": "ValueError",
    "error_message": "empty separator"
  },
  "28.py": {
    "successful": false,
    "error_type": "ValueError",
    "error_message": "empty separator"
  },
  "29.py": {
    "successful": false,
    "error_type": "AssertionError"
  },
  "30.py": {
    "successful": false,
    "error_type": "AssertionError"
  },
  "34.py": {
    "successful": false,
    "error_type": "SyntaxError",
    "error_message": "'[' was never closed"
  },
  "38.py": {
    "successful": false,
    "error_type": "AssertionError"
  },
  "39.py": {
    "successful": false,
    "error_type": "AssertionError"
  },
  "42.py": {
    "successful": false,
    "error_type": "AssertionError"
  },
  "43.py": {
    "successful": false,
    "error_type": "AssertionError"
  },
  "44.py": {
    "successful": false,
    "error_type": "AssertionError"
  },
  "46.py": {
    "successful": false,
    "error_type": "AssertionError"
  },
  "48.py": {
    "successful": false,
    "error_type": "AssertionError"
  },
  "49.py": {
    "successful": false,
    "error_type": "SyntaxError",
    "error_message": "closing parenthesis ')' does not match opening parenthesis '['"
  },
  "51.py": {
    "successful": false,
    "error_type": "ValueError",
    "error_message": "empty separator"
  },
  "52.py": {
    "successful": false,
    "error_type": "AssertionError"
  },
  "54.py": {
    "successful": false,
    "error_type": "SyntaxError",
    "error_message": "invalid syntax. Perhaps you forgot a comma?"
  },
  "56.py": {
    "successful": false,
    "error_type": "ValueError",
    "error_message": "empty separator"
  },
  "57.py": {
    "successful": false,
    "error_type": "ValueError",
    "error_message": "empty separator"
  },
  "58.py": {
    "successful": false,
    "error_type": "AssertionError"
  },
  "61.py": {
    "successful": false,
    "error_type": "ValueError",
    "error_message": "empty separator"
  },
  "62.py": {
    "successful": false,
    "error_type": "ValueError",
    "error_message": "empty separator"
  },
  "63.py": {
    "successful": false,
    "error_type": "ValueError",
    "error_message": "empty separator"
  },
  "66.py": {
    "successful": false,
    "error_type": "AssertionError"
  },
  "67.py": {
    "successful": false,
    "error_type": "AssertionError"
  },
  "69.py": {
    "successful": false,
    "error_type": "ValueError",
    "error_message": "empty separator"
  },
  "73.py": {
    "successful": false,
    "error_type": "ValueError",
    "error_message": "empty separator"
  },
  "74.py": {
    "successful": false,
    "error_type": "ValueError",
    "error_message": "empty separator"
  },
  "75.py": {
    "successful": false,
    "error_type": "ValueError",
    "error_message": "empty separator"
  },
  "78.py": {
    "successful": false,
    "error_type": "AssertionError"
  },
  "79.py": {
    "successful": false,
    "error_type": "ValueError",
    "error_message": "empty separator"
  },
  "82.py": {
    "successful": false,
    "error_type": "AssertionError"
  },
  "83.py": {
    "successful": false,
    "error_type": "IndexError",
    "error_message": "string index out of range"
  },
  "84.py": {
    "successful": false,
    "error_type": "ValueError",
    "error_message": "empty separator"
  },
  "86.py": {
    "successful": false,
    "error_type": "ValueError",
    "error_message": "empty separator"
  },
  "87.py": {
    "successful": false,
    "error_type": "AssertionError"
  },
  "88.py": {
    "successful": false,
    "error_type": "ValueError",
    "error_message": "empty separator"
  },
  "89.py": {
    "successful": false,
    "error_type": "ValueError",
    "error_message": "empty separator"
  },
  "91.py": {
    "successful": false,
    "error_type": "ValueError",
    "error_message": "empty separator"
  },
  "92.py": {
    "successful": false,
    "error_type": "AssertionError"
  },
  "95.py": {
    "successful": false,
    "error_type": "ValueError",
    "error_message": "empty separator"
  },
  "96.py": {
    "successful": false,
    "error_type": "ValueError",
    "error_message": "empty separator"
  },
  "98.py": {
    "successful": false,
    "error_type": "ValueError",
    "error_message": "empty separator"
  },
  "99.py": {
    "successful": false,
    "error_type": "ValueError",
    "error_message": "empty separator"
  },
  "101.py": {
    "successful": false,
    "error_type": "ValueError",
    "error_message": "empty separator"
  },
  "102.py": {
    "successful": false,
    "error_type": "ValueError",
    "error_message": "empty separator"
  },
  "103.py": {
    "successful": false,
    "error_type": "ValueError",
    "error_message": "empty separator"
  },
  "105.py": {
    "successful": false,
    "error_type": "AssertionError"
  },
  "106.py": {
    "successful": false,
    "error_type": "ValueError",
    "error_message": "empty separator"
  },
  "107.py": {
    "successful": false,
    "error_type": "IndexError",
    "error_message": "string index out of range"
  },
  "109.py": {
    "successful": false,
    "error_type": "ValueError",
    "error_message": "empty separator"
  },
  "110.py": {
    "successful": false,
    "error_type": "ValueError",
    "error_message": "empty separator"
  },
  "111.py": {
    "successful": false,
    "error_type": "AssertionError"
  },
  "112.py": {
    "successful": false,
    "error_type": "ValueError",
    "error_message": "empty separator"
  },
  "113.py": {
    "successful": false,
    "error_type": "ValueError",
    "error_message": "empty separator"
  },
  "114.py": {
    "successful": false,
    "error_type": "ValueError",
    "error_message": "empty separator"
  },
  "115.py": {
    "successful": false,
    "error_type": "TypeError",
    "error_message": "can only concatenate str (not \"int\") to str"
  },
  "118.py": {
    "successful": false,
    "error_type": "SyntaxError",
    "error_message": "invalid syntax"
  },
  "119.py": {
    "successful": false,
    "error_type": "ValueError",
    "error_message": "empty separator"
  },
  "121.py": {
    "successful": false,
    "error_type": "TypeError",
    "error_message": "sequence item 0"
  },
  "124.py": {
    "successful": false,
    "error_type": "TypeError",
    "error_message": "sequence item 0"
  },
  "128.py": {
    "successful": false,
    "error_type": "AssertionError"
  },
  "129.py": {
    "successful": false,
    "error_type": "ValueError",
    "error_message": "empty separator"
  },
  "131.py": {
    "successful": false,
    "error_type": "ValueError",
    "error_message": "empty separator"
  },
  "133.py": {
    "successful": false,
    "error_type": "ValueError",
    "error_message": "empty separator"
  },
  "134.py": {
    "successful": false,
    "error_type": "AssertionError"
  },
  "135.py": {
    "successful": false,
    "error_type": "ValueError",
    "error_message": "empty separator"
  },
  "137.py": {
    "successful": false,
    "error_type": "ValueError",
    "error_message": "empty separator"
  },
  "140.py": {
    "successful": false,
    "error_type": "AssertionError"
  },
  "141.py": {
    "successful": false,
    "error_type": "ValueError",
    "error_message": "empty separator"
  },
  "142.py": {
    "successful": false,
    "error_type": "AssertionError"
  },
  "144.py": {
    "successful": false,
    "error_type": "ValueError",
    "error_message": "empty separator"
  },
  "145.py": {
    "successful": false,
    "error_type": "ValueError",
    "error_message": "empty separator"
  },
  "148.py": {
    "successful": false,
    "error_type": "SyntaxError",
    "error_message": "'[' was never closed"
  },
  "150.py": {
    "successful": false,
    "error_type": "ValueError",
    "error_message": "empty separator"
  },
  "152.py": {
    "successful": false,
    "error_type": "ValueError",
    "error_message": "empty separator"
  },
  "154.py": {
    "successful": false,
    "error_type": "ValueError",
    "error_message": "empty separator"
  },
  "155.py": {
    "successful": false,
    "error_type": "AssertionError"
  },
  "158.py": {
    "successful": false,
    "error_type": "ValueError",
    "error_message": "empty separator"
  },
  "159.py": {
    "successful": false,
    "error_type": "ValueError",
    "error_message": "empty separator"
  },
  "161.py": {
    "successful": false,
    "error_type": "AssertionError"
  },
  "162.py": {
    "successful": false,
    "error_type": "ValueError",
    "error_message": "empty separator"
  },
  "163.py": {
    "successful": false,
    "error_type": "AssertionError"
  },
  "164.py": {
    "successful": false,
    "error_type": "ValueError",
    "error_message": "empty separator"
  },
  "165.py": {
    "successful": false,
    "error_type": "AssertionError"
  },
  "166.py": {
    "successful": false,
    "error_type": "SyntaxError",
    "error_message": "invalid syntax. Perhaps you forgot a comma?"
  },
  "167.py": {
    "successful": false,
    "error_type": "ValueError",
    "error_message": "empty separator"
  },
  "168.py": {
    "successful": false,
    "error_type": "ValueError",
    "error_message": "empty separator"
  },
  "172.py": {
    "successful": false,
    "error_type": "AssertionError"
  },
  "173.py": {
    "successful": false,
    "error_type": "AssertionError"
  },
  "174.py": {
    "successful": false,
    "error_type": "AssertionError"
  },
  "175.py": {
    "successful": false,
    "error_type": "ValueError",
    "error_message": "empty separator"
  },
  "179.py": {
    "successful": false,
    "error_type": "AssertionError"
  },
  "180.py": {
    "successful": false,
    "error_type": "AssertionError"
  },
  "181.py": {
    "successful": false,
    "error_type": "ValueError",
    "error_message": "empty separator"
  },
  "182.py": {
    "successful": false,
    "error_type": "AssertionError"
  },
  "184.py": {
    "successful": false,
    "error_type": "ValueError",
    "error_message": "empty separator"
  },
  "186.py": {
    "successful": false,
    "error_type": "SyntaxError",
    "error_message": "invalid syntax. Perhaps you forgot a comma?"
  },
  "187.py": {
    "successful": false,
    "error_type": "ValueError",
    "error_message": "empty separator"
  },
  "191.py": {
    "successful": false,
    "error_type": "SyntaxError",
    "error_message": "invalid syntax. Perhaps you forgot a comma?"
  },
  "192.py": {
    "successful": false,
    "error_type": "ValueError",
    "error_message": "empty separator"
  },
  "193.py": {
    "successful": false,
    "error_type": "AssertionError"
  },
  "194.py": {
    "successful": false,
    "error_type": "SyntaxError",
    "error_message": "invalid syntax. Perhaps you forgot a comma?"
  },
  "196.py": {
    "successful": false,
    "error_type": "ValueError",
    "error_message": "empty separator"
  }
}