{
  "test_complete": true,
  "0.py": {
    "successful": false,
    "error_type": "NameError",
    "error_message": "name 'decode_list' is not defined"
  },
  "3.py": {
    "successful": false,
    "error_type": "NameError",
    "error_message": "name 'decode_group' is not defined"
  },
  "4.py": {
    "successful": false,
    "error_type": "AssertionError"
  },
  "5.py": {
    "successful": false,
    "error_type": "NameError",
    "error_message": "name 'decode_base64' is not defined"
  },
  "6.py": {
    "successful": false,
    "error_type": "TypeError",
    "error_message": "s can not be of type str."
  },
  "9.py": {
    "successful": false,
    "error_type": "NameError",
    "error_message": "name 'decode_utf8' is not defined"
  },
  "10.py": {
    "successful": false,
    "error_type": "AssertionError"
  },
  "12.py": {
    "successful": false,
    "error_type": "NameError",
    "error_message": "name 'decode_chars' is not defined"
  },
  "13.py": {
    "successful": false,
    "error_type": "AttributeError",
    "error_message": "'str' object has no attribute 'decode'. Did you mean"
  },
  "15.py": {
    "successful": false,
    "error_type": "NameError",
    "error_message": "name 'decode' is not defined"
  },
  "16.py": {
    "successful": false,
    "error_type": "AssertionError"
  },
  "17.py": {
    "successful": false,
    "error_type": "AssertionError"
  },
  "18.py": {
    "successful": false,
    "error_type": "IndexError",
    "error_message": "string index out of range"
  },
  "19.py": {
    "successful": false,
    "error_type": "TypeError",
    "error_message": "sequence item 0"
  },
  "20.py": {
    "successful": false,
    "error_type": "SyntaxError",
    "error_message": "closing parenthesis ']' does not match opening parenthesis '('"
  },
  "21.py": {
    "successful": false,
    "error_type": "AssertionError"
  },
  "23.py": {
    "successful": false,
    "error_type": "NameError",
    "error_message": "name 'decode_encode_cyclic' is not defined"
  },
  "24.py": {
    "successful": false,
    "error_type": "AttributeError",
    "error_message": "'str' object has no attribute 'decode'. Did you mean"
  },
  "26.py": {
    "successful": false,
    "error_type": "NameError",
    "error_message": "name 'i' is not defined. Did you mean"
  },
  "27.py": {
    "successful": false,
    "error_type": "TypeError",
    "error_message": "can only concatenate tuple (not \"str\") to tuple"
  },
  "32.py": {
    "successful": false,
    "error_type": "NameError",
    "error_message": "name 'unicode' is not defined"
  },
  "33.py": {
    "successful": false,
    "error_type": "NameError",
    "error_message": "name 'decode' is not defined"
  },
  "37.py": {
    "successful": false,
    "error_type": "SyntaxError",
    "error_message": "invalid syntax"
  },
  "38.py": {
    "successful": false,
    "error_type": "TypeError",
    "error_message": "sequence item 0"
  },
  "40.py": {
    "successful": false,
    "error_type": "AssertionError"
  },
  "41.py": {
    "successful": false,
    "error_type": "IndexError",
    "error_message": "list index out of range"
  },
  "43.py": {
    "successful": false,
    "error_type": "NameError",
    "error_message": "name 'decode_and_encode_cyclic' is not defined"
  },
  "45.py": {
    "successful": false,
    "error_type": "AssertionError"
  },
  "47.py": {
    "successful": false,
    "error_type": "TypeError",
    "error_message": "can't concat int to bytes"
  },
  "48.py": {
    "successful": false,
    "error_type": "NameError",
    "error_message": "name 'decode' is not defined"
  },
  "49.py": {
    "successful": false,
    "error_type": "NameError",
    "error_message": "name 'decode_base64' is not defined"
  },
  "55.py": {
    "successful": false,
    "error_type": "NameError",
    "error_message": "name 'decode_nested_range' is not defined"
  },
  "58.py": {
    "successful": false,
    "error_type": "TypeError",
    "error_message": "must be str, not bytes"
  },
  "59.py": {
    "successful": false,
    "error_type": "AssertionError"
  },
  "61.py": {
    "successful": false,
    "error_type": "RecursionError",
    "error_message": "maximum recursion depth exceeded"
  },
  "62.py": {
    "successful": false,
    "error_type": "AttributeError",
    "error_message": "'bytes' object has no attribute 'encode'. Did you mean"
  },
  "63.py": {
    "successful": false,
    "error_type": "NameError",
    "error_message": "name 'decode_set' is not defined"
  },
  "65.py": {
    "successful": false,
    "error_type": "AttributeError",
    "error_message": "'str' object has no attribute 'decode_encoding'"
  },
  "66.py": {
    "successful": false,
    "error_type": "NameError",
    "error_message": "name 'decode_bytes' is not defined"
  },
  "69.py": {
    "successful": false,
    "error_type": "AttributeError",
    "error_message": "'str' object has no attribute 'decode'. Did you mean"
  },
  "70.py": {
    "successful": false,
    "error_type": "TypeError",
    "error_message": "must be str or None, not bytes"
  },
  "72.py": {
    "successful": false,
    "error_type": "NameError",
    "error_message": "name 'decode_string' is not defined"
  },
  "75.py": {
    "successful": false,
    "error_type": "NameError",
    "error_message": "name 'decode_partition' is not defined"
  },
  "77.py": {
    "successful": false,
    "error_type": "AssertionError"
  },
  "79.py": {
    "successful": false,
    "error_type": "SyntaxError",
    "error_message": "closing parenthesis ')' does not match opening parenthesis '['"
  },
  "80.py": {
    "successful": false,
    "error_type": "IndexError",
    "error_message": "string index out of range"
  },
  "82.py": {
    "successful": false,
    "error_type": "RecursionError",
    "error_message": "maximum recursion depth exceeded in comparison"
  },
  "84.py": {
    "successful": false,
    "error_type": "AssertionError"
  },
  "85.py": {
    "successful": false,
    "error_type": "NameError",
    "error_message": "name 'decode_string' is not defined"
  },
  "87.py": {
    "successful": false,
    "error_type": "TypeError",
    "error_message": "endswith first arg must be str or a tuple of str, not bytes"
  },
  "89.py": {
    "successful": false,
    "error_type": "RecursionError",
    "error_message": "maximum recursion depth exceeded"
  },
  "90.py": {
    "successful": false,
    "error_type": "AssertionError"
  },
  "91.py": {
    "successful": false,
    "error_type": "NameError",
    "error_message": "name 'decode_varint' is not defined"
  },
  "92.py": {
    "successful": false,
    "error_type": "RecursionError",
    "error_message": "maximum recursion depth exceeded in comparison"
  },
  "93.py": {
    "successful": false,
    "error_type": "AssertionError"
  },
  "95.py": {
    "successful": false,
    "error_type": "AssertionError"
  },
  "98.py": {
    "successful": false,
    "error_type": "AssertionError"
  },
  "99.py": {
    "successful": false,
    "error_type": "NameError",
    "error_message": "name 'decode_repeated_string' is not defined"
  },
  "101.py": {
    "successful": false,
    "error_type": "AssertionError"
  },
  "102.py": {
    "successful": false,
    "error_type": "AssertionError"
  },
  "104.py": {
    "successful": false,
    "error_type": "RecursionError",
    "error_message": "maximum recursion depth exceeded"
  },
  "106.py": {
    "successful": false,
    "error_type": "AttributeError",
    "error_message": "'str' object has no attribute 'decode'. Did you mean"
  },
  "110.py": {
    "successful": false,
    "error_type": "AssertionError"
  },
  "111.py": {
    "successful": false,
    "error_type": "AssertionError"
  },
  "112.py": {
    "successful": false,
    "error_type": "NameError",
    "error_message": "name 'decode_utf8' is not defined"
  },
  "113.py": {
    "successful": false,
    "error_type": "AssertionError"
  },
  "114.py": {
    "successful": false,
    "error_type": "NameError",
    "error_message": "name 'decode' is not defined"
  },
  "118.py": {
    "successful": false,
    "error_type": "NameError",
    "error_message": "name 'decode_unicode' is not defined"
  },
  "119.py": {
    "successful": false,
    "error_type": "AssertionError"
  },
  "125.py": {
    "successful": false,
    "error_type": "NameError",
    "error_message": "name 'decode_numbers' is not defined"
  },
  "126.py": {
    "successful": false,
    "error_type": "RecursionError",
    "error_message": "maximum recursion depth exceeded in comparison"
  },
  "127.py": {
    "successful": false,
    "error_type": "NameError",
    "error_message": "name 'decode_base64' is not defined"
  },
  "128.py": {
    "successful": false,
    "error_type": "AssertionError"
  },
  "132.py": {
    "successful": false,
    "error_type": "AssertionError"
  },
  "134.py": {
    "successful": false,
    "error_type": "RecursionError",
    "error_message": "maximum recursion depth exceeded in comparison"
  },
  "136.py": {
    "successful": false,
    "error_type": "AssertionError"
  },
  "140.py": {
    "successful": false,
    "error_type": "NameError",
    "error_message": "name 'decode' is not defined"
  },
  "143.py": {
    "successful": false,
    "error_type": "AssertionError"
  },
  "144.py": {
    "successful": false,
    "error_type": "NameError",
    "error_message": "name 'decode' is not defined"
  },
  "145.py": {
    "successful": false,
    "error_type": "NameError",
    "error_message": "name 'decode_bytes' is not defined"
  },
  "147.py": {
    "successful": false,
    "error_type": "NameError",
    "error_message": "name 'decode_binary' is not defined"
  },
  "148.py": {
    "successful": false,
    "error_type": "AttributeError",
    "error_message": "'str' object has no attribute 'decode'. Did you mean"
  },
  "149.py": {
    "successful": false,
    "error_type": "NameError",
    "error_message": "name 'groups' is not defined"
  },
  "150.py": {
    "successful": false,
    "error_type": "NameError",
    "error_message": "name 'decode_from_bytes' is not defined"
  },
  "151.py": {
    "successful": false,
    "error_type": "AssertionError"
  },
  "152.py": {
    "successful": false,
    "error_type": "AssertionError"
  },
  "154.py": {
    "successful": false,
    "error_type": "NameError",
    "error_message": "name 'decode_grouping' is not defined"
  },
  "156.py": {
    "successful": false,
    "error_type": "AttributeError",
    "error_message": "'str' object has no attribute 'decode'. Did you mean"
  },
  "158.py": {
    "successful": false,
    "error_type": "NameError",
    "error_message": "name 'Error' is not defined. Did you mean"
  },
  "160.py": {
    "successful": false,
    "error_type": "NameError",
    "error_message": "name 'decode_encoded_bytes' is not defined"
  },
  "162.py": {
    "successful": false,
    "error_type": "AttributeError",
    "error_message": "'str' object has no attribute 'group'"
  },
  "163.py": {
    "successful": false,
    "error_type": "AssertionError"
  },
  "164.py": {
    "successful": false,
    "error_type": "NameError",
    "error_message": "name 'decode_base64' is not defined"
  },
  "167.py": {
    "successful": false,
    "error_type": "NameError",
    "error_message": "name 'decode_b' is not defined"
  },
  "168.py": {
    "successful": false,
    "error_type": "AttributeError",
    "error_message": "'tuple' object has no attribute 'decode'"
  },
  "170.py": {
    "successful": false,
    "error_type": "AttributeError",
    "error_message": "'str' object has no attribute 'decode'. Did you mean"
  },
  "171.py": {
    "successful": false,
    "error_type": "AttributeError",
    "error_message": "'list' object has no attribute 'str'"
  },
  "172.py": {
    "successful": false,
    "error_type": "TypeError",
    "error_message": "object of type 'generator' has no len()"
  },
  "173.py": {
    "successful": false,
    "error_type": "AssertionError"
  },
  "175.py": {
    "successful": false,
    "error_type": "NameError",
    "error_message": "name 'decode_group' is not defined"
  },
  "176.py": {
    "successful": false,
    "error_type": "AssertionError"
  },
  "177.py": {
    "successful": false,
    "error_type": "NameError",
    "error_message": "name 'decode_group' is not defined"
  },
  "181.py": {
    "successful": false,
    "error_type": "AssertionError"
  },
  "182.py": {
    "successful": false,
    "error_type": "AssertionError"
  },
  "183.py": {
    "successful": false,
    "error_type": "AssertionError"
  },
  "185.py": {
    "successful": false,
    "error_type": "RecursionError",
    "error_message": "maximum recursion depth exceeded"
  },
  "186.py": {
    "successful": false,
    "error_type": "AssertionError"
  },
  "195.py": {
    "successful": false,
    "error_type": "NameError",
    "error_message": "name 'decode_list' is not defined"
  },
  "197.py": {
    "successful": false,
    "error_type": "AssertionError"
  }
}