{
  "test_complete": true,
  "0.py": {
    "successful": false,
    "error_type": "IndexError",
    "error_message": "list index out of range"
  },
  "1.py": {
    "successful": false,
    "error_type": "IndentationError",
    "error_message": "expected an indented block after 'if' statement on line 23"
  },
  "2.py": {
    "successful": false,
    "error_type": "IndexError",
    "error_message": "pop index out of range"
  },
  "3.py": {
    "successful": false,
    "error_type": "NameError",
    "error_message": "name 'N' is not defined"
  },
  "4.py": {
    "successful": false,
    "error_type": "NameError",
    "error_message": "name 'np' is not defined"
  },
  "5.py": {
    "successful": false,
    "error_type": "NameError",
    "error_message": "name 'N' is not defined"
  },
  "6.py": {
    "successful": false,
    "error_type": "AssertionError"
  },
  "7.py": {
    "successful": false,
    "error_type": "SyntaxError",
    "error_message": "'[' was never closed"
  },
  "8.py": {
    "successful": false,
    "error_type": "SyntaxError",
    "error_message": "'(' was never closed"
  },
  "9.py": {
    "successful": false,
    "error_type": "AttributeError",
    "error_message": "'list' object has no attribute 'shape'"
  },
  "10.py": {
    "successful": false,
    "error_type": "NameError",
    "error_message": "name 'xrange' is not defined. Did you mean"
  },
  "11.py": {
    "successful": false,
    "error_type": "AssertionError"
  },
  "12.py": {
    "successful": false,
    "error_type": "NameError",
    "error_message": "name 'operator' is not defined"
  },
  "13.py": {
    "successful": false,
    "error_type": "AssertionError"
  },
  "14.py": {
    "successful": false,
    "error_type": "AttributeError",
    "error_message": "'list' object has no attribute 'shape'"
  },
  "15.py": {
    "successful": false,
    "error_type": "NameError",
    "error_message": "name 'N' is not defined"
  },
  "16.py": {
    "successful": false,
    "error_type": "SyntaxError",
    "error_message": "invalid syntax"
  },
  "17.py": {
    "successful": false,
    "error_type": "TypeError",
    "error_message": "list indices must be integers or slices, not range"
  },
  "18.py": {
    "successful": false,
    "error_type": "IndexError",
    "error_message": "pop from empty list"
  },
  "19.py": {
    "successful": false,
    "error_type": "NameError",
    "error_message": "name 'N' is not defined"
  },
  "20.py": {
    "successful": false,
    "error_type": "IndexError",
    "error_message": "list assignment index out of range"
  },
  "21.py": {
    "successful": false,
    "error_type": "NameError",
    "error_message": "name 'N' is not defined"
  },
  "22.py": {
    "successful": false,
    "error_type": "SyntaxError",
    "error_message": "Generator expression must be parenthesized"
  },
  "23.py": {
    "successful": false,
    "error_type": "AssertionError"
  },
  "24.py": {
    "successful": false,
    "error_type": "IndentationError",
    "error_message": "expected an indented block after 'if' statement on line 20"
  },
  "25.py": {
    "successful": false,
    "error_type": "IndentationError",
    "error_message": "expected an indented block after function definition on line 1"
  },
  "26.py": {
    "successful": false,
    "error_type": "AssertionError"
  },
  "27.py": {
    "successful": false,
    "error_type": "TypeError",
    "error_message": "'<' not supported between instances of 'int' and 'list'"
  },
  "28.py": {
    "successful": false,
    "error_type": "IndentationError",
    "error_message": "expected an indented block after 'if' statement on line 4"
  },
  "29.py": {
    "successful": false,
    "error_type": "IndexError",
    "error_message": "list index out of range"
  },
  "30.py": {
    "successful": false,
    "error_type": "NameError",
    "error_message": "name 'N' is not defined"
  },
  "31.py": {
    "successful": false,
    "error_type": "NameError",
    "error_message": "name 'np' is not defined"
  },
  "32.py": {
    "successful": false,
    "error_type": "TypeError",
    "error_message": "object of type 'int' has no len()"
  },
  "33.py": {
    "successful": false,
    "error_type": "IndentationError",
    "error_message": "expected an indented block after 'for' statement on line 23"
  },
  "34.py": {
    "successful": false,
    "error_type": "SyntaxError",
    "error_message": "'(' was never closed"
  },
  "35.py": {
    "successful": false,
    "error_type": "AssertionError"
  },
  "36.py": {
    "successful": false,
    "error_type": "IndentationError",
    "error_message": "expected an indented block after 'for' statement on line 2"
  },
  "37.py": {
    "successful": false,
    "error_type": "TypeError",
    "error_message": "'int' object is not subscriptable"
  },
  "38.py": {
    "successful": false,
    "error_type": "NameError",
    "error_message": "name 'N' is not defined. Did you mean"
  },
  "39.py": {
    "successful": false,
    "error_type": "AssertionError"
  },
  "40.py": {
    "successful": false,
    "error_type": "NameError",
    "error_message": "name 'N' is not defined"
  },
  "41.py": {
    "successful": false,
    "error_type": "NameError",
    "error_message": "name 'N' is not defined"
  },
  "42.py": {
    "successful": false,
    "error_type": "IndentationError",
    "error_message": "expected an indented block after 'for' statement on line 22"
  },
  "43.py": {
    "successful": false,
    "error_type": "SyntaxError",
    "error_message": "invalid syntax"
  },
  "44.py": {
    "successful": false,
    "error_type": "NameError",
    "error_message": "name 'N' is not defined. Did you mean"
  },
  "45.py": {
    "successful": false,
    "error_type": "AssertionError"
  },
  "46.py": {
    "successful": false,
    "error_type": "IndexError",
    "error_message": "list index out of range"
  },
  "47.py": {
    "successful": false,
    "error_type": "ValueError",
    "error_message": "min() arg is an empty sequence"
  },
  "48.py": {
    "successful": false,
    "error_type": "SyntaxError",
    "error_message": "'(' was never closed"
  },
  "49.py": {
    "successful": false,
    "error_type": "IndentationError",
    "error_message": "expected an indented block after function definition on line 1"
  },
  "50.py": {
    "successful": false,
    "error_type": "SyntaxError",
    "error_message": "Missing parentheses in call to 'print'. Did you mean print(...)?"
  },
  "51.py": {
    "successful": false,
    "error_type": "NameError",
    "error_message": "name 'N' is not defined"
  },
  "52.py": {
    "successful": false,
    "error_type": "TypeError",
    "error_message": "unhashable type"
  },
  "53.py": {
    "successful": false,
    "error_type": "AssertionError"
  },
  "54.py": {
    "successful": false,
    "error_type": "RecursionError",
    "error_message": "maximum recursion depth exceeded"
  },
  "55.py": {
    "successful": false,
    "error_type": "IndentationError",
    "error_message": "expected an indented block after function definition on line 2"
  },
  "56.py": {
    "successful": false,
    "error_type": "IndentationError",
    "error_message": "expected an indented block after function definition on line 3"
  },
  "57.py": {
    "successful": false,
    "error_type": "SyntaxError",
    "error_message": "invalid syntax"
  },
  "58.py": {
    "successful": false,
    "error_type": "IndentationError",
    "error_message": "expected an indented block after function definition on line 2"
  },
  "59.py": {
    "successful": false,
    "error_type": "TypeError",
    "error_message": "object of type 'int' has no len()"
  },
  "60.py": {
    "successful": false,
    "error_type": "SyntaxError",
    "error_message": "'[' was never closed"
  },
  "61.py": {
    "successful": false,
    "error_type": "ValueError",
    "error_message": "k and grid sizes don't match"
  },
  "62.py": {
    "successful": false,
    "error_type": "IndentationError",
    "error_message": "expected an indented block after 'if' statement on line 23"
  },
  "63.py": {
    "successful": false,
    "error_type": "IndexError",
    "error_message": "list index out of range"
  },
  "64.py": {
    "successful": false,
    "error_type": "IndentationError",
    "error_message": "expected an indented block after 'else' statement on line 17"
  },
  "65.py": {
    "successful": false,
    "error_type": "ValueError",
    "error_message": "Please don't ask for a path that goes off the grid."
  },
  "66.py": {
    "successful": false,
    "error_type": "SyntaxError",
    "error_message": "'[' was never closed"
  },
  "67.py": {
    "successful": false,
    "error_type": "NameError",
    "error_message": "name 'lst' is not defined. Did you mean"
  },
  "68.py": {
    "successful": false,
    "error_type": "AssertionError"
  },
  "69.py": {
    "successful": false,
    "error_type": "AssertionError"
  },
  "70.py": {
    "successful": false,
    "error_type": "TypeError",
    "error_message": "'<' not supported between instances of 'list' and 'int'"
  },
  "71.py": {
    "successful": false,
    "error_type": "NameError",
    "error_message": "name 'N' is not defined"
  },
  "72.py": {
    "successful": false,
    "error_type": "TypeError",
    "error_message": "object of type 'int' has no len()"
  },
  "73.py": {
    "successful": false,
    "error_type": "NameError",
    "error_message": "name 'N' is not defined"
  },
  "74.py": {
    "successful": false,
    "error_type": "TypeError",
    "error_message": "unhashable type"
  },
  "75.py": {
    "successful": false,
    "error_type": "RecursionError",
    "error_message": "maximum recursion depth exceeded in comparison"
  },
  "76.py": {
    "successful": false,
    "error_type": "IndexError",
    "error_message": "list index out of range"
  },
  "77.py": {
    "successful": false,
    "error_type": "IndentationError",
    "error_message": "expected an indented block after function definition on line 1"
  },
  "78.py": {
    "successful": false,
    "error_type": "ValueError",
    "error_message": "grid must be non-empty"
  },
  "79.py": {
    "successful": false,
    "error_type": "SyntaxError",
    "error_message": "invalid syntax"
  },
  "80.py": {
    "successful": false,
    "error_type": "NameError",
    "error_message": "name 'np' is not defined. Did you mean"
  },
  "81.py": {
    "successful": false,
    "error_type": "AssertionError"
  },
  "82.py": {
    "successful": false,
    "error_type": "IndexError",
    "error_message": "list index out of range"
  },
  "83.py": {
    "successful": false,
    "error_type": "TypeError",
    "error_message": "'<=' not supported between instances of 'int' and 'list'"
  },
  "84.py": {
    "successful": false,
    "error_type": "TypeError",
    "error_message": "object of type 'int' has no len()"
  },
  "85.py": {
    "successful": false,
    "error_type": "NameError",
    "error_message": "name 'N' is not defined"
  },
  "86.py": {
    "successful": false,
    "error_type": "AssertionError"
  },
  "87.py": {
    "successful": false,
    "error_type": "IndentationError",
    "error_message": "expected an indented block after function definition on line 16"
  },
  "88.py": {
    "successful": false,
    "error_type": "IndentationError",
    "error_message": "expected an indented block after function definition on line 2"
  },
  "89.py": {
    "successful": false,
    "error_type": "AssertionError"
  },
  "90.py": {
    "successful": false,
    "error_type": "NameError",
    "error_message": "name 'xrange' is not defined. Did you mean"
  },
  "91.py": {
    "successful": false,
    "error_type": "AssertionError"
  },
  "92.py": {
    "successful": false,
    "error_type": "AssertionError"
  },
  "93.py": {
    "successful": false,
    "error_type": "AssertionError"
  },
  "94.py": {
    "successful": false,
    "error_type": "SyntaxError",
    "error_message": "'[' was never closed"
  },
  "95.py": {
    "successful": false,
    "error_type": "IndentationError",
    "error_message": "expected an indented block after 'if' statement on line 20"
  },
  "96.py": {
    "successful": false,
    "error_type": "IndexError",
    "error_message": "list index out of range"
  },
  "97.py": {
    "successful": false,
    "error_type": "AssertionError"
  },
  "98.py": {
    "successful": false,
    "error_type": "TimeOut"
  },
  "99.py": {
    "successful": false,
    "error_type": "NameError",
    "error_message": "name 'N' is not defined"
  },
  "100.py": {
    "successful": false,
    "error_type": "NameError",
    "error_message": "name 'xrange' is not defined. Did you mean"
  },
  "101.py": {
    "successful": false,
    "error_type": "NameError",
    "error_message": "name 'copy' is not defined"
  },
  "102.py": {
    "successful": false,
    "error_type": "NameError",
    "error_message": "name 'N' is not defined"
  },
  "103.py": {
    "successful": false,
    "error_type": "NameError",
    "error_message": "name 'N' is not defined"
  },
  "104.py": {
    "successful": false,
    "error_type": "NameError",
    "error_message": "name 'maxSubGrid' is not defined"
  },
  "105.py": {
    "successful": false,
    "error_type": "IndentationError",
    "error_message": "expected an indented block after 'while' statement on line 9"
  },
  "106.py": {
    "successful": false,
    "error_type": "AttributeError",
    "error_message": "'list' object has no attribute 'shape'"
  },
  "107.py": {
    "successful": false,
    "error_type": "NameError",
    "error_message": "name 'np' is not defined"
  },
  "108.py": {
    "successful": false,
    "error_type": "IndentationError",
    "error_message": "expected an indented block after 'if' statement on line 18"
  },
  "109.py": {
    "successful": false,
    "error_type": "NameError",
    "error_message": "name 'np' is not defined"
  },
  "110.py": {
    "successful": false,
    "error_type": "NameError",
    "error_message": "name 'N' is not defined"
  },
  "111.py": {
    "successful": false,
    "error_type": "IndentationError",
    "error_message": "expected an indented block after 'while' statement on line 7"
  },
  "112.py": {
    "successful": false,
    "error_type": "NameError",
    "error_message": "name 'N' is not defined"
  },
  "113.py": {
    "successful": false,
    "error_type": "IndexError",
    "error_message": "list index out of range"
  },
  "114.py": {
    "successful": false,
    "error_type": "TimeOut"
  },
  "115.py": {
    "successful": false,
    "error_type": "AttributeError",
    "error_message": "'list' object has no attribute 'shape'"
  },
  "116.py": {
    "successful": false,
    "error_type": "NameError",
    "error_message": "name 'N' is not defined"
  },
  "117.py": {
    "successful": false,
    "error_type": "NameError",
    "error_message": "name 'N' is not defined"
  },
  "118.py": {
    "successful": false,
    "error_type": "AssertionError"
  },
  "119.py": {
    "successful": false,
    "error_type": "SyntaxError",
    "error_message": "'[' was never closed"
  },
  "120.py": {
    "successful": false,
    "error_type": "SyntaxError",
    "error_message": "invalid syntax"
  },
  "121.py": {
    "successful": false,
    "error_type": "NameError",
    "error_message": "name 'maxPath' is not defined. Did you mean"
  },
  "122.py": {
    "successful": false,
    "error_type": "NameError",
    "error_message": "name 'N' is not defined"
  },
  "123.py": {
    "successful": false,
    "error_type": "NameError",
    "error_message": "name 'N' is not defined"
  },
  "124.py": {
    "successful": false,
    "error_type": "AssertionError"
  },
  "125.py": {
    "successful": false,
    "error_type": "SyntaxError",
    "error_message": "unterminated string literal (detected at line 11)"
  },
  "126.py": {
    "successful": false,
    "error_type": "AssertionError"
  },
  "127.py": {
    "successful": false,
    "error_type": "NameError",
    "error_message": "name 'np' is not defined"
  },
  "128.py": {
    "successful": false,
    "error_type": "AssertionError"
  },
  "129.py": {
    "successful": false,
    "error_type": "NameError",
    "error_message": "name 'N' is not defined"
  },
  "130.py": {
    "successful": false,
    "error_type": "TimeOut"
  },
  "131.py": {
    "successful": false,
    "error_type": "NameError",
    "error_message": "name 'N' is not defined"
  },
  "132.py": {
    "successful": false,
    "error_type": "AssertionError"
  },
  "133.py": {
    "successful": false,
    "error_type": "TypeError",
    "error_message": "list indices must be integers or slices, not list"
  },
  "134.py": {
    "successful": false,
    "error_type": "SyntaxError",
    "error_message": "invalid syntax"
  },
  "135.py": {
    "successful": false,
    "error_type": "NameError",
    "error_message": "name 'N' is not defined"
  },
  "136.py": {
    "successful": false,
    "error_type": "NameError",
    "error_message": "name 'N' is not defined"
  },
  "137.py": {
    "successful": false,
    "error_type": "AssertionError"
  },
  "138.py": {
    "successful": false,
    "error_type": "TypeError",
    "error_message": "'list_reverseiterator' object is not subscriptable"
  },
  "139.py": {
    "successful": false,
    "error_type": "AttributeError",
    "error_message": "'list' object has no attribute 'shape'"
  },
  "140.py": {
    "successful": false,
    "error_type": "IndentationError",
    "error_message": "expected an indented block after 'while' statement on line 6"
  },
  "141.py": {
    "successful": false,
    "error_type": "IndexError",
    "error_message": "list assignment index out of range"
  },
  "142.py": {
    "successful": false,
    "error_type": "AttributeError",
    "error_message": "'list' object has no attribute 'grid'"
  },
  "143.py": {
    "successful": false,
    "error_type": "AssertionError"
  },
  "144.py": {
    "successful": false,
    "error_type": "NameError",
    "error_message": "name 'N' is not defined"
  },
  "145.py": {
    "successful": false,
    "error_type": "SyntaxError",
    "error_message": "'(' was never closed"
  },
  "146.py": {
    "successful": false,
    "error_type": "NameError",
    "error_message": "name 'N' is not defined"
  },
  "147.py": {
    "successful": false,
    "error_type": "ValueError",
    "error_message": "k can not be greater than 1 or smaller than grid size"
  },
  "148.py": {
    "successful": false,
    "error_type": "NameError",
    "error_message": "name 'N' is not defined"
  },
  "149.py": {
    "successful": false,
    "error_type": "IndexError",
    "error_message": "list index out of range"
  },
  "150.py": {
    "successful": false,
    "error_type": "AssertionError"
  },
  "151.py": {
    "successful": false,
    "error_type": "SyntaxError",
    "error_message": "'(' was never closed"
  },
  "152.py": {
    "successful": false,
    "error_type": "NameError",
    "error_message": "name 'N' is not defined"
  },
  "153.py": {
    "successful": false,
    "error_type": "SyntaxError",
    "error_message": "'[' was never closed"
  },
  "154.py": {
    "successful": false,
    "error_type": "NameError",
    "error_message": "name 'N' is not defined"
  },
  "155.py": {
    "successful": false,
    "error_type": "TypeError",
    "error_message": "object of type 'map' has no len()"
  },
  "156.py": {
    "successful": false,
    "error_type": "TypeError",
    "error_message": "list indices must be integers or slices, not list"
  },
  "157.py": {
    "successful": false,
    "error_type": "ValueError",
    "error_message": "range() arg 3 must not be zero"
  },
  "158.py": {
    "successful": false,
    "error_type": "AssertionError"
  },
  "159.py": {
    "successful": false,
    "error_type": "IndexError",
    "error_message": "list index out of range"
  },
  "160.py": {
    "successful": false,
    "error_type": "TypeError",
    "error_message": "minPath.<locals>.minPath() missing 1 required positional argument"
  },
  "161.py": {
    "successful": false,
    "error_type": "TypeError",
    "error_message": "'int' object is not iterable"
  },
  "162.py": {
    "successful": false,
    "error_type": "AssertionError"
  },
  "163.py": {
    "successful": false,
    "error_type": "TypeError",
    "error_message": "unhashable type"
  },
  "164.py": {
    "successful": false,
    "error_type": "NameError",
    "error_message": "name 'N' is not defined"
  },
  "165.py": {
    "successful": false,
    "error_type": "NameError",
    "error_message": "name 'N' is not defined"
  },
  "166.py": {
    "successful": false,
    "error_type": "AttributeError",
    "error_message": "'function' object has no attribute 'append'"
  },
  "167.py": {
    "successful": false,
    "error_type": "IndentationError",
    "error_message": "expected an indented block after 'if' statement on line 21"
  },
  "168.py": {
    "successful": false,
    "error_type": "TypeError",
    "error_message": "'tuple' object does not support item assignment"
  },
  "169.py": {
    "successful": false,
    "error_type": "SyntaxError",
    "error_message": "'[' was never closed"
  },
  "170.py": {
    "successful": false,
    "error_type": "NameError",
    "error_message": "name 'N' is not defined"
  },
  "171.py": {
    "successful": false,
    "error_type": "SyntaxError",
    "error_message": "expected '"
  },
  "172.py": {
    "successful": false,
    "error_type": "IndexError",
    "error_message": "list index out of range"
  },
  "173.py": {
    "successful": false,
    "error_type": "AttributeError",
    "error_message": "'list' object has no attribute 'shape'"
  },
  "174.py": {
    "successful": false,
    "error_type": "IndentationError",
    "error_message": "expected an indented block after 'while' statement on line 15"
  },
  "175.py": {
    "successful": false,
    "error_type": "TypeError",
    "error_message": "list indices must be integers or slices, not list"
  },
  "177.py": {
    "successful": false,
    "error_type": "IndentationError",
    "error_message": "expected an indented block after function definition on line 2"
  },
  "178.py": {
    "successful": false,
    "error_type": "NameError",
    "error_message": "name 'N' is not defined"
  },
  "179.py": {
    "successful": false,
    "error_type": "AssertionError"
  },
  "180.py": {
    "successful": false,
    "error_type": "AssertionError"
  },
  "181.py": {
    "successful": false,
    "error_type": "NameError",
    "error_message": "name 'N' is not defined"
  },
  "182.py": {
    "successful": false,
    "error_type": "NameError",
    "error_message": "name 'np' is not defined"
  },
  "183.py": {
    "successful": false,
    "error_type": "TypeError",
    "error_message": "int() argument must be a string, a bytes-like object or a real number, not 'list'"
  },
  "184.py": {
    "successful": false,
    "error_type": "TypeError",
    "error_message": "int() argument must be a string, a bytes-like object or a real number, not 'tuple'"
  },
  "185.py": {
    "successful": false,
    "error_type": "AssertionError"
  },
  "186.py": {
    "successful": false,
    "error_type": "AssertionError"
  },
  "187.py": {
    "successful": false,
    "error_type": "TypeError",
    "error_message": "list indices must be integers or slices, not list"
  },
  "188.py": {
    "successful": false,
    "error_type": "NameError",
    "error_message": "name 'N' is not defined. Did you mean"
  },
  "189.py": {
    "successful": false,
    "error_type": "AssertionError"
  },
  "190.py": {
    "successful": false,
    "error_type": "AssertionError"
  },
  "191.py": {
    "successful": false,
    "error_type": "SyntaxError",
    "error_message": "invalid syntax"
  },
  "192.py": {
    "successful": false,
    "error_type": "SyntaxError",
    "error_message": "'(' was never closed"
  },
  "193.py": {
    "successful": false,
    "error_type": "IndexError",
    "error_message": "list index out of range"
  },
  "194.py": {
    "successful": false,
    "error_type": "IndexError",
    "error_message": "list index out of range"
  },
  "195.py": {
    "successful": false,
    "error_type": "IndentationError",
    "error_message": "expected an indented block after 'if' statement on line 11"
  },
  "196.py": {
    "successful": false,
    "error_type": "AssertionError"
  },
  "197.py": {
    "successful": false,
    "error_type": "AssertionError"
  },
  "198.py": {
    "successful": false,
    "error_type": "AssertionError"
  },
  "199.py": {
    "successful": false,
    "error_type": "SyntaxError",
    "error_message": "'(' was never closed"
  }
}