{
  "test_complete": true,
  "0.py": {
    "successful": false,
    "error_type": "AssertionError"
  },
  "1.py": {
    "successful": false,
    "error_type": "TypeError",
    "error_message": "object of type 'int' has no len()"
  },
  "2.py": {
    "successful": false,
    "error_type": "TypeError",
    "error_message": "object of type 'int' has no len()"
  },
  "3.py": {
    "successful": false,
    "error_type": "AssertionError"
  },
  "4.py": {
    "successful": false,
    "error_type": "AttributeError",
    "error_message": "'int' object has no attribute 'ljust'"
  },
  "5.py": {
    "successful": false,
    "error_type": "IndexError",
    "error_message": "string index out of range"
  },
  "7.py": {
    "successful": false,
    "error_type": "ValueError",
    "error_message": "You have passed a non-numeric type to the function, please convert it to a numeric type."
  },
  "8.py": {
    "successful": false,
    "error_type": "TypeError",
    "error_message": "'int' object is not iterable"
  },
  "9.py": {
    "successful": false,
    "error_type": "NameError",
    "error_message": "name 'long' is not defined"
  },
  "10.py": {
    "successful": false,
    "error_type": "AssertionError"
  },
  "11.py": {
    "successful": false,
    "error_type": "ValueError",
    "error_message": "not enough values to unpack (expected 3, got 2)"
  },
  "12.py": {
    "successful": false,
    "error_type": "TypeError",
    "error_message": "'int' object is not subscriptable"
  },
  "13.py": {
    "successful": false,
    "error_type": "SyntaxError",
    "error_message": "invalid syntax"
  },
  "14.py": {
    "successful": false,
    "error_type": "TypeError",
    "error_message": "'int' object is not iterable"
  },
  "15.py": {
    "successful": false,
    "error_type": "TypeError",
    "error_message": "'int' object is not iterable"
  },
  "16.py": {
    "successful": false,
    "error_type": "AssertionError"
  },
  "17.py": {
    "successful": false,
    "error_type": "TypeError",
    "error_message": "unsupported operand type(s) for +"
  },
  "18.py": {
    "successful": false,
    "error_type": "TypeError",
    "error_message": "object of type 'int' has no len()"
  },
  "19.py": {
    "successful": false,
    "error_type": "AssertionError"
  },
  "20.py": {
    "successful": false,
    "error_type": "AssertionError"
  },
  "22.py": {
    "successful": false,
    "error_type": "AssertionError"
  },
  "23.py": {
    "successful": false,
    "error_type": "TypeError",
    "error_message": "'int' object is not iterable"
  },
  "24.py": {
    "successful": false,
    "error_type": "TypeError",
    "error_message": "'int' object is not iterable"
  },
  "25.py": {
    "successful": false,
    "error_type": "TypeError",
    "error_message": "object of type 'int' has no len()"
  },
  "26.py": {
    "successful": false,
    "error_type": "TypeError",
    "error_message": "'int' object is not iterable"
  },
  "27.py": {
    "successful": false,
    "error_type": "TypeError",
    "error_message": "object of type 'int' has no len()"
  },
  "28.py": {
    "successful": false,
    "error_type": "TypeError",
    "error_message": "must be str, not int"
  },
  "29.py": {
    "successful": false,
    "error_type": "TypeError",
    "error_message": "object of type 'int' has no len()"
  },
  "30.py": {
    "successful": false,
    "error_type": "AssertionError"
  },
  "31.py": {
    "successful": false,
    "error_type": "AssertionError"
  },
  "32.py": {
    "successful": false,
    "error_type": "SyntaxError",
    "error_message": "invalid syntax. Maybe you meant '==' or '"
  },
  "33.py": {
    "successful": false,
    "error_type": "AssertionError"
  },
  "34.py": {
    "successful": false,
    "error_type": "AssertionError"
  },
  "35.py": {
    "successful": false,
    "error_type": "AssertionError"
  },
  "37.py": {
    "successful": false,
    "error_type": "TypeError",
    "error_message": "'int' object is not iterable"
  },
  "38.py": {
    "successful": false,
    "error_type": "AssertionError"
  },
  "39.py": {
    "successful": false,
    "error_type": "TypeError",
    "error_message": "object of type 'int' has no len()"
  },
  "40.py": {
    "successful": false,
    "error_type": "TypeError",
    "error_message": "can't multiply sequence by non-int of type 'float'"
  },
  "41.py": {
    "successful": false,
    "error_type": "TypeError",
    "error_message": "'int' object is not iterable"
  },
  "42.py": {
    "successful": false,
    "error_type": "TypeError",
    "error_message": "'int' object is not iterable"
  },
  "43.py": {
    "successful": false,
    "error_type": "NameError",
    "error_message": "name 'decimals' is not defined. Did you mean"
  },
  "44.py": {
    "successful": false,
    "error_type": "AssertionError"
  },
  "45.py": {
    "successful": false,
    "error_type": "AssertionError"
  },
  "46.py": {
    "successful": false,
    "error_type": "TypeError",
    "error_message": "decoding to str"
  },
  "47.py": {
    "successful": false,
    "error_type": "TypeError",
    "error_message": "object of type 'int' has no len()"
  },
  "48.py": {
    "successful": false,
    "error_type": "NotImplementedError",
    "error_message": "This function does not exists for now"
  },
  "49.py": {
    "successful": false,
    "error_type": "TypeError",
    "error_message": "'int' object is not iterable"
  },
  "50.py": {
    "successful": false,
    "error_type": "TypeError",
    "error_message": "'int' object is not iterable"
  },
  "51.py": {
    "successful": false,
    "error_type": "AssertionError"
  },
  "52.py": {
    "successful": false,
    "error_type": "NameError",
    "error_message": "name 'binary' is not defined"
  },
  "53.py": {
    "successful": false,
    "error_type": "NameError",
    "error_message": "name 'decimal_digits' is not defined"
  },
  "54.py": {
    "successful": false,
    "error_type": "AssertionError"
  },
  "55.py": {
    "successful": false,
    "error_type": "NameError",
    "error_message": "name 'decimal_length' is not defined"
  },
  "56.py": {
    "successful": false,
    "error_type": "ValueError",
    "error_message": "0 is too small"
  },
  "57.py": {
    "successful": false,
    "error_type": "NameError",
    "error_message": "name 're' is not defined"
  },
  "58.py": {
    "successful": false,
    "error_type": "IndentationError",
    "error_message": "expected an indented block after function definition on line 1"
  },
  "59.py": {
    "successful": false,
    "error_type": "TypeError",
    "error_message": "'int' object is not iterable"
  },
  "60.py": {
    "successful": false,
    "error_type": "AssertionError"
  },
  "61.py": {
    "successful": false,
    "error_type": "AttributeError",
    "error_message": "'int' object has no attribute 'to_binary'"
  },
  "62.py": {
    "successful": false,
    "error_type": "TypeError",
    "error_message": "object of type 'int' has no len()"
  },
  "63.py": {
    "successful": false,
    "error_type": "TypeError",
    "error_message": "'int' object is not iterable"
  },
  "64.py": {
    "successful": false,
    "error_type": "ValueError",
    "error_message": "Must pass a valid decimal number"
  },
  "66.py": {
    "successful": false,
    "error_type": "TypeError",
    "error_message": "object of type 'int' has no len()"
  },
  "67.py": {
    "successful": false,
    "error_type": "TypeError",
    "error_message": "'int' object is not iterable"
  },
  "68.py": {
    "successful": false,
    "error_type": "AssertionError"
  },
  "69.py": {
    "successful": false,
    "error_type": "TypeError",
    "error_message": "'int' object is not iterable"
  },
  "70.py": {
    "successful": false,
    "error_type": "IndentationError",
    "error_message": "expected an indented block after 'if' statement on line 3"
  },
  "71.py": {
    "successful": false,
    "error_type": "AssertionError"
  },
  "72.py": {
    "successful": false,
    "error_type": "TypeError",
    "error_message": "'int' object is not iterable"
  },
  "73.py": {
    "successful": false,
    "error_type": "RecursionError",
    "error_message": "maximum recursion depth exceeded"
  },
  "74.py": {
    "successful": false,
    "error_type": "TypeError",
    "error_message": "object of type 'int' has no len()"
  },
  "75.py": {
    "successful": false,
    "error_type": "TypeError",
    "error_message": "unsupported operand type(s) for +"
  },
  "76.py": {
    "successful": false,
    "error_type": "TypeError",
    "error_message": "'int' object is not iterable"
  },
  "77.py": {
    "successful": false,
    "error_type": "AssertionError"
  },
  "78.py": {
    "successful": false,
    "error_type": "AssertionError"
  },
  "79.py": {
    "successful": false,
    "error_type": "TypeError",
    "error_message": "'int' object is not iterable"
  },
  "80.py": {
    "successful": false,
    "error_type": "AssertionError"
  },
  "81.py": {
    "successful": false,
    "error_type": "AssertionError"
  },
  "82.py": {
    "successful": false,
    "error_type": "AttributeError",
    "error_message": "'int' object has no attribute 'to_binary'"
  },
  "83.py": {
    "successful": false,
    "error_type": "AssertionError"
  },
  "84.py": {
    "successful": false,
    "error_type": "AssertionError"
  },
  "85.py": {
    "successful": false,
    "error_type": "TypeError",
    "error_message": "object of type 'int' has no len()"
  },
  "86.py": {
    "successful": false,
    "error_type": "AssertionError"
  },
  "87.py": {
    "successful": false,
    "error_type": "TypeError",
    "error_message": "'int' object is not subscriptable"
  },
  "88.py": {
    "successful": false,
    "error_type": "AssertionError"
  },
  "90.py": {
    "successful": false,
    "error_type": "TypeError",
    "error_message": "'int' object is not iterable"
  },
  "91.py": {
    "successful": false,
    "error_type": "SyntaxError",
    "error_message": "expected '"
  },
  "92.py": {
    "successful": false,
    "error_type": "AssertionError"
  },
  "93.py": {
    "successful": false,
    "error_type": "NameError",
    "error_message": "name 'dec2bin' is not defined"
  },
  "94.py": {
    "successful": false,
    "error_type": "TypeError",
    "error_message": "object of type 'int' has no len()"
  },
  "95.py": {
    "successful": false,
    "error_type": "TypeError",
    "error_message": "object of type 'int' has no len()"
  },
  "96.py": {
    "successful": false,
    "error_type": "NameError",
    "error_message": "name 'dec2bin' is not defined"
  },
  "97.py": {
    "successful": false,
    "error_type": "AssertionError"
  },
  "98.py": {
    "successful": false,
    "error_type": "AssertionError"
  },
  "99.py": {
    "successful": false,
    "error_type": "TypeError",
    "error_message": "object of type 'int' has no len()"
  },
  "100.py": {
    "successful": false,
    "error_type": "ValueError",
    "error_message": "No decimal given"
  },
  "101.py": {
    "successful": false,
    "error_type": "AttributeError",
    "error_message": "'int' object has no attribute 'split'"
  },
  "102.py": {
    "successful": false,
    "error_type": "TypeError",
    "error_message": "sequence item 0"
  },
  "103.py": {
    "successful": false,
    "error_type": "TypeError",
    "error_message": "'int' object is not iterable"
  },
  "104.py": {
    "successful": false,
    "error_type": "ValueError",
    "error_message": "math domain error"
  },
  "105.py": {
    "successful": false,
    "error_type": "NameError",
    "error_message": "name 'Decimal' is not defined. Did you mean"
  },
  "106.py": {
    "successful": false,
    "error_type": "AssertionError"
  },
  "107.py": {
    "successful": false,
    "error_type": "ValueError",
    "error_message": "not enough values to unpack (expected 3, got 2)"
  },
  "108.py": {
    "successful": false,
    "error_type": "TypeError",
    "error_message": "'int' object is not iterable"
  },
  "109.py": {
    "successful": false,
    "error_type": "ValueError",
    "error_message": "No number given"
  },
  "110.py": {
    "successful": false,
    "error_type": "AssertionError"
  },
  "111.py": {
    "successful": false,
    "error_type": "AssertionError"
  },
  "112.py": {
    "successful": false,
    "error_type": "TypeError",
    "error_message": "unsupported operand type(s) for +"
  },
  "113.py": {
    "successful": false,
    "error_type": "AttributeError",
    "error_message": "'int' object has no attribute 'split'"
  },
  "114.py": {
    "successful": false,
    "error_type": "AttributeError",
    "error_message": "'int' object has no attribute 'zfill'"
  },
  "115.py": {
    "successful": false,
    "error_type": "TypeError",
    "error_message": "object of type 'int' has no len()"
  },
  "116.py": {
    "successful": false,
    "error_type": "AttributeError",
    "error_message": "'int' object has no attribute 'decode'"
  },
  "117.py": {
    "successful": false,
    "error_type": "TypeError",
    "error_message": "'int' object is not iterable"
  },
  "118.py": {
    "successful": false,
    "error_type": "AssertionError"
  },
  "119.py": {
    "successful": false,
    "error_type": "OverflowError",
    "error_message": "cannot fit 'int' into an index-sized integer"
  },
  "120.py": {
    "successful": false,
    "error_type": "TypeError",
    "error_message": "'int' object is not iterable"
  },
  "121.py": {
    "successful": false,
    "error_type": "AssertionError"
  },
  "122.py": {
    "successful": false,
    "error_type": "TypeError",
    "error_message": "object of type 'int' has no len()"
  },
  "123.py": {
    "successful": false,
    "error_type": "TypeError",
    "error_message": "sequence item 0"
  },
  "124.py": {
    "successful": false,
    "error_type": "AssertionError"
  },
  "125.py": {
    "successful": false,
    "error_type": "NameError",
    "error_message": "name 'string' is not defined"
  },
  "126.py": {
    "successful": false,
    "error_type": "AssertionError"
  },
  "127.py": {
    "successful": false,
    "error_type": "AssertionError"
  },
  "128.py": {
    "successful": false,
    "error_type": "TypeError",
    "error_message": "'int' object is not iterable"
  },
  "129.py": {
    "successful": false,
    "error_type": "AssertionError"
  },
  "130.py": {
    "successful": false,
    "error_type": "AttributeError",
    "error_message": "'int' object has no attribute 'is_bounded'"
  },
  "131.py": {
    "successful": false,
    "error_type": "SyntaxError",
    "error_message": "invalid syntax"
  },
  "132.py": {
    "successful": false,
    "error_type": "AssertionError"
  },
  "133.py": {
    "successful": false,
    "error_type": "NameError",
    "error_message": "name 'decimal_to_binary_regex_string' is not defined"
  },
  "135.py": {
    "successful": false,
    "error_type": "AssertionError"
  },
  "136.py": {
    "successful": false,
    "error_type": "TypeError",
    "error_message": "int() can't convert non-string with explicit base"
  },
  "137.py": {
    "successful": false,
    "error_type": "ValueError",
    "error_message": "Input is invalid"
  },
  "138.py": {
    "successful": false,
    "error_type": "TypeError",
    "error_message": "'int' object is not iterable"
  },
  "139.py": {
    "successful": false,
    "error_type": "AssertionError"
  },
  "140.py": {
    "successful": false,
    "error_type": "AssertionError"
  },
  "141.py": {
    "successful": false,
    "error_type": "TypeError",
    "error_message": "sequence item 0"
  },
  "142.py": {
    "successful": false,
    "error_type": "TypeError",
    "error_message": "object of type 'int' has no len()"
  },
  "143.py": {
    "successful": false,
    "error_type": "TypeError",
    "error_message": "object of type 'int' has no len()"
  },
  "145.py": {
    "successful": false,
    "error_type": "NameError",
    "error_message": "name 'string' is not defined"
  },
  "146.py": {
    "successful": false,
    "error_type": "TypeError",
    "error_message": "'int' object is not iterable"
  },
  "147.py": {
    "successful": false,
    "error_type": "NameError",
    "error_message": "name 're' is not defined"
  },
  "149.py": {
    "successful": false,
    "error_type": "TypeError",
    "error_message": "'int' object is not iterable"
  },
  "150.py": {
    "successful": false,
    "error_type": "AttributeError",
    "error_message": "'int' object has no attribute 'astype'"
  },
  "151.py": {
    "successful": false,
    "error_type": "TypeError",
    "error_message": "'int' object is not iterable"
  },
  "152.py": {
    "successful": false,
    "error_type": "TypeError",
    "error_message": "'int' object is not iterable"
  },
  "153.py": {
    "successful": false,
    "error_type": "NameError",
    "error_message": "name 'decr_zero' is not defined"
  },
  "155.py": {
    "successful": false,
    "error_type": "TypeError",
    "error_message": "'int' object is not iterable"
  },
  "156.py": {
    "successful": false,
    "error_type": "TypeError",
    "error_message": "'int' object is not iterable"
  },
  "157.py": {
    "successful": false,
    "error_type": "TypeError",
    "error_message": "'int' object is not iterable"
  },
  "158.py": {
    "successful": false,
    "error_type": "AssertionError"
  },
  "159.py": {
    "successful": false,
    "error_type": "TypeError",
    "error_message": "object of type 'int' has no len()"
  },
  "161.py": {
    "successful": false,
    "error_type": "AttributeError",
    "error_message": "'int' object has no attribute 'hexdigits'"
  },
  "162.py": {
    "successful": false,
    "error_type": "AssertionError"
  },
  "163.py": {
    "successful": false,
    "error_type": "TypeError",
    "error_message": "object of type 'int' has no len()"
  },
  "164.py": {
    "successful": false,
    "error_type": "TypeError",
    "error_message": "object of type 'int' has no len()"
  },
  "165.py": {
    "successful": false,
    "error_type": "AssertionError"
  },
  "166.py": {
    "successful": false,
    "error_type": "AssertionError"
  },
  "167.py": {
    "successful": false,
    "error_type": "TypeError",
    "error_message": "'int' object is not iterable"
  },
  "168.py": {
    "successful": false,
    "error_type": "TypeError",
    "error_message": "'int' object is not iterable"
  },
  "169.py": {
    "successful": false,
    "error_type": "AssertionError"
  },
  "170.py": {
    "successful": false,
    "error_type": "IndentationError",
    "error_message": "expected an indented block after 'if' statement on line 5"
  },
  "171.py": {
    "successful": false,
    "error_type": "TypeError",
    "error_message": "'int' object is not iterable"
  },
  "172.py": {
    "successful": false,
    "error_type": "TypeError",
    "error_message": "object of type 'int' has no len()"
  },
  "173.py": {
    "successful": false,
    "error_type": "NameError",
    "error_message": "name 'dec2bin' is not defined"
  },
  "174.py": {
    "successful": false,
    "error_type": "TypeError",
    "error_message": "'int' object is not iterable"
  },
  "175.py": {
    "successful": false,
    "error_type": "AssertionError"
  },
  "176.py": {
    "successful": false,
    "error_type": "TypeError",
    "error_message": "'int' object is not iterable"
  },
  "177.py": {
    "successful": false,
    "error_type": "NameError",
    "error_message": "name 'decimals_to_binary' is not defined. Did you mean"
  },
  "178.py": {
    "successful": false,
    "error_type": "AttributeError",
    "error_message": "'int' object has no attribute 'partition'"
  },
  "179.py": {
    "successful": false,
    "error_type": "AssertionError"
  },
  "180.py": {
    "successful": false,
    "error_type": "AssertionError"
  },
  "181.py": {
    "successful": false,
    "error_type": "TypeError",
    "error_message": "'int' object is not iterable"
  },
  "182.py": {
    "successful": false,
    "error_type": "AttributeError",
    "error_message": "'int' object has no attribute 'is_negative'"
  },
  "183.py": {
    "successful": false,
    "error_type": "SyntaxError",
    "error_message": "unterminated string literal (detected at line 20)"
  },
  "184.py": {
    "successful": false,
    "error_type": "AttributeError",
    "error_message": "'str' object has no attribute 'decode'. Did you mean"
  },
  "185.py": {
    "successful": false,
    "error_type": "TypeError",
    "error_message": "int() can't convert non-string with explicit base"
  },
  "187.py": {
    "successful": false,
    "error_type": "AssertionError"
  },
  "188.py": {
    "successful": false,
    "error_type": "TypeError",
    "error_message": "'int' object is not iterable"
  },
  "189.py": {
    "successful": false,
    "error_type": "TypeError",
    "error_message": "'int' object is not iterable"
  },
  "190.py": {
    "successful": false,
    "error_type": "AttributeError",
    "error_message": "'int' object has no attribute 'decode'"
  },
  "191.py": {
    "successful": false,
    "error_type": "TypeError",
    "error_message": "'int' object is not subscriptable"
  },
  "192.py": {
    "successful": false,
    "error_type": "TypeError",
    "error_message": "'int' object is not iterable"
  },
  "193.py": {
    "successful": false,
    "error_type": "TypeError",
    "error_message": "'int' object is not iterable"
  },
  "194.py": {
    "successful": false,
    "error_type": "TypeError",
    "error_message": "unsupported operand type(s) for -"
  },
  "195.py": {
    "successful": false,
    "error_type": "AssertionError"
  },
  "196.py": {
    "successful": false,
    "error_type": "NameError",
    "error_message": "name 'dec2bin' is not defined"
  },
  "197.py": {
    "successful": false,
    "error_type": "AssertionError"
  },
  "198.py": {
    "successful": false,
    "error_type": "TypeError",
    "error_message": "object of type 'int' has no len()"
  },
  "199.py": {
    "successful": false,
    "error_type": "SyntaxError",
    "error_message": "expected '"
  }
}