{
  "test_complete": true,
  "0.py": {
    "successful": false,
    "error_type": "AssertionError"
  },
  "1.py": {
    "successful": false,
    "error_type": "AssertionError"
  },
  "2.py": {
    "successful": false,
    "error_type": "NameError",
    "error_message": "name 'math' is not defined"
  },
  "3.py": {
    "successful": false,
    "error_type": "TypeError",
    "error_message": "unsupported operand type(s) for -"
  },
  "4.py": {
    "successful": false,
    "error_type": "NameError",
    "error_message": "name 'math' is not defined"
  },
  "5.py": {
    "successful": false,
    "error_type": "NameError",
    "error_message": "name 'mean' is not defined"
  },
  "6.py": {
    "successful": false,
    "error_type": "TypeError",
    "error_message": "unsupported operand type(s) for /="
  },
  "7.py": {
    "successful": false,
    "error_type": "NameError",
    "error_message": "name 'numpy' is not defined"
  },
  "8.py": {
    "successful": false,
    "error_type": "NameError",
    "error_message": "name 'numpy' is not defined"
  },
  "9.py": {
    "successful": false,
    "error_type": "NameError",
    "error_message": "name 'x_mean' is not defined"
  },
  "10.py": {
    "successful": false,
    "error_type": "TypeError",
    "error_message": "unsupported operand type(s) for -"
  },
  "11.py": {
    "successful": false,
    "error_type": "AssertionError"
  },
  "12.py": {
    "successful": false,
    "error_type": "NameError",
    "error_message": "name 'math' is not defined"
  },
  "13.py": {
    "successful": false,
    "error_type": "AssertionError"
  },
  "14.py": {
    "successful": false,
    "error_type": "SyntaxError",
    "error_message": "expected '('"
  },
  "15.py": {
    "successful": false,
    "error_type": "TypeError",
    "error_message": "bad operand type for abs()"
  },
  "16.py": {
    "successful": false,
    "error_type": "AssertionError"
  },
  "17.py": {
    "successful": false,
    "error_type": "AssertionError"
  },
  "18.py": {
    "successful": false,
    "error_type": "NameError",
    "error_message": "name 'numpy' is not defined"
  },
  "19.py": {
    "successful": false,
    "error_type": "NameError",
    "error_message": "name 'mean' is not defined"
  },
  "20.py": {
    "successful": false,
    "error_type": "AttributeError",
    "error_message": "'list' object has no attribute 'partition'"
  },
  "22.py": {
    "successful": false,
    "error_type": "ModuleNotFoundError",
    "error_message": "No module named 'scipy'"
  },
  "23.py": {
    "successful": false,
    "error_type": "NameError",
    "error_message": "name 'np' is not defined"
  },
  "24.py": {
    "successful": false,
    "error_type": "NameError",
    "error_message": "name 'numpy' is not defined"
  },
  "25.py": {
    "successful": false,
    "error_type": "NameError",
    "error_message": "name 'np' is not defined"
  },
  "26.py": {
    "successful": false,
    "error_type": "AssertionError"
  },
  "27.py": {
    "successful": false,
    "error_type": "AssertionError"
  },
  "28.py": {
    "successful": false,
    "error_type": "ZeroDivisionError",
    "error_message": "float division by zero"
  },
  "29.py": {
    "successful": false,
    "error_type": "TypeError",
    "error_message": "cannot unpack non-iterable float object"
  },
  "30.py": {
    "successful": false,
    "error_type": "NameError",
    "error_message": "name 'math' is not defined"
  },
  "31.py": {
    "successful": false,
    "error_type": "NameError",
    "error_message": "name 'math' is not defined"
  },
  "32.py": {
    "successful": false,
    "error_type": "AssertionError"
  },
  "33.py": {
    "successful": false,
    "error_type": "NameError",
    "error_message": "name 'sums_of_numbers' is not defined"
  },
  "34.py": {
    "successful": false,
    "error_type": "NameError",
    "error_message": "name 'math' is not defined"
  },
  "35.py": {
    "successful": false,
    "error_type": "AssertionError"
  },
  "36.py": {
    "successful": false,
    "error_type": "NameError",
    "error_message": "name 'xrange' is not defined. Did you mean"
  },
  "37.py": {
    "successful": false,
    "error_type": "NameError",
    "error_message": "name 'math' is not defined"
  },
  "38.py": {
    "successful": false,
    "error_type": "AssertionError"
  },
  "39.py": {
    "successful": false,
    "error_type": "NameError",
    "error_message": "name 'np' is not defined"
  },
  "41.py": {
    "successful": false,
    "error_type": "NameError",
    "error_message": "name 'math' is not defined"
  },
  "42.py": {
    "successful": false,
    "error_type": "TypeError",
    "error_message": "object of type 'float' has no len()"
  },
  "43.py": {
    "successful": false,
    "error_type": "AssertionError"
  },
  "44.py": {
    "successful": false,
    "error_type": "NameError",
    "error_message": "name 'mean' is not defined"
  },
  "45.py": {
    "successful": false,
    "error_type": "AssertionError"
  },
  "46.py": {
    "successful": false,
    "error_type": "TypeError",
    "error_message": "can't multiply sequence by non-int of type 'float'"
  },
  "48.py": {
    "successful": false,
    "error_type": "NameError",
    "error_message": "name 'pd' is not defined. Did you mean"
  },
  "49.py": {
    "successful": false,
    "error_type": "NameError",
    "error_message": "name 'np' is not defined"
  },
  "50.py": {
    "successful": false,
    "error_type": "NameError",
    "error_message": "name 'mean' is not defined"
  },
  "51.py": {
    "successful": false,
    "error_type": "AssertionError"
  },
  "52.py": {
    "successful": false,
    "error_type": "ValueError",
    "error_message": "not enough values to unpack (expected 3, got 2)"
  },
  "54.py": {
    "successful": false,
    "error_type": "NameError",
    "error_message": "name 'math' is not defined"
  },
  "55.py": {
    "successful": false,
    "error_type": "NameError",
    "error_message": "name 'math' is not defined"
  },
  "58.py": {
    "successful": false,
    "error_type": "AssertionError"
  },
  "59.py": {
    "successful": false,
    "error_type": "NameError",
    "error_message": "name 'bisect' is not defined"
  },
  "60.py": {
    "successful": false,
    "error_type": "AssertionError"
  },
  "61.py": {
    "successful": false,
    "error_type": "IndexError",
    "error_message": "list index out of range"
  },
  "62.py": {
    "successful": false,
    "error_type": "NameError",
    "error_message": "name 'math' is not defined"
  },
  "63.py": {
    "successful": false,
    "error_type": "NameError",
    "error_message": "name 'xrange' is not defined. Did you mean"
  },
  "64.py": {
    "successful": false,
    "error_type": "TypeError",
    "error_message": "unsupported operand type(s) for -"
  },
  "65.py": {
    "successful": false,
    "error_type": "TypeError",
    "error_message": "unsupported operand type(s) for -"
  },
  "66.py": {
    "successful": false,
    "error_type": "NameError",
    "error_message": "name 'math' is not defined"
  },
  "67.py": {
    "successful": false,
    "error_type": "AssertionError"
  },
  "68.py": {
    "successful": false,
    "error_type": "UnboundLocalError",
    "error_message": "cannot access local variable 'sum' where it is not associated with a value"
  },
  "69.py": {
    "successful": false,
    "error_type": "AssertionError"
  },
  "70.py": {
    "successful": false,
    "error_type": "ValueError",
    "error_message": "too many values to unpack (expected 2)"
  },
  "71.py": {
    "successful": false,
    "error_type": "AssertionError"
  },
  "72.py": {
    "successful": false,
    "error_type": "AttributeError",
    "error_message": "'float' object has no attribute 'mean'"
  },
  "73.py": {
    "successful": false,
    "error_type": "NameError",
    "error_message": "name 'math' is not defined"
  },
  "74.py": {
    "successful": false,
    "error_type": "NameError",
    "error_message": "name 'math' is not defined"
  },
  "75.py": {
    "successful": false,
    "error_type": "TypeError",
    "error_message": "unsupported operand type(s) for -"
  },
  "76.py": {
    "successful": false,
    "error_type": "TypeError",
    "error_message": "object of type 'float' has no len()"
  },
  "77.py": {
    "successful": false,
    "error_type": "IndexError",
    "error_message": "list index out of range"
  },
  "78.py": {
    "successful": false,
    "error_type": "NameError",
    "error_message": "name 'math' is not defined"
  },
  "79.py": {
    "successful": false,
    "error_type": "AttributeError",
    "error_message": "'list' object has no attribute 'mean'"
  },
  "80.py": {
    "successful": false,
    "error_type": "AssertionError"
  },
  "81.py": {
    "successful": false,
    "error_type": "ValueError",
    "error_message": "1.0 is not in list"
  },
  "82.py": {
    "successful": false,
    "error_type": "NameError",
    "error_message": "name 'math' is not defined"
  },
  "83.py": {
    "successful": false,
    "error_type": "AttributeError",
    "error_message": "'list' object has no attribute 'shape'"
  },
  "84.py": {
    "successful": false,
    "error_type": "NameError",
    "error_message": "name 'n' is not defined"
  },
  "85.py": {
    "successful": false,
    "error_type": "NameError",
    "error_message": "name 'np' is not defined. Did you mean"
  },
  "86.py": {
    "successful": false,
    "error_type": "NameError",
    "error_message": "name 'np' is not defined. Did you mean"
  },
  "87.py": {
    "successful": false,
    "error_type": "NameError",
    "error_message": "name 'mean' is not defined"
  },
  "88.py": {
    "successful": false,
    "error_type": "AssertionError"
  },
  "89.py": {
    "successful": false,
    "error_type": "NameError",
    "error_message": "name 'mean' is not defined"
  },
  "90.py": {
    "successful": false,
    "error_type": "NameError",
    "error_message": "name 'math' is not defined"
  },
  "91.py": {
    "successful": false,
    "error_type": "IndentationError",
    "error_message": "expected an indented block after function definition on line 2"
  },
  "92.py": {
    "successful": false,
    "error_type": "TypeError",
    "error_message": "can only concatenate list (not \"int\") to list"
  },
  "93.py": {
    "successful": false,
    "error_type": "NameError",
    "error_message": "name 'math' is not defined"
  },
  "94.py": {
    "successful": false,
    "error_type": "NameError",
    "error_message": "name 'n' is not defined"
  },
  "95.py": {
    "successful": false,
    "error_type": "AssertionError"
  },
  "96.py": {
    "successful": false,
    "error_type": "TypeError",
    "error_message": "unsupported operand type(s) for -"
  },
  "99.py": {
    "successful": false,
    "error_type": "TypeError",
    "error_message": "'float' object is not iterable"
  },
  "100.py": {
    "successful": false,
    "error_type": "TypeError",
    "error_message": "'float' object is not iterable"
  },
  "101.py": {
    "successful": false,
    "error_type": "IndentationError",
    "error_message": "expected an indented block after function definition on line 2"
  },
  "102.py": {
    "successful": false,
    "error_type": "ValueError",
    "error_message": "too many values to unpack (expected 2)"
  },
  "103.py": {
    "successful": false,
    "error_type": "NameError",
    "error_message": "name 'np' is not defined"
  },
  "104.py": {
    "successful": false,
    "error_type": "TypeError",
    "error_message": "unsupported operand type(s) for -"
  },
  "105.py": {
    "successful": false,
    "error_type": "TypeError",
    "error_message": "object of type 'float' has no len()"
  },
  "106.py": {
    "successful": false,
    "error_type": "NameError",
    "error_message": "name 'x_mean_mean' is not defined"
  },
  "107.py": {
    "successful": false,
    "error_type": "NameError",
    "error_message": "name 'x' is not defined"
  },
  "108.py": {
    "successful": false,
    "error_type": "TypeError",
    "error_message": "list indices must be integers or slices, not float"
  },
  "109.py": {
    "successful": false,
    "error_type": "NameError",
    "error_message": "name 'math' is not defined"
  },
  "112.py": {
    "successful": false,
    "error_type": "AssertionError"
  },
  "113.py": {
    "successful": false,
    "error_type": "AssertionError"
  },
  "114.py": {
    "successful": false,
    "error_type": "AssertionError"
  },
  "115.py": {
    "successful": false,
    "error_type": "NameError",
    "error_message": "name 'x' is not defined"
  },
  "116.py": {
    "successful": false,
    "error_type": "ModuleNotFoundError",
    "error_message": "No module named 'scipy'"
  },
  "118.py": {
    "successful": false,
    "error_type": "NameError",
    "error_message": "name 'n' is not defined"
  },
  "119.py": {
    "successful": false,
    "error_type": "NameError",
    "error_message": "name 'math' is not defined"
  },
  "120.py": {
    "successful": false,
    "error_type": "TypeError",
    "error_message": "'float' object is not iterable"
  },
  "121.py": {
    "successful": false,
    "error_type": "NameError",
    "error_message": "name 'math' is not defined"
  },
  "122.py": {
    "successful": false,
    "error_type": "AttributeError",
    "error_message": "'list' object has no attribute 'is_infinite'"
  },
  "123.py": {
    "successful": false,
    "error_type": "AssertionError"
  },
  "124.py": {
    "successful": false,
    "error_type": "NameError",
    "error_message": "name 'np' is not defined"
  },
  "125.py": {
    "successful": false,
    "error_type": "NameError",
    "error_message": "name 'math' is not defined"
  },
  "126.py": {
    "successful": false,
    "error_type": "AssertionError"
  },
  "127.py": {
    "successful": false,
    "error_type": "TypeError",
    "error_message": "unsupported operand type(s) for -"
  },
  "128.py": {
    "successful": false,
    "error_type": "AssertionError"
  },
  "130.py": {
    "successful": false,
    "error_type": "NameError",
    "error_message": "name 'np' is not defined"
  },
  "131.py": {
    "successful": false,
    "error_type": "AssertionError"
  },
  "132.py": {
    "successful": false,
    "error_type": "NameError",
    "error_message": "name 'math' is not defined"
  },
  "133.py": {
    "successful": false,
    "error_type": "IndexError",
    "error_message": "list assignment index out of range"
  },
  "134.py": {
    "successful": false,
    "error_type": "AttributeError",
    "error_message": "'float' object has no attribute 'count'"
  },
  "135.py": {
    "successful": false,
    "error_type": "AssertionError"
  },
  "136.py": {
    "successful": false,
    "error_type": "AssertionError"
  },
  "137.py": {
    "successful": false,
    "error_type": "NameError",
    "error_message": "name 'a_mean' is not defined"
  },
  "139.py": {
    "successful": false,
    "error_type": "AssertionError"
  },
  "140.py": {
    "successful": false,
    "error_type": "NameError",
    "error_message": "name 'math' is not defined"
  },
  "141.py": {
    "successful": false,
    "error_type": "NameError",
    "error_message": "name 'numpy' is not defined"
  },
  "142.py": {
    "successful": false,
    "error_type": "NameError",
    "error_message": "name 'median' is not defined. Did you mean"
  },
  "143.py": {
    "successful": false,
    "error_type": "NameError",
    "error_message": "name 'numpy' is not defined"
  },
  "144.py": {
    "successful": false,
    "error_type": "NameError",
    "error_message": "name 'np' is not defined. Did you mean"
  },
  "145.py": {
    "successful": false,
    "error_type": "AssertionError"
  },
  "146.py": {
    "successful": false,
    "error_type": "AssertionError"
  },
  "147.py": {
    "successful": false,
    "error_type": "AssertionError"
  },
  "148.py": {
    "successful": false,
    "error_type": "AttributeError",
    "error_message": "'list' object has no attribute 'max'"
  },
  "149.py": {
    "successful": false,
    "error_type": "AssertionError"
  },
  "150.py": {
    "successful": false,
    "error_type": "NameError",
    "error_message": "name 'numpy' is not defined"
  },
  "151.py": {
    "successful": false,
    "error_type": "NameError",
    "error_message": "name 'math' is not defined"
  },
  "152.py": {
    "successful": false,
    "error_type": "NameError",
    "error_message": "name 'math' is not defined"
  },
  "153.py": {
    "successful": false,
    "error_type": "AssertionError"
  },
  "154.py": {
    "successful": false,
    "error_type": "AttributeError",
    "error_message": "'list' object has no attribute 'mean'"
  },
  "155.py": {
    "successful": false,
    "error_type": "NameError",
    "error_message": "name 'i' is not defined. Did you mean"
  },
  "156.py": {
    "successful": false,
    "error_type": "TypeError",
    "error_message": "unsupported operand type(s) for -"
  },
  "157.py": {
    "successful": false,
    "error_type": "AssertionError"
  },
  "158.py": {
    "successful": false,
    "error_type": "TypeError",
    "error_message": "'float' object is not iterable"
  },
  "159.py": {
    "successful": false,
    "error_type": "AssertionError"
  },
  "160.py": {
    "successful": false,
    "error_type": "NameError",
    "error_message": "name 'math' is not defined"
  },
  "161.py": {
    "successful": false,
    "error_type": "UnboundLocalError",
    "error_message": "cannot access local variable 'sum' where it is not associated with a value"
  },
  "162.py": {
    "successful": false,
    "error_type": "ValueError",
    "error_message": "too many values to unpack (expected 2)"
  },
  "163.py": {
    "successful": false,
    "error_type": "NameError",
    "error_message": "name 'math' is not defined"
  },
  "164.py": {
    "successful": false,
    "error_type": "AssertionError"
  },
  "165.py": {
    "successful": false,
    "error_type": "NameError",
    "error_message": "name 'math' is not defined"
  },
  "166.py": {
    "successful": false,
    "error_type": "NameError",
    "error_message": "name 'math' is not defined"
  },
  "167.py": {
    "successful": false,
    "error_type": "TypeError",
    "error_message": "'float' object is not subscriptable"
  },
  "168.py": {
    "successful": false,
    "error_type": "NameError",
    "error_message": "name 'mean_mean' is not defined"
  },
  "169.py": {
    "successful": false,
    "error_type": "NameError",
    "error_message": "name 'math' is not defined"
  },
  "170.py": {
    "successful": false,
    "error_type": "NameError",
    "error_message": "name 'np' is not defined"
  },
  "171.py": {
    "successful": false,
    "error_type": "AssertionError"
  },
  "172.py": {
    "successful": false,
    "error_type": "IndentationError",
    "error_message": "expected an indented block after function definition on line 2"
  },
  "173.py": {
    "successful": false,
    "error_type": "AssertionError"
  },
  "174.py": {
    "successful": false,
    "error_type": "AttributeError",
    "error_message": "'list' object has no attribute 'mean'"
  },
  "175.py": {
    "successful": false,
    "error_type": "NameError",
    "error_message": "name 'np' is not defined"
  },
  "176.py": {
    "successful": false,
    "error_type": "NameError",
    "error_message": "name 'mean' is not defined"
  },
  "177.py": {
    "successful": false,
    "error_type": "TypeError",
    "error_message": "cannot unpack non-iterable float object"
  },
  "178.py": {
    "successful": false,
    "error_type": "NameError",
    "error_message": "name 'math' is not defined"
  },
  "180.py": {
    "successful": false,
    "error_type": "NameError",
    "error_message": "name 'numpy' is not defined"
  },
  "181.py": {
    "successful": false,
    "error_type": "AssertionError"
  },
  "182.py": {
    "successful": false,
    "error_type": "NameError",
    "error_message": "name 'math' is not defined"
  },
  "183.py": {
    "successful": false,
    "error_type": "AssertionError"
  },
  "184.py": {
    "successful": false,
    "error_type": "NameError",
    "error_message": "name 'math' is not defined"
  },
  "185.py": {
    "successful": false,
    "error_type": "NameError",
    "error_message": "name 'squares' is not defined"
  },
  "186.py": {
    "successful": false,
    "error_type": "TypeError",
    "error_message": "unsupported operand type(s) for -"
  },
  "188.py": {
    "successful": false,
    "error_type": "NameError",
    "error_message": "name 'math' is not defined"
  },
  "189.py": {
    "successful": false,
    "error_type": "NameError",
    "error_message": "name 'mean' is not defined"
  },
  "190.py": {
    "successful": false,
    "error_type": "NameError",
    "error_message": "name 'n' is not defined"
  },
  "191.py": {
    "successful": false,
    "error_type": "NameError",
    "error_message": "name 'math' is not defined"
  },
  "192.py": {
    "successful": false,
    "error_type": "TypeError",
    "error_message": "bad operand type for abs()"
  },
  "193.py": {
    "successful": false,
    "error_type": "NameError",
    "error_message": "name 'mean' is not defined"
  },
  "194.py": {
    "successful": false,
    "error_type": "NameError",
    "error_message": "name 'math' is not defined"
  },
  "195.py": {
    "successful": false,
    "error_type": "AttributeError",
    "error_message": "'float' object has no attribute 'astype'"
  },
  "196.py": {
    "successful": false,
    "error_type": "NameError",
    "error_message": "name 'n_mean' is not defined"
  },
  "197.py": {
    "successful": false,
    "error_type": "ModuleNotFoundError",
    "error_message": "No module named 'scipy'"
  },
  "198.py": {
    "successful": false,
    "error_type": "TypeError",
    "error_message": "unsupported operand type(s) for -"
  },
  "199.py": {
    "successful": false,
    "error_type": "NameError",
    "error_message": "name 'np' is not defined"
  }
}