{
  "test_complete": true,
  "0.py": {
    "successful": false,
    "error_type": "AssertionError"
  },
  "1.py": {
    "successful": false,
    "error_type": "NameError",
    "error_message": "name 'is_date' is not defined"
  },
  "2.py": {
    "successful": false,
    "error_type": "AssertionError"
  },
  "3.py": {
    "successful": false,
    "error_type": "TypeError",
    "error_message": "'<' not supported between instances of 'str' and 'int'"
  },
  "4.py": {
    "successful": false,
    "error_type": "AssertionError"
  },
  "5.py": {
    "successful": false,
    "error_type": "NameError",
    "error_message": "name 'valid_date_range' is not defined"
  },
  "6.py": {
    "successful": false,
    "error_type": "SyntaxError",
    "error_message": "unterminated string literal (detected at line 25)"
  },
  "7.py": {
    "successful": false,
    "error_type": "ValueError",
    "error_message": "not enough values to unpack (expected 4, got 3)"
  },
  "8.py": {
    "successful": false,
    "error_type": "AssertionError"
  },
  "9.py": {
    "successful": false,
    "error_type": "NameError",
    "error_message": "name 'datetime' is not defined"
  },
  "10.py": {
    "successful": false,
    "error_type": "NameError",
    "error_message": "name 'isdate' is not defined. Did you mean"
  },
  "11.py": {
    "successful": false,
    "error_type": "RecursionError",
    "error_message": "maximum recursion depth exceeded"
  },
  "12.py": {
    "successful": false,
    "error_type": "AttributeError",
    "error_message": "'str' object has no attribute 'pop'"
  },
  "13.py": {
    "successful": false,
    "error_type": "NameError",
    "error_message": "name 'parse_date' is not defined"
  },
  "14.py": {
    "successful": false,
    "error_type": "SyntaxError",
    "error_message": "'(' was never closed"
  },
  "15.py": {
    "successful": false,
    "error_type": "AssertionError"
  },
  "16.py": {
    "successful": false,
    "error_type": "ValueError",
    "error_message": "The date must be in the form of a number from 1 to 30 and not greater than 31"
  },
  "17.py": {
    "successful": false,
    "error_type": "NameError",
    "error_message": "name 'unicode' is not defined"
  },
  "18.py": {
    "successful": false,
    "error_type": "AssertionError"
  },
  "19.py": {
    "successful": false,
    "error_type": "AssertionError"
  },
  "20.py": {
    "successful": false,
    "error_type": "AssertionError"
  },
  "21.py": {
    "successful": false,
    "error_type": "AssertionError"
  },
  "22.py": {
    "successful": false,
    "error_type": "SyntaxError",
    "error_message": "invalid syntax"
  },
  "23.py": {
    "successful": false,
    "error_type": "NameError",
    "error_message": "name 'valid_date_check' is not defined"
  },
  "24.py": {
    "successful": false,
    "error_type": "ValueError",
    "error_message": "You have to write a function which validates a given date string and returns True if the date is valid otherwise False"
  },
  "25.py": {
    "successful": false,
    "error_type": "ValueError",
    "error_message": "invalid literal for int() with base 10"
  },
  "26.py": {
    "successful": false,
    "error_type": "NameError",
    "error_message": "name 'datetime' is not defined"
  },
  "27.py": {
    "successful": false,
    "error_type": "IndentationError",
    "error_message": "expected an indented block after 'if' statement on line 21"
  },
  "28.py": {
    "successful": false,
    "error_type": "AssertionError"
  },
  "29.py": {
    "successful": false,
    "error_type": "SyntaxError",
    "error_message": "unterminated string literal (detected at line 22)"
  },
  "30.py": {
    "successful": false,
    "error_type": "NameError",
    "error_message": "name 'datetime' is not defined"
  },
  "31.py": {
    "successful": false,
    "error_type": "ValueError",
    "error_message": "date should be between 1 and 12 days"
  },
  "32.py": {
    "successful": false,
    "error_type": "SyntaxError",
    "error_message": "invalid syntax"
  },
  "33.py": {
    "successful": false,
    "error_type": "SyntaxError",
    "error_message": "expected 'except' or 'finally' block"
  },
  "34.py": {
    "successful": false,
    "error_type": "TypeError",
    "error_message": "'<' not supported between instances of 'str' and 'int'"
  },
  "35.py": {
    "successful": false,
    "error_type": "IndentationError",
    "error_message": "unindent does not match any outer indentation level"
  },
  "36.py": {
    "successful": false,
    "error_type": "NameError",
    "error_message": "name 'valid_date_range' is not defined"
  },
  "37.py": {
    "successful": false,
    "error_type": "AssertionError"
  },
  "38.py": {
    "successful": false,
    "error_type": "NameError",
    "error_message": "name 'valid_dates_list' is not defined"
  },
  "39.py": {
    "successful": false,
    "error_type": "AssertionError"
  },
  "40.py": {
    "successful": false,
    "error_type": "IndentationError",
    "error_message": "expected an indented block after 'try' statement on line 2"
  },
  "41.py": {
    "successful": false,
    "error_type": "NameError",
    "error_message": "name 'month_re' is not defined"
  },
  "42.py": {
    "successful": false,
    "error_type": "AssertionError"
  },
  "43.py": {
    "successful": false,
    "error_type": "IndentationError",
    "error_message": "expected an indented block after 'except' statement on line 39"
  },
  "44.py": {
    "successful": false,
    "error_type": "AttributeError",
    "error_message": "'str' object has no attribute 'match'"
  },
  "45.py": {
    "successful": false,
    "error_type": "NameError",
    "error_message": "name 're' is not defined"
  },
  "46.py": {
    "successful": false,
    "error_type": "IndentationError",
    "error_message": "expected an indented block after 'if' statement on line 28"
  },
  "47.py": {
    "successful": false,
    "error_type": "AssertionError"
  },
  "48.py": {
    "successful": false,
    "error_type": "AssertionError"
  },
  "49.py": {
    "successful": false,
    "error_type": "NameError",
    "error_message": "name 're' is not defined"
  },
  "50.py": {
    "successful": false,
    "error_type": "SyntaxError",
    "error_message": "invalid syntax. Perhaps you forgot a comma?"
  },
  "51.py": {
    "successful": false,
    "error_type": "AssertionError"
  },
  "52.py": {
    "successful": false,
    "error_type": "IndentationError",
    "error_message": "expected an indented block after 'elif' statement on line 21"
  },
  "53.py": {
    "successful": false,
    "error_type": "SyntaxError",
    "error_message": "invalid syntax"
  },
  "54.py": {
    "successful": false,
    "error_type": "ValueError",
    "error_message": "invalid literal for int() with base 10"
  },
  "55.py": {
    "successful": false,
    "error_type": "NameError",
    "error_message": "name 'string_types' is not defined"
  },
  "56.py": {
    "successful": false,
    "error_type": "NameError",
    "error_message": "name 'datetime' is not defined"
  },
  "57.py": {
    "successful": false,
    "error_type": "AssertionError"
  },
  "58.py": {
    "successful": false,
    "error_type": "SyntaxError",
    "error_message": "expected 'except' or 'finally' block"
  },
  "59.py": {
    "successful": false,
    "error_type": "IndentationError",
    "error_message": "expected an indented block after 'if' statement on line 16"
  },
  "60.py": {
    "successful": false,
    "error_type": "SyntaxError",
    "error_message": "'(' was never closed"
  },
  "61.py": {
    "successful": false,
    "error_type": "SyntaxError",
    "error_message": "expected 'except' or 'finally' block"
  },
  "62.py": {
    "successful": false,
    "error_type": "AssertionError"
  },
  "63.py": {
    "successful": false,
    "error_type": "IndentationError",
    "error_message": "expected an indented block after 'elif' statement on line 23"
  },
  "64.py": {
    "successful": false,
    "error_type": "IndentationError",
    "error_message": "expected an indented block after function definition on line 1"
  },
  "65.py": {
    "successful": false,
    "error_type": "IndentationError",
    "error_message": "expected an indented block after 'if' statement on line 21"
  },
  "66.py": {
    "successful": false,
    "error_type": "IndentationError",
    "error_message": "expected an indented block after 'elif' statement on line 31"
  },
  "67.py": {
    "successful": false,
    "error_type": "NameError",
    "error_message": "name 're' is not defined"
  },
  "68.py": {
    "successful": false,
    "error_type": "NameError",
    "error_message": "name 'datetime' is not defined"
  },
  "69.py": {
    "successful": false,
    "error_type": "SyntaxError",
    "error_message": "expected 'except' or 'finally' block"
  },
  "70.py": {
    "successful": false,
    "error_type": "NameError",
    "error_message": "name 'datetime' is not defined"
  },
  "71.py": {
    "successful": false,
    "error_type": "IndentationError",
    "error_message": "expected an indented block after 'if' statement on line 23"
  },
  "72.py": {
    "successful": false,
    "error_type": "NameError",
    "error_message": "name 'datetime' is not defined"
  },
  "73.py": {
    "successful": false,
    "error_type": "AssertionError"
  },
  "74.py": {
    "successful": false,
    "error_type": "AssertionError"
  },
  "75.py": {
    "successful": false,
    "error_type": "AssertionError"
  },
  "76.py": {
    "successful": false,
    "error_type": "NameError",
    "error_message": "name 'day_name_re' is not defined"
  },
  "77.py": {
    "successful": false,
    "error_type": "AssertionError"
  },
  "78.py": {
    "successful": false,
    "error_type": "SyntaxError",
    "error_message": "expected '"
  },
  "80.py": {
    "successful": false,
    "error_type": "NameError",
    "error_message": "name 're' is not defined"
  },
  "81.py": {
    "successful": false,
    "error_type": "NameError",
    "error_message": "name 'check_date' is not defined"
  },
  "82.py": {
    "successful": false,
    "error_type": "AssertionError"
  },
  "83.py": {
    "successful": false,
    "error_type": "SyntaxError",
    "error_message": "expected 'except' or 'finally' block"
  },
  "84.py": {
    "successful": false,
    "error_type": "AssertionError"
  },
  "85.py": {
    "successful": false,
    "error_type": "AttributeError",
    "error_message": "'str' object has no attribute 'isnull'"
  },
  "86.py": {
    "successful": false,
    "error_type": "SyntaxError",
    "error_message": "expected 'except' or 'finally' block"
  },
  "87.py": {
    "successful": false,
    "error_type": "TypeError",
    "error_message": "object of type 'NoneType' has no len()"
  },
  "88.py": {
    "successful": false,
    "error_type": "AttributeError",
    "error_message": "'str' object has no attribute 'strftime'"
  },
  "89.py": {
    "successful": false,
    "error_type": "AssertionError"
  },
  "90.py": {
    "successful": false,
    "error_type": "AssertionError"
  },
  "91.py": {
    "successful": false,
    "error_type": "NameError",
    "error_message": "name 'datetime' is not defined"
  },
  "92.py": {
    "successful": false,
    "error_type": "RecursionError",
    "error_message": "maximum recursion depth exceeded"
  },
  "93.py": {
    "successful": false,
    "error_type": "SyntaxError",
    "error_message": "'(' was never closed"
  },
  "94.py": {
    "successful": false,
    "error_type": "AssertionError"
  },
  "95.py": {
    "successful": false,
    "error_type": "SyntaxError",
    "error_message": "invalid syntax"
  },
  "96.py": {
    "successful": false,
    "error_type": "AssertionError"
  },
  "98.py": {
    "successful": false,
    "error_type": "AssertionError"
  },
  "99.py": {
    "successful": false,
    "error_type": "SyntaxError",
    "error_message": "expected '"
  },
  "100.py": {
    "successful": false,
    "error_type": "AssertionError"
  },
  "101.py": {
    "successful": false,
    "error_type": "SyntaxError",
    "error_message": "expected '"
  },
  "102.py": {
    "successful": false,
    "error_type": "NameError",
    "error_message": "name 'validate_date' is not defined. Did you mean"
  },
  "103.py": {
    "successful": false,
    "error_type": "IndexError",
    "error_message": "list index out of range"
  },
  "104.py": {
    "successful": false,
    "error_type": "IndentationError",
    "error_message": "expected an indented block after 'elif' statement on line 33"
  },
  "105.py": {
    "successful": false,
    "error_type": "NameError",
    "error_message": "name 'datetime' is not defined"
  },
  "106.py": {
    "successful": false,
    "error_type": "AssertionError"
  },
  "107.py": {
    "successful": false,
    "error_type": "NameError",
    "error_message": "name 'valid_date_regex' is not defined"
  },
  "108.py": {
    "successful": false,
    "error_type": "AssertionError"
  },
  "109.py": {
    "successful": false,
    "error_type": "SyntaxError",
    "error_message": "expected 'except' or 'finally' block"
  },
  "110.py": {
    "successful": false,
    "error_type": "AssertionError"
  },
  "111.py": {
    "successful": false,
    "error_type": "SyntaxError",
    "error_message": "'(' was never closed"
  },
  "112.py": {
    "successful": false,
    "error_type": "AttributeError",
    "error_message": "'str' object has no attribute 'strftime'"
  },
  "113.py": {
    "successful": false,
    "error_type": "AssertionError"
  },
  "114.py": {
    "successful": false,
    "error_type": "ValueError",
    "error_message": "Invalid date provided"
  },
  "115.py": {
    "successful": false,
    "error_type": "SyntaxError",
    "error_message": "expected 'except' or 'finally' block"
  },
  "116.py": {
    "successful": false,
    "error_type": "AssertionError"
  },
  "117.py": {
    "successful": false,
    "error_type": "NameError",
    "error_message": "name 'datetime' is not defined"
  },
  "118.py": {
    "successful": false,
    "error_type": "SyntaxError",
    "error_message": "expected 'except' or 'finally' block"
  },
  "119.py": {
    "successful": false,
    "error_type": "AssertionError"
  },
  "120.py": {
    "successful": false,
    "error_type": "NameError",
    "error_message": "name 're' is not defined"
  },
  "121.py": {
    "successful": false,
    "error_type": "SyntaxError",
    "error_message": "invalid syntax. Perhaps you forgot a comma?"
  },
  "122.py": {
    "successful": false,
    "error_type": "SyntaxError",
    "error_message": "unterminated string literal (detected at line 22)"
  },
  "123.py": {
    "successful": false,
    "error_type": "IndentationError",
    "error_message": "expected an indented block after 'if' statement on line 28"
  },
  "124.py": {
    "successful": false,
    "error_type": "TypeError",
    "error_message": "'<' not supported between instances of 'str' and 'int'"
  },
  "125.py": {
    "successful": false,
    "error_type": "ValueError",
    "error_message": "Please give me a date in this format mm-dd-yyyy"
  },
  "126.py": {
    "successful": false,
    "error_type": "AssertionError"
  },
  "127.py": {
    "successful": false,
    "error_type": "NameError",
    "error_message": "name 'unicode' is not defined"
  },
  "128.py": {
    "successful": false,
    "error_type": "SyntaxError",
    "error_message": "expected '"
  },
  "129.py": {
    "successful": false,
    "error_type": "AssertionError"
  },
  "130.py": {
    "successful": false,
    "error_type": "NameError",
    "error_message": "name 'time' is not defined"
  },
  "131.py": {
    "successful": false,
    "error_type": "IndentationError",
    "error_message": "expected an indented block after 'if' statement on line 18"
  },
  "132.py": {
    "successful": false,
    "error_type": "AssertionError"
  },
  "133.py": {
    "successful": false,
    "error_type": "AssertionError"
  },
  "134.py": {
    "successful": false,
    "error_type": "IndentationError",
    "error_message": "expected an indented block after 'elif' statement on line 28"
  },
  "135.py": {
    "successful": false,
    "error_type": "ValueError",
    "error_message": "The date is not in a valid format."
  },
  "136.py": {
    "successful": false,
    "error_type": "SyntaxError",
    "error_message": "invalid syntax"
  },
  "137.py": {
    "successful": false,
    "error_type": "AttributeError",
    "error_message": "'list' object has no attribute 'lower'"
  },
  "138.py": {
    "successful": false,
    "error_type": "SyntaxError",
    "error_message": "expected 'except' or 'finally' block"
  },
  "139.py": {
    "successful": false,
    "error_type": "SyntaxError",
    "error_message": "expected 'except' or 'finally' block"
  },
  "140.py": {
    "successful": false,
    "error_type": "NameError",
    "error_message": "name 'datetime' is not defined"
  },
  "141.py": {
    "successful": false,
    "error_type": "NameError",
    "error_message": "name 'unicode' is not defined"
  },
  "142.py": {
    "successful": false,
    "error_type": "RecursionError",
    "error_message": "maximum recursion depth exceeded"
  },
  "143.py": {
    "successful": false,
    "error_type": "NameError",
    "error_message": "name 'datetime' is not defined"
  },
  "144.py": {
    "successful": false,
    "error_type": "AssertionError"
  },
  "145.py": {
    "successful": false,
    "error_type": "IndentationError",
    "error_message": "expected an indented block after 'except' statement on line 28"
  },
  "146.py": {
    "successful": false,
    "error_type": "SyntaxError",
    "error_message": "expected 'except' or 'finally' block"
  },
  "147.py": {
    "successful": false,
    "error_type": "IndentationError",
    "error_message": "expected an indented block after 'for' statement on line 25"
  },
  "148.py": {
    "successful": false,
    "error_type": "IndentationError",
    "error_message": "expected an indented block after 'try' statement on line 23"
  },
  "149.py": {
    "successful": false,
    "error_type": "AssertionError"
  },
  "150.py": {
    "successful": false,
    "error_type": "AssertionError"
  },
  "151.py": {
    "successful": false,
    "error_type": "AttributeError",
    "error_message": "'list' object has no attribute 'split'"
  },
  "152.py": {
    "successful": false,
    "error_type": "NameError",
    "error_message": "name 're' is not defined"
  },
  "153.py": {
    "successful": false,
    "error_type": "AssertionError"
  },
  "154.py": {
    "successful": false,
    "error_type": "SyntaxError",
    "error_message": "'(' was never closed"
  },
  "155.py": {
    "successful": false,
    "error_type": "SyntaxError",
    "error_message": "unterminated string literal (detected at line 26)"
  },
  "156.py": {
    "successful": false,
    "error_type": "ValueError",
    "error_message": "The date must be in the format"
  },
  "157.py": {
    "successful": false,
    "error_type": "SyntaxError",
    "error_message": "expected '"
  },
  "158.py": {
    "successful": false,
    "error_type": "AssertionError"
  },
  "159.py": {
    "successful": false,
    "error_type": "AssertionError"
  },
  "160.py": {
    "successful": false,
    "error_type": "ValueError",
    "error_message": "Invalid date"
  },
  "161.py": {
    "successful": false,
    "error_type": "IndentationError",
    "error_message": "expected an indented block after 'if' statement on line 17"
  },
  "162.py": {
    "successful": false,
    "error_type": "ValueError",
    "error_message": "The date is not a number."
  },
  "163.py": {
    "successful": false,
    "error_type": "SyntaxError",
    "error_message": "unterminated string literal (detected at line 3)"
  },
  "164.py": {
    "successful": false,
    "error_type": "NameError",
    "error_message": "name 'is_valid_date' is not defined. Did you mean"
  },
  "165.py": {
    "successful": false,
    "error_type": "AssertionError"
  },
  "166.py": {
    "successful": false,
    "error_type": "AssertionError"
  },
  "167.py": {
    "successful": false,
    "error_type": "NameError",
    "error_message": "name 'datetime' is not defined"
  },
  "168.py": {
    "successful": false,
    "error_type": "SyntaxError",
    "error_message": "'(' was never closed"
  },
  "169.py": {
    "successful": false,
    "error_type": "NameError",
    "error_message": "name 'date_names' is not defined"
  },
  "170.py": {
    "successful": false,
    "error_type": "AssertionError"
  },
  "171.py": {
    "successful": false,
    "error_type": "SyntaxError",
    "error_message": "expected 'except' or 'finally' block"
  },
  "172.py": {
    "successful": false,
    "error_type": "AssertionError"
  },
  "173.py": {
    "successful": false,
    "error_type": "AssertionError"
  },
  "174.py": {
    "successful": false,
    "error_type": "NameError",
    "error_message": "name 'datetime' is not defined. Did you mean"
  },
  "175.py": {
    "successful": false,
    "error_type": "SyntaxError",
    "error_message": "invalid syntax"
  },
  "176.py": {
    "successful": false,
    "error_type": "IndentationError",
    "error_message": "unindent does not match any outer indentation level"
  },
  "177.py": {
    "successful": false,
    "error_type": "NameError",
    "error_message": "name 're' is not defined"
  },
  "178.py": {
    "successful": false,
    "error_type": "AssertionError"
  },
  "179.py": {
    "successful": false,
    "error_type": "AssertionError"
  },
  "180.py": {
    "successful": false,
    "error_type": "AssertionError"
  },
  "182.py": {
    "successful": false,
    "error_type": "SyntaxError",
    "error_message": "Missing parentheses in call to 'print'. Did you mean print(...)?"
  },
  "183.py": {
    "successful": false,
    "error_type": "AssertionError"
  },
  "184.py": {
    "successful": false,
    "error_type": "SyntaxError",
    "error_message": "expected '"
  },
  "185.py": {
    "successful": false,
    "error_type": "IndentationError",
    "error_message": "expected an indented block after 'if' statement on line 24"
  },
  "186.py": {
    "successful": false,
    "error_type": "NameError",
    "error_message": "name 'six' is not defined"
  },
  "187.py": {
    "successful": false,
    "error_type": "NameError",
    "error_message": "name 're' is not defined"
  },
  "188.py": {
    "successful": false,
    "error_type": "AssertionError"
  },
  "189.py": {
    "successful": false,
    "error_type": "AssertionError"
  },
  "190.py": {
    "successful": false,
    "error_type": "IndentationError",
    "error_message": "expected an indented block after 'if' statement on line 21"
  },
  "191.py": {
    "successful": false,
    "error_type": "NameError",
    "error_message": "name 'string_types' is not defined"
  },
  "192.py": {
    "successful": false,
    "error_type": "SyntaxError",
    "error_message": "'(' was never closed"
  },
  "193.py": {
    "successful": false,
    "error_type": "ValueError",
    "error_message": "The date can not be in this format"
  },
  "194.py": {
    "successful": false,
    "error_type": "SyntaxError",
    "error_message": "unterminated string literal (detected at line 11)"
  },
  "195.py": {
    "successful": false,
    "error_type": "AssertionError"
  },
  "196.py": {
    "successful": false,
    "error_type": "NameError",
    "error_message": "name 're' is not defined"
  },
  "197.py": {
    "successful": false,
    "error_type": "AssertionError"
  },
  "198.py": {
    "successful": false,
    "error_type": "AssertionError"
  },
  "199.py": {
    "successful": false,
    "error_type": "IndentationError",
    "error_message": "expected an indented block after 'elif' statement on line 32"
  }
}