{
  "test_complete": true,
  "0.py": {
    "successful": false,
    "error_type": "AssertionError"
  },
  "1.py": {
    "successful": false,
    "error_type": "RecursionError",
    "error_message": "maximum recursion depth exceeded"
  },
  "2.py": {
    "successful": false,
    "error_type": "AssertionError"
  },
  "3.py": {
    "successful": false,
    "error_type": "NameError",
    "error_message": "name 'fib' is not defined. Did you mean"
  },
  "5.py": {
    "successful": false,
    "error_type": "RecursionError",
    "error_message": "maximum recursion depth exceeded"
  },
  "6.py": {
    "successful": false,
    "error_type": "NameError",
    "error_message": "name 'fib' is not defined. Did you mean"
  },
  "7.py": {
    "successful": false,
    "error_type": "AssertionError"
  },
  "9.py": {
    "successful": false,
    "error_type": "RecursionError",
    "error_message": "maximum recursion depth exceeded in comparison"
  },
  "10.py": {
    "successful": false,
    "error_type": "RecursionError",
    "error_message": "maximum recursion depth exceeded"
  },
  "13.py": {
    "successful": false,
    "error_type": "AssertionError"
  },
  "14.py": {
    "successful": false,
    "error_type": "AssertionError"
  },
  "15.py": {
    "successful": false,
    "error_type": "NameError",
    "error_message": "name 'fibbonacci' is not defined"
  },
  "16.py": {
    "successful": false,
    "error_type": "SyntaxError",
    "error_message": "'(' was never closed"
  },
  "17.py": {
    "successful": false,
    "error_type": "AssertionError"
  },
  "18.py": {
    "successful": false,
    "error_type": "AssertionError"
  },
  "19.py": {
    "successful": false,
    "error_type": "AssertionError"
  },
  "23.py": {
    "successful": false,
    "error_type": "AssertionError"
  },
  "24.py": {
    "successful": false,
    "error_type": "RecursionError",
    "error_message": "maximum recursion depth exceeded while calling a Python object"
  },
  "26.py": {
    "successful": false,
    "error_type": "NameError",
    "error_message": "name 'xrange' is not defined. Did you mean"
  },
  "27.py": {
    "successful": false,
    "error_type": "RecursionError",
    "error_message": "maximum recursion depth exceeded"
  },
  "28.py": {
    "successful": false,
    "error_type": "AssertionError"
  },
  "29.py": {
    "successful": false,
    "error_type": "NameError",
    "error_message": "name 'fib3' is not defined. Did you mean"
  },
  "30.py": {
    "successful": false,
    "error_type": "AssertionError"
  },
  "31.py": {
    "successful": false,
    "error_type": "ValueError",
    "error_message": "too many values to unpack (expected 6)"
  },
  "32.py": {
    "successful": true
  },
  "33.py": {
    "successful": false,
    "error_type": "TimeOut"
  },
  "34.py": {
    "successful": false,
    "error_type": "AssertionError"
  },
  "35.py": {
    "successful": false,
    "error_type": "AssertionError"
  },
  "36.py": {
    "successful": false,
    "error_type": "IndexError",
    "error_message": "list index out of range"
  },
  "39.py": {
    "successful": false,
    "error_type": "NameError",
    "error_message": "name 'fib' is not defined. Did you mean"
  },
  "40.py": {
    "successful": false,
    "error_type": "RecursionError",
    "error_message": "maximum recursion depth exceeded"
  },
  "41.py": {
    "successful": false,
    "error_type": "AssertionError"
  },
  "42.py": {
    "successful": false,
    "error_type": "RecursionError",
    "error_message": "maximum recursion depth exceeded"
  },
  "43.py": {
    "successful": false,
    "error_type": "NameError",
    "error_message": "name 'fib' is not defined. Did you mean"
  },
  "45.py": {
    "successful": false,
    "error_type": "RecursionError",
    "error_message": "maximum recursion depth exceeded"
  },
  "46.py": {
    "successful": false,
    "error_type": "AssertionError"
  },
  "47.py": {
    "successful": false,
    "error_type": "RecursionError",
    "error_message": "maximum recursion depth exceeded"
  },
  "49.py": {
    "successful": false,
    "error_type": "AssertionError"
  },
  "50.py": {
    "successful": false,
    "error_type": "RecursionError",
    "error_message": "maximum recursion depth exceeded"
  },
  "53.py": {
    "successful": false,
    "error_type": "RecursionError",
    "error_message": "maximum recursion depth exceeded"
  },
  "55.py": {
    "successful": false,
    "error_type": "RecursionError",
    "error_message": "maximum recursion depth exceeded"
  },
  "56.py": {
    "successful": false,
    "error_type": "AssertionError"
  },
  "57.py": {
    "successful": false,
    "error_type": "AssertionError"
  },
  "63.py": {
    "successful": false,
    "error_type": "TypeError",
    "error_message": "'int' object is not iterable"
  },
  "64.py": {
    "successful": false,
    "error_type": "ValueError",
    "error_message": "too many values to unpack (expected 2)"
  },
  "65.py": {
    "successful": false,
    "error_type": "AssertionError"
  },
  "66.py": {
    "successful": false,
    "error_type": "AssertionError"
  },
  "67.py": {
    "successful": false,
    "error_type": "AssertionError"
  },
  "68.py": {
    "successful": false,
    "error_type": "AssertionError"
  },
  "69.py": {
    "successful": false,
    "error_type": "AssertionError"
  },
  "70.py": {
    "successful": false,
    "error_type": "AssertionError"
  },
  "71.py": {
    "successful": false,
    "error_type": "NameError",
    "error_message": "name 'fib' is not defined. Did you mean"
  },
  "72.py": {
    "successful": false,
    "error_type": "AssertionError"
  },
  "74.py": {
    "successful": false,
    "error_type": "AssertionError"
  },
  "76.py": {
    "successful": false,
    "error_type": "AssertionError"
  },
  "77.py": {
    "successful": false,
    "error_type": "AssertionError"
  },
  "78.py": {
    "successful": false,
    "error_type": "IndexError",
    "error_message": "list index out of range"
  },
  "80.py": {
    "successful": false,
    "error_type": "AssertionError"
  },
  "81.py": {
    "successful": false,
    "error_type": "AssertionError"
  },
  "83.py": {
    "successful": false,
    "error_type": "AssertionError"
  },
  "84.py": {
    "successful": false,
    "error_type": "RecursionError",
    "error_message": "maximum recursion depth exceeded"
  },
  "85.py": {
    "successful": false,
    "error_type": "AssertionError"
  },
  "87.py": {
    "successful": false,
    "error_type": "RecursionError",
    "error_message": "maximum recursion depth exceeded in comparison"
  },
  "90.py": {
    "successful": false,
    "error_type": "AssertionError"
  },
  "91.py": {
    "successful": false,
    "error_type": "AssertionError"
  },
  "92.py": {
    "successful": false,
    "error_type": "AssertionError"
  },
  "95.py": {
    "successful": false,
    "error_type": "AssertionError"
  },
  "96.py": {
    "successful": false,
    "error_type": "AssertionError"
  },
  "97.py": {
    "successful": false,
    "error_type": "AssertionError"
  },
  "98.py": {
    "successful": false,
    "error_type": "AssertionError"
  },
  "99.py": {
    "successful": false,
    "error_type": "AssertionError"
  },
  "100.py": {
    "successful": false,
    "error_type": "RecursionError",
    "error_message": "maximum recursion depth exceeded"
  },
  "101.py": {
    "successful": false,
    "error_type": "NameError",
    "error_message": "name 'fib' is not defined. Did you mean"
  },
  "102.py": {
    "successful": false,
    "error_type": "AssertionError"
  },
  "103.py": {
    "successful": false,
    "error_type": "SyntaxError",
    "error_message": "cannot assign to function call here. Maybe you meant '==' instead of '='?"
  },
  "105.py": {
    "successful": false,
    "error_type": "RecursionError",
    "error_message": "maximum recursion depth exceeded"
  },
  "106.py": {
    "successful": false,
    "error_type": "AssertionError"
  },
  "107.py": {
    "successful": false,
    "error_type": "AssertionError"
  },
  "108.py": {
    "successful": false,
    "error_type": "AssertionError"
  },
  "110.py": {
    "successful": false,
    "error_type": "AssertionError"
  },
  "111.py": {
    "successful": false,
    "error_type": "NameError",
    "error_message": "name 'fib3' is not defined. Did you mean"
  },
  "113.py": {
    "successful": false,
    "error_type": "AssertionError"
  },
  "114.py": {
    "successful": false,
    "error_type": "AssertionError"
  },
  "115.py": {
    "successful": false,
    "error_type": "TypeError",
    "error_message": "can only concatenate tuple (not \"int\") to tuple"
  },
  "116.py": {
    "successful": false,
    "error_type": "RecursionError",
    "error_message": "maximum recursion depth exceeded"
  },
  "117.py": {
    "successful": false,
    "error_type": "AssertionError"
  },
  "118.py": {
    "successful": false,
    "error_type": "AssertionError"
  },
  "122.py": {
    "successful": false,
    "error_type": "AssertionError"
  },
  "123.py": {
    "successful": false,
    "error_type": "AssertionError"
  },
  "125.py": {
    "successful": false,
    "error_type": "TimeOut"
  },
  "126.py": {
    "successful": false,
    "error_type": "RecursionError",
    "error_message": "maximum recursion depth exceeded"
  },
  "130.py": {
    "successful": false,
    "error_type": "RecursionError",
    "error_message": "maximum recursion depth exceeded in comparison"
  },
  "131.py": {
    "successful": false,
    "error_type": "RecursionError",
    "error_message": "maximum recursion depth exceeded"
  },
  "132.py": {
    "successful": false,
    "error_type": "AssertionError"
  },
  "133.py": {
    "successful": false,
    "error_type": "RecursionError",
    "error_message": "maximum recursion depth exceeded"
  },
  "134.py": {
    "successful": false,
    "error_type": "RecursionError",
    "error_message": "maximum recursion depth exceeded"
  },
  "141.py": {
    "successful": false,
    "error_type": "AssertionError"
  },
  "143.py": {
    "successful": false,
    "error_type": "AssertionError"
  },
  "144.py": {
    "successful": false,
    "error_type": "AssertionError"
  },
  "145.py": {
    "successful": false,
    "error_type": "NameError",
    "error_message": "name 'fib' is not defined. Did you mean"
  },
  "146.py": {
    "successful": false,
    "error_type": "TimeOut"
  },
  "147.py": {
    "successful": false,
    "error_type": "AssertionError"
  },
  "148.py": {
    "successful": false,
    "error_type": "AssertionError"
  },
  "149.py": {
    "successful": false,
    "error_type": "AssertionError"
  },
  "150.py": {
    "successful": false,
    "error_type": "AssertionError"
  },
  "151.py": {
    "successful": false,
    "error_type": "AssertionError"
  },
  "152.py": {
    "successful": false,
    "error_type": "AssertionError"
  },
  "153.py": {
    "successful": false,
    "error_type": "AssertionError"
  },
  "154.py": {
    "successful": false,
    "error_type": "AssertionError"
  },
  "155.py": {
    "successful": false,
    "error_type": "RecursionError",
    "error_message": "maximum recursion depth exceeded"
  },
  "156.py": {
    "successful": false,
    "error_type": "AssertionError"
  },
  "157.py": {
    "successful": false,
    "error_type": "AssertionError"
  },
  "158.py": {
    "successful": false,
    "error_type": "NameError",
    "error_message": "name 'fib' is not defined. Did you mean"
  },
  "159.py": {
    "successful": false,
    "error_type": "NameError",
    "error_message": "name 'fib' is not defined. Did you mean"
  },
  "162.py": {
    "successful": false,
    "error_type": "AssertionError"
  },
  "163.py": {
    "successful": false,
    "error_type": "ValueError",
    "error_message": "not enough values to unpack (expected 8, got 4)"
  },
  "164.py": {
    "successful": false,
    "error_type": "AssertionError"
  },
  "166.py": {
    "successful": false,
    "error_type": "NameError",
    "error_message": "name 'xrange' is not defined. Did you mean"
  },
  "167.py": {
    "successful": false,
    "error_type": "AssertionError"
  },
  "168.py": {
    "successful": false,
    "error_type": "RecursionError",
    "error_message": "maximum recursion depth exceeded"
  },
  "169.py": {
    "successful": false,
    "error_type": "RecursionError",
    "error_message": "maximum recursion depth exceeded in comparison"
  },
  "170.py": {
    "successful": false,
    "error_type": "AssertionError"
  },
  "171.py": {
    "successful": false,
    "error_type": "AssertionError"
  },
  "172.py": {
    "successful": false,
    "error_type": "RecursionError",
    "error_message": "maximum recursion depth exceeded"
  },
  "175.py": {
    "successful": false,
    "error_type": "RecursionError",
    "error_message": "maximum recursion depth exceeded"
  },
  "176.py": {
    "successful": false,
    "error_type": "NameError",
    "error_message": "name 'fib' is not defined. Did you mean"
  },
  "177.py": {
    "successful": false,
    "error_type": "AssertionError"
  },
  "178.py": {
    "successful": false,
    "error_type": "RecursionError",
    "error_message": "maximum recursion depth exceeded"
  },
  "180.py": {
    "successful": false,
    "error_type": "RecursionError",
    "error_message": "maximum recursion depth exceeded"
  },
  "181.py": {
    "successful": false,
    "error_type": "NameError",
    "error_message": "name 'fib3' is not defined. Did you mean"
  },
  "183.py": {
    "successful": false,
    "error_type": "NameError",
    "error_message": "name 'fib3' is not defined. Did you mean"
  },
  "184.py": {
    "successful": false,
    "error_type": "AssertionError"
  },
  "185.py": {
    "successful": false,
    "error_type": "AssertionError"
  },
  "186.py": {
    "successful": false,
    "error_type": "AssertionError"
  },
  "188.py": {
    "successful": false,
    "error_type": "AssertionError"
  },
  "192.py": {
    "successful": false,
    "error_type": "AssertionError"
  },
  "193.py": {
    "successful": false,
    "error_type": "SyntaxError",
    "error_message": "invalid syntax"
  },
  "194.py": {
    "successful": false,
    "error_type": "AssertionError"
  },
  "196.py": {
    "successful": false,
    "error_type": "RecursionError",
    "error_message": "maximum recursion depth exceeded"
  },
  "198.py": {
    "successful": false,
    "error_type": "RecursionError",
    "error_message": "maximum recursion depth exceeded"
  },
  "199.py": {
    "successful": false,
    "error_type": "AssertionError"
  }
}