{
  "test_complete": true,
  "7.py": {
    "successful": true
  },
  "40.py": {
    "successful": true
  },
  "60.py": {
    "successful": true
  },
  "61.py": {
    "successful": true
  },
  "85.py": {
    "successful": true
  },
  "108.py": {
    "successful": true
  },
  "150.py": {
    "successful": true
  },
  "164.py": {
    "successful": true
  }
}