{
  "test_complete": true,
  "35.py": {
    "successful": false,
    "error_type": "NameError",
    "error_message": "name 'reduce' is not defined"
  },
  "52.py": {
    "successful": true
  },
  "78.py": {
    "successful": false,
    "error_type": "NameError",
    "error_message": "name 'reduce' is not defined"
  },
  "97.py": {
    "successful": true
  },
  "108.py": {
    "successful": true
  },
  "115.py": {
    "successful": true
  },
  "118.py": {
    "successful": false,
    "error_type": "NameError",
    "error_message": "name 'reduce' is not defined"
  }
}