{
  "test_complete": true,
  "9.py": {
    "successful": true
  },
  "61.py": {
    "successful": true
  },
  "87.py": {
    "successful": true
  },
  "106.py": {
    "successful": true
  },
  "150.py": {
    "successful": true
  }
}