{
  "test_complete": true,
  "0.py": {
    "successful": false,
    "error_type": "AssertionError"
  },
  "1.py": {
    "successful": false,
    "error_type": "AssertionError"
  },
  "2.py": {
    "successful": false,
    "error_type": "AssertionError"
  },
  "4.py": {
    "successful": false,
    "error_type": "AssertionError"
  },
  "5.py": {
    "successful": false,
    "error_type": "AssertionError"
  },
  "9.py": {
    "successful": false,
    "error_type": "AssertionError"
  },
  "10.py": {
    "successful": false,
    "error_type": "AssertionError"
  },
  "11.py": {
    "successful": false,
    "error_type": "ValueError",
    "error_message": "could not convert string to float"
  },
  "13.py": {
    "successful": false,
    "error_type": "TypeError",
    "error_message": "'>' not supported between instances of 'int' and 'str'"
  },
  "17.py": {
    "successful": false,
    "error_type": "AssertionError"
  },
  "18.py": {
    "successful": false,
    "error_type": "AssertionError"
  },
  "19.py": {
    "successful": false,
    "error_type": "TypeError",
    "error_message": "'>' not supported between instances of 'int' and 'str'"
  },
  "20.py": {
    "successful": false,
    "error_type": "TypeError",
    "error_message": "'>' not supported between instances of 'int' and 'str'"
  },
  "21.py": {
    "successful": false,
    "error_type": "AssertionError"
  },
  "30.py": {
    "successful": false,
    "error_type": "TypeError",
    "error_message": "'>' not supported between instances of 'int' and 'str'"
  },
  "34.py": {
    "successful": false,
    "error_type": "AssertionError"
  },
  "38.py": {
    "successful": false,
    "error_type": "TypeError",
    "error_message": "'>' not supported between instances of 'int' and 'str'"
  },
  "39.py": {
    "successful": false,
    "error_type": "AssertionError"
  },
  "43.py": {
    "successful": false,
    "error_type": "TypeError",
    "error_message": "'>' not supported between instances of 'int' and 'str'"
  },
  "48.py": {
    "successful": false,
    "error_type": "AssertionError"
  },
  "53.py": {
    "successful": false,
    "error_type": "AssertionError"
  },
  "57.py": {
    "successful": false,
    "error_type": "AssertionError"
  },
  "68.py": {
    "successful": false,
    "error_type": "AssertionError"
  },
  "77.py": {
    "successful": false,
    "error_type": "AssertionError"
  },
  "78.py": {
    "successful": false,
    "error_type": "AssertionError"
  },
  "84.py": {
    "successful": false,
    "error_type": "TypeError",
    "error_message": "'>' not supported between instances of 'int' and 'str'"
  },
  "85.py": {
    "successful": false,
    "error_type": "TypeError",
    "error_message": "'>' not supported between instances of 'int' and 'str'"
  },
  "96.py": {
    "successful": false,
    "error_type": "AssertionError"
  },
  "120.py": {
    "successful": false,
    "error_type": "ValueError",
    "error_message": "could not convert string to float"
  },
  "127.py": {
    "successful": false,
    "error_type": "AssertionError"
  },
  "131.py": {
    "successful": false,
    "error_type": "AssertionError"
  },
  "145.py": {
    "successful": false,
    "error_type": "AssertionError"
  },
  "147.py": {
    "successful": false,
    "error_type": "AssertionError"
  },
  "158.py": {
    "successful": false,
    "error_type": "AssertionError"
  },
  "161.py": {
    "successful": false,
    "error_type": "AssertionError"
  },
  "177.py": {
    "successful": false,
    "error_type": "TypeError",
    "error_message": "'>' not supported between instances of 'int' and 'str'"
  },
  "184.py": {
    "successful": false,
    "error_type": "SyntaxError",
    "error_message": "expected '"
  },
  "185.py": {
    "successful": false,
    "error_type": "ValueError",
    "error_message": "could not convert string to float"
  }
}