{
  "test_complete": true,
  "132.py": {
    "successful": false,
    "error_type": "AttributeError",
    "error_message": "'function' object has no attribute 'overloads'"
  },
  "173.py": {
    "successful": false,
    "error_type": "AttributeError",
    "error_message": "'function' object has no attribute 'overloads'"
  }
}