{
  "test_complete": true,
  "0.py": {
    "successful": false,
    "error_type": "AssertionError"
  },
  "2.py": {
    "successful": false,
    "error_type": "AssertionError"
  },
  "3.py": {
    "successful": false,
    "error_type": "AssertionError"
  },
  "4.py": {
    "successful": false,
    "error_type": "AssertionError"
  },
  "5.py": {
    "successful": false,
    "error_type": "AssertionError"
  },
  "6.py": {
    "successful": false,
    "error_type": "AssertionError"
  },
  "7.py": {
    "successful": false,
    "error_type": "AssertionError"
  },
  "9.py": {
    "successful": false,
    "error_type": "AssertionError"
  },
  "10.py": {
    "successful": false,
    "error_type": "AssertionError"
  },
  "11.py": {
    "successful": false,
    "error_type": "AssertionError"
  },
  "12.py": {
    "successful": false,
    "error_type": "AssertionError"
  },
  "13.py": {
    "successful": false,
    "error_type": "AssertionError"
  },
  "14.py": {
    "successful": false,
    "error_type": "AssertionError"
  },
  "16.py": {
    "successful": false,
    "error_type": "AssertionError"
  },
  "17.py": {
    "successful": false,
    "error_type": "AssertionError"
  },
  "18.py": {
    "successful": false,
    "error_type": "AssertionError"
  },
  "19.py": {
    "successful": false,
    "error_type": "AssertionError"
  },
  "20.py": {
    "successful": false,
    "error_type": "AssertionError"
  },
  "21.py": {
    "successful": false,
    "error_type": "AssertionError"
  },
  "22.py": {
    "successful": false,
    "error_type": "AssertionError"
  },
  "23.py": {
    "successful": false,
    "error_type": "AssertionError"
  },
  "25.py": {
    "successful": false,
    "error_type": "AssertionError"
  },
  "26.py": {
    "successful": false,
    "error_type": "AssertionError"
  },
  "27.py": {
    "successful": false,
    "error_type": "AssertionError"
  },
  "29.py": {
    "successful": false,
    "error_type": "AssertionError"
  },
  "30.py": {
    "successful": false,
    "error_type": "AssertionError"
  },
  "32.py": {
    "successful": false,
    "error_type": "AssertionError"
  },
  "33.py": {
    "successful": false,
    "error_type": "AssertionError"
  },
  "35.py": {
    "successful": false,
    "error_type": "AssertionError"
  },
  "36.py": {
    "successful": false,
    "error_type": "AssertionError"
  },
  "38.py": {
    "successful": false,
    "error_type": "AssertionError"
  },
  "40.py": {
    "successful": false,
    "error_type": "AssertionError"
  },
  "42.py": {
    "successful": false,
    "error_type": "AssertionError"
  },
  "43.py": {
    "successful": false,
    "error_type": "AssertionError"
  },
  "44.py": {
    "successful": false,
    "error_type": "AssertionError"
  },
  "46.py": {
    "successful": false,
    "error_type": "AssertionError"
  },
  "47.py": {
    "successful": false,
    "error_type": "AssertionError"
  },
  "48.py": {
    "successful": false,
    "error_type": "AssertionError"
  },
  "49.py": {
    "successful": false,
    "error_type": "AssertionError"
  },
  "50.py": {
    "successful": false,
    "error_type": "AssertionError"
  },
  "51.py": {
    "successful": false,
    "error_type": "AssertionError"
  },
  "52.py": {
    "successful": false,
    "error_type": "AssertionError"
  },
  "53.py": {
    "successful": false,
    "error_type": "AssertionError"
  },
  "54.py": {
    "successful": false,
    "error_type": "AssertionError"
  },
  "55.py": {
    "successful": false,
    "error_type": "AssertionError"
  },
  "57.py": {
    "successful": false,
    "error_type": "AssertionError"
  },
  "61.py": {
    "successful": false,
    "error_type": "AssertionError"
  },
  "63.py": {
    "successful": false,
    "error_type": "AssertionError"
  },
  "65.py": {
    "successful": false,
    "error_type": "AssertionError"
  },
  "66.py": {
    "successful": false,
    "error_type": "AssertionError"
  },
  "68.py": {
    "successful": false,
    "error_type": "AssertionError"
  },
  "69.py": {
    "successful": false,
    "error_type": "AssertionError"
  },
  "70.py": {
    "successful": false,
    "error_type": "AssertionError"
  },
  "72.py": {
    "successful": false,
    "error_type": "AssertionError"
  },
  "74.py": {
    "successful": false,
    "error_type": "AssertionError"
  },
  "75.py": {
    "successful": false,
    "error_type": "AssertionError"
  },
  "76.py": {
    "successful": false,
    "error_type": "AssertionError"
  },
  "77.py": {
    "successful": false,
    "error_type": "AssertionError"
  },
  "79.py": {
    "successful": false,
    "error_type": "AssertionError"
  },
  "80.py": {
    "successful": false,
    "error_type": "AssertionError"
  },
  "81.py": {
    "successful": false,
    "error_type": "AssertionError"
  },
  "82.py": {
    "successful": false,
    "error_type": "AssertionError"
  },
  "83.py": {
    "successful": false,
    "error_type": "AssertionError"
  },
  "85.py": {
    "successful": false,
    "error_type": "AssertionError"
  },
  "86.py": {
    "successful": false,
    "error_type": "AssertionError"
  },
  "87.py": {
    "successful": false,
    "error_type": "AssertionError"
  },
  "88.py": {
    "successful": false,
    "error_type": "AssertionError"
  },
  "89.py": {
    "successful": false,
    "error_type": "AssertionError"
  },
  "93.py": {
    "successful": false,
    "error_type": "AssertionError"
  },
  "94.py": {
    "successful": false,
    "error_type": "AssertionError"
  },
  "96.py": {
    "successful": false,
    "error_type": "AssertionError"
  },
  "97.py": {
    "successful": false,
    "error_type": "AssertionError"
  },
  "101.py": {
    "successful": false,
    "error_type": "AssertionError"
  },
  "102.py": {
    "successful": false,
    "error_type": "AssertionError"
  },
  "103.py": {
    "successful": false,
    "error_type": "AssertionError"
  },
  "106.py": {
    "successful": false,
    "error_type": "TimeOut"
  },
  "107.py": {
    "successful": false,
    "error_type": "AssertionError"
  },
  "110.py": {
    "successful": false,
    "error_type": "AssertionError"
  },
  "111.py": {
    "successful": false,
    "error_type": "AssertionError"
  },
  "112.py": {
    "successful": false,
    "error_type": "AssertionError"
  },
  "113.py": {
    "successful": false,
    "error_type": "AssertionError"
  },
  "114.py": {
    "successful": false,
    "error_type": "AssertionError"
  },
  "116.py": {
    "successful": false,
    "error_type": "AssertionError"
  },
  "117.py": {
    "successful": false,
    "error_type": "AssertionError"
  },
  "122.py": {
    "successful": false,
    "error_type": "AssertionError"
  },
  "124.py": {
    "successful": false,
    "error_type": "AssertionError"
  },
  "125.py": {
    "successful": false,
    "error_type": "TimeOut"
  },
  "126.py": {
    "successful": false,
    "error_type": "AssertionError"
  },
  "128.py": {
    "successful": false,
    "error_type": "AssertionError"
  },
  "129.py": {
    "successful": false,
    "error_type": "AssertionError"
  },
  "131.py": {
    "successful": false,
    "error_type": "AssertionError"
  },
  "132.py": {
    "successful": false,
    "error_type": "AssertionError"
  },
  "133.py": {
    "successful": false,
    "error_type": "AssertionError"
  },
  "134.py": {
    "successful": false,
    "error_type": "AssertionError"
  },
  "135.py": {
    "successful": false,
    "error_type": "AssertionError"
  },
  "136.py": {
    "successful": false,
    "error_type": "AssertionError"
  },
  "141.py": {
    "successful": false,
    "error_type": "AssertionError"
  },
  "142.py": {
    "successful": false,
    "error_type": "AssertionError"
  },
  "143.py": {
    "successful": false,
    "error_type": "AssertionError"
  },
  "145.py": {
    "successful": false,
    "error_type": "AssertionError"
  },
  "150.py": {
    "successful": false,
    "error_type": "AssertionError"
  },
  "151.py": {
    "successful": false,
    "error_type": "AssertionError"
  },
  "152.py": {
    "successful": false,
    "error_type": "AssertionError"
  },
  "154.py": {
    "successful": false,
    "error_type": "SyntaxError",
    "error_message": "'return' outside function"
  },
  "156.py": {
    "successful": false,
    "error_type": "AssertionError"
  },
  "157.py": {
    "successful": false,
    "error_type": "AssertionError"
  },
  "158.py": {
    "successful": false,
    "error_type": "AssertionError"
  },
  "160.py": {
    "successful": false,
    "error_type": "AssertionError"
  },
  "161.py": {
    "successful": false,
    "error_type": "AssertionError"
  },
  "163.py": {
    "successful": false,
    "error_type": "AssertionError"
  },
  "164.py": {
    "successful": false,
    "error_type": "AssertionError"
  },
  "165.py": {
    "successful": false,
    "error_type": "AssertionError"
  },
  "167.py": {
    "successful": false,
    "error_type": "AssertionError"
  },
  "168.py": {
    "successful": false,
    "error_type": "AssertionError"
  },
  "170.py": {
    "successful": false,
    "error_type": "AssertionError"
  },
  "171.py": {
    "successful": false,
    "error_type": "AssertionError"
  },
  "178.py": {
    "successful": false,
    "error_type": "AssertionError"
  },
  "179.py": {
    "successful": false,
    "error_type": "AssertionError"
  },
  "180.py": {
    "successful": false,
    "error_type": "AssertionError"
  },
  "181.py": {
    "successful": false,
    "error_type": "AssertionError"
  },
  "182.py": {
    "successful": false,
    "error_type": "AssertionError"
  },
  "184.py": {
    "successful": false,
    "error_type": "AssertionError"
  },
  "191.py": {
    "successful": false,
    "error_type": "AssertionError"
  },
  "193.py": {
    "successful": false,
    "error_type": "AssertionError"
  },
  "194.py": {
    "successful": false,
    "error_type": "AssertionError"
  },
  "195.py": {
    "successful": false,
    "error_type": "AssertionError"
  },
  "196.py": {
    "successful": false,
    "error_type": "AssertionError"
  },
  "197.py": {
    "successful": false,
    "error_type": "AssertionError"
  },
  "199.py": {
    "successful": false,
    "error_type": "AssertionError"
  }
}